{
  "id": "namespace:master-data--ActivityTemplateArc:908c2239-bea8-59ec-a918-24b5994f6fa8",
  "kind": "osdu:wks:master-data--ActivityTemplateArc:1.0.0",
  "version": 1562066009929332,
  "acl": {
    "owners": [
      "someone@company.com"
    ],
    "viewers": [
      "someone@company.com"
    ]
  },
  "legal": {
    "legaltags": [
      "Example legaltags"
    ],
    "otherRelevantDataCountries": [
      "US"
    ],
    "status": "compliant"
  },
  "tags": {
    "NameOfKey": "String value"
  },
  "createTime": "2020-12-16T11:46:20.163Z",
  "createUser": "some-user@some-company-cloud.com",
  "modifyTime": "2020-12-16T11:52:24.477Z",
  "modifyUser": "some-user@some-company-cloud.com",
  "ancestry": {
    "parents": []
  },
  "meta": [],
  "data": {
    "Source": "Ian Adams, Shell",
    "ExistenceKind": "namespace:reference-data--ExistenceKind:Prototype:",
    "VersionCreationReason": "Example VersionCreationReason",
    "Name": "Connection between Seismic Processing and Depth Conversion",
    "OutputInputArcs": [
      {
        "ProducingActivityTemplateID": "namespace:master-data--ActivityTemplate:SeismicProcessing-9f807479-29bf-4b39-a2a1-c1d89826c5fa:",
        "ProducingParameterTitle": "Post-stack Seismic",
        "ConsumingActivityTemplateID": "namespace:master-data--ActivityTemplate:SeismicDepthConversion-161dccd5-aed8-4940-a4f3-7cfa2e5c76fb:",
        "ConsumingParameterTitle": "Seismic Data Time Domain"
      },
      {
        "ProducingActivityTemplateID": "namespace:master-data--ActivityTemplate:SeismicProcessing-9f807479-29bf-4b39-a2a1-c1d89826c5fa:",
        "ProducingParameterTitle": "Velocity Volume",
        "ConsumingActivityTemplateID": "namespace:master-data--ActivityTemplate:SeismicDepthConversion-161dccd5-aed8-4940-a4f3-7cfa2e5c76fb:",
        "ConsumingParameterTitle": "Velocity Volume"
      }
    ],
    "ActivityArcs": [
      {
        "PrecedingActivityTemplateID": "namespace:master-data--ActivityTemplate:SeismicProcessing-9f807479-29bf-4b39-a2a1-c1d89826c5fa:",
        "SucceedingActivityTemplateID": "namespace:master-data--ActivityTemplate:SeismicDepthConversion-161dccd5-aed8-4940-a4f3-7cfa2e5c76fb:"
      }
    ],
    "ExtensionProperties": {}
  }
}