@startuml
hide methods
skinparam groupInheritance 2
skinparam class {
    ArrowColor Black
    BorderColor Black
    BackgroundColor<<master-data>> LightSalmon
    BackgroundColor<<work-product-component>> Gold
    BackgroundColor<<abstract>> LightSteelBlue
    BackgroundColor<<dataset>> Ivory
    BackgroundColor<<reference-data>> Turquoise
    BackgroundColor<<Abstraction>> LightSkyBlue
    BackgroundColor<<error>> Red
    BackgroundColor<<Activity>> LightSkyBlue
    BackgroundColor<<ReferenceType>> LightSkyBlue
    BackgroundColor<<WorkProductComponent>> LightSkyBlue
    BackgroundColor<<Project>> LightSkyBlue
    BackgroundColor<<File>> LightSkyBlue
    BackgroundColor<<FileCollection>> LightSkyBlue
    BackgroundColor<<MasterData>> LightSkyBlue
    BackgroundColor<<nested array>> WhiteSmoke
    BackgroundColor<<nested>> WhiteSmoke
    packageStyle rectangle
}
package "AbstractProject Outgoing Relationships View" <<rectangle>>
{
abstract "<size:16>AbstractProject</size>" as AbstractProject <<Abstraction>>
class "Agreement" <<master-data>>
"AbstractProject" --> "*" "Agreement" : "ContractIDs[]"
class "Organisation" <<master-data>>
abstract "Contractors[]" <<nested array>>
"AbstractProject" *-- "*" "Contractors[]"
"Contractors[]" --> "1" "Organisation" : "ContractorOrganisationID"
"AbstractProject" --> "1" "Organisation" : "Operator"
abstract "Personnel[]" <<nested array>>
"AbstractProject" *-- "*" "Personnel[]"
"Personnel[]" --> "1" "Organisation" : "CompanyOrganisationID"
abstract "ProjectNames[]" <<nested array>>
"AbstractProject" *-- "*" "ProjectNames[]"
"ProjectNames[]" --> "1" "Organisation" : "DefinitionOrganisationID"

class "Reference Data Relationships" <<reference-data>> {
==
"data.Contractors[].ContractorTypeID" → ContractorType
==
"data.FundsAuthorizations[].CurrencyID" → Currency
==
"data.Personnel[].ProjectRoleID" → ProjectRole
==
"data.ProjectNames[].AliasNameTypeID" → AliasNameType
"data.ProjectNames[].DefinitionOrganisationID" → StandardsOrganisation
==
"data.ProjectSpecifications[].ParameterTypeID" → ParameterType
"data.ProjectSpecifications[].UnitOfMeasureID" → UnitOfMeasure
==
"data.ProjectStates[].ProjectStateTypeID" → ProjectStateType
}
"AbstractProject" .up.> "Reference Data Relationships"
}
@enduml