@startuml
hide methods
skinparam groupInheritance 2
skinparam class {
    ArrowColor Black
    BorderColor Black
    BackgroundColor<<master-data>> LightSalmon
    BackgroundColor<<work-product-component>> Gold
    BackgroundColor<<abstract>> LightSteelBlue
    BackgroundColor<<dataset>> Ivory
    BackgroundColor<<reference-data>> Turquoise
    BackgroundColor<<Abstraction>> LightSkyBlue
    BackgroundColor<<error>> Red
    BackgroundColor<<Activity>> LightSkyBlue
    BackgroundColor<<ReferenceType>> LightSkyBlue
    BackgroundColor<<WorkProductComponent>> LightSkyBlue
    BackgroundColor<<Project>> LightSkyBlue
    BackgroundColor<<File>> LightSkyBlue
    BackgroundColor<<FileCollection>> LightSkyBlue
    BackgroundColor<<MasterData>> LightSkyBlue
    BackgroundColor<<nested array>> WhiteSmoke
    BackgroundColor<<nested>> WhiteSmoke
    packageStyle rectangle
}
package "AbstractWPCGroupType Outgoing Relationships View" <<rectangle>>
{
abstract "<size:16>AbstractWPCGroupType</size>" as AbstractWPCGroupType <<Abstraction>>
class "AnyDataset" <<dataset>>
abstract "Artefacts[]" <<nested array>>
"AbstractWPCGroupType" *-- "*" "Artefacts[]"
"Artefacts[]" --> "1" "AnyDataset" : "ResourceID"
"AbstractWPCGroupType" --> "*" "AnyDataset" : "Datasets[]"
class "Organisation" <<master-data>>
abstract "TechnicalAssurances[]" <<nested array>>
"AbstractWPCGroupType" *-- "*" "TechnicalAssurances[]"
abstract "Reviewers[]" <<nested array>>
"TechnicalAssurances[]" *-- "*" "Reviewers[]"
"Reviewers[]" --> "1" "Organisation" : "OrganisationID"

class "Reference Data Relationships" <<reference-data>> {
==
"data.Artefacts[].RoleID" → ArtefactRole
==
"data.TechnicalAssurances[].AcceptableUsage[].WorkflowPersona" → WorkflowPersonaType
"data.TechnicalAssurances[].AcceptableUsage[].WorkflowUsage" → WorkflowUsageType
==
"data.TechnicalAssurances[].Reviewers[].RoleTypeID" → ContactRoleType
==
"data.TechnicalAssurances[].TechnicalAssuranceTypeID" → TechnicalAssuranceType
==
"data.TechnicalAssurances[].UnacceptableUsage[].WorkflowPersona" → WorkflowPersonaType
"data.TechnicalAssurances[].UnacceptableUsage[].WorkflowUsage" → WorkflowUsageType
}
"AbstractWPCGroupType" .up.> "Reference Data Relationships"
}
@enduml