@startuml
hide methods
skinparam groupInheritance 2
skinparam class {
    ArrowColor Black
    BorderColor Black
    BackgroundColor<<master-data>> LightSalmon
    BackgroundColor<<work-product-component>> Gold
    BackgroundColor<<abstract>> LightSteelBlue
    BackgroundColor<<dataset>> Ivory
    BackgroundColor<<reference-data>> Turquoise
    BackgroundColor<<Abstraction>> LightSkyBlue
    BackgroundColor<<error>> Red
    BackgroundColor<<Activity>> LightSkyBlue
    BackgroundColor<<ReferenceType>> LightSkyBlue
    BackgroundColor<<WorkProductComponent>> LightSkyBlue
    BackgroundColor<<Project>> LightSkyBlue
    BackgroundColor<<File>> LightSkyBlue
    BackgroundColor<<FileCollection>> LightSkyBlue
    BackgroundColor<<MasterData>> LightSkyBlue
    BackgroundColor<<nested array>> WhiteSmoke
    BackgroundColor<<nested>> WhiteSmoke
    packageStyle rectangle
}
package "AbstractGeoPoliticalContext Outgoing Relationships View" <<rectangle>>
{
abstract "<size:16>AbstractGeoPoliticalContext</size>" as AbstractGeoPoliticalContext <<abstract>>
class "GeoPoliticalEntity" <<master-data>>
"AbstractGeoPoliticalContext" --> "1" "GeoPoliticalEntity" : "GeoPoliticalEntityID"

class "Reference Data Relationships" <<reference-data>> {
==
"data.GeoTypeID" → GeoPoliticalEntityType
}
"AbstractGeoPoliticalContext" .up.> "Reference Data Relationships"
}
@enduml