@startuml
hide methods
skinparam groupInheritance 2
skinparam class {
    ArrowColor Black
    BorderColor Black
    BackgroundColor<<master-data>> LightSalmon
    BackgroundColor<<work-product-component>> Gold
    BackgroundColor<<abstract>> LightSteelBlue
    BackgroundColor<<dataset>> Ivory
    BackgroundColor<<reference-data>> Turquoise
    BackgroundColor<<Abstraction>> LightSkyBlue
    BackgroundColor<<error>> Red
    BackgroundColor<<Activity>> LightSkyBlue
    BackgroundColor<<ReferenceType>> LightSkyBlue
    BackgroundColor<<WorkProductComponent>> LightSkyBlue
    BackgroundColor<<Project>> LightSkyBlue
    BackgroundColor<<File>> LightSkyBlue
    BackgroundColor<<FileCollection>> LightSkyBlue
    BackgroundColor<<MasterData>> LightSkyBlue
    BackgroundColor<<nested array>> WhiteSmoke
    BackgroundColor<<nested>> WhiteSmoke
    packageStyle rectangle
}
package "BHARun Outgoing Relationships View" <<rectangle>>
{
class "<size:36>BHARun</size>" as BHARun <<master-data>>
class "Agreement" <<master-data>>
"BHARun" --> "*" "Agreement" : "ContractIDs[]"
class "Basin" <<master-data>>
abstract "GeoContexts[]" <<nested array>>
"BHARun" *-- "*" "GeoContexts[]"
"GeoContexts[]" --> "1" "Basin" : "BasinID"
class "Field" <<master-data>>
"GeoContexts[]" --> "1" "Field" : "FieldID"
class "GeoPoliticalEntity" <<master-data>>
"GeoContexts[]" --> "1" "GeoPoliticalEntity" : "GeoPoliticalEntityID"
class "HoleSection" <<master-data>>
"BHARun" --> "1" "HoleSection" : "HoleSectionID"
class "Organisation" <<master-data>>
abstract "Contractors[]" <<nested array>>
"BHARun" *-- "*" "Contractors[]"
"Contractors[]" --> "1" "Organisation" : "ContractorOrganisationID"
abstract "NameAliases[]" <<nested array>>
"BHARun" *-- "*" "NameAliases[]"
"NameAliases[]" --> "1" "Organisation" : "DefinitionOrganisationID"
"BHARun" --> "1" "Organisation" : "Operator"
abstract "Personnel[]" <<nested array>>
"BHARun" *-- "*" "Personnel[]"
"Personnel[]" --> "1" "Organisation" : "CompanyOrganisationID"
class "Play" <<master-data>>
"GeoContexts[]" --> "1" "Play" : "PlayID"
class "Prospect" <<master-data>>
"GeoContexts[]" --> "1" "Prospect" : "ProspectID"
class "Wellbore" <<master-data>>
"BHARun" --> "1" "Wellbore" : "WellboreID"
class "TubularAssembly" <<work-product-component>>
"BHARun" --> "1" "TubularAssembly" : "TubularID"

class "Reference Data Relationships" <<reference-data>> {
==
"data.Contractors[].ContractorTypeID" → ContractorType
==
"data.DrillingParams[].MudClass" → MudClass
==
"data.FundsAuthorizations[].CurrencyID" → Currency
==
"data.GeoContexts[].GeoTypeID" → BasinType
"data.GeoContexts[].GeoTypeID" → GeoPoliticalEntityType
"data.GeoContexts[].GeoTypeID" → PlayType
"data.GeoContexts[].GeoTypeID" → ProspectType
==
"data.NameAliases[].AliasNameTypeID" → AliasNameType
"data.NameAliases[].DefinitionOrganisationID" → StandardsOrganisation
==
"data.Personnel[].ProjectRoleID" → ProjectRole
==
"data.ProjectSpecifications[].ParameterTypeID" → ParameterType
"data.ProjectSpecifications[].UnitOfMeasureID" → UnitOfMeasure
==
"data.ProjectStates[].ProjectStateTypeID" → ProjectStateType
==
"data.RunParameterPlans[].OperationParameterPlan.FlowratePumpGroup.MaximumFlowratePump.Point[].PointsSources[].ValueUnitID" → UnitOfMeasure
==
"data.RunParameterPlans[].OperationParameterPlan.FlowratePumpGroup.MaximumFlowratePump.Point[].ValueUnitID" → UnitOfMeasure
==
"data.RunParameterPlans[].OperationParameterPlan.FlowratePumpGroup.MinimumFlowratePump.Point[].PointsSources[].ValueUnitID" → UnitOfMeasure
==
"data.RunParameterPlans[].OperationParameterPlan.FlowratePumpGroup.MinimumFlowratePump.Point[].ValueUnitID" → UnitOfMeasure
==
"data.RunParameterPlans[].OperationParameterPlan.FlowratePumpGroup.RecommendedFlowratePump.Point[].PointsSources[].ValueUnitID" → UnitOfMeasure
==
"data.RunParameterPlans[].OperationParameterPlan.FlowratePumpGroup.RecommendedFlowratePump.Point[].ValueUnitID" → UnitOfMeasure
==
"data.RunParameterPlans[].OperationParameterPlan.ROPGroup.MaximumROP.Point[].PointsSources[].ValueUnitID" → UnitOfMeasure
==
"data.RunParameterPlans[].OperationParameterPlan.ROPGroup.MaximumROP.Point[].ValueUnitID" → UnitOfMeasure
==
"data.RunParameterPlans[].OperationParameterPlan.ROPGroup.MinimumROP.Point[].PointsSources[].ValueUnitID" → UnitOfMeasure
==
"data.RunParameterPlans[].OperationParameterPlan.ROPGroup.MinimumROP.Point[].ValueUnitID" → UnitOfMeasure
==
"data.RunParameterPlans[].OperationParameterPlan.ROPGroup.RecommendedROP.Point[].PointsSources[].ValueUnitID" → UnitOfMeasure
==
"data.RunParameterPlans[].OperationParameterPlan.ROPGroup.RecommendedROP.Point[].ValueUnitID" → UnitOfMeasure
==
"data.RunParameterPlans[].OperationParameterPlan.RPMGroup.DownHoleMaximumRPM.Point[].PointsSources[].ValueUnitID" → UnitOfMeasure
==
"data.RunParameterPlans[].OperationParameterPlan.RPMGroup.DownHoleMaximumRPM.Point[].ValueUnitID" → UnitOfMeasure
==
"data.RunParameterPlans[].OperationParameterPlan.RPMGroup.DownHoleMinimumRPM.Point[].PointsSources[].ValueUnitID" → UnitOfMeasure
==
"data.RunParameterPlans[].OperationParameterPlan.RPMGroup.DownHoleMinimumRPM.Point[].ValueUnitID" → UnitOfMeasure
==
"data.RunParameterPlans[].OperationParameterPlan.RPMGroup.DownHoleRecommendedRPM.Point[].PointsSources[].ValueUnitID" → UnitOfMeasure
==
"data.RunParameterPlans[].OperationParameterPlan.RPMGroup.DownHoleRecommendedRPM.Point[].ValueUnitID" → UnitOfMeasure
==
"data.RunParameterPlans[].OperationParameterPlan.RPMGroup.MaximumRPM.Point[].PointsSources[].ValueUnitID" → UnitOfMeasure
==
"data.RunParameterPlans[].OperationParameterPlan.RPMGroup.MaximumRPM.Point[].ValueUnitID" → UnitOfMeasure
==
"data.RunParameterPlans[].OperationParameterPlan.RPMGroup.MinimumRPM.Point[].PointsSources[].ValueUnitID" → UnitOfMeasure
==
"data.RunParameterPlans[].OperationParameterPlan.RPMGroup.MinimumRPM.Point[].ValueUnitID" → UnitOfMeasure
==
"data.RunParameterPlans[].OperationParameterPlan.RPMGroup.RecommendedRPM.Point[].PointsSources[].ValueUnitID" → UnitOfMeasure
==
"data.RunParameterPlans[].OperationParameterPlan.RPMGroup.RecommendedRPM.Point[].ValueUnitID" → UnitOfMeasure
==
"data.RunParameterPlans[].OperationParameterPlan.TorqueOnBottomGroup.MaximumTorqueOnBottom.Point[].PointsSources[].ValueUnitID" → UnitOfMeasure
==
"data.RunParameterPlans[].OperationParameterPlan.TorqueOnBottomGroup.MaximumTorqueOnBottom.Point[].ValueUnitID" → UnitOfMeasure
==
"data.RunParameterPlans[].OperationParameterPlan.TorqueOnBottomGroup.MinimumTorqueOnBottom.Point[].PointsSources[].ValueUnitID" → UnitOfMeasure
==
"data.RunParameterPlans[].OperationParameterPlan.TorqueOnBottomGroup.MinimumTorqueOnBottom.Point[].ValueUnitID" → UnitOfMeasure
==
"data.RunParameterPlans[].OperationParameterPlan.WOBGroup.MaximumWOB.Point[].PointsSources[].ValueUnitID" → UnitOfMeasure
==
"data.RunParameterPlans[].OperationParameterPlan.WOBGroup.MaximumWOB.Point[].ValueUnitID" → UnitOfMeasure
==
"data.RunParameterPlans[].OperationParameterPlan.WOBGroup.MinimumWOB.Point[].PointsSources[].ValueUnitID" → UnitOfMeasure
==
"data.RunParameterPlans[].OperationParameterPlan.WOBGroup.MinimumWOB.Point[].ValueUnitID" → UnitOfMeasure
==
"data.RunParameterPlans[].OperationParameterPlan.WOBGroup.RecommendedWOB.Point[].PointsSources[].ValueUnitID" → UnitOfMeasure
==
"data.RunParameterPlans[].OperationParameterPlan.WOBGroup.RecommendedWOB.Point[].ValueUnitID" → UnitOfMeasure
==
"data.SpatialLocation.AsIngestedCoordinates.CoordinateReferenceSystemID" → CoordinateReferenceSystem
"data.SpatialLocation.AsIngestedCoordinates.VerticalCoordinateReferenceSystemID" → CoordinateReferenceSystem
"data.SpatialLocation.AsIngestedCoordinates.VerticalUnitID" → UnitOfMeasure
==
"data.SpatialLocation.QualitativeSpatialAccuracyTypeID" → QualitativeSpatialAccuracyType
"data.SpatialLocation.QuantitativeAccuracyBandID" → QuantitativeAccuracyBand
"data.SpatialLocation.SpatialGeometryTypeID" → SpatialGeometryType
"data.SpatialLocation.SpatialParameterTypeID" → SpatialParameterType
==
"data.StatusBhaID" → BhaStatus
"data.TechnicalAssuranceTypeID" → TechnicalAssuranceType
"data.TripReasonID" → ReasonTripType
}
"BHARun" .up.> "Reference Data Relationships"
abstract "AbstractMaster" <<Abstraction>>
"BHARun" -right-|>  "AbstractMaster"
abstract "AbstractProject" <<Abstraction>>
"BHARun" -right-|>  "AbstractProject"
}
@enduml