@startuml
hide methods
skinparam groupInheritance 2
skinparam class {
    ArrowColor Black
    BorderColor Black
    BackgroundColor<<master-data>> LightSalmon
    BackgroundColor<<work-product-component>> Gold
    BackgroundColor<<abstract>> LightSteelBlue
    BackgroundColor<<dataset>> Ivory
    BackgroundColor<<reference-data>> Turquoise
    BackgroundColor<<Abstraction>> LightSkyBlue
    BackgroundColor<<error>> Red
    BackgroundColor<<Activity>> LightSkyBlue
    BackgroundColor<<ReferenceType>> LightSkyBlue
    BackgroundColor<<WorkProductComponent>> LightSkyBlue
    BackgroundColor<<Project>> LightSkyBlue
    BackgroundColor<<File>> LightSkyBlue
    BackgroundColor<<FileCollection>> LightSkyBlue
    BackgroundColor<<MasterData>> LightSkyBlue
    BackgroundColor<<nested array>> WhiteSmoke
    BackgroundColor<<nested>> WhiteSmoke
    packageStyle rectangle
}
package "BoundaryFeature Referenced-by View" <<rectangle>>
{
class "<size:16>BoundaryFeature</size>" as BoundaryFeature <<master-data>>
left to right direction
class "BoundaryFeature" <<master-data>>
package "abstract Entities" as Abstract <<frame>>
{
abstract "AbstractInterpretation" <<abstract>> {
AquiferInterpretation  →  FeatureID
EarthModelInterpretation  →  FeatureID
FaultInterpretation  →  FeatureID
FluidBoundaryInterpretation  →  FeatureID
GeobodyBoundaryInterpretation  →  FeatureID
GeobodyInterpretation  →  FeatureID
GeologicUnitOccurrenceInterpretation  →  FeatureID
HorizonInterpretation  →  FeatureID
ReservoirCompartmentInterpretation  →  FeatureID
RockFluidOrganizationInterpretation  →  FeatureID
RockFluidUnitInterpretation  →  FeatureID
StratigraphicColumnRankInterpretation  →  FeatureID
StratigraphicUnitInterpretation  →  FeatureID
StructuralOrganizationInterpretation  →  FeatureID
VoidageGroupInterpretation  →  FeatureID
}
}
package "work-product-component Entities" as WorkProductComponent <<frame>>
{
class "FluidBoundaryInterpretation" <<work-product-component>> {
FeatureID
}
class "LocalBoundaryFeature" <<work-product-component>> {
BoundaryFeatureID
}
}
"Abstract" -->  "BoundaryFeature"
"WorkProductComponent" -->  "BoundaryFeature"
abstract "AbstractMaster" <<Abstraction>>
"BoundaryFeature" -right-|>  "AbstractMaster"
}
@enduml