@startuml
hide methods
skinparam groupInheritance 2
skinparam class {
    ArrowColor Black
    BorderColor Black
    BackgroundColor<<master-data>> LightSalmon
    BackgroundColor<<work-product-component>> Gold
    BackgroundColor<<abstract>> LightSteelBlue
    BackgroundColor<<dataset>> Ivory
    BackgroundColor<<reference-data>> Turquoise
    BackgroundColor<<Abstraction>> LightSkyBlue
    BackgroundColor<<error>> Red
    BackgroundColor<<Activity>> LightSkyBlue
    BackgroundColor<<ReferenceType>> LightSkyBlue
    BackgroundColor<<WorkProductComponent>> LightSkyBlue
    BackgroundColor<<Project>> LightSkyBlue
    BackgroundColor<<File>> LightSkyBlue
    BackgroundColor<<FileCollection>> LightSkyBlue
    BackgroundColor<<MasterData>> LightSkyBlue
    BackgroundColor<<nested array>> WhiteSmoke
    BackgroundColor<<nested>> WhiteSmoke
    packageStyle rectangle
}
package "ConnectedSourceDataJob Referenced-by View" <<rectangle>>
{
class "<size:16>ConnectedSourceDataJob</size>" as ConnectedSourceDataJob <<master-data>>
left to right direction
class "ConnectedSourceDataJob" <<master-data>>
package "dataset Entities" as Dataset <<frame>>
{
class "ConnectedSource·Generic" <<dataset>> {
ConnectedSourceDataJobID
}
}
"Dataset" -->  "ConnectedSourceDataJob" 
abstract "AbstractMaster" <<Abstraction>>
"ConnectedSourceDataJob" -right-|>  "AbstractMaster"
}
@enduml