@startuml
hide methods
skinparam groupInheritance 2
skinparam class {
    ArrowColor Black
    BorderColor Black
    BackgroundColor<<master-data>> LightSalmon
    BackgroundColor<<work-product-component>> Gold
    BackgroundColor<<abstract>> LightSteelBlue
    BackgroundColor<<dataset>> Ivory
    BackgroundColor<<reference-data>> Turquoise
    BackgroundColor<<Abstraction>> LightSkyBlue
    BackgroundColor<<error>> Red
    BackgroundColor<<Activity>> LightSkyBlue
    BackgroundColor<<ReferenceType>> LightSkyBlue
    BackgroundColor<<WorkProductComponent>> LightSkyBlue
    BackgroundColor<<Project>> LightSkyBlue
    BackgroundColor<<File>> LightSkyBlue
    BackgroundColor<<FileCollection>> LightSkyBlue
    BackgroundColor<<MasterData>> LightSkyBlue
    BackgroundColor<<nested array>> WhiteSmoke
    BackgroundColor<<nested>> WhiteSmoke
    packageStyle rectangle
}
package "FluidsReport Referenced-by View" <<rectangle>>
{
class "<size:16>FluidsReport</size>" as FluidsReport <<master-data>>
left to right direction
class "FluidsReport" <<master-data>>
package "master-data Entities" as MasterData <<frame>>
{
class "OperationsReport" <<master-data>> {
FluidsIDs[]
}
}
"MasterData" -->  "FluidsReport" 
abstract "AbstractMaster" <<Abstraction>>
"FluidsReport" -right-|>  "AbstractMaster"
}
@enduml