@startuml
hide methods
skinparam groupInheritance 2
skinparam class {
    ArrowColor Black
    BorderColor Black
    BackgroundColor<<master-data>> LightSalmon
    BackgroundColor<<work-product-component>> Gold
    BackgroundColor<<abstract>> LightSteelBlue
    BackgroundColor<<dataset>> Ivory
    BackgroundColor<<reference-data>> Turquoise
    BackgroundColor<<Abstraction>> LightSkyBlue
    BackgroundColor<<error>> Red
    BackgroundColor<<Activity>> LightSkyBlue
    BackgroundColor<<ReferenceType>> LightSkyBlue
    BackgroundColor<<WorkProductComponent>> LightSkyBlue
    BackgroundColor<<Project>> LightSkyBlue
    BackgroundColor<<File>> LightSkyBlue
    BackgroundColor<<FileCollection>> LightSkyBlue
    BackgroundColor<<MasterData>> LightSkyBlue
    BackgroundColor<<nested array>> WhiteSmoke
    BackgroundColor<<nested>> WhiteSmoke
    packageStyle rectangle
}
package "OperationsReport Referenced-by View" <<rectangle>>
{
class "<size:16>OperationsReport</size>" as OperationsReport <<master-data>>
left to right direction
class "OperationsReport" <<master-data>>
package "work-product-component Entities" as WorkProductComponent <<frame>>
{
class "FormationIntegrityTest" <<work-product-component>> {
OperationsReportID
}
}
"WorkProductComponent" -->  "OperationsReport"
abstract "AbstractMaster" <<Abstraction>>
"OperationsReport" -right-|>  "AbstractMaster"
}
@enduml