@startuml
hide methods
skinparam groupInheritance 2
skinparam class {
    ArrowColor Black
    BorderColor Black
    BackgroundColor<<master-data>> LightSalmon
    BackgroundColor<<work-product-component>> Gold
    BackgroundColor<<abstract>> LightSteelBlue
    BackgroundColor<<dataset>> Ivory
    BackgroundColor<<reference-data>> Turquoise
    BackgroundColor<<Abstraction>> LightSkyBlue
    BackgroundColor<<error>> Red
    BackgroundColor<<Activity>> LightSkyBlue
    BackgroundColor<<ReferenceType>> LightSkyBlue
    BackgroundColor<<WorkProductComponent>> LightSkyBlue
    BackgroundColor<<Project>> LightSkyBlue
    BackgroundColor<<File>> LightSkyBlue
    BackgroundColor<<FileCollection>> LightSkyBlue
    BackgroundColor<<MasterData>> LightSkyBlue
    BackgroundColor<<nested array>> WhiteSmoke
    BackgroundColor<<nested>> WhiteSmoke
    packageStyle rectangle
}
package "Organisation Referenced-by View" <<rectangle>>
{
class "<size:48>Organisation</size>" as Organisation <<master-data>>
left to right direction
class "Organisation" <<master-data>>
package "abstract Entities" as Abstract <<frame>>
{
abstract "AbstractContact" <<abstract>> {
OperationsReport  →  JobContact[].OrganisationID
Risk  →  Mitigations[].Responsibles[].OrganisationID
Risk  →  Preventions[].Responsibles[].OrganisationID
Risk  →  RiskResponsibles[].OrganisationID
}
abstract "AbstractFacility" <<abstract>> {
IsolatedInterval  →  CurrentOperatorID
IsolatedInterval  →  DataSourceOrganisationID
IsolatedInterval  →  FacilityOperators[].FacilityOperatorOrganisationID
IsolatedInterval  →  InitialOperatorID
Rig  →  CurrentOperatorID
Rig  →  DataSourceOrganisationID
Rig  →  FacilityOperators[].FacilityOperatorOrganisationID
Rig  →  InitialOperatorID
StorageFacility  →  CurrentOperatorID
StorageFacility  →  DataSourceOrganisationID
StorageFacility  →  FacilityOperators[].FacilityOperatorOrganisationID
StorageFacility  →  InitialOperatorID
Well  →  CurrentOperatorID
Well  →  DataSourceOrganisationID
Well  →  FacilityOperators[].FacilityOperatorOrganisationID
Well  →  InitialOperatorID
Wellbore  →  CurrentOperatorID
Wellbore  →  DataSourceOrganisationID
Wellbore  →  FacilityOperators[].FacilityOperatorOrganisationID
Wellbore  →  InitialOperatorID
}
abstract "AbstractMaster" <<Abstraction>> {
ActivityPlan  →  NameAliases[].DefinitionOrganisationID
ActivityTemplate  →  NameAliases[].DefinitionOrganisationID
ActivityTemplateArc  →  NameAliases[].DefinitionOrganisationID
Agreement  →  NameAliases[].DefinitionOrganisationID
BHARun  →  NameAliases[].DefinitionOrganisationID
Basin  →  NameAliases[].DefinitionOrganisationID
BoundaryFeature  →  NameAliases[].DefinitionOrganisationID
CasingDesign  →  NameAliases[].DefinitionOrganisationID
ConnectedSourceDataJob  →  NameAliases[].DefinitionOrganisationID
ConnectedSourceRegistryEntry  →  NameAliases[].DefinitionOrganisationID
Coring  →  NameAliases[].DefinitionOrganisationID
EvaluationPlan  →  NameAliases[].DefinitionOrganisationID
Field  →  NameAliases[].DefinitionOrganisationID
FluidsProgram  →  NameAliases[].DefinitionOrganisationID
FluidsReport  →  NameAliases[].DefinitionOrganisationID
GeoPoliticalEntity  →  NameAliases[].DefinitionOrganisationID
GeometricTargetSet  →  NameAliases[].DefinitionOrganisationID
HoleSection  →  NameAliases[].DefinitionOrganisationID
IsolatedInterval  →  NameAliases[].DefinitionOrganisationID
ModelFeature  →  NameAliases[].DefinitionOrganisationID
OperationsReport  →  NameAliases[].DefinitionOrganisationID
Organisation  →  NameAliases[].DefinitionOrganisationID
PerforationInterval  →  NameAliases[].DefinitionOrganisationID
PerforationJob  →  NameAliases[].DefinitionOrganisationID
PlannedCementJob  →  NameAliases[].DefinitionOrganisationID
Play  →  NameAliases[].DefinitionOrganisationID
Prospect  →  NameAliases[].DefinitionOrganisationID
ReferenceLevel  →  NameAliases[].DefinitionOrganisationID
Reservoir  →  NameAliases[].DefinitionOrganisationID
ReservoirSegment  →  NameAliases[].DefinitionOrganisationID
Rig  →  NameAliases[].DefinitionOrganisationID
RigUtilization  →  NameAliases[].DefinitionOrganisationID
Risk  →  NameAliases[].DefinitionOrganisationID
RockSample  →  NameAliases[].DefinitionOrganisationID
RockVolumeFeature  →  NameAliases[].DefinitionOrganisationID
Seismic2DInterpretationSet  →  NameAliases[].DefinitionOrganisationID
Seismic3DInterpretationSet  →  NameAliases[].DefinitionOrganisationID
SeismicAcquisitionSurvey  →  NameAliases[].DefinitionOrganisationID
SeismicProcessingProject  →  NameAliases[].DefinitionOrganisationID
StorageFacility  →  NameAliases[].DefinitionOrganisationID
SurveyProgram  →  NameAliases[].DefinitionOrganisationID
Well  →  NameAliases[].DefinitionOrganisationID
WellActivity  →  NameAliases[].DefinitionOrganisationID
WellActivityProgram  →  NameAliases[].DefinitionOrganisationID
WellBarrierElementTest  →  NameAliases[].DefinitionOrganisationID
Wellbore  →  NameAliases[].DefinitionOrganisationID
WellboreArchitecture  →  NameAliases[].DefinitionOrganisationID
WellboreOpening  →  NameAliases[].DefinitionOrganisationID
}
abstract "AbstractProject" <<Abstraction>> {
ActivityPlan  →  Contractors[].ContractorOrganisationID
ActivityPlan  →  Operator
ActivityPlan  →  Personnel[].CompanyOrganisationID
BHARun  →  Contractors[].ContractorOrganisationID
BHARun  →  Operator
BHARun  →  Personnel[].CompanyOrganisationID
EvaluationPlan  →  Contractors[].ContractorOrganisationID
EvaluationPlan  →  Operator
EvaluationPlan  →  Personnel[].CompanyOrganisationID
RigUtilization  →  Contractors[].ContractorOrganisationID
RigUtilization  →  Operator
RigUtilization  →  Personnel[].CompanyOrganisationID
Seismic2DInterpretationSet  →  Contractors[].ContractorOrganisationID
Seismic2DInterpretationSet  →  Operator
Seismic2DInterpretationSet  →  Personnel[].CompanyOrganisationID
Seismic3DInterpretationSet  →  Contractors[].ContractorOrganisationID
Seismic3DInterpretationSet  →  Operator
Seismic3DInterpretationSet  →  Personnel[].CompanyOrganisationID
SeismicAcquisitionSurvey  →  Contractors[].ContractorOrganisationID
SeismicAcquisitionSurvey  →  Operator
SeismicAcquisitionSurvey  →  Personnel[].CompanyOrganisationID
SeismicProcessingProject  →  Contractors[].ContractorOrganisationID
SeismicProcessingProject  →  Operator
SeismicProcessingProject  →  Personnel[].CompanyOrganisationID
SurveyProgram  →  Contractors[].ContractorOrganisationID
SurveyProgram  →  Operator
SurveyProgram  →  Personnel[].CompanyOrganisationID
WellActivity  →  Contractors[].ContractorOrganisationID
WellActivity  →  Operator
WellActivity  →  Personnel[].CompanyOrganisationID
WellActivityProgram  →  Contractors[].ContractorOrganisationID
WellActivityProgram  →  Operator
WellActivityProgram  →  Personnel[].CompanyOrganisationID
WellBarrierElementTest  →  Contractors[].ContractorOrganisationID
WellBarrierElementTest  →  Operator
WellBarrierElementTest  →  Personnel[].CompanyOrganisationID
}
abstract "AbstractReferenceType" <<Abstraction>> {
ActivityCode  →  NameAlias[].DefinitionOrganisationID
ActivityLevel  →  NameAlias[].DefinitionOrganisationID
ActivityOutcome  →  NameAlias[].DefinitionOrganisationID
ActivityOutcomeDetail  →  NameAlias[].DefinitionOrganisationID
ActivityStatus  →  NameAlias[].DefinitionOrganisationID
ActivityType  →  NameAlias[].DefinitionOrganisationID
AdditiveRole  →  NameAlias[].DefinitionOrganisationID
AdditiveType  →  NameAlias[].DefinitionOrganisationID
AgreementType  →  NameAlias[].DefinitionOrganisationID
AliasNameType  →  NameAlias[].DefinitionOrganisationID
AliasNameTypeClass  →  NameAlias[].DefinitionOrganisationID
AnisotropyType  →  NameAlias[].DefinitionOrganisationID
AnnularFluidType  →  NameAlias[].DefinitionOrganisationID
ArtefactRole  →  NameAlias[].DefinitionOrganisationID
ArtificialLiftType  →  NameAlias[].DefinitionOrganisationID
AzimuthReferenceType  →  NameAlias[].DefinitionOrganisationID
BasinType  →  NameAlias[].DefinitionOrganisationID
BhaStatus  →  NameAlias[].DefinitionOrganisationID
BinGridDefinitionMethodType  →  NameAlias[].DefinitionOrganisationID
BitDullCode  →  NameAlias[].DefinitionOrganisationID
BitReasonPulled  →  NameAlias[].DefinitionOrganisationID
BitType  →  NameAlias[].DefinitionOrganisationID
BottomHolePressureType  →  NameAlias[].DefinitionOrganisationID
BoundaryRelationType  →  NameAlias[].DefinitionOrganisationID
CalculationMethodType  →  NameAlias[].DefinitionOrganisationID
CatalogMapStateType  →  NameAlias[].DefinitionOrganisationID
CellShapeType  →  NameAlias[].DefinitionOrganisationID
CementJobType  →  NameAlias[].DefinitionOrganisationID
ChronoStratigraphy  →  NameAlias[].DefinitionOrganisationID
CollectionPurpose  →  NameAlias[].DefinitionOrganisationID
ColumnBasedTableType  →  NameAlias[].DefinitionOrganisationID
ColumnShapeType  →  NameAlias[].DefinitionOrganisationID
CompressionMethodType  →  NameAlias[].DefinitionOrganisationID
ContactRoleType  →  NameAlias[].DefinitionOrganisationID
ContractorType  →  NameAlias[].DefinitionOrganisationID
ConventionalCoreType  →  NameAlias[].DefinitionOrganisationID
CoordinateReferenceSystem  →  NameAlias[].DefinitionOrganisationID
CoordinateTransformation  →  NameAlias[].DefinitionOrganisationID
CorePreservationType  →  NameAlias[].DefinitionOrganisationID
Currency  →  NameAlias[].DefinitionOrganisationID
CurveSampleType  →  NameAlias[].DefinitionOrganisationID
DataRuleDimensionType  →  NameAlias[].DefinitionOrganisationID
DataRulePurposeType  →  NameAlias[].DefinitionOrganisationID
DepositionGeometryType  →  NameAlias[].DefinitionOrganisationID
DimensionType  →  NameAlias[].DefinitionOrganisationID
DiscoverabilityBySearch  →  NameAlias[].DefinitionOrganisationID
DiscretisationSchemeType  →  NameAlias[].DefinitionOrganisationID
DocumentType  →  NameAlias[].DefinitionOrganisationID
DomainType  →  NameAlias[].DefinitionOrganisationID
DrillingActivityClassType  →  NameAlias[].DefinitionOrganisationID
DrillingReasonType  →  NameAlias[].DefinitionOrganisationID
EncodingFormatType  →  NameAlias[].DefinitionOrganisationID
ExistenceKind  →  NameAlias[].DefinitionOrganisationID
ExternalCatalogNamespace  →  NameAlias[].DefinitionOrganisationID
ExternalReferenceValueMapping  →  NameAlias[].DefinitionOrganisationID
ExternalUnitOfMeasure  →  NameAlias[].DefinitionOrganisationID
ExternalUnitQuantity  →  NameAlias[].DefinitionOrganisationID
FacetRole  →  NameAlias[].DefinitionOrganisationID
FacetType  →  NameAlias[].DefinitionOrganisationID
FacilityEventType  →  NameAlias[].DefinitionOrganisationID
FacilityStateType  →  NameAlias[].DefinitionOrganisationID
FacilityType  →  NameAlias[].DefinitionOrganisationID
FaultThrowType  →  NameAlias[].DefinitionOrganisationID
FeatureType  →  NameAlias[].DefinitionOrganisationID
FluidContactType  →  NameAlias[].DefinitionOrganisationID
FluidPhaseType  →  NameAlias[].DefinitionOrganisationID
FluidPropertyFacetName  →  NameAlias[].DefinitionOrganisationID
FluidPropertyName  →  NameAlias[].DefinitionOrganisationID
FluidRheologicalModelType  →  NameAlias[].DefinitionOrganisationID
FluidRole  →  NameAlias[].DefinitionOrganisationID
FluidType  →  NameAlias[].DefinitionOrganisationID
FormationIntegrityPressureDataSource  →  NameAlias[].DefinitionOrganisationID
FormationIntegritySurfacePressureDataSource  →  NameAlias[].DefinitionOrganisationID
FormationIntegrityTestResult  →  NameAlias[].DefinitionOrganisationID
FormationIntegrityTestType  →  NameAlias[].DefinitionOrganisationID
FormationPressureTestType  →  NameAlias[].DefinitionOrganisationID
GasReadingType  →  NameAlias[].DefinitionOrganisationID
GeoPoliticalEntityType  →  NameAlias[].DefinitionOrganisationID
GeoReferencedImageType  →  NameAlias[].DefinitionOrganisationID
GeologicUnitShapeType  →  NameAlias[].DefinitionOrganisationID
GeologicalFormation  →  NameAlias[].DefinitionOrganisationID
GrainDensityMeasurementType  →  NameAlias[].DefinitionOrganisationID
GrainSizeAnalysisMethod  →  NameAlias[].DefinitionOrganisationID
GrainSizeClassification  →  NameAlias[].DefinitionOrganisationID
GrainSizeClassificationScheme  →  NameAlias[].DefinitionOrganisationID
HeaderKeyName  →  NameAlias[].DefinitionOrganisationID
IjkCellFace  →  NameAlias[].DefinitionOrganisationID
ImageLightingCondition  →  NameAlias[].DefinitionOrganisationID
InSARApplication  →  NameAlias[].DefinitionOrganisationID
InSARFrequencyBand  →  NameAlias[].DefinitionOrganisationID
InSARImageMode  →  NameAlias[].DefinitionOrganisationID
InSARPolarisation  →  NameAlias[].DefinitionOrganisationID
InSARProcessingType  →  NameAlias[].DefinitionOrganisationID
IndexableElement  →  NameAlias[].DefinitionOrganisationID
InterpolationMethod  →  NameAlias[].DefinitionOrganisationID
IsolatedIntervalType  →  NameAlias[].DefinitionOrganisationID
KDirectionType  →  NameAlias[].DefinitionOrganisationID
LaheeClass  →  NameAlias[].DefinitionOrganisationID
LegalStatus  →  NameAlias[].DefinitionOrganisationID
LicenseState  →  NameAlias[].DefinitionOrganisationID
LineageRelationshipType  →  NameAlias[].DefinitionOrganisationID
LinerType  →  NameAlias[].DefinitionOrganisationID
LithoStratigraphy  →  NameAlias[].DefinitionOrganisationID
LithologyType  →  NameAlias[].DefinitionOrganisationID
LogCurveBusinessValue  →  NameAlias[].DefinitionOrganisationID
LogCurveFamily  →  NameAlias[].DefinitionOrganisationID
LogCurveMainFamily  →  NameAlias[].DefinitionOrganisationID
LogCurveType  →  NameAlias[].DefinitionOrganisationID
LogType  →  NameAlias[].DefinitionOrganisationID
MarkerPropertyType  →  NameAlias[].DefinitionOrganisationID
MarkerType  →  NameAlias[].DefinitionOrganisationID
MudBaseType  →  NameAlias[].DefinitionOrganisationID
MudClass  →  NameAlias[].DefinitionOrganisationID
OAuth2FlowType  →  NameAlias[].DefinitionOrganisationID
OSDUJsonExtensions  →  NameAlias[].DefinitionOrganisationID
OSDURegion  →  NameAlias[].DefinitionOrganisationID
ObjectiveType  →  NameAlias[].DefinitionOrganisationID
ObligationType  →  NameAlias[].DefinitionOrganisationID
OperatingEnvironment  →  NameAlias[].DefinitionOrganisationID
OrderingCriteriaType  →  NameAlias[].DefinitionOrganisationID
OrganisationType  →  NameAlias[].DefinitionOrganisationID
PPFGContextType  →  NameAlias[].DefinitionOrganisationID
PPFGCurveFamily  →  NameAlias[].DefinitionOrganisationID
PPFGCurveLithoType  →  NameAlias[].DefinitionOrganisationID
PPFGCurveMainFamily  →  NameAlias[].DefinitionOrganisationID
PPFGCurveMnemonic  →  NameAlias[].DefinitionOrganisationID
PPFGCurveProbability  →  NameAlias[].DefinitionOrganisationID
PPFGCurveProcessingType  →  NameAlias[].DefinitionOrganisationID
PPFGCurveTransformModelType  →  NameAlias[].DefinitionOrganisationID
ParameterKind  →  NameAlias[].DefinitionOrganisationID
ParameterRole  →  NameAlias[].DefinitionOrganisationID
ParameterType  →  NameAlias[].DefinitionOrganisationID
PerforationCentralizationMethodType  →  NameAlias[].DefinitionOrganisationID
PerforationConveyedMethod  →  NameAlias[].DefinitionOrganisationID
PerforationGunCarrierCategory  →  NameAlias[].DefinitionOrganisationID
PerforationGunCarrierModel  →  NameAlias[].DefinitionOrganisationID
PerforationGunCarrierType  →  NameAlias[].DefinitionOrganisationID
PerforationGunChargeShape  →  NameAlias[].DefinitionOrganisationID
PerforationGunChargeSize  →  NameAlias[].DefinitionOrganisationID
PerforationGunChargeType  →  NameAlias[].DefinitionOrganisationID
PerforationGunFiringHeadType  →  NameAlias[].DefinitionOrganisationID
PerforationGunMetallurgyType  →  NameAlias[].DefinitionOrganisationID
PerforationGunPhasingType  →  NameAlias[].DefinitionOrganisationID
PerforationIntervalReason  →  NameAlias[].DefinitionOrganisationID
PerforationIntervalType  →  NameAlias[].DefinitionOrganisationID
PerforationIntervalWLSize  →  NameAlias[].DefinitionOrganisationID
PerforationPillType  →  NameAlias[].DefinitionOrganisationID
PermeabilityMeasurementType  →  NameAlias[].DefinitionOrganisationID
PersonnelOrganisationRole  →  NameAlias[].DefinitionOrganisationID
PersonnelServiceType  →  NameAlias[].DefinitionOrganisationID
PetroleumSystemElementType  →  NameAlias[].DefinitionOrganisationID
PillarShapeType  →  NameAlias[].DefinitionOrganisationID
PlayType  →  NameAlias[].DefinitionOrganisationID
PlugType  →  NameAlias[].DefinitionOrganisationID
PorosityMeasurementType  →  NameAlias[].DefinitionOrganisationID
PressureMeasurementType  →  NameAlias[].DefinitionOrganisationID
ProcessingParameterType  →  NameAlias[].DefinitionOrganisationID
ProjectRole  →  NameAlias[].DefinitionOrganisationID
ProjectStateType  →  NameAlias[].DefinitionOrganisationID
PropertyFieldRepresentationType  →  NameAlias[].DefinitionOrganisationID
PropertyNameType  →  NameAlias[].DefinitionOrganisationID
PropertyType  →  NameAlias[].DefinitionOrganisationID
ProspectType  →  NameAlias[].DefinitionOrganisationID
PumpOpType  →  NameAlias[].DefinitionOrganisationID
QualitativeSpatialAccuracyType  →  NameAlias[].DefinitionOrganisationID
QualityDataRule  →  NameAlias[].DefinitionOrganisationID
QualityDataRuleSet  →  NameAlias[].DefinitionOrganisationID
QuantitativeAccuracyBand  →  NameAlias[].DefinitionOrganisationID
ReasonTripType  →  NameAlias[].DefinitionOrganisationID
ReferenceValueUpgradeLookUp  →  NameAlias[].DefinitionOrganisationID
RepresentationRole  →  NameAlias[].DefinitionOrganisationID
RepresentationType  →  NameAlias[].DefinitionOrganisationID
ResourceCurationStatus  →  NameAlias[].DefinitionOrganisationID
ResourceLifecycleStatus  →  NameAlias[].DefinitionOrganisationID
ResourceSecurityClassification  →  NameAlias[].DefinitionOrganisationID
RigType  →  NameAlias[].DefinitionOrganisationID
RiskCategory  →  NameAlias[].DefinitionOrganisationID
RiskConsequenceCategory  →  NameAlias[].DefinitionOrganisationID
RiskConsequenceSubCategory  →  NameAlias[].DefinitionOrganisationID
RiskDiscipline  →  NameAlias[].DefinitionOrganisationID
RiskHierarchyLevel  →  NameAlias[].DefinitionOrganisationID
RiskResponseStatus  →  NameAlias[].DefinitionOrganisationID
RiskSubCategory  →  NameAlias[].DefinitionOrganisationID
RiskType  →  NameAlias[].DefinitionOrganisationID
RockImageType  →  NameAlias[].DefinitionOrganisationID
RockSampleAnalysisType  →  NameAlias[].DefinitionOrganisationID
RockSampleType  →  NameAlias[].DefinitionOrganisationID
SEGY-HeaderMappingTemplate  →  NameAlias[].DefinitionOrganisationID
SampleOrientationType  →  NameAlias[].DefinitionOrganisationID
SatelliteGeometry  →  NameAlias[].DefinitionOrganisationID
SatelliteMission  →  NameAlias[].DefinitionOrganisationID
SaturationMethodType  →  NameAlias[].DefinitionOrganisationID
SchemaFormatType  →  NameAlias[].DefinitionOrganisationID
SchemaUpgradeChain  →  NameAlias[].DefinitionOrganisationID
SchemaUpgradeSpecification  →  NameAlias[].DefinitionOrganisationID
SectionType  →  NameAlias[].DefinitionOrganisationID
SecuritySchemeType  →  NameAlias[].DefinitionOrganisationID
SeismicAcquisitionType  →  NameAlias[].DefinitionOrganisationID
SeismicAttributeType  →  NameAlias[].DefinitionOrganisationID
SeismicBinGridType  →  NameAlias[].DefinitionOrganisationID
SeismicDomainType  →  NameAlias[].DefinitionOrganisationID
SeismicEnergySourceType  →  NameAlias[].DefinitionOrganisationID
SeismicFaultType  →  NameAlias[].DefinitionOrganisationID
SeismicFilteringType  →  NameAlias[].DefinitionOrganisationID
SeismicGatherType  →  NameAlias[].DefinitionOrganisationID
SeismicGeometryType  →  NameAlias[].DefinitionOrganisationID
SeismicHorizonType  →  NameAlias[].DefinitionOrganisationID
SeismicMigrationType  →  NameAlias[].DefinitionOrganisationID
SeismicPhase  →  NameAlias[].DefinitionOrganisationID
SeismicPickingType  →  NameAlias[].DefinitionOrganisationID
SeismicPolarity  →  NameAlias[].DefinitionOrganisationID
SeismicProcessingStageType  →  NameAlias[].DefinitionOrganisationID
SeismicReceiverType  →  NameAlias[].DefinitionOrganisationID
SeismicStackingType  →  NameAlias[].DefinitionOrganisationID
SeismicTraceDataDimensionalityType  →  NameAlias[].DefinitionOrganisationID
SeismicTraceSortOrder  →  NameAlias[].DefinitionOrganisationID
SeismicWaveType  →  NameAlias[].DefinitionOrganisationID
SequenceStratigraphicSchemaType  →  NameAlias[].DefinitionOrganisationID
SequenceStratigraphySurfaceType  →  NameAlias[].DefinitionOrganisationID
SidewallCoreType  →  NameAlias[].DefinitionOrganisationID
SpatialGeometryType  →  NameAlias[].DefinitionOrganisationID
SpatialParameterType  →  NameAlias[].DefinitionOrganisationID
StandardsOrganisation  →  NameAlias[].DefinitionOrganisationID
StratigraphicColumnRankUnitType  →  NameAlias[].DefinitionOrganisationID
StratigraphicColumnValidityAreaType  →  NameAlias[].DefinitionOrganisationID
StratigraphicRoleType  →  NameAlias[].DefinitionOrganisationID
StringClass  →  NameAlias[].DefinitionOrganisationID
SurveyToolType  →  NameAlias[].DefinitionOrganisationID
TargetShape  →  NameAlias[].DefinitionOrganisationID
TargetType  →  NameAlias[].DefinitionOrganisationID
TechnicalAssuranceType  →  NameAlias[].DefinitionOrganisationID
TectonicSettingType  →  NameAlias[].DefinitionOrganisationID
TestSubType  →  NameAlias[].DefinitionOrganisationID
TestType  →  NameAlias[].DefinitionOrganisationID
TrajectoryStationPropertyType  →  NameAlias[].DefinitionOrganisationID
TubularAssemblyStatusType  →  NameAlias[].DefinitionOrganisationID
TubularAssemblyType  →  NameAlias[].DefinitionOrganisationID
TubularComponentConnectionType  →  NameAlias[].DefinitionOrganisationID
TubularComponentGrade  →  NameAlias[].DefinitionOrganisationID
TubularComponentPinBoxType  →  NameAlias[].DefinitionOrganisationID
TubularComponentType  →  NameAlias[].DefinitionOrganisationID
TubularMaterialType  →  NameAlias[].DefinitionOrganisationID
TubularUmbilicalServiceType  →  NameAlias[].DefinitionOrganisationID
TubularUmbilicalType  →  NameAlias[].DefinitionOrganisationID
UnitOfMeasure  →  NameAlias[].DefinitionOrganisationID
UnitOfMeasureConfiguration  →  NameAlias[].DefinitionOrganisationID
UnitQuantity  →  NameAlias[].DefinitionOrganisationID
ValueChainStatusType  →  NameAlias[].DefinitionOrganisationID
VelocityAnalysisMethod  →  NameAlias[].DefinitionOrganisationID
VelocityDirectionType  →  NameAlias[].DefinitionOrganisationID
VelocityType  →  NameAlias[].DefinitionOrganisationID
VerticalMeasurementPath  →  NameAlias[].DefinitionOrganisationID
VerticalMeasurementSource  →  NameAlias[].DefinitionOrganisationID
VerticalMeasurementType  →  NameAlias[].DefinitionOrganisationID
WeatherType  →  NameAlias[].DefinitionOrganisationID
WellActivityPhaseType  →  NameAlias[].DefinitionOrganisationID
WellActivityProgramType  →  NameAlias[].DefinitionOrganisationID
WellActivityType  →  NameAlias[].DefinitionOrganisationID
WellBusinessIntention  →  NameAlias[].DefinitionOrganisationID
WellBusinessIntentionOutcome  →  NameAlias[].DefinitionOrganisationID
WellCondition  →  NameAlias[].DefinitionOrganisationID
WellFluidDirection  →  NameAlias[].DefinitionOrganisationID
WellInterestType  →  NameAlias[].DefinitionOrganisationID
WellLogSamplingDomainType  →  NameAlias[].DefinitionOrganisationID
WellProductType  →  NameAlias[].DefinitionOrganisationID
WellRole  →  NameAlias[].DefinitionOrganisationID
WellSiteProductType  →  NameAlias[].DefinitionOrganisationID
WellStatusSummary  →  NameAlias[].DefinitionOrganisationID
WellTechnologyApplied  →  NameAlias[].DefinitionOrganisationID
WellboreOpeningStateType  →  NameAlias[].DefinitionOrganisationID
WellboreReason  →  NameAlias[].DefinitionOrganisationID
WellboreTrajectoryType  →  NameAlias[].DefinitionOrganisationID
WellheadConnection  →  NameAlias[].DefinitionOrganisationID
WordFormatType  →  NameAlias[].DefinitionOrganisationID
WorkflowPersonaType  →  NameAlias[].DefinitionOrganisationID
WorkflowUsageType  →  NameAlias[].DefinitionOrganisationID
}
abstract "AbstractStorageLocation" <<abstract>> {
RockSample  →  SampleStorageLocations[].StorageOrganisationID
}
abstract "AbstractTechnicalAssurance" <<abstract>> {
GenericWorkProductComponent  →  TechnicalAssurances[].Reviewers[].OrganisationID
Manifest  →  WorkProductComponents[].TechnicalAssurances[].Reviewers[].OrganisationID
}
abstract "AbstractWPCGroupType" <<Abstraction>> {
Activity  →  TechnicalAssurances[].Reviewers[].OrganisationID
AquiferInterpretation  →  TechnicalAssurances[].Reviewers[].OrganisationID
ColumnBasedTable  →  TechnicalAssurances[].Reviewers[].OrganisationID
DataQuality  →  TechnicalAssurances[].Reviewers[].OrganisationID
Document  →  TechnicalAssurances[].Reviewers[].OrganisationID
EarthModelInterpretation  →  TechnicalAssurances[].Reviewers[].OrganisationID
FaultInterpretation  →  TechnicalAssurances[].Reviewers[].OrganisationID
FaultSystem  →  TechnicalAssurances[].Reviewers[].OrganisationID
FluidBoundaryInterpretation  →  TechnicalAssurances[].Reviewers[].OrganisationID
FormationIntegrityTest  →  TechnicalAssurances[].Reviewers[].OrganisationID
GenericImage  →  TechnicalAssurances[].Reviewers[].OrganisationID
GenericProperty  →  TechnicalAssurances[].Reviewers[].OrganisationID
GenericRepresentation  →  TechnicalAssurances[].Reviewers[].OrganisationID
GeoReferencedImage  →  TechnicalAssurances[].Reviewers[].OrganisationID
GeobodyBoundaryInterpretation  →  TechnicalAssurances[].Reviewers[].OrganisationID
GeobodyInterpretation  →  TechnicalAssurances[].Reviewers[].OrganisationID
GeologicUnitOccurrenceInterpretation  →  TechnicalAssurances[].Reviewers[].OrganisationID
GpGridRepresentation  →  TechnicalAssurances[].Reviewers[].OrganisationID
GridConnectionSetRepresentation  →  TechnicalAssurances[].Reviewers[].OrganisationID
HorizonInterpretation  →  TechnicalAssurances[].Reviewers[].OrganisationID
IjkGridNumericalAquiferRepresentation  →  TechnicalAssurances[].Reviewers[].OrganisationID
IjkGridRepresentation  →  TechnicalAssurances[].Reviewers[].OrganisationID
LocalBoundaryFeature  →  TechnicalAssurances[].Reviewers[].OrganisationID
LocalModelCompoundCrs  →  TechnicalAssurances[].Reviewers[].OrganisationID
LocalModelFeature  →  TechnicalAssurances[].Reviewers[].OrganisationID
LocalRockVolumeFeature  →  TechnicalAssurances[].Reviewers[].OrganisationID
NotionalSeismicLine  →  TechnicalAssurances[].Reviewers[].OrganisationID
PPFGDataset  →  TechnicalAssurances[].Reviewers[].OrganisationID
PersistedCollection  →  TechnicalAssurances[].Reviewers[].OrganisationID
PlannedLithology  →  TechnicalAssurances[].Reviewers[].OrganisationID
ProcessedInSAR  →  TechnicalAssurances[].Reviewers[].OrganisationID
ReservoirCompartmentInterpretation  →  TechnicalAssurances[].Reviewers[].OrganisationID
RockFluidOrganizationInterpretation  →  TechnicalAssurances[].Reviewers[].OrganisationID
RockFluidUnitInterpretation  →  TechnicalAssurances[].Reviewers[].OrganisationID
RockImage  →  TechnicalAssurances[].Reviewers[].OrganisationID
RockSampleAnalysis  →  TechnicalAssurances[].Reviewers[].OrganisationID
SealedSurfaceFramework  →  TechnicalAssurances[].Reviewers[].OrganisationID
SealedVolumeFramework  →  TechnicalAssurances[].Reviewers[].OrganisationID
SeismicBinGrid  →  TechnicalAssurances[].Reviewers[].OrganisationID
SeismicFault  →  TechnicalAssurances[].Reviewers[].OrganisationID
SeismicHorizon  →  TechnicalAssurances[].Reviewers[].OrganisationID
SeismicLineGeometry  →  TechnicalAssurances[].Reviewers[].OrganisationID
SeismicTraceData  →  TechnicalAssurances[].Reviewers[].OrganisationID
StratigraphicColumn  →  TechnicalAssurances[].Reviewers[].OrganisationID
StratigraphicColumnRankInterpretation  →  TechnicalAssurances[].Reviewers[].OrganisationID
StratigraphicUnitInterpretation  →  TechnicalAssurances[].Reviewers[].OrganisationID
StructuralOrganizationInterpretation  →  TechnicalAssurances[].Reviewers[].OrganisationID
SubRepresentation  →  TechnicalAssurances[].Reviewers[].OrganisationID
TimeSeries  →  TechnicalAssurances[].Reviewers[].OrganisationID
TubularAssembly  →  TechnicalAssurances[].Reviewers[].OrganisationID
TubularComponent  →  TechnicalAssurances[].Reviewers[].OrganisationID
TubularUmbilical  →  TechnicalAssurances[].Reviewers[].OrganisationID
UnsealedSurfaceFramework  →  TechnicalAssurances[].Reviewers[].OrganisationID
UnstructuredColumnLayerGridRepresentation  →  TechnicalAssurances[].Reviewers[].OrganisationID
UnstructuredGridRepresentation  →  TechnicalAssurances[].Reviewers[].OrganisationID
VelocityModeling  →  TechnicalAssurances[].Reviewers[].OrganisationID
VoidageGroupInterpretation  →  TechnicalAssurances[].Reviewers[].OrganisationID
WellLog  →  TechnicalAssurances[].Reviewers[].OrganisationID
WellboreIntervalSet  →  TechnicalAssurances[].Reviewers[].OrganisationID
WellboreMarkerSet  →  TechnicalAssurances[].Reviewers[].OrganisationID
WellboreTrajectory  →  TechnicalAssurances[].Reviewers[].OrganisationID
}
}
package "master-data Entities" as MasterData <<frame>>
{
class "Agreement" <<master-data>> {
Counterparties[]
}
class "ConnectedSourceRegistryEntry" <<master-data>> {
SourceOrganisationID
}
class "Coring" <<master-data>> {
ServiceCompanyID
}
class "FluidsProgram" <<master-data>> {
FluidsSupplierID
}
class "FluidsReport" <<master-data>> {
Fluid[].CompanyID
}
class "OperationsReport" <<master-data>> {
CustomerId
DrillActivity[].OperatorID
DrillActivity[].ServiceProviderID
Incident[].OrganisationID
OperationsActivity[].OperatorID
OperationsActivity[].ServiceProviderID
Personnel[].OrganizationID
StewardingCompanyID
StewardingCompanyTeamID
}
class "Organisation" <<master-data>> {
ParentOrganisationID
}
class "PerforationInterval" <<master-data>> {
ChargeManufacturerID
GunCarrierManufacturerID
}
class "PerforationJob" <<master-data>> {
ContractorID
}
class "PlannedCementJob" <<master-data>> {
ContractorID
}
class "Rig" <<master-data>> {
OwnerID
}
class "Risk" <<master-data>> {
AffectedPersonnel
}
class "RockSample" <<master-data>> {
SampleOwnerID
}
class "SurveyProgram" <<master-data>> {
SurveySections[].SurveyCompanyID
}
}
package "work-product-component Entities" as WorkProductComponent <<frame>>
{
class "PPFGDataset" <<work-product-component>> {
ServiceCompanyID
}
class "ProcessedInSAR" <<work-product-component>> {
ServiceCompanyID
}
class "RockImage" <<work-product-component>> {
ServiceCompanyID
}
class "RockSampleAnalysis" <<work-product-component>> {
AnalysisOrganisationID
}
class "TubularComponent" <<work-product-component>> {
ManufacturerID
SupplierID
}
class "WellLog" <<work-product-component>> {
CompanyID
ServiceCompanyID
}
class "WellboreTrajectory" <<work-product-component>> {
CompanyID
ServiceCompanyID
}
}
"Abstract" -->  "Organisation"
"MasterData" -->  "Organisation"
"WorkProductComponent" -->  "Organisation"
abstract "AbstractMaster" <<Abstraction>>
"Organisation" -right-|>  "AbstractMaster"
}
@enduml