@startuml
hide methods
skinparam groupInheritance 2
skinparam class {
    ArrowColor Black
    BorderColor Black
    BackgroundColor<<master-data>> LightSalmon
    BackgroundColor<<work-product-component>> Gold
    BackgroundColor<<abstract>> LightSteelBlue
    BackgroundColor<<dataset>> Ivory
    BackgroundColor<<reference-data>> Turquoise
    BackgroundColor<<Abstraction>> LightSkyBlue
    BackgroundColor<<error>> Red
    BackgroundColor<<Activity>> LightSkyBlue
    BackgroundColor<<ReferenceType>> LightSkyBlue
    BackgroundColor<<WorkProductComponent>> LightSkyBlue
    BackgroundColor<<Project>> LightSkyBlue
    BackgroundColor<<File>> LightSkyBlue
    BackgroundColor<<FileCollection>> LightSkyBlue
    BackgroundColor<<MasterData>> LightSkyBlue
    BackgroundColor<<nested array>> WhiteSmoke
    BackgroundColor<<nested>> WhiteSmoke
    packageStyle rectangle
}
package "PerforationJob Outgoing Relationships View" <<rectangle>>
{
class "<size:36>PerforationJob</size>" as PerforationJob <<master-data>>
class "Basin" <<master-data>>
abstract "GeoContexts[]" <<nested array>>
"PerforationJob" *-- "*" "GeoContexts[]"
"GeoContexts[]" --> "1" "Basin" : "BasinID"
class "Field" <<master-data>>
"GeoContexts[]" --> "1" "Field" : "FieldID"
class "GeoPoliticalEntity" <<master-data>>
"GeoContexts[]" --> "1" "GeoPoliticalEntity" : "GeoPoliticalEntityID"
class "Organisation" <<master-data>>
"PerforationJob" --> "1" "Organisation" : "ContractorID"
abstract "NameAliases[]" <<nested array>>
"PerforationJob" *-- "*" "NameAliases[]"
"NameAliases[]" --> "1" "Organisation" : "DefinitionOrganisationID"
class "Play" <<master-data>>
"GeoContexts[]" --> "1" "Play" : "PlayID"
class "Prospect" <<master-data>>
"GeoContexts[]" --> "1" "Prospect" : "ProspectID"
class "Rig" <<master-data>>
abstract "VerticalMeasurement" <<nested>>
"PerforationJob" *-- "1" "VerticalMeasurement"
"VerticalMeasurement" --> "1" "Rig" : "VerticalReferenceEntityID"
class "Well" <<master-data>>
"VerticalMeasurement" --> "1" "Well" : "VerticalReferenceEntityID"
class "Wellbore" <<master-data>>
"VerticalMeasurement" --> "1" "Wellbore" : "VerticalReferenceEntityID"
"PerforationJob" --> "1" "Wellbore" : "WellboreID"
class "TubularAssembly" <<work-product-component>>
"PerforationJob" --> "1" "TubularAssembly" : "WellboreTubularID"
class "WellLog" <<work-product-component>>
"PerforationJob" --> "1" "WellLog" : "ReferenceLogID"
class "WellboreTrajectory" <<work-product-component>>
"VerticalMeasurement" --> "1" "WellboreTrajectory" : "WellboreTVDTrajectoryID"

class "Reference Data Relationships" <<reference-data>> {
==
"data.AnnulusFluidTypeID" → AnnularFluidType
"data.CentralizationMethodID" → PerforationCentralizationMethodType
"data.ConveyedMethodID" → PerforationConveyedMethod
==
"data.GeoContexts[].GeoTypeID" → BasinType
"data.GeoContexts[].GeoTypeID" → GeoPoliticalEntityType
"data.GeoContexts[].GeoTypeID" → PlayType
"data.GeoContexts[].GeoTypeID" → ProspectType
==
"data.MethodID" → PerforationIntervalType
==
"data.NameAliases[].AliasNameTypeID" → AliasNameType
"data.NameAliases[].DefinitionOrganisationID" → StandardsOrganisation
==
"data.PillTypeID" → PerforationPillType
==
"data.SpatialLocation.AsIngestedCoordinates.CoordinateReferenceSystemID" → CoordinateReferenceSystem
"data.SpatialLocation.AsIngestedCoordinates.VerticalCoordinateReferenceSystemID" → CoordinateReferenceSystem
"data.SpatialLocation.AsIngestedCoordinates.VerticalUnitID" → UnitOfMeasure
==
"data.SpatialLocation.QualitativeSpatialAccuracyTypeID" → QualitativeSpatialAccuracyType
"data.SpatialLocation.QuantitativeAccuracyBandID" → QuantitativeAccuracyBand
"data.SpatialLocation.SpatialGeometryTypeID" → SpatialGeometryType
"data.SpatialLocation.SpatialParameterTypeID" → SpatialParameterType
==
"data.TechnicalAssuranceTypeID" → TechnicalAssuranceType
==
"data.VerticalMeasurement.VerticalCRSID" → CoordinateReferenceSystem
"data.VerticalMeasurement.VerticalMeasurementPathID" → VerticalMeasurementPath
"data.VerticalMeasurement.VerticalMeasurementSourceID" → VerticalMeasurementSource
"data.VerticalMeasurement.VerticalMeasurementTypeID" → VerticalMeasurementType
"data.VerticalMeasurement.VerticalMeasurementUnitOfMeasureID" → UnitOfMeasure
}
"PerforationJob" .up.> "Reference Data Relationships"
abstract "AbstractMaster" <<Abstraction>>
"PerforationJob" -right-|>  "AbstractMaster"
}
@enduml