@startuml
hide methods
skinparam groupInheritance 2
skinparam class {
    ArrowColor Black
    BorderColor Black
    BackgroundColor<<master-data>> LightSalmon
    BackgroundColor<<work-product-component>> Gold
    BackgroundColor<<abstract>> LightSteelBlue
    BackgroundColor<<dataset>> Ivory
    BackgroundColor<<reference-data>> Turquoise
    BackgroundColor<<Abstraction>> LightSkyBlue
    BackgroundColor<<error>> Red
    BackgroundColor<<Activity>> LightSkyBlue
    BackgroundColor<<ReferenceType>> LightSkyBlue
    BackgroundColor<<WorkProductComponent>> LightSkyBlue
    BackgroundColor<<Project>> LightSkyBlue
    BackgroundColor<<File>> LightSkyBlue
    BackgroundColor<<FileCollection>> LightSkyBlue
    BackgroundColor<<MasterData>> LightSkyBlue
    BackgroundColor<<nested array>> WhiteSmoke
    BackgroundColor<<nested>> WhiteSmoke
    packageStyle rectangle
}
package "Prospect Outgoing Relationships View" <<rectangle>>
{
class "<size:24>Prospect</size>" as Prospect <<master-data>>
class "Basin" <<master-data>>
abstract "GeoContexts[]" <<nested array>>
"Prospect" *-- "*" "GeoContexts[]"
"GeoContexts[]" --> "1" "Basin" : "BasinID"
class "Field" <<master-data>>
"GeoContexts[]" --> "1" "Field" : "FieldID"
class "GeoPoliticalEntity" <<master-data>>
"GeoContexts[]" --> "1" "GeoPoliticalEntity" : "GeoPoliticalEntityID"
class "Organisation" <<master-data>>
abstract "NameAliases[]" <<nested array>>
"Prospect" *-- "*" "NameAliases[]"
"NameAliases[]" --> "1" "Organisation" : "DefinitionOrganisationID"
abstract "ProspectNameAliases[]" <<nested array>>
"Prospect" *-- "*" "ProspectNameAliases[]"
"ProspectNameAliases[]" --> "1" "Organisation" : "DefinitionOrganisationID"
class "Play" <<master-data>>
"GeoContexts[]" --> "1" "Play" : "PlayID"
class "Prospect" <<master-data>>
"GeoContexts[]" --> "1" "Prospect" : "ProspectID"

class "Reference Data Relationships" <<reference-data>> {
==
"data.GeoContexts[].GeoTypeID" → BasinType
"data.GeoContexts[].GeoTypeID" → GeoPoliticalEntityType
"data.GeoContexts[].GeoTypeID" → PlayType
"data.GeoContexts[].GeoTypeID" → ProspectType
==
"data.NameAliases[].AliasNameTypeID" → AliasNameType
"data.NameAliases[].DefinitionOrganisationID" → StandardsOrganisation
==
"data.ProspectNameAliases[].AliasNameTypeID" → AliasNameType
"data.ProspectNameAliases[].DefinitionOrganisationID" → StandardsOrganisation
==
"data.ProspectTypeID" → ProspectType
==
"data.SpatialLocation.AsIngestedCoordinates.CoordinateReferenceSystemID" → CoordinateReferenceSystem
"data.SpatialLocation.AsIngestedCoordinates.VerticalCoordinateReferenceSystemID" → CoordinateReferenceSystem
"data.SpatialLocation.AsIngestedCoordinates.VerticalUnitID" → UnitOfMeasure
==
"data.SpatialLocation.QualitativeSpatialAccuracyTypeID" → QualitativeSpatialAccuracyType
"data.SpatialLocation.QuantitativeAccuracyBandID" → QuantitativeAccuracyBand
"data.SpatialLocation.SpatialGeometryTypeID" → SpatialGeometryType
"data.SpatialLocation.SpatialParameterTypeID" → SpatialParameterType
==
"data.TechnicalAssuranceTypeID" → TechnicalAssuranceType
}
"Prospect" .up.> "Reference Data Relationships"
abstract "AbstractMaster" <<Abstraction>>
"Prospect" -right-|>  "AbstractMaster"
}
@enduml