@startuml
hide methods
skinparam groupInheritance 2
skinparam class {
    ArrowColor Black
    BorderColor Black
    BackgroundColor<<master-data>> LightSalmon
    BackgroundColor<<work-product-component>> Gold
    BackgroundColor<<abstract>> LightSteelBlue
    BackgroundColor<<dataset>> Ivory
    BackgroundColor<<reference-data>> Turquoise
    BackgroundColor<<Abstraction>> LightSkyBlue
    BackgroundColor<<error>> Red
    BackgroundColor<<Activity>> LightSkyBlue
    BackgroundColor<<ReferenceType>> LightSkyBlue
    BackgroundColor<<WorkProductComponent>> LightSkyBlue
    BackgroundColor<<Project>> LightSkyBlue
    BackgroundColor<<File>> LightSkyBlue
    BackgroundColor<<FileCollection>> LightSkyBlue
    BackgroundColor<<MasterData>> LightSkyBlue
    BackgroundColor<<nested array>> WhiteSmoke
    BackgroundColor<<nested>> WhiteSmoke
    packageStyle rectangle
}
package "SeismicProcessingProject Referenced-by View" <<rectangle>>
{
class "<size:16>SeismicProcessingProject</size>" as SeismicProcessingProject <<master-data>>
left to right direction
class "SeismicProcessingProject" <<master-data>>
package "work-product-component Entities" as WorkProductComponent <<frame>>
{
class "SeismicTraceData" <<work-product-component>> {
ProcessingProjectID
}
}
"WorkProductComponent" -->  "SeismicProcessingProject" 
abstract "AbstractMaster" <<Abstraction>>
"SeismicProcessingProject" -right-|>  "AbstractMaster"
abstract "AbstractProject" <<Abstraction>>
"SeismicProcessingProject" -right-|>  "AbstractProject"
abstract "AbstractProjectActivity" <<Abstraction>>
"SeismicProcessingProject" -right-|>  "AbstractProjectActivity"
}
@enduml