@startuml
hide methods
skinparam groupInheritance 2
skinparam class {
    ArrowColor Black
    BorderColor Black
    BackgroundColor<<master-data>> LightSalmon
    BackgroundColor<<work-product-component>> Gold
    BackgroundColor<<abstract>> LightSteelBlue
    BackgroundColor<<dataset>> Ivory
    BackgroundColor<<reference-data>> Turquoise
    BackgroundColor<<Abstraction>> LightSkyBlue
    BackgroundColor<<error>> Red
    BackgroundColor<<Activity>> LightSkyBlue
    BackgroundColor<<ReferenceType>> LightSkyBlue
    BackgroundColor<<WorkProductComponent>> LightSkyBlue
    BackgroundColor<<Project>> LightSkyBlue
    BackgroundColor<<File>> LightSkyBlue
    BackgroundColor<<FileCollection>> LightSkyBlue
    BackgroundColor<<MasterData>> LightSkyBlue
    BackgroundColor<<nested array>> WhiteSmoke
    BackgroundColor<<nested>> WhiteSmoke
    packageStyle rectangle
}
package "SeismicAcquisitionSurvey Outgoing Relationships View" <<rectangle>>
{
class "<size:48>SeismicAcquisitionSurvey</size>" as SeismicAcquisitionSurvey <<master-data>>
class "AnyGroupTypeObject" <<any-group-type>>
abstract "Parameters[]" <<nested array>>
"SeismicAcquisitionSurvey" *-- "*" "Parameters[]"
"Parameters[]" --> "1" "AnyGroupTypeObject" : "DataObjectParameter"
abstract "Keys[]" <<nested array>>
"Parameters[]" *-- "*" "Keys[]"
"Keys[]" --> "1" "AnyGroupTypeObject" : "ObjectParameterKey"
class "ActivityTemplate" <<master-data>>
"SeismicAcquisitionSurvey" --> "1" "ActivityTemplate" : "ActivityTemplateID"
class "Agreement" <<master-data>>
"SeismicAcquisitionSurvey" --> "*" "Agreement" : "ContractIDs[]"
class "AnyMasterData" <<master-data>>
"SeismicAcquisitionSurvey" --> "1" "AnyMasterData" : "ParentProjectID"
class "Basin" <<master-data>>
abstract "GeoContexts[]" <<nested array>>
"SeismicAcquisitionSurvey" *-- "*" "GeoContexts[]"
"GeoContexts[]" --> "1" "Basin" : "BasinID"
class "Field" <<master-data>>
"GeoContexts[]" --> "1" "Field" : "FieldID"
class "GeoPoliticalEntity" <<master-data>>
"GeoContexts[]" --> "1" "GeoPoliticalEntity" : "GeoPoliticalEntityID"
class "Organisation" <<master-data>>
abstract "Contractors[]" <<nested array>>
"SeismicAcquisitionSurvey" *-- "*" "Contractors[]"
"Contractors[]" --> "1" "Organisation" : "ContractorOrganisationID"
abstract "NameAliases[]" <<nested array>>
"SeismicAcquisitionSurvey" *-- "*" "NameAliases[]"
"NameAliases[]" --> "1" "Organisation" : "DefinitionOrganisationID"
"SeismicAcquisitionSurvey" --> "1" "Organisation" : "Operator"
abstract "Personnel[]" <<nested array>>
"SeismicAcquisitionSurvey" *-- "*" "Personnel[]"
"Personnel[]" --> "1" "Organisation" : "CompanyOrganisationID"
class "Play" <<master-data>>
"GeoContexts[]" --> "1" "Play" : "PlayID"
class "Prospect" <<master-data>>
"GeoContexts[]" --> "1" "Prospect" : "ProspectID"
class "Rig" <<master-data>>
abstract "VerticalMeasurement" <<nested>>
"SeismicAcquisitionSurvey" *-- "1" "VerticalMeasurement"
"VerticalMeasurement" --> "1" "Rig" : "VerticalReferenceEntityID"
class "Well" <<master-data>>
"VerticalMeasurement" --> "1" "Well" : "VerticalReferenceEntityID"
class "Wellbore" <<master-data>>
abstract "ReceiverConfigurations[]" <<nested array>>
"SeismicAcquisitionSurvey" *-- "*" "ReceiverConfigurations[]"
"ReceiverConfigurations[]" --> "1" "Wellbore" : "WellboreID"
abstract "SourceConfigurations[]" <<nested array>>
"SeismicAcquisitionSurvey" *-- "*" "SourceConfigurations[]"
"SourceConfigurations[]" --> "1" "Wellbore" : "SourceWellboreID"
"VerticalMeasurement" --> "1" "Wellbore" : "VerticalReferenceEntityID"
class "WellboreTrajectory" <<work-product-component>>
"VerticalMeasurement" --> "1" "WellboreTrajectory" : "WellboreTVDTrajectoryID"

class "Reference Data Relationships" <<reference-data>> {
==
"data.AcquisitionTypeID" → SeismicAcquisitionType
==
"data.ActivityStates[].ActivityStatusID" → ActivityStatus
==
"data.Contractors[].ContractorTypeID" → ContractorType
==
"data.EnergySourceTypeID" → SeismicEnergySourceType
==
"data.FundsAuthorizations[].CurrencyID" → Currency
==
"data.GeoContexts[].GeoTypeID" → BasinType
"data.GeoContexts[].GeoTypeID" → GeoPoliticalEntityType
"data.GeoContexts[].GeoTypeID" → PlayType
"data.GeoContexts[].GeoTypeID" → ProspectType
==
"data.LastActivityState.ActivityStatusID" → ActivityStatus
==
"data.NameAliases[].AliasNameTypeID" → AliasNameType
"data.NameAliases[].DefinitionOrganisationID" → StandardsOrganisation
==
"data.OperatingEnvironmentID" → OperatingEnvironment
==
"data.Parameters[].DataQuantityParameterUOMID" → UnitOfMeasure
"data.Parameters[].ParameterKindID" → ParameterKind
"data.Parameters[].ParameterRoleID" → ParameterRole
==
"data.Personnel[].ProjectRoleID" → ProjectRole
==
"data.ProjectSpecifications[].ParameterTypeID" → ParameterType
"data.ProjectSpecifications[].UnitOfMeasureID" → UnitOfMeasure
==
"data.ProjectStates[].ProjectStateTypeID" → ProjectStateType
==
"data.ReceiverConfigurations[].ReceiverTypeID" → SeismicReceiverType
==
"data.SeismicGeometryTypeID" → SeismicGeometryType
==
"data.SourceConfigurations[].EnergySourceTypeID" → SeismicEnergySourceType
==
"data.SpatialLocation.AsIngestedCoordinates.CoordinateReferenceSystemID" → CoordinateReferenceSystem
"data.SpatialLocation.AsIngestedCoordinates.VerticalCoordinateReferenceSystemID" → CoordinateReferenceSystem
"data.SpatialLocation.AsIngestedCoordinates.VerticalUnitID" → UnitOfMeasure
==
"data.SpatialLocation.QualitativeSpatialAccuracyTypeID" → QualitativeSpatialAccuracyType
"data.SpatialLocation.QuantitativeAccuracyBandID" → QuantitativeAccuracyBand
"data.SpatialLocation.SpatialGeometryTypeID" → SpatialGeometryType
"data.SpatialLocation.SpatialParameterTypeID" → SpatialParameterType
==
"data.TechnicalAssuranceTypeID" → TechnicalAssuranceType
==
"data.VerticalMeasurement.VerticalCRSID" → CoordinateReferenceSystem
"data.VerticalMeasurement.VerticalMeasurementPathID" → VerticalMeasurementPath
"data.VerticalMeasurement.VerticalMeasurementSourceID" → VerticalMeasurementSource
"data.VerticalMeasurement.VerticalMeasurementTypeID" → VerticalMeasurementType
"data.VerticalMeasurement.VerticalMeasurementUnitOfMeasureID" → UnitOfMeasure
}
"SeismicAcquisitionSurvey" .up.> "Reference Data Relationships"
abstract "AbstractMaster" <<Abstraction>>
"SeismicAcquisitionSurvey" -right-|>  "AbstractMaster"
abstract "AbstractProject" <<Abstraction>>
"SeismicAcquisitionSurvey" -right-|>  "AbstractProject"
abstract "AbstractProjectActivity" <<Abstraction>>
"SeismicAcquisitionSurvey" -right-|>  "AbstractProjectActivity"
}
@enduml