{
  "id": "partition-id:work-product-component--GenericWorkProductComponent:id",
  "kind": "osdu:wks:work-product-component--GenericWorkProductComponent:1.0.0",
  "data": {
    "ExtensionProperties": {
      "KickOffPosition": {
        "X": 500000.0,
        "Y": 6000000.0
      }
    }
  },
  "legal": {
    "legaltags": [],
    "otherRelevantDataCountries": []
  },
  "acl": {
    "owners": [],
    "viewers": []
  },
  "meta": [
    {
      "kind": "CRS",
      "name": "WGS 84 / UTM zone 15N",
      "persistableReference": "{\"authCode\":{\"auth\":\"EPSG\",\"code\":\"32615\"},\"type\":\"LBC\",\"ver\":\"PE_10_9_1\",\"name\":\"WGS_1984_UTM_Zone_15N\",\"wkt\":\"PROJCS[\\\"WGS_1984_UTM_Zone_15N\\\",GEOGCS[\\\"GCS_WGS_1984\\\",DATUM[\\\"D_WGS_1984\\\",SPHEROID[\\\"WGS_1984\\\",6378137.0,298.257223563]],PRIMEM[\\\"Greenwich\\\",0.0],UNIT[\\\"Degree\\\",0.0174532925199433]],PROJECTION[\\\"Transverse_Mercator\\\"],PARAMETER[\\\"False_Easting\\\",500000.0],PARAMETER[\\\"False_Northing\\\",0.0],PARAMETER[\\\"Central_Meridian\\\",-93.0],PARAMETER[\\\"Scale_Factor\\\",0.9996],PARAMETER[\\\"Latitude_Of_Origin\\\",0.0],UNIT[\\\"Meter\\\",1.0],AUTHORITY[\\\"EPSG\\\",32615]]\"}",
      "coordinateReferenceSystemID": "namespace:reference-data--CoordinateReferenceSystem:Projected:EPSG::32615:",
      "propertyNames": [
        "ExtensionProperties.KickOffPosition.X",
        "ExtensionProperties.KickOffPosition.Y"
      ]
    }
  ]
}