{
  "kind": "osdu:wks:Manifest:1.0.0",
  "ReferenceData": [
    {
      "id": "{{NAMESPACE}}:reference-data--CompressionMethodType:Lossy.AdvancedVideoCoding",
      "kind": "osdu:wks:reference-data--CompressionMethodType:1.0.0",
      "acl": {
        "owners": [
          "{{DATA_OWNERS_GROUP}}"
        ],
        "viewers": [
          "{{DATA_VIEWERS_GROUP}}"
        ]
      },
      "legal": {
        "legaltags": [
          "{{LEGAL_TAG}}"
        ],
        "otherRelevantDataCountries": [
          "{{ISO_3166_ALPHA_2_CODE}}"
        ]
      },
      "data": {
        "Name": "Advanced Video Coding",
        "NameAlias": [
          {
            "AliasName": "AVC"
          },
          {
            "AliasName": "H.264"
          }
        ],
        "Description": "A video compression standard based on block-oriented, motion-compensated integer-DCT coding. It is by far the most commonly used format for the recording, compression, and distribution of video content.",
        "Code": "Lossy.AdvancedVideoCoding",
        "AttributionAuthority": "Wikipedia",
        "AttributionPublication": "https://en.wikipedia.org/wiki/Advanced_Video_Coding",
        "Source": "Workbook Published/CompressionMethodType.1.0.0.xlsx; commit SHA fa4e1b57.",
        "CommitDate": "2022-05-05T08:06:06+02:00"
      }
    },
    {
      "id": "{{NAMESPACE}}:reference-data--CompressionMethodType:Lossy.WaveletPacket",
      "kind": "osdu:wks:reference-data--CompressionMethodType:1.0.0",
      "acl": {
        "owners": [
          "{{DATA_OWNERS_GROUP}}"
        ],
        "viewers": [
          "{{DATA_VIEWERS_GROUP}}"
        ]
      },
      "legal": {
        "legaltags": [
          "{{LEGAL_TAG}}"
        ],
        "otherRelevantDataCountries": [
          "{{ISO_3166_ALPHA_2_CODE}}"
        ]
      },
      "data": {
        "Name": "Wavelet Packet",
        "NameAlias": [
          {
            "AliasName": "WPC"
          },
          {
            "AliasName": "Sub-band Tree"
          }
        ],
        "Description": "A wavelet transform where the discrete-time (sampled) signal is passed through more filters than the discrete wavelet transform (DWT).",
        "Code": "Lossy.WaveletPacket",
        "AttributionAuthority": "OSDU Data Definitions subcommittee",
        "AttributionPublication": "https://www.ep.total.com/en/innovations/best-innovators-2019/using-wavelet-packet-compression-seismic-data",
        "Source": "Workbook Published/CompressionMethodType.1.0.0.xlsx; commit SHA fa4e1b57.",
        "CommitDate": "2022-05-05T08:06:06+02:00"
      }
    },
    {
      "id": "{{NAMESPACE}}:reference-data--CompressionMethodType:Walsh%20Transform",
      "kind": "osdu:wks:reference-data--CompressionMethodType:1.0.0",
      "acl": {
        "owners": [
          "{{DATA_OWNERS_GROUP}}"
        ],
        "viewers": [
          "{{DATA_VIEWERS_GROUP}}"
        ]
      },
      "legal": {
        "legaltags": [
          "{{LEGAL_TAG}}"
        ],
        "otherRelevantDataCountries": [
          "{{ISO_3166_ALPHA_2_CODE}}"
        ]
      },
      "data": {
        "Name": "Walsh Transform",
        "NameAlias": [
          {
            "AliasName": "Hadamard Transform"
          }
        ],
        "Description": "A class of Fourier transforms.",
        "AttributionAuthority": "PPDM Members",
        "AttributionPublication": "https://library.seg.org/doi/10.1190/1.1440443",
        "Code": "Walsh Transform",
        "Source": "Workbook Published/CompressionMethodType.1.0.0.xlsx; commit SHA fa4e1b57.",
        "CommitDate": "2022-05-05T08:06:06+02:00"
      }
    },
    {
      "id": "{{NAMESPACE}}:reference-data--CompressionMethodType:Analogous%20Time-domain",
      "kind": "osdu:wks:reference-data--CompressionMethodType:1.0.0",
      "acl": {
        "owners": [
          "{{DATA_OWNERS_GROUP}}"
        ],
        "viewers": [
          "{{DATA_VIEWERS_GROUP}}"
        ]
      },
      "legal": {
        "legaltags": [
          "{{LEGAL_TAG}}"
        ],
        "otherRelevantDataCountries": [
          "{{ISO_3166_ALPHA_2_CODE}}"
        ]
      },
      "data": {
        "Name": "Analogous Time-domain",
        "Description": "Compression of the signal in the time domain",
        "AttributionAuthority": "PPDM Members",
        "AttributionPublication": "https://library.seg.org/doi/10.1190/1.1440443",
        "Code": "Analogous Time-domain",
        "Source": "Workbook Published/CompressionMethodType.1.0.0.xlsx; commit SHA fa4e1b57.",
        "CommitDate": "2022-05-05T08:06:06+02:00"
      }
    },
    {
      "id": "{{NAMESPACE}}:reference-data--CompressionMethodType:DeepNeuralNetworks",
      "kind": "osdu:wks:reference-data--CompressionMethodType:1.0.0",
      "acl": {
        "owners": [
          "{{DATA_OWNERS_GROUP}}"
        ],
        "viewers": [
          "{{DATA_VIEWERS_GROUP}}"
        ]
      },
      "legal": {
        "legaltags": [
          "{{LEGAL_TAG}}"
        ],
        "otherRelevantDataCountries": [
          "{{ISO_3166_ALPHA_2_CODE}}"
        ]
      },
      "data": {
        "Name": "Deep Neural Networks",
        "NameAlias": [
          {
            "AliasName": "DNN"
          }
        ],
        "Description": "Various compression methods employing artifical neural networks (machine learning) applied to layers.",
        "Code": "DeepNeuralNetworks",
        "AttributionAuthority": "PPDM Members",
        "AttributionPublication": "https://onepetro.org/SEGAM/proceedings-abstract/SEG19/4-SEG19/D043S112R004/105628",
        "Source": "Workbook Published/CompressionMethodType.1.0.0.xlsx; commit SHA fa4e1b57.",
        "CommitDate": "2022-05-05T08:06:06+02:00"
      }
    },
    {
      "id": "{{NAMESPACE}}:reference-data--CompressionMethodType:Lossy.LinearPredictiveCoding",
      "kind": "osdu:wks:reference-data--CompressionMethodType:1.0.0",
      "acl": {
        "owners": [
          "{{DATA_OWNERS_GROUP}}"
        ],
        "viewers": [
          "{{DATA_VIEWERS_GROUP}}"
        ]
      },
      "legal": {
        "legaltags": [
          "{{LEGAL_TAG}}"
        ],
        "otherRelevantDataCountries": [
          "{{ISO_3166_ALPHA_2_CODE}}"
        ]
      },
      "data": {
        "Name": "Linear Predictive Coding",
        "NameAlias": [
          {
            "AliasName": "Linear Predictive compression"
          },
          {
            "AliasName": "LPC"
          }
        ],
        "Description": "LPC is a method used mostly in audio signal processing and speech processing for representing the spectral envelope of a digital signal of speech in compressed form, using the information of a linear predictive model.",
        "Code": "Lossy.LinearPredictiveCoding",
        "AttributionAuthority": "PPDM Members",
        "AttributionPublication": "https://en.wikipedia.org/wiki/Linear_predictive_coding",
        "Source": "Workbook Published/CompressionMethodType.1.0.0.xlsx; commit SHA fa4e1b57.",
        "CommitDate": "2022-05-05T08:06:06+02:00"
      }
    },
    {
      "id": "{{NAMESPACE}}:reference-data--CompressionMethodType:Lossy.SubbandCoding",
      "kind": "osdu:wks:reference-data--CompressionMethodType:1.0.0",
      "acl": {
        "owners": [
          "{{DATA_OWNERS_GROUP}}"
        ],
        "viewers": [
          "{{DATA_VIEWERS_GROUP}}"
        ]
      },
      "legal": {
        "legaltags": [
          "{{LEGAL_TAG}}"
        ],
        "otherRelevantDataCountries": [
          "{{ISO_3166_ALPHA_2_CODE}}"
        ]
      },
      "data": {
        "Name": "Sub-band Coding",
        "NameAlias": [
          {
            "AliasName": "SBC"
          }
        ],
        "Description": "SBC is any form of transform coding that breaks a signal into a number of different frequency bands, typically by using a fast Fourier transform, and encodes each one independently. This decomposition is often the first step in data compression for audio and video signals.",
        "Code": "Lossy.SubbandCoding",
        "AttributionAuthority": "PPDM Members",
        "AttributionPublication": "https://en.wikipedia.org/wiki/Sub-band_coding",
        "Source": "Workbook Published/CompressionMethodType.1.0.0.xlsx; commit SHA fa4e1b57.",
        "CommitDate": "2022-05-05T08:06:06+02:00"
      }
    },
    {
      "id": "{{NAMESPACE}}:reference-data--CompressionMethodType:Bit%20Resolution%20Compression",
      "kind": "osdu:wks:reference-data--CompressionMethodType:1.0.0",
      "acl": {
        "owners": [
          "{{DATA_OWNERS_GROUP}}"
        ],
        "viewers": [
          "{{DATA_VIEWERS_GROUP}}"
        ]
      },
      "legal": {
        "legaltags": [
          "{{LEGAL_TAG}}"
        ],
        "otherRelevantDataCountries": [
          "{{ISO_3166_ALPHA_2_CODE}}"
        ]
      },
      "data": {
        "Name": "Bit Resolution Compression",
        "Description": "In digital audio using pulse-code modulation (PCM), bit depth is the number of bits of information in each sample, and it directly corresponds to the resolution of each sample.",
        "AttributionAuthority": "Wikipedia",
        "AttributionPublication": "https://en.wikipedia.org/wiki/Audio_bit_depth",
        "Code": "Bit Resolution Compression",
        "Source": "Workbook Published/CompressionMethodType.1.0.0.xlsx; commit SHA fa4e1b57.",
        "CommitDate": "2022-05-05T08:06:06+02:00"
      }
    },
    {
      "id": "{{NAMESPACE}}:reference-data--CompressionMethodType:BitResolutionCompression.8bit",
      "kind": "osdu:wks:reference-data--CompressionMethodType:1.0.0",
      "acl": {
        "owners": [
          "{{DATA_OWNERS_GROUP}}"
        ],
        "viewers": [
          "{{DATA_VIEWERS_GROUP}}"
        ]
      },
      "legal": {
        "legaltags": [
          "{{LEGAL_TAG}}"
        ],
        "otherRelevantDataCountries": [
          "{{ISO_3166_ALPHA_2_CODE}}"
        ]
      },
      "data": {
        "Name": "Bit Resolution Compression.8-bit",
        "Description": "Bit resolution compression - 8 bit.",
        "Code": "BitResolutionCompression.8bit",
        "AttributionAuthority": "PPDM Members",
        "Source": "Workbook Published/CompressionMethodType.1.0.0.xlsx; commit SHA fa4e1b57.",
        "CommitDate": "2022-05-05T08:06:06+02:00"
      }
    },
    {
      "id": "{{NAMESPACE}}:reference-data--CompressionMethodType:BitResolutionCompression.8bitFloatingPoint",
      "kind": "osdu:wks:reference-data--CompressionMethodType:1.0.0",
      "acl": {
        "owners": [
          "{{DATA_OWNERS_GROUP}}"
        ],
        "viewers": [
          "{{DATA_VIEWERS_GROUP}}"
        ]
      },
      "legal": {
        "legaltags": [
          "{{LEGAL_TAG}}"
        ],
        "otherRelevantDataCountries": [
          "{{ISO_3166_ALPHA_2_CODE}}"
        ]
      },
      "data": {
        "Name": "Bit Resolution Compression.8-bit Floating Point",
        "Description": "Bit resolution compression - 8 bit floating point.",
        "Code": "BitResolutionCompression.8bitFloatingPoint",
        "AttributionAuthority": "PPDM Members",
        "Source": "Workbook Published/CompressionMethodType.1.0.0.xlsx; commit SHA fa4e1b57.",
        "CommitDate": "2022-05-05T08:06:06+02:00"
      }
    },
    {
      "id": "{{NAMESPACE}}:reference-data--CompressionMethodType:BitResolutionCompression.16bit",
      "kind": "osdu:wks:reference-data--CompressionMethodType:1.0.0",
      "acl": {
        "owners": [
          "{{DATA_OWNERS_GROUP}}"
        ],
        "viewers": [
          "{{DATA_VIEWERS_GROUP}}"
        ]
      },
      "legal": {
        "legaltags": [
          "{{LEGAL_TAG}}"
        ],
        "otherRelevantDataCountries": [
          "{{ISO_3166_ALPHA_2_CODE}}"
        ]
      },
      "data": {
        "Name": "Bit Resolution Compression.16-bit",
        "Description": "Bit resolution compression - 16 bit.",
        "Code": "BitResolutionCompression.16bit",
        "AttributionAuthority": "PPDM Members",
        "AttributionPublication": "http://help.dugeo.com/m/faq/l/652200-what-should-i-know-about-insight-s-16-bit-data-compression",
        "Source": "Workbook Published/CompressionMethodType.1.0.0.xlsx; commit SHA fa4e1b57.",
        "CommitDate": "2022-05-05T08:06:06+02:00"
      }
    },
    {
      "id": "{{NAMESPACE}}:reference-data--CompressionMethodType:BitResolutionCompression.32bitInteger",
      "kind": "osdu:wks:reference-data--CompressionMethodType:1.0.0",
      "acl": {
        "owners": [
          "{{DATA_OWNERS_GROUP}}"
        ],
        "viewers": [
          "{{DATA_VIEWERS_GROUP}}"
        ]
      },
      "legal": {
        "legaltags": [
          "{{LEGAL_TAG}}"
        ],
        "otherRelevantDataCountries": [
          "{{ISO_3166_ALPHA_2_CODE}}"
        ]
      },
      "data": {
        "Name": "Bit Resolution Compression.32-bit Integer",
        "Description": "Bit resolution compression - 32 bit integer.",
        "Code": "BitResolutionCompression.32bitInteger",
        "AttributionAuthority": "PPDM Members",
        "Source": "Workbook Published/CompressionMethodType.1.0.0.xlsx; commit SHA fa4e1b57.",
        "CommitDate": "2022-05-05T08:06:06+02:00"
      }
    },
    {
      "id": "{{NAMESPACE}}:reference-data--CompressionMethodType:BitResolutionCompression.32bitFloatingPoint",
      "kind": "osdu:wks:reference-data--CompressionMethodType:1.0.0",
      "acl": {
        "owners": [
          "{{DATA_OWNERS_GROUP}}"
        ],
        "viewers": [
          "{{DATA_VIEWERS_GROUP}}"
        ]
      },
      "legal": {
        "legaltags": [
          "{{LEGAL_TAG}}"
        ],
        "otherRelevantDataCountries": [
          "{{ISO_3166_ALPHA_2_CODE}}"
        ]
      },
      "data": {
        "Name": "Bit Resolution Compression.32-bit Floating Point",
        "Description": "Bit resolution compression - 32 bit floating point.",
        "Code": "BitResolutionCompression.32bitFloatingPoint",
        "AttributionAuthority": "PPDM Members",
        "Source": "Workbook Published/CompressionMethodType.1.0.0.xlsx; commit SHA fa4e1b57.",
        "CommitDate": "2022-05-05T08:06:06+02:00"
      }
    },
    {
      "id": "{{NAMESPACE}}:reference-data--CompressionMethodType:Lossless.DictionaryLearning",
      "kind": "osdu:wks:reference-data--CompressionMethodType:1.0.0",
      "acl": {
        "owners": [
          "{{DATA_OWNERS_GROUP}}"
        ],
        "viewers": [
          "{{DATA_VIEWERS_GROUP}}"
        ]
      },
      "legal": {
        "legaltags": [
          "{{LEGAL_TAG}}"
        ],
        "otherRelevantDataCountries": [
          "{{ISO_3166_ALPHA_2_CODE}}"
        ]
      },
      "data": {
        "Name": "Dictionary Learning",
        "Description": "Dictionary learning has shown to provide representations with high level of sparsity. It stores the shape of the redundant events once, and represents each occurrence of these events with a single sparse coefficient.",
        "Code": "Lossless.DictionaryLearning",
        "AttributionAuthority": "PPDM Members",
        "AttributionPublication": "https://www.earthdoc.org/content/papers/10.3997/2214-4609.202034036",
        "Source": "Workbook Published/CompressionMethodType.1.0.0.xlsx; commit SHA fa4e1b57.",
        "CommitDate": "2022-05-05T08:06:06+02:00"
      }
    },
    {
      "id": "{{NAMESPACE}}:reference-data--CompressionMethodType:Lossy.DimensionalPatternMatching",
      "kind": "osdu:wks:reference-data--CompressionMethodType:1.0.0",
      "acl": {
        "owners": [
          "{{DATA_OWNERS_GROUP}}"
        ],
        "viewers": [
          "{{DATA_VIEWERS_GROUP}}"
        ]
      },
      "legal": {
        "legaltags": [
          "{{LEGAL_TAG}}"
        ],
        "otherRelevantDataCountries": [
          "{{ISO_3166_ALPHA_2_CODE}}"
        ]
      },
      "data": {
        "Name": "2-Dimensional Pattern Matching",
        "NameAlias": [
          {
            "AliasName": "2D PMC"
          }
        ],
        "Description": "A lossy data compression framework based on an approximate two-dimensional (2D) pattern matching (2D-PMC) extension of the Lempel-Ziv (1977, 1978) lossless scheme.",
        "Code": "Lossy.DimensionalPatternMatching",
        "AttributionAuthority": "PPDM Members",
        "AttributionPublication": "https://pubmed.ncbi.nlm.nih.gov/18244634/",
        "Source": "Workbook Published/CompressionMethodType.1.0.0.xlsx; commit SHA fa4e1b57.",
        "CommitDate": "2022-05-05T08:06:06+02:00"
      }
    },
    {
      "id": "{{NAMESPACE}}:reference-data--CompressionMethodType:Lossy",
      "kind": "osdu:wks:reference-data--CompressionMethodType:1.0.0",
      "acl": {
        "owners": [
          "{{DATA_OWNERS_GROUP}}"
        ],
        "viewers": [
          "{{DATA_VIEWERS_GROUP}}"
        ]
      },
      "legal": {
        "legaltags": [
          "{{LEGAL_TAG}}"
        ],
        "otherRelevantDataCountries": [
          "{{ISO_3166_ALPHA_2_CODE}}"
        ]
      },
      "data": {
        "Name": "Lossy",
        "Description": "Lossy data compression (a general category of methods) eliminates data perceived to be less important or relevant in favor of reducing file size.  Lossy compressions cannot be reversed. ",
        "Code": "Lossy",
        "AttributionAuthority": "PPDM Members",
        "Source": "Workbook Published/CompressionMethodType.1.0.0.xlsx; commit SHA fa4e1b57.",
        "CommitDate": "2022-05-05T08:06:06+02:00"
      }
    },
    {
      "id": "{{NAMESPACE}}:reference-data--CompressionMethodType:Lossless",
      "kind": "osdu:wks:reference-data--CompressionMethodType:1.0.0",
      "acl": {
        "owners": [
          "{{DATA_OWNERS_GROUP}}"
        ],
        "viewers": [
          "{{DATA_VIEWERS_GROUP}}"
        ]
      },
      "legal": {
        "legaltags": [
          "{{LEGAL_TAG}}"
        ],
        "otherRelevantDataCountries": [
          "{{ISO_3166_ALPHA_2_CODE}}"
        ]
      },
      "data": {
        "Name": "Lossless",
        "Description": "Lossless data compression\u00a0algorithms\u00a0use statistical data redundancy\u00a0to represent data without losing any\u00a0information, so that the process is reversible.",
        "Code": "Lossless",
        "AttributionAuthority": "PPDM Members",
        "Source": "Workbook Published/CompressionMethodType.1.0.0.xlsx; commit SHA fa4e1b57.",
        "CommitDate": "2022-05-05T08:06:06+02:00"
      }
    },
    {
      "id": "{{NAMESPACE}}:reference-data--CompressionMethodType:Lossless.BurrowsWheelerTransform",
      "kind": "osdu:wks:reference-data--CompressionMethodType:1.0.0",
      "acl": {
        "owners": [
          "{{DATA_OWNERS_GROUP}}"
        ],
        "viewers": [
          "{{DATA_VIEWERS_GROUP}}"
        ]
      },
      "legal": {
        "legaltags": [
          "{{LEGAL_TAG}}"
        ],
        "otherRelevantDataCountries": [
          "{{ISO_3166_ALPHA_2_CODE}}"
        ]
      },
      "data": {
        "Name": "Burrows\u2013Wheeler Transform\u00a0",
        "NameAlias": [
          {
            "AliasName": "BWT"
          },
          {
            "AliasName": "Block-sorting Compression"
          }
        ],
        "Description": "BWT rearranges a character string into runs of similar characters. The process is reversible.",
        "Code": "Lossless.BurrowsWheelerTransform",
        "AttributionAuthority": "PPDM Members",
        "AttributionPublication": "https://en.wikipedia.org/wiki/Burrows%E2%80%93Wheeler_transform",
        "Source": "Workbook Published/CompressionMethodType.1.0.0.xlsx; commit SHA fa4e1b57.",
        "CommitDate": "2022-05-05T08:06:06+02:00"
      }
    },
    {
      "id": "{{NAMESPACE}}:reference-data--CompressionMethodType:Lossless.LempelZiv",
      "kind": "osdu:wks:reference-data--CompressionMethodType:1.0.0",
      "acl": {
        "owners": [
          "{{DATA_OWNERS_GROUP}}"
        ],
        "viewers": [
          "{{DATA_VIEWERS_GROUP}}"
        ]
      },
      "legal": {
        "legaltags": [
          "{{LEGAL_TAG}}"
        ],
        "otherRelevantDataCountries": [
          "{{ISO_3166_ALPHA_2_CODE}}"
        ]
      },
      "data": {
        "Name": "Lempel-Ziv",
        "NameAlias": [
          {
            "AliasName": "LZ"
          }
        ],
        "Description": "LZ77 and LZ78 are the two lossless data compression algorithms published in papers by Abraham Lempel and Jacob Ziv in 1977[1] and 1978...They are both theoretically dictionary coders.",
        "Code": "Lossless.LempelZiv",
        "AttributionAuthority": "PPDM Members",
        "AttributionPublication": "https://en.wikipedia.org/wiki/LZ77_and_LZ78",
        "Source": "Workbook Published/CompressionMethodType.1.0.0.xlsx; commit SHA fa4e1b57.",
        "CommitDate": "2022-05-05T08:06:06+02:00"
      }
    },
    {
      "id": "{{NAMESPACE}}:reference-data--CompressionMethodType:Lossless.LZ77",
      "kind": "osdu:wks:reference-data--CompressionMethodType:1.0.0",
      "acl": {
        "owners": [
          "{{DATA_OWNERS_GROUP}}"
        ],
        "viewers": [
          "{{DATA_VIEWERS_GROUP}}"
        ]
      },
      "legal": {
        "legaltags": [
          "{{LEGAL_TAG}}"
        ],
        "otherRelevantDataCountries": [
          "{{ISO_3166_ALPHA_2_CODE}}"
        ]
      },
      "data": {
        "Name": "LZ77",
        "NameAlias": [
          {
            "AliasName": "Lempel-Ziv 77"
          },
          {
            "AliasName": "LZ1"
          }
        ],
        "Description": "A dictionary coder, LZ77 maintains a sliding window during compression.",
        "Code": "Lossless.LZ77",
        "AttributionAuthority": "PPDM Members",
        "AttributionPublication": "https://en.wikipedia.org/wiki/LZ77_and_LZ78",
        "Source": "Workbook Published/CompressionMethodType.1.0.0.xlsx; commit SHA fa4e1b57.",
        "CommitDate": "2022-05-05T08:06:06+02:00"
      }
    },
    {
      "id": "{{NAMESPACE}}:reference-data--CompressionMethodType:Lossless.LZ78",
      "kind": "osdu:wks:reference-data--CompressionMethodType:1.0.0",
      "acl": {
        "owners": [
          "{{DATA_OWNERS_GROUP}}"
        ],
        "viewers": [
          "{{DATA_VIEWERS_GROUP}}"
        ]
      },
      "legal": {
        "legaltags": [
          "{{LEGAL_TAG}}"
        ],
        "otherRelevantDataCountries": [
          "{{ISO_3166_ALPHA_2_CODE}}"
        ]
      },
      "data": {
        "Name": "LZ78",
        "NameAlias": [
          {
            "AliasName": "Lempel-Ziv 78"
          },
          {
            "AliasName": "LZ2"
          }
        ],
        "Description": "Conceptually, LZ78 decompression could allow random access to the input if the entire dictionary were known in advance. However, in practice the dictionary is created during encoding and decoding by creating a new phrase whenever a token is output",
        "Code": "Lossless.LZ78",
        "AttributionAuthority": "PPDM Members",
        "AttributionPublication": "https://en.wikipedia.org/wiki/LZ77_and_LZ78",
        "Source": "Workbook Published/CompressionMethodType.1.0.0.xlsx; commit SHA fa4e1b57.",
        "CommitDate": "2022-05-05T08:06:06+02:00"
      }
    },
    {
      "id": "{{NAMESPACE}}:reference-data--CompressionMethodType:Lossy.DiscreteCosineTransform",
      "kind": "osdu:wks:reference-data--CompressionMethodType:1.0.0",
      "acl": {
        "owners": [
          "{{DATA_OWNERS_GROUP}}"
        ],
        "viewers": [
          "{{DATA_VIEWERS_GROUP}}"
        ]
      },
      "legal": {
        "legaltags": [
          "{{LEGAL_TAG}}"
        ],
        "otherRelevantDataCountries": [
          "{{ISO_3166_ALPHA_2_CODE}}"
        ]
      },
      "data": {
        "Name": "Discrete Cosine Transform",
        "NameAlias": [
          {
            "AliasName": "DCT"
          }
        ],
        "Description": "DCT expresses a finite sequence of data points in terms of a sum of cosine functions oscillating at different frequencies. The DCT, first proposed by Nasir Ahmed in 1972, is a widely used transformation technique in signal processing and data compression",
        "Code": "Lossy.DiscreteCosineTransform",
        "AttributionAuthority": "PPDM Members",
        "AttributionPublication": "https://en.wikipedia.org/wiki/Discrete_cosine_transform",
        "Source": "Workbook Published/CompressionMethodType.1.0.0.xlsx; commit SHA fa4e1b57.",
        "CommitDate": "2022-05-05T08:06:06+02:00"
      }
    },
    {
      "id": "{{NAMESPACE}}:reference-data--CompressionMethodType:Lossless.DataDifferencing",
      "kind": "osdu:wks:reference-data--CompressionMethodType:1.0.0",
      "acl": {
        "owners": [
          "{{DATA_OWNERS_GROUP}}"
        ],
        "viewers": [
          "{{DATA_VIEWERS_GROUP}}"
        ]
      },
      "legal": {
        "legaltags": [
          "{{LEGAL_TAG}}"
        ],
        "otherRelevantDataCountries": [
          "{{ISO_3166_ALPHA_2_CODE}}"
        ]
      },
      "data": {
        "Name": "Data Differencing",
        "NameAlias": [
          {
            "AliasName": "Differential Compression"
          }
        ],
        "Description": "A data differencing algorithm takes as input source data and target data, and produces difference data such that given the source data and the difference data, one can reconstruct the target data",
        "Code": "Lossless.DataDifferencing",
        "AttributionAuthority": "Wikipedia",
        "AttributionPublication": "https://en.wikipedia.org/wiki/Data_differencing",
        "Source": "Workbook Published/CompressionMethodType.1.0.0.xlsx; commit SHA fa4e1b57.",
        "CommitDate": "2022-05-05T08:06:06+02:00"
      }
    },
    {
      "id": "{{NAMESPACE}}:reference-data--CompressionMethodType:Lossless.ARC",
      "kind": "osdu:wks:reference-data--CompressionMethodType:1.0.0",
      "acl": {
        "owners": [
          "{{DATA_OWNERS_GROUP}}"
        ],
        "viewers": [
          "{{DATA_VIEWERS_GROUP}}"
        ]
      },
      "legal": {
        "legaltags": [
          "{{LEGAL_TAG}}"
        ],
        "otherRelevantDataCountries": [
          "{{ISO_3166_ALPHA_2_CODE}}"
        ]
      },
      "data": {
        "Name": "ARC",
        "NameAlias": [
          {
            "AliasName": "ARC"
          }
        ],
        "Description": "ARC is a lossless data compression and archival format. The file format and the program were both called ARC.",
        "Code": "Lossless.ARC",
        "AttributionAuthority": "PPDM Members",
        "AttributionPublication": "https://en.wikipedia.org/wiki/ARC_(file_format)",
        "Source": "Workbook Published/CompressionMethodType.1.0.0.xlsx; commit SHA fa4e1b57.",
        "CommitDate": "2022-05-05T08:06:06+02:00"
      }
    },
    {
      "id": "{{NAMESPACE}}:reference-data--CompressionMethodType:Lossless.Zip",
      "kind": "osdu:wks:reference-data--CompressionMethodType:1.0.0",
      "acl": {
        "owners": [
          "{{DATA_OWNERS_GROUP}}"
        ],
        "viewers": [
          "{{DATA_VIEWERS_GROUP}}"
        ]
      },
      "legal": {
        "legaltags": [
          "{{LEGAL_TAG}}"
        ],
        "otherRelevantDataCountries": [
          "{{ISO_3166_ALPHA_2_CODE}}"
        ]
      },
      "data": {
        "Name": "Zip",
        "NameAlias": [
          {
            "AliasName": "ZIP"
          }
        ],
        "Description": "Archive format that supports lossless data compression",
        "Code": "Lossless.Zip",
        "AttributionAuthority": "Apache Commons",
        "AttributionPublication": "http://commons.apache.org/proper/commons-compress/",
        "Source": "Workbook Published/CompressionMethodType.1.0.0.xlsx; commit SHA fa4e1b57.",
        "CommitDate": "2022-05-05T08:06:06+02:00"
      }
    },
    {
      "id": "{{NAMESPACE}}:reference-data--CompressionMethodType:GZip",
      "kind": "osdu:wks:reference-data--CompressionMethodType:1.0.0",
      "acl": {
        "owners": [
          "{{DATA_OWNERS_GROUP}}"
        ],
        "viewers": [
          "{{DATA_VIEWERS_GROUP}}"
        ]
      },
      "legal": {
        "legaltags": [
          "{{LEGAL_TAG}}"
        ],
        "otherRelevantDataCountries": [
          "{{ISO_3166_ALPHA_2_CODE}}"
        ]
      },
      "data": {
        "Name": "GZip",
        "NameAlias": [
          {
            "AliasName": "GZIP"
          }
        ],
        "Description": "Compression and decompression file format",
        "Code": "GZip",
        "AttributionAuthority": "Apache Commons",
        "AttributionPublication": "http://commons.apache.org/proper/commons-compress/",
        "Source": "Workbook Published/CompressionMethodType.1.0.0.xlsx; commit SHA fa4e1b57.",
        "CommitDate": "2022-05-05T08:06:06+02:00"
      }
    },
    {
      "id": "{{NAMESPACE}}:reference-data--CompressionMethodType:7z",
      "kind": "osdu:wks:reference-data--CompressionMethodType:1.0.0",
      "acl": {
        "owners": [
          "{{DATA_OWNERS_GROUP}}"
        ],
        "viewers": [
          "{{DATA_VIEWERS_GROUP}}"
        ]
      },
      "legal": {
        "legaltags": [
          "{{LEGAL_TAG}}"
        ],
        "otherRelevantDataCountries": [
          "{{ISO_3166_ALPHA_2_CODE}}"
        ]
      },
      "data": {
        "Name": "7z",
        "Description": "7-Zip",
        "Code": "7z",
        "AttributionAuthority": "Apache Commons",
        "AttributionPublication": "http://commons.apache.org/proper/commons-compress/",
        "Source": "Workbook Published/CompressionMethodType.1.0.0.xlsx; commit SHA fa4e1b57.",
        "CommitDate": "2022-05-05T08:06:06+02:00"
      }
    },
    {
      "id": "{{NAMESPACE}}:reference-data--CompressionMethodType:Jar",
      "kind": "osdu:wks:reference-data--CompressionMethodType:1.0.0",
      "acl": {
        "owners": [
          "{{DATA_OWNERS_GROUP}}"
        ],
        "viewers": [
          "{{DATA_VIEWERS_GROUP}}"
        ]
      },
      "legal": {
        "legaltags": [
          "{{LEGAL_TAG}}"
        ],
        "otherRelevantDataCountries": [
          "{{ISO_3166_ALPHA_2_CODE}}"
        ]
      },
      "data": {
        "Name": "Jar",
        "Description": "Java compression archive",
        "Code": "Jar",
        "AttributionAuthority": "Apache Commons",
        "AttributionPublication": "http://commons.apache.org/proper/commons-compress/",
        "Source": "Workbook Published/CompressionMethodType.1.0.0.xlsx; commit SHA fa4e1b57.",
        "CommitDate": "2022-05-05T08:06:06+02:00"
      }
    },
    {
      "id": "{{NAMESPACE}}:reference-data--CompressionMethodType:Lossless.BytePairEncoding",
      "kind": "osdu:wks:reference-data--CompressionMethodType:1.0.0",
      "acl": {
        "owners": [
          "{{DATA_OWNERS_GROUP}}"
        ],
        "viewers": [
          "{{DATA_VIEWERS_GROUP}}"
        ]
      },
      "legal": {
        "legaltags": [
          "{{LEGAL_TAG}}"
        ],
        "otherRelevantDataCountries": [
          "{{ISO_3166_ALPHA_2_CODE}}"
        ]
      },
      "data": {
        "Name": "Byte-Pair Encoding",
        "NameAlias": [
          {
            "AliasName": "Digram Coding"
          }
        ],
        "Description": "A simple form of data compression in which the most common pair of consecutive bytes of data is replaced with a byte that does not occur within that data.",
        "Code": "Lossless.BytePairEncoding",
        "AttributionAuthority": "PPDM Members",
        "AttributionPublication": "https://en.wikipedia.org/wiki/Byte_pair_encoding",
        "Source": "Workbook Published/CompressionMethodType.1.0.0.xlsx; commit SHA fa4e1b57.",
        "CommitDate": "2022-05-05T08:06:06+02:00"
      }
    }
  ]
}