{
  "kind": "osdu:wks:Manifest:1.0.0",
  "ReferenceData": [
    {
      "id": "{{NAMESPACE}}:reference-data--ExternalCatalogNamespace:LIS-LAS",
      "kind": "osdu:wks:reference-data--ExternalCatalogNamespace:1.0.0",
      "acl": {
        "owners": [
          "{{DATA_OWNERS_GROUP}}"
        ],
        "viewers": [
          "{{DATA_VIEWERS_GROUP}}"
        ]
      },
      "legal": {
        "legaltags": [
          "{{LEGAL_TAG}}"
        ],
        "otherRelevantDataCountries": [
          "{{ISO_3166_ALPHA_2_CODE}}"
        ]
      },
      "data": {
        "Name": "LIS-LAS",
        "NameAlias": [
          {
            "AliasName": "LIS",
            "AliasNameTypeID": "{{NAMESPACE}}:reference-data--AliasNameType:IndustryCode:",
            "DefinitionOrganisationID": "{{NAMESPACE}}:reference-data--StandardsOrganisation:Schlumberger:"
          },
          {
            "AliasName": "LAS",
            "AliasNameTypeID": "{{NAMESPACE}}:reference-data--AliasNameType:IndustryCode:",
            "DefinitionOrganisationID": "{{NAMESPACE}}:reference-data--StandardsOrganisation:CWLS:"
          }
        ],
        "Description": "A namespace for legacy unit of measure symbols frequently used in conjunction with LIS and LAS datasets.",
        "Code": "LIS-LAS",
        "AttributionAuthority": "Schlumberger",
        "AttributionPublication": "Oilfield Services Data Dictionary",
        "AttributionRevision": "Extraction September 2021",
        "Source": "Workbook Published/ExternalCatalogNamespace.1.0.0.xlsx; commit SHA 54e89405.",
        "CommitDate": "2022-02-05T15:50:17+01:00"
      }
    },
    {
      "id": "{{NAMESPACE}}:reference-data--ExternalCatalogNamespace:SLB-OSDD",
      "kind": "osdu:wks:reference-data--ExternalCatalogNamespace:1.0.0",
      "acl": {
        "owners": [
          "{{DATA_OWNERS_GROUP}}"
        ],
        "viewers": [
          "{{DATA_VIEWERS_GROUP}}"
        ]
      },
      "legal": {
        "legaltags": [
          "{{LEGAL_TAG}}"
        ],
        "otherRelevantDataCountries": [
          "{{ISO_3166_ALPHA_2_CODE}}"
        ]
      },
      "data": {
        "Name": "SLB-OSDD",
        "Description": "A namespace for Schlumberger Oilfield Services Dictionary content.",
        "Code": "SLB-OSDD",
        "AttributionAuthority": "Schlumberger",
        "AttributionPublication": "Oilfield Services Data Dictionary",
        "AttributionRevision": "Extraction October 8, 2021",
        "Source": "Workbook Published/ExternalCatalogNamespace.1.0.0.xlsx; commit SHA 54e89405.",
        "CommitDate": "2022-02-05T15:50:17+01:00"
      }
    },
    {
      "id": "{{NAMESPACE}}:reference-data--ExternalCatalogNamespace:EDS",
      "kind": "osdu:wks:reference-data--ExternalCatalogNamespace:1.0.0",
      "acl": {
        "owners": [
          "{{DATA_OWNERS_GROUP}}"
        ],
        "viewers": [
          "{{DATA_VIEWERS_GROUP}}"
        ]
      },
      "legal": {
        "legaltags": [
          "{{LEGAL_TAG}}"
        ],
        "otherRelevantDataCountries": [
          "{{ISO_3166_ALPHA_2_CODE}}"
        ]
      },
      "data": {
        "Name": "EDS",
        "Description": "An example namespace for External Data Sources to group reference value mappings.",
        "AttributionAuthority": "OSDU",
        "Code": "EDS",
        "Source": "Workbook Published/ExternalCatalogNamespace.1.0.0.xlsx; commit SHA 7046ecc9.",
        "CommitDate": "2022-11-04T17:50:56+01:00"
      }
    }
  ]
}