{
  "kind": "osdu:wks:Manifest:1.0.0",
  "ReferenceData": [
    {
      "id": "{{NAMESPACE}}:reference-data--StringClass:Drilling",
      "kind": "osdu:wks:reference-data--StringClass:1.0.0",
      "acl": {
        "owners": [
          "{{DATA_OWNERS_GROUP}}"
        ],
        "viewers": [
          "{{DATA_VIEWERS_GROUP}}"
        ]
      },
      "legal": {
        "legaltags": [
          "{{LEGAL_TAG}}"
        ],
        "otherRelevantDataCountries": [
          "{{ISO_3166_ALPHA_2_CODE}}"
        ]
      },
      "data": {
        "Name": "Drilling",
        "Code": "Drilling",
        "Source": "Workbook Published/StringClass.1.0.0.xlsx; commit SHA c1d72417.",
        "CommitDate": "2021-03-16T11:23:02+01:00"
      }
    },
    {
      "id": "{{NAMESPACE}}:reference-data--StringClass:Protective",
      "kind": "osdu:wks:reference-data--StringClass:1.0.0",
      "acl": {
        "owners": [
          "{{DATA_OWNERS_GROUP}}"
        ],
        "viewers": [
          "{{DATA_VIEWERS_GROUP}}"
        ]
      },
      "legal": {
        "legaltags": [
          "{{LEGAL_TAG}}"
        ],
        "otherRelevantDataCountries": [
          "{{ISO_3166_ALPHA_2_CODE}}"
        ]
      },
      "data": {
        "Name": "Protective",
        "Code": "Protective",
        "Source": "Workbook Published/StringClass.1.0.0.xlsx; commit SHA c1d72417.",
        "CommitDate": "2021-03-16T11:23:02+01:00"
      }
    },
    {
      "id": "{{NAMESPACE}}:reference-data--StringClass:Production",
      "kind": "osdu:wks:reference-data--StringClass:1.0.0",
      "acl": {
        "owners": [
          "{{DATA_OWNERS_GROUP}}"
        ],
        "viewers": [
          "{{DATA_VIEWERS_GROUP}}"
        ]
      },
      "legal": {
        "legaltags": [
          "{{LEGAL_TAG}}"
        ],
        "otherRelevantDataCountries": [
          "{{ISO_3166_ALPHA_2_CODE}}"
        ]
      },
      "data": {
        "Name": "Production",
        "Code": "Production",
        "Source": "Workbook Published/StringClass.1.0.0.xlsx; commit SHA c1d72417.",
        "CommitDate": "2021-03-16T11:23:02+01:00"
      }
    },
    {
      "id": "{{NAMESPACE}}:reference-data--StringClass:Tubing",
      "kind": "osdu:wks:reference-data--StringClass:1.0.0",
      "acl": {
        "owners": [
          "{{DATA_OWNERS_GROUP}}"
        ],
        "viewers": [
          "{{DATA_VIEWERS_GROUP}}"
        ]
      },
      "legal": {
        "legaltags": [
          "{{LEGAL_TAG}}"
        ],
        "otherRelevantDataCountries": [
          "{{ISO_3166_ALPHA_2_CODE}}"
        ]
      },
      "data": {
        "Name": "Tubing",
        "Code": "Tubing",
        "Source": "Workbook Published/StringClass.1.0.0.xlsx; commit SHA c1d72417.",
        "CommitDate": "2021-03-16T11:23:02+01:00"
      }
    },
    {
      "id": "{{NAMESPACE}}:reference-data--StringClass:Conductor",
      "kind": "osdu:wks:reference-data--StringClass:1.0.0",
      "acl": {
        "owners": [
          "{{DATA_OWNERS_GROUP}}"
        ],
        "viewers": [
          "{{DATA_VIEWERS_GROUP}}"
        ]
      },
      "legal": {
        "legaltags": [
          "{{LEGAL_TAG}}"
        ],
        "otherRelevantDataCountries": [
          "{{ISO_3166_ALPHA_2_CODE}}"
        ]
      },
      "data": {
        "Name": "Conductor",
        "Code": "Conductor",
        "Source": "Workbook Published/StringClass.1.0.0.xlsx; commit SHA c1d72417.",
        "CommitDate": "2021-03-16T11:23:02+01:00"
      }
    },
    {
      "id": "{{NAMESPACE}}:reference-data--StringClass:Surface",
      "kind": "osdu:wks:reference-data--StringClass:1.0.0",
      "acl": {
        "owners": [
          "{{DATA_OWNERS_GROUP}}"
        ],
        "viewers": [
          "{{DATA_VIEWERS_GROUP}}"
        ]
      },
      "legal": {
        "legaltags": [
          "{{LEGAL_TAG}}"
        ],
        "otherRelevantDataCountries": [
          "{{ISO_3166_ALPHA_2_CODE}}"
        ]
      },
      "data": {
        "Name": "Surface",
        "Code": "Surface",
        "Source": "Workbook Published/StringClass.1.0.0.xlsx; commit SHA c1d72417.",
        "CommitDate": "2021-03-16T11:23:02+01:00"
      }
    },
    {
      "id": "{{NAMESPACE}}:reference-data--StringClass:Intermediate",
      "kind": "osdu:wks:reference-data--StringClass:1.0.0",
      "acl": {
        "owners": [
          "{{DATA_OWNERS_GROUP}}"
        ],
        "viewers": [
          "{{DATA_VIEWERS_GROUP}}"
        ]
      },
      "legal": {
        "legaltags": [
          "{{LEGAL_TAG}}"
        ],
        "otherRelevantDataCountries": [
          "{{ISO_3166_ALPHA_2_CODE}}"
        ]
      },
      "data": {
        "Name": "Intermediate",
        "Code": "Intermediate",
        "Source": "Workbook Published/StringClass.1.0.0.xlsx; commit SHA c1d72417.",
        "CommitDate": "2021-03-16T11:23:02+01:00"
      }
    }
  ]
}