{
  "kind": "osdu:wks:Manifest:1.0.0",
  "ReferenceData": [
    {
      "id": "{{NAMESPACE}}:reference-data--TubularComponentConnectionType:CasingLanded",
      "kind": "osdu:wks:reference-data--TubularComponentConnectionType:1.0.0",
      "acl": {
        "owners": [
          "{{DATA_OWNERS_GROUP}}"
        ],
        "viewers": [
          "{{DATA_VIEWERS_GROUP}}"
        ]
      },
      "legal": {
        "legaltags": [
          "{{LEGAL_TAG}}"
        ],
        "otherRelevantDataCountries": [
          "{{ISO_3166_ALPHA_2_CODE}}"
        ]
      },
      "data": {
        "Name": "Casing.Landed",
        "Description": "Landed typed connection of a Casing Component",
        "Code": "CasingLanded",
        "Source": "Workbook Published/TubularComponentConnectionType.1.0.0.xlsx; commit SHA c1d72417.",
        "CommitDate": "2021-03-16T11:23:02+01:00"
      }
    },
    {
      "id": "{{NAMESPACE}}:reference-data--TubularComponentConnectionType:CasingSelfSealingThreaded",
      "kind": "osdu:wks:reference-data--TubularComponentConnectionType:1.0.0",
      "acl": {
        "owners": [
          "{{DATA_OWNERS_GROUP}}"
        ],
        "viewers": [
          "{{DATA_VIEWERS_GROUP}}"
        ]
      },
      "legal": {
        "legaltags": [
          "{{LEGAL_TAG}}"
        ],
        "otherRelevantDataCountries": [
          "{{ISO_3166_ALPHA_2_CODE}}"
        ]
      },
      "data": {
        "Name": "Casing.Self-Sealing-Threaded",
        "Description": "Self-Sealing-Threaded  typed connection of a Casing Component",
        "Code": "CasingSelfSealingThreaded",
        "Source": "Workbook Published/TubularComponentConnectionType.1.0.0.xlsx; commit SHA c1d72417.",
        "CommitDate": "2021-03-16T11:23:02+01:00"
      }
    },
    {
      "id": "{{NAMESPACE}}:reference-data--TubularComponentConnectionType:TubingDogsCompressionFitNotSealed",
      "kind": "osdu:wks:reference-data--TubularComponentConnectionType:1.0.0",
      "acl": {
        "owners": [
          "{{DATA_OWNERS_GROUP}}"
        ],
        "viewers": [
          "{{DATA_VIEWERS_GROUP}}"
        ]
      },
      "legal": {
        "legaltags": [
          "{{LEGAL_TAG}}"
        ],
        "otherRelevantDataCountries": [
          "{{ISO_3166_ALPHA_2_CODE}}"
        ]
      },
      "data": {
        "Name": "Tubing.DogsCompressionFit-NotSealed",
        "Description": "Dogs Compression Fit NotSealed  typed connection of a Tubing Component",
        "Code": "TubingDogsCompressionFitNotSealed",
        "Source": "Workbook Published/TubularComponentConnectionType.1.0.0.xlsx; commit SHA c1d72417.",
        "CommitDate": "2021-03-16T11:23:02+01:00"
      }
    },
    {
      "id": "{{NAMESPACE}}:reference-data--TubularComponentConnectionType:RodEatingNippleCup",
      "kind": "osdu:wks:reference-data--TubularComponentConnectionType:1.0.0",
      "acl": {
        "owners": [
          "{{DATA_OWNERS_GROUP}}"
        ],
        "viewers": [
          "{{DATA_VIEWERS_GROUP}}"
        ]
      },
      "legal": {
        "legaltags": [
          "{{LEGAL_TAG}}"
        ],
        "otherRelevantDataCountries": [
          "{{ISO_3166_ALPHA_2_CODE}}"
        ]
      },
      "data": {
        "Name": "Rod.Eating Nipple-Cup",
        "Description": "Eating Nipple-Cup  typed connection of a Rod Component",
        "Code": "RodEatingNippleCup",
        "Source": "Workbook Published/TubularComponentConnectionType.1.0.0.xlsx; commit SHA c1d72417.",
        "CommitDate": "2021-03-16T11:23:02+01:00"
      }
    },
    {
      "id": "{{NAMESPACE}}:reference-data--TubularComponentConnectionType:AnyCementedInPlace",
      "kind": "osdu:wks:reference-data--TubularComponentConnectionType:1.0.0",
      "acl": {
        "owners": [
          "{{DATA_OWNERS_GROUP}}"
        ],
        "viewers": [
          "{{DATA_VIEWERS_GROUP}}"
        ]
      },
      "legal": {
        "legaltags": [
          "{{LEGAL_TAG}}"
        ],
        "otherRelevantDataCountries": [
          "{{ISO_3166_ALPHA_2_CODE}}"
        ]
      },
      "data": {
        "Name": "Any.Cemented-in-Place",
        "Description": "Cemented in Place typed connection for any type of Tubular Component",
        "Code": "AnyCementedInPlace",
        "Source": "Workbook Published/TubularComponentConnectionType.1.0.0.xlsx; commit SHA c1d72417.",
        "CommitDate": "2021-03-16T11:23:02+01:00"
      }
    },
    {
      "id": "{{NAMESPACE}}:reference-data--TubularComponentConnectionType:box",
      "kind": "osdu:wks:reference-data--TubularComponentConnectionType:1.0.0",
      "acl": {
        "owners": [
          "{{DATA_OWNERS_GROUP}}"
        ],
        "viewers": [
          "{{DATA_VIEWERS_GROUP}}"
        ]
      },
      "legal": {
        "legaltags": [
          "{{LEGAL_TAG}}"
        ],
        "otherRelevantDataCountries": [
          "{{ISO_3166_ALPHA_2_CODE}}"
        ]
      },
      "data": {
        "Name": "box",
        "Description": "Component connection from 'box' type",
        "Code": "box",
        "Source": "Workbook Published/TubularComponentConnectionType.1.0.0.xlsx; commit SHA c1d72417.",
        "CommitDate": "2021-03-16T11:23:02+01:00"
      }
    },
    {
      "id": "{{NAMESPACE}}:reference-data--TubularComponentConnectionType:flange",
      "kind": "osdu:wks:reference-data--TubularComponentConnectionType:1.0.0",
      "acl": {
        "owners": [
          "{{DATA_OWNERS_GROUP}}"
        ],
        "viewers": [
          "{{DATA_VIEWERS_GROUP}}"
        ]
      },
      "legal": {
        "legaltags": [
          "{{LEGAL_TAG}}"
        ],
        "otherRelevantDataCountries": [
          "{{ISO_3166_ALPHA_2_CODE}}"
        ]
      },
      "data": {
        "Name": "flange",
        "Description": "Component connection from 'flange' type",
        "Code": "flange",
        "Source": "Workbook Published/TubularComponentConnectionType.1.0.0.xlsx; commit SHA c1d72417.",
        "CommitDate": "2021-03-16T11:23:02+01:00"
      }
    },
    {
      "id": "{{NAMESPACE}}:reference-data--TubularComponentConnectionType:mandrel",
      "kind": "osdu:wks:reference-data--TubularComponentConnectionType:1.0.0",
      "acl": {
        "owners": [
          "{{DATA_OWNERS_GROUP}}"
        ],
        "viewers": [
          "{{DATA_VIEWERS_GROUP}}"
        ]
      },
      "legal": {
        "legaltags": [
          "{{LEGAL_TAG}}"
        ],
        "otherRelevantDataCountries": [
          "{{ISO_3166_ALPHA_2_CODE}}"
        ]
      },
      "data": {
        "Name": "mandrel",
        "Description": "Component connection from 'mandrel' type",
        "Code": "mandrel",
        "Source": "Workbook Published/TubularComponentConnectionType.1.0.0.xlsx; commit SHA c1d72417.",
        "CommitDate": "2021-03-16T11:23:02+01:00"
      }
    },
    {
      "id": "{{NAMESPACE}}:reference-data--TubularComponentConnectionType:pin",
      "kind": "osdu:wks:reference-data--TubularComponentConnectionType:1.0.0",
      "acl": {
        "owners": [
          "{{DATA_OWNERS_GROUP}}"
        ],
        "viewers": [
          "{{DATA_VIEWERS_GROUP}}"
        ]
      },
      "legal": {
        "legaltags": [
          "{{LEGAL_TAG}}"
        ],
        "otherRelevantDataCountries": [
          "{{ISO_3166_ALPHA_2_CODE}}"
        ]
      },
      "data": {
        "Name": "pin",
        "Description": "Component connection from 'pin' type",
        "Code": "pin",
        "Source": "Workbook Published/TubularComponentConnectionType.1.0.0.xlsx; commit SHA c1d72417.",
        "CommitDate": "2021-03-16T11:23:02+01:00"
      }
    },
    {
      "id": "{{NAMESPACE}}:reference-data--TubularComponentConnectionType:welded",
      "kind": "osdu:wks:reference-data--TubularComponentConnectionType:1.0.0",
      "acl": {
        "owners": [
          "{{DATA_OWNERS_GROUP}}"
        ],
        "viewers": [
          "{{DATA_VIEWERS_GROUP}}"
        ]
      },
      "legal": {
        "legaltags": [
          "{{LEGAL_TAG}}"
        ],
        "otherRelevantDataCountries": [
          "{{ISO_3166_ALPHA_2_CODE}}"
        ]
      },
      "data": {
        "Name": "welded",
        "Description": "Component connection from 'welded' type",
        "Code": "welded",
        "Source": "Workbook Published/TubularComponentConnectionType.1.0.0.xlsx; commit SHA c1d72417.",
        "CommitDate": "2021-03-16T11:23:02+01:00"
      }
    }
  ]
}