{
  "id": "partition-id:work-product-component--WellboreMarkerSet:offshore-wellbore-referencing",
  "kind": "osdu:wks:work-product-component--WellboreMarkerSet:1.2.1",
  "data": {
    "WellboreID": "partition-id:master-data--Wellbore:WellboreOffshore-1:",
    "VerticalMeasurement": {
      "VerticalMeasurement": 27.5,
      "VerticalMeasurementUnitOfMeasureID": "partition-id:reference-data--UnitOfMeasure:m:",
      "VerticalMeasurementTypeID": "partition-id:reference-data--VerticalMeasurementType:DrillFloor:",
      "VerticalMeasurementPathID": "partition-id:reference-data--VerticalMeasurementPath:TrueVerticalHeight:",
      "VerticalCRSID": "partition-id:reference-data--CoordinateReferenceSystem:Vertical:EPSG::5714"
    },
    "Markers": [
      {
        "MarkerName": "MarkerName",
        "MarkerMeasuredDepth": 1237.1,
        "MarkerDate": "2020-02-13T09:13:15.55Z",
        "MarkerObservationNumber": 1,
        "MarkerTypeID": "partition-id:reference-data--MarkerType:Lithostratigraphy:",
        "FeatureTypeID": "partition-id:reference-data--FeatureType:Top:",
        "FeatureName": "FeatureName",
        "GeologicalAge": "Cretaceous"
      }
    ]
  },
  "meta": [
    {
      "kind": "Unit",
      "name": "m",
      "persistableReference": "{\"abcd\":{\"a\":0.0,\"b\":1.0,\"c\":1.0,\"d\":0.0},\"symbol\":\"m\",\"baseMeasurement\":{\"ancestry\":\"L\",\"type\":\"UM\"},\"type\":\"UAD\"}",
      "unitOfMeasureID": "partition_id:reference-data--UnitOfMeasure:m:",
      "propertyNames": [
        "VerticalMeasurement.VerticalMeasurement",
        "Markers[].MarkerMeasuredDepth"
      ]
    }
  ],
  "acl": {
    "owners": [
      "someone@company.com"
    ],
    "viewers": [
      "someone@company.com"
    ]
  },
  "legal": {
    "legaltags": [
      "Example legaltags"
    ],
    "otherRelevantDataCountries": [
      "US"
    ]
  }
}