{
  "x-osdu-review-status": "Pending",
  "$id": "https://schema.osdu.opengroup.org/json/master-data/ReservoirSegment.0.0.0.json",
  "$schema": "http://json-schema.org/draft-07/schema#",
  "title": "ReservoirSegment",
  "description": "Preliminary placeholder for the ReservoirSegment schema.",
  "type": "object",
  "x-osdu-virtual-properties": {
    "data.VirtualProperties.DefaultName": {
      "type": "string",
      "priority": [
        {
          "path": "data.Name"
        }
      ]
    },
    "data.VirtualProperties.DefaultLocation": {
      "type": "object",
      "priority": [
        {
          "path": "data.SpatialLocation"
        }
      ]
    }
  },
  "allOf": [
    {
      "$ref": "../abstract/AbstractMaster.1.1.0.json"
    },
    {
      "type": "object",
      "properties": {
        "Name": {
          "type": "string",
          "title": "Name",
          "description": "The name of the ReservoirSegment."
        },
        "ReservoirID": {
          "type": "string",
          "title": "Reservoir ID",
          "description": "The relationship to the (main) reservoir.",
          "pattern": "^[\\w\\-\\.]+:master-data\\-\\-Reservoir:[\\w\\-\\.\\:\\%]+:[0-9]*$"
        }
      }
    }
  ]
}