{
  "$id": "https://schema.osdu.opengroup.org/json/reference-data/CurveIndexDimensionType.1.0.0.json",
  "$schema": "http://json-schema.org/draft-07/schema#",
  "title": "CurveIndexDimensionType",
  "description": "DEPRECATED: (not used anywhere) Describes the physical dimension a curve index is defined from - can be Depth, Time, Counter,...",
  "x-osdu-governance-authorities": [
    "None"
  ],
  "x-osdu-governance-model": "LOCAL",
  "type": "object",
  "allOf": [
    {
      "$ref": "../abstract/AbstractReferenceType.1.0.0.json"
    }
  ]
}