{
  "x-osdu-review-status": "Accepted",
  "x-osdu-governance-model": "OPEN",
  "x-osdu-governance-authorities": [
    "OSDU"
  ],
  "$id": "https://schema.osdu.opengroup.org/json/reference-data/FormationIntegrityPressureDataSource.1.0.0.json",
  "$schema": "http://json-schema.org/draft-07/schema#",
  "title": "FormationIntegrityPressureDataSource",
  "description": "The data source location of the measured values acquired during a Formation Integrity Test.",
  "type": "object",
  "x-osdu-virtual-properties": {
    "data.VirtualProperties.DefaultName": {
      "type": "string",
      "priority": [
        {
          "path": "data.Name"
        }
      ]
    }
  },
  "allOf": [
    {
      "$ref": "../abstract/AbstractReferenceType.1.0.0.json"
    },
    {
      "type": "object",
      "properties": {}
    }
  ]
}