{
  "x-osdu-review-status": "Accepted",
  "x-osdu-governance-model": "FIXED",
  "x-osdu-governance-authorities": [
    "OSDU"
  ],
  "$id": "https://schema.osdu.opengroup.org/json/reference-data/InSARFrequencyBand.1.0.0.json",
  "$schema": "http://json-schema.org/draft-07/schema#",
  "title": "InSARFrequencyBand",
  "description": "The reference value type defining the frequency band of the radar used for the image acquisition",
  "type": "object",
  "x-osdu-virtual-properties": {
    "data.VirtualProperties.DefaultName": {
      "type": "string",
      "priority": [
        {
          "path": "data.Name"
        }
      ]
    }
  },
  "allOf": [
    {
      "$ref": "../abstract/AbstractReferenceType.1.0.0.json"
    },
    {
      "type": "object",
      "properties": {}
    }
  ]
}