{
  "x-osdu-review-status": "Accepted",
  "x-osdu-governance-model": "OPEN",
  "x-osdu-governance-authorities": [
    "OSDU"
  ],
  "$id": "https://schema.osdu.opengroup.org/json/reference-data/RockSampleType.1.0.0.json",
  "$schema": "http://json-schema.org/draft-07/schema#",
  "title": "RockSampleType",
  "description": "The classification of rock samples.",
  "type": "object",
  "allOf": [
    {
      "$ref": "../abstract/AbstractReferenceType.1.0.0.json"
    },
    {
      "type": "object",
      "properties": {}
    }
  ]
}