{
  "$id": "https://schema.osdu.opengroup.org/json/reference-data/VelocityAnalysisMethod.1.0.0.json",
  "$schema": "http://json-schema.org/draft-07/schema#",
  "title": "VelocityAnalysisMethod",
  "description": "The process of selecting the optimal wave speed (velocity) to stack or migrate seismic traces.",
  "x-osdu-governance-authorities": [
    "PPDM"
  ],
  "x-osdu-governance-model": "OPEN",
  "type": "object",
  "allOf": [
    {
      "$ref": "../abstract/AbstractReferenceType.1.0.0.json"
    }
  ]
}