{
  "$id": "https://schema.osdu.opengroup.org/json/reference-data/VerticalMeasurementType.1.0.0.json",
  "$schema": "http://json-schema.org/draft-07/schema#",
  "title": "VerticalMeasurementType",
  "description": "The horizontal plane of reference for depth measurement in a well, where the measured value is zero.",
  "x-osdu-governance-authorities": [
    "PPDM"
  ],
  "x-osdu-governance-model": "OPEN",
  "type": "object",
  "allOf": [
    {
      "$ref": "../abstract/AbstractReferenceType.1.0.0.json"
    }
  ]
}