{
  "x-osdu-review-status": "Accepted",
  "x-osdu-governance-model": "OPEN",
  "x-osdu-governance-authorities": [
    "PPDM"
  ],
  "$id": "https://schema.osdu.opengroup.org/json/reference-data/WellFluidDirection.1.0.0.json",
  "$schema": "http://json-schema.org/draft-07/schema#",
  "title": "WellFluidDirection",
  "description": "Fluid Direction [Well Fluid Direction] is the flow direction of the wellhead stream. The facet value can change over the life of the well.",
  "type": "object",
  "x-osdu-virtual-properties": {
    "data.VirtualProperties.DefaultName": {
      "type": "string",
      "priority": [
        {
          "path": "data.Name"
        }
      ]
    }
  },
  "allOf": [
    {
      "$ref": "../abstract/AbstractReferenceType.1.0.0.json"
    },
    {
      "type": "object",
      "properties": {}
    }
  ]
}