{
  "x-osdu-review-status": "Accepted",
  "x-osdu-governance-model": "OPEN",
  "x-osdu-governance-authorities": [
    "OSDU"
  ],
  "$id": "https://schema.osdu.opengroup.org/json/reference-data/WellTechnologyApplied.1.0.0.json",
  "$schema": "http://json-schema.org/draft-07/schema#",
  "title": "WellTechnologyApplied",
  "description": "Well technology benchmarking categories, e.g. Coil tubing, Hammer drilling, etc.",
  "type": "object",
  "x-osdu-virtual-properties": {
    "data.VirtualProperties.DefaultName": {
      "type": "string",
      "priority": [
        {
          "path": "data.Name"
        }
      ]
    }
  },
  "allOf": [
    {
      "$ref": "../abstract/AbstractReferenceType.1.0.0.json"
    },
    {
      "type": "object",
      "properties": {}
    }
  ]
}