{
  "id": "partition-id:work-product-component--Activity:GenerateWavelet-Ricker40",
  "kind": "osdu:wks:work-product-component--Activity:1.1.0",
  "version": 1562066009929332,
  "acl": {
    "owners": [
      "someone@company.com"
    ],
    "viewers": [
      "someone@company.com"
    ]
  },
  "legal": {
    "legaltags": [
      "Example legaltags"
    ],
    "otherRelevantDataCountries": [
      "US"
    ],
    "status": "compliant"
  },
  "tags": {
    "NameOfKey": "String value"
  },
  "createTime": "2021-12-16T11:46:20.163Z",
  "createUser": "some-user@some-company-cloud.com",
  "modifyTime": "2021-12-16T11:52:24.477Z",
  "modifyUser": "some-user@some-company-cloud.com",
  "ancestry": {
    "parents": []
  },
  "meta": [],
  "data": {
    "Source": "Made-up Example",
    "ExistenceKind": "partition-id:reference-data--ExistenceKind:Actual:",
    "IsExtendedLoad": false,
    "IsDiscoverable": true,
    "Name": "Calculate 40 Hz Ricker Wavelet",
    "Description": "Example activity record demonstrating calculation of a Ricker Wavelet",
    "CreationDateTime": "2021-04-04T09:13:14.01Z",
    "ActivityTemplateID": "partition-id:master-data--ActivityTemplate:GenerateWavelet:",
    "LastActivityState": {
      "EffectiveDateTime": "2021-04-04T09:13:15.55Z",
      "TerminationDateTime": "2021-04-04T09:13:15.55Z",
      "ActivityStatusID": "partition-id:reference-data--ActivityStatus:Completed:",
      "Remark": "Success"
    },
    "Parameters": [
      {
        "Title": "Wavelet Type",
        "Selection": "Selected by end-user",
        "StringParameter": "Ricker",
        "ParameterKindID": "partition-id:reference-data--ParameterKind:String:",
        "ParameterRoleID": "partition-id:reference-data--ParameterRole:Input:"
      },
      {
        "Title": "Wavelet Frequency",
        "Selection": "Selected by end-user",
        "DataQuantityParameter": 40,
        "ParameterKindID": "partition-id:reference-data--ParameterKind:Double:",
        "ParameterRoleID": "partition-id:reference-data--ParameterRole:Input:",
        "DataQuantityParameterUOMID": "partition-id:reference-data--UnitOfMeasure:Hz:"
      },
      {
        "Title": "Wavelet Number of Samples",
        "Selection": "Default from ActivityTemplate",
        "DataQuantityParameter": 256,
        "ParameterKindID": "partition-id:reference-data--ParameterKind:Integer:",
        "ParameterRoleID": "partition-id:reference-data--ParameterRole:Input:"
      },
      {
        "Title": "Wavelet Sample Interval",
        "Selection": "Selected by end-user",
        "DataQuantityParameter": 0.5,
        "ParameterKindID": "partition-id:reference-data--ParameterKind:Integer:",
        "ParameterRoleID": "partition-id:reference-data--ParameterRole:Input:",
        "DataQuantityParameterUOMID": "partition-id:reference-data--UnitOfMeasure:ms:"
      },
      {
        "Title": "Wavelet Phase",
        "Selection": "Default from ActivityTemplate",
        "StringParameter": "Zero",
        "ParameterKindID": "partition-id:reference-data--ParameterKind:String:",
        "ParameterRoleID": "partition-id:reference-data--ParameterRole:Input:"
      },
      {
        "Title": "Output Wavelet",
        "Selection": "Selected by end-user",
        "DataObjectParameter": "partition-id:work-product-component--WellLog:Ricker40:",
        "ParameterKindID": "partition-id:reference-data--ParameterKind:DataObject:",
        "ParameterRoleID": "partition-id:reference-data--ParameterRole:Output:"
      },
      {
        "Title": "Output Wavelet Curve Name",
        "Selection": "Selected by end-user",
        "StringParameter": "Ricker40:",
        "ParameterKindID": "partition-id:reference-data--ParameterKind:String:",
        "ParameterRoleID": "partition-id:reference-data--ParameterRole:Output:"
      }
    ],
    "PriorActivityIDs": [],
    "ExtensionProperties": {}
  }
}