@startuml
hide methods
skinparam groupInheritance 2
skinparam class {
    ArrowColor Black
    BorderColor Black
    BackgroundColor<<master-data>> LightSalmon
    BackgroundColor<<work-product-component>> Gold
    BackgroundColor<<abstract>> LightSteelBlue
    BackgroundColor<<dataset>> Ivory
    BackgroundColor<<reference-data>> Turquoise
    BackgroundColor<<Abstraction>> LightSkyBlue
    BackgroundColor<<error>> Red
    BackgroundColor<<Activity>> LightSkyBlue
    BackgroundColor<<ReferenceType>> LightSkyBlue
    BackgroundColor<<WorkProductComponent>> LightSkyBlue
    BackgroundColor<<Project>> LightSkyBlue
    BackgroundColor<<File>> LightSkyBlue
    BackgroundColor<<FileCollection>> LightSkyBlue
    BackgroundColor<<MasterData>> LightSkyBlue
    BackgroundColor<<nested array>> WhiteSmoke
    BackgroundColor<<nested>> WhiteSmoke
    packageStyle rectangle
}
package "File·GeoJSON Outgoing Relationships View" <<rectangle>>
{
class "<size:16>File·GeoJSON</size>" as File·GeoJSON <<dataset>>

class "Reference Data Relationships" <<reference-data>> {
==
"data.EncodingFormatTypeID" → EncodingFormatType
==
"data.FileSourceInfo.EncodingFormatTypeID" → EncodingFormatType
==
"data.SchemaFormatTypeID" → SchemaFormatType
}
"File·GeoJSON" .up.> "Reference Data Relationships"
abstract "AbstractDataset" <<Abstraction>>
"File·GeoJSON" -right-|>  "AbstractDataset"
abstract "AbstractFile" <<Abstraction>>
"File·GeoJSON" -right-|>  "AbstractFile"
}
@enduml