@startuml
hide methods
skinparam groupInheritance 2
skinparam class {
    ArrowColor Black
    BorderColor Black
    BackgroundColor<<master-data>> LightSalmon
    BackgroundColor<<work-product-component>> Gold
    BackgroundColor<<abstract>> LightSteelBlue
    BackgroundColor<<dataset>> Ivory
    BackgroundColor<<reference-data>> Turquoise
    BackgroundColor<<Abstraction>> LightSkyBlue
    BackgroundColor<<error>> Red
    BackgroundColor<<Activity>> LightSkyBlue
    BackgroundColor<<ReferenceType>> LightSkyBlue
    BackgroundColor<<WorkProductComponent>> LightSkyBlue
    BackgroundColor<<Project>> LightSkyBlue
    BackgroundColor<<File>> LightSkyBlue
    BackgroundColor<<FileCollection>> LightSkyBlue
    BackgroundColor<<MasterData>> LightSkyBlue
    BackgroundColor<<nested array>> WhiteSmoke
    BackgroundColor<<nested>> WhiteSmoke
    packageStyle rectangle
}
package "File·CompressedVectorHeaders Referenced-by View" <<rectangle>>
{
class "<size:16>File·CompressedVectorHeaders</size>" as File·CompressedVectorHeaders <<dataset>>
left to right direction
class "File·CompressedVectorHeaders" <<dataset>>
abstract "AbstractDataset" <<Abstraction>>
"File·CompressedVectorHeaders" -right-|>  "AbstractDataset"
abstract "AbstractFile" <<Abstraction>>
"File·CompressedVectorHeaders" -right-|>  "AbstractFile"
}
@enduml