@startuml
hide methods
skinparam groupInheritance 2
skinparam class {
    ArrowColor Black
    BorderColor Black
    BackgroundColor<<master-data>> LightSalmon
    BackgroundColor<<work-product-component>> Gold
    BackgroundColor<<abstract>> LightSteelBlue
    BackgroundColor<<dataset>> Ivory
    BackgroundColor<<reference-data>> Turquoise
    BackgroundColor<<Abstraction>> LightSkyBlue
    BackgroundColor<<error>> Red
    BackgroundColor<<Activity>> LightSkyBlue
    BackgroundColor<<ReferenceType>> LightSkyBlue
    BackgroundColor<<WorkProductComponent>> LightSkyBlue
    BackgroundColor<<Project>> LightSkyBlue
    BackgroundColor<<File>> LightSkyBlue
    BackgroundColor<<FileCollection>> LightSkyBlue
    BackgroundColor<<MasterData>> LightSkyBlue
    BackgroundColor<<nested array>> WhiteSmoke
    BackgroundColor<<nested>> WhiteSmoke
    packageStyle rectangle
}
package "FileCollection·Generic Outgoing Relationships View" <<rectangle>>
{
class "<size:16>FileCollection·Generic</size>" as FileCollection·Generic <<dataset>>

class "Reference Data Relationships" <<reference-data>> {
==
"data.EncodingFormatTypeID" → EncodingFormatType
==
"data.FileSourceInfos[].EncodingFormatTypeID" → EncodingFormatType
==
"data.SchemaFormatTypeID" → SchemaFormatType
}
"FileCollection·Generic" .up.> "Reference Data Relationships"
abstract "AbstractDataset" <<Abstraction>>
"FileCollection·Generic" -right-|>  "AbstractDataset"
abstract "AbstractFileCollection" <<Abstraction>>
"FileCollection·Generic" -right-|>  "AbstractFileCollection"
}
@enduml