"md","inclination","azimuthTN","azimuthGN","dxTN","dyTN","x","y","z","wgs84Longitude","wgs84Latitude","dls","original","dz","DX-GN","DY-GN","TVDSS","Wgs84DeltaLatitude","Wgs84DeltaLongitude","ClosureDistanceProjected","ClosureDistanceTrueNorth","ClosureDistanceDirectionProjected","ClosureDistanceDirectionTrueNorth"
"0","0","359.8653225783487","0","0","0","488817.3086979347","5909154.619253226","42.51","4.830736733586863","53.329560385688644","0","True","0","0.0","0.0","-42.51","0.0","0.0","0.0","0.0","0.0","0.0"
"22","0.11","217.3553225783487","-142.51","-0.012813767049289885","-0.01678682412903604","488817.2958498661","5909154.602503244","20.510013514857032","4.830736536599873","53.32956023225672","0.15000000000000002","True","21.999986485142966","-0.01284806861076504","-0.01674998179078102","-20.510013514857032","-1.5343192671934958e-07","-1.9698699027514976e-07","0.021110062932602112","0.021118477462465278","217.48999918258508","217.35532257834868"
"30","0.23","177.1053225783487","-182.76","-0.016662439450792793","-0.038927634891448654","488817.29195071536","5909154.58038036","12.51004775781001","4.8307364771435495","53.32956003237088","0.6090767719715209","True","29.999952242189988","-0.01674721937160939","-0.038872865960001945","-12.51004775781001","-3.533177661552145e-07","-2.5644331369534257e-07","0.04232693072530876","0.042343802931400325","203.30735806312347","203.17268088101468"
"40","0.44","134.1053225783487","-225.76","0.011922549433855276","-0.08569680635057432","488817.32041434513","5909154.533562788","2.510210480617438","4.830736904077099","53.329559610961915","0.9414147566213655","True","39.99978951938256","0.011716410401277244","-0.08569043781608343","-2.510210480617438","-7.747267289914817e-07","1.7049023615101078e-07","0.08648771823677175","0.08652219255018077","172.21425543713676","172.07957787324466"
"50","0.43","130.64532257834867","-229.22","0.06796561046299338","-0.13686256809907416","488817.37631469977","5909154.482285877","-7.489501477003529","4.830737743138736","53.329559150053065","0.0843071368884325","True","49.99950147700353","0.06761676503811032","-0.13696734886616468","7.489501477003529","-1.235635579632799e-06","1.0095518732100572e-06","0.15274842575177225","0.15280931500494682","153.7257970746459","153.59111966058907"
"60","0.22","76.41532257834865","-283.45000000000005","0.11509897263986757","-0.1567955560873287","488817.4233823157","5909154.4622501405","-17.489354957759232","4.830738448462969","53.32955896977789","1.0508815133812122","True","59.99935495775923","0.1146843809983693","-0.157003085128963","17.489354957759232","-1.4159107522004888e-06","1.7148761060070683e-06","0.1944285883942779","0.19450609222203716","143.85338805707914","143.71871061706585"
"64","0.18","71.9753225783486","-287.8900000000001","0.12853837991305864","-0.1530476133465532","488817.436825137","5909154.465965002","-21.489330531293483","4.830738649329827","53.329559002984574","0.3215114730832547","True","63.99933053129348","0.12812720227520913","-0.15328822378069162","21.489330531293483","-1.3827040703517923e-06","1.915742964264666e-06","0.19978453271640362","0.1998641715309421","140.10916289608264","139.9744854451745"
"70","0.29","75.70532257834861","-284.1600000000001","0.1522147874404637","-0.14638219902740088","488817.4605077061","5909154.472572111","-27.489279176096126","4.83073900342203","53.32955906217138","0.5550033814741585","True","69.99927917609612","0.15180977137060836","-0.14668111503124237","27.489279176096126","-1.3235172673375928e-06","2.269835166934797e-06","0.2110960828400303","0.21118023039016495","134.0156434767727","133.88096591033874"
"80","0.46","33.33532257834861","-326.5300000000001","0.1987981582410541","-0.10659602842555398","488817.50716586906","5909154.512232865","-37.48907901380421","4.830739700474289","53.32955941848945","0.9419480433328632","True","79.9990790138042","0.19846793432952836","-0.10702036041766405","37.48907901380421","-9.671991918480671e-07","2.9668874255150968e-06","0.22548365462036643","0.22557353788983472","118.33498883343573","118.20031142905668"
"90","0.85","23.64532257834867","-336.22","0.25060715949432877","-0.005111534373872392","488817.55919253366","5909154.613554908","-47.48840910649154","4.830740475942252","53.329560329185156","1.2121502242242417","True","89.99840910649154","0.25049459893489257","-0.005698317661881447","47.48840910649154","-5.6503488110593025e-08","3.7423553891358097e-06","0.25055940397384485","0.2506592830386922","91.3031548526665","91.16847716515237"
"100","1.36","336.2353225783486","-23.63000000000011","0.23253357742201208","0.1714484555852403","488817.5415410531","5909154.790086525","-57.48670609714733","4.830740202499446","53.32956191444347","3.0110590165641256","True","99.99670609714732","0.23284311837051064","0.17083329893648624","57.48670609714733","1.5287548222886471e-06","3.4689125829601153e-06","0.2887904669445072","0.2889055858775372","53.73309446699701","53.59841703784795"
"118","0.9","7.805322578348637","-352.06000000000006","0.16565106724072085","0.5070055072180499","488817.4754738115","5909155.125666089","-75.48332267965608","4.83073919472641","53.32956492738295","1.2625584990733676","True","117.99332267965607","0.16677587677258998","0.5064128637313843","75.48332267965608","4.541694302417909e-06","2.461139546383606e-06","0.5331680613332795","0.5333805962232052","18.228155414774122","18.093477946304755"
"125","0.79","1.1753225783486414","-358.69000000000005","0.1741070129278754","0.6097185097242779","488817.4841677015","5909155.228318013","-82.48256204244657","4.830739320130667","53.329565849463705","0.6300002044694281","True","124.99256204244658","0.17546976677840576","0.6090647876262665","82.48256204244657","5.463775060832177e-06","2.5865438040284516e-06","0.6338371672436834","0.6340898304270947","16.07153491238357","15.93685748120073"
"150","0.43","118.70532257834863","-241.16000000000005","0.25992597713401144","0.7369739981944472","488817.5702512356","5909155.355320801","-107.48173451101187","4.830740602876286","53.32956698995513","1.2716706873533516","True","149.99173451101186","0.2615533008938655","0.7360675754025578","107.48173451101187","6.60426648835255e-06","3.869289423086286e-06","0.781156581465891","0.7814679696595246","19.56209501591215","19.427417585108017"
"175","1.46","158.78532257834866","-201.08000000000004","0.45746335962268736","0.3950000063822214","488817.76690584986","5909155.013019879","-132.47818472253687","4.8307435625726685","53.329563914307556","1.3972483022964368","True","174.98818472253686","0.4582079151296057","0.39376665372401476","132.47818472253687","3.5286189117300637e-06","6.828985805285015e-06","0.6041578196733268","0.6043986519171193","49.32547568401441","49.190798236885996"
"200","1.6","157.03532257834866","-202.83000000000004","0.7088877664736675","-0.22326393744186107","488818.0167766896","5909154.394413247","-157.46926693071967","4.83074733115511","53.32955835612705","0.17709067609393098","True","199.97926693071966","0.7080787548911758","-0.22483997885137796","157.46926693071967","-2.0295615925647326e-06","1.0597568246950573e-05","0.7429189317941264","0.7432150773619088","107.61647906416721","107.48180163909484"
"225","1.53","158.1253225783487","-201.74","0.969412377172689","-0.8543476519880024","488818.27571396035","5909153.762970604","-182.45994056067852","4.830751236328026","53.32955268275875","0.09127673113597393","True","224.9699405606785","0.9670160256209783","-0.8562826216220856","182.45994056067852","-7.702929892161592e-06","1.4502741162658594e-05","1.291642335129886","1.2921572146890705","131.52455540371506","131.3898779566757"
"250","1.66","156.7253225783486","-203.1400000000001","1.2368440641851444","-1.4967099519161828","488818.5415290358","5909153.120237673","-207.450249858301","4.83075524517356","53.32954690805025","0.1628463295699516","True","249.96024985830098","1.232831101049669","-1.4990155529230833","207.450249858301","-1.347763839731897e-05","1.8511586696412508e-05","1.940855520542587","1.9416291920124624","140.56519277345706","140.43051533925237"
"275","1.66","151.4553225783486","-208.41000000000005","1.5529560536644256","-2.1474371576821443","488818.8559852274","5909152.469028812","-232.43977281914778","4.830759984678115","53.32954105818881","0.18313172402367917","True","274.94977281914777","1.5472872926620767","-2.1502244137227535","232.43977281914778","-1.932749983524218e-05","2.325109125145275e-05","2.649068325921945","2.6501243085574218","144.26145854492972","144.12678112369372"
"300","1.67","146.26532257834867","-213.60000000000002","1.9282913978093477","-2.7684736653285693","488819.2297107739","5909151.847359584","-257.42923209527504","4.830765613074498","53.32953547511628","0.1812934980783043","True","299.93923209527503","1.9210128391860053","-2.771893641911447","257.42923209527504","-2.4910572363978645e-05","2.8879487635080636e-05","3.3724893907003746","3.3738337467165347","145.27677637092634","145.14209895866776"
"325","1.8","139.2353225783486","-220.63000000000008","2.3869696911276357","-3.3688018530443964","488819.68679448694","5909151.246194543","-282.4177941849552","4.830772492383458","53.32953007812749","0.2989981078791657","True","324.9277941849552","2.378096552216448","-3.373058682307601","282.4177941849552","-3.0307561154074847e-05","3.5758796594898e-05","4.127089541790249","4.128734701023707","144.81514013247417","144.68046273609767"
"350","1.71","134.35532257834873","-225.50999999999996","2.910050256641102","-3.926955413788191","488820.2083537266","5909150.687035887","-307.40607881762674","4.830780338312215","53.329525060099755","0.20925543914765632","True","349.9160788176267","2.8996557918726467","-3.93221733905375","307.40607881762674","-3.532558888963422e-05","4.3604725352253126e-05","4.885727879538067","4.887675451383544","143.5945711849659","143.45989379452166"
"375","1.6","129.43532257834863","-230.43000000000006","3.446321897799706","-4.409428641082384","488820.74327656976","5909150.203496204","-332.3956590571553","4.830788382206901","53.329520722082464","0.21552091858459027","True","374.9056590571553","3.4345786350313574","-4.415757021866739","332.3956590571553","-3.966360618079534e-05","5.16486200377031e-05","5.594214911529523","5.596444904048587","142.12420020548603","141.98952281763903"
"400","1.13","110.49532257834858","-249.37000000000012","3.9467981821728206","-4.717443469371745","488821.2428283299","5909149.894429027","-357.38861886989844","4.830795888788457","53.32951795161594","0.7745708796194537","True","399.8986188698984","3.9341303951805457","-4.724824198521674","357.38861886989844","-4.243407270365651e-05","5.915520159405219e-05","6.148279895484542","6.150730751505939","140.2175032648818","140.08282587216723"
"425","1.21","99.91532257834865","-259.95000000000005","4.437725330561079","-4.849207228398737","488821.7332489092","5909149.761564642","-382.3834341288645","4.830803251995034","53.32951676481241","0.27595608449083897","True","424.8934341288645","4.42455097445054","-4.857688583433628","382.3834341288645","-4.36208762337742e-05","6.651840817095689e-05","6.5706765023955205","6.573295737562551","137.67165782614987","137.5369804413038"
"450","1.1","106.94532257834864","-252.92000000000004","4.927293865248749","-4.964600346145088","488822.22234988475","5909149.645067521","-407.3783635675051","4.830810594804891","53.32951572510294","0.21503007596802978","True","449.8883635675051","4.913651950017083","-4.974185704253614","407.3783635675051","-4.466058570784526e-05","7.386121802799295e-05","6.991888078788712","6.9946752198698885","135.35076276813933","135.21608538505538"
"475","0.53","112.82532257834862","-247.04000000000005","5.2634180242195905","-5.079396288217952","488822.5580694538","5909149.529527872","-432.3757352380658","4.830815634521253","53.329514690733866","0.6904270532700837","True","474.88573523806576","5.249371519079432","-5.089725353755057","432.3757352380658","-4.569495477824148e-05","7.890093438955859e-05","7.311717002317536","7.314631634637657","134.11536522550085","133.98068783560694"
"500","0.23","82.83532257834861","-277.0300000000001","5.419776707685048","-5.117992261788021","488822.71427471575","5909149.49058","-457.3751775628467","4.830817976062889","53.329514341013606","0.42024225681356925","True","499.8851775628467","5.4055767810205","-5.128673225641251","457.3751775628467","-4.604467503810383e-05","8.124247602570023e-05","7.451412576882143","7.454382895511032","133.49426846093723","133.3595910719177"
"525","0.23","69.3653225783487","-290.5","5.516521972121969","-5.0940508073839625","488822.81103741657","5909149.514284534","-482.3749779817856","4.83081942283206","53.329514553199985","0.06473695813906062","True","524.8849779817856","5.502339481841773","-5.104968691244721","482.3749779817856","-4.583248865941414e-05","8.268924519683196e-05","7.505760795017626","7.50875277906482","132.85458977202586","132.71991238795428"
"550","0.48","0.6753225783486414","-359.19000000000005","5.564715445200484","-4.971655756903586","488822.8594991355","5909149.63651724","-507.3745674833373","4.830820140846606","53.32951565001171","0.5407423576441363","True","549.8845674833373","5.550801200792193","-4.982735985890031","507.3745674833373","-4.4735676937079916e-05","8.340725974242957e-05","7.459158925495525","7.462132332732072","131.91307486024982","131.7783974744798"
"575","0.62","34.31532257834863","-325.55000000000007","5.642202552308278","-4.755225866527437","488822.93746368145","5909149.852678227","-532.3734726900648","4.830821298513092","53.32951759175756","0.4144303645367407","True","574.8834726900648","5.628765746718273","-4.766574998386204","532.3734726900648","-4.279393108674867e-05","8.456492622865852e-05","7.375855275604948","7.3787954764287695","130.25873345630546","130.124056071562"
"600","1.2","81.75532257834857","-278.1100000000001","5.977536814787754","-4.6059653213174965","488823.2730141045","5909150.001090975","-557.3705184207734","4.830826326303244","53.32951893000933","1.0852824025871561","True","599.8805184207733","5.964316169789527","-4.618162251077592","557.3705184207734","-4.14556793160159e-05","8.959271638087074e-05","7.543241342452916","7.54624826740562","127.75057209673007","127.6158947064887"
"625","2.25","95.34532257834871","-264.52","6.725248876002627","-4.614143288755883","488824.02040694706","5909149.991159446","-582.3589351434047","4.830837543639259","53.32951885369801","1.3435971868621488","True","624.8689351434047","6.711709012335632","-4.628093780018389","582.3589351434047","-4.153199063239299e-05","0.0001008100523955946","8.152686054479974","8.155935920134828","124.58840635406183","124.45372896263393"
"650","3.43","104.06532257834863","-255.80000000000007","7.939352437458913","-4.84162116506491","488825.2334888875","5909149.760920153","-607.327901626721","4.830855761246179","53.32951680698955","1.5039183023615539","True","649.837901626721","7.924790952762123","-4.858333072625101","607.327901626721","-4.357869909199508e-05","0.00011902765931548487","9.295467276557067","9.299172685362354","121.51058954641623","121.37591215888781"
"675","4.45","108.57532257834862","-251.2900000000001","9.584180654706843","-5.332338037700518","488826.87650415115","5909149.266535443","-632.2685458345687","4.830880443799267","53.32951239507138","1.2783108703846355","True","674.7785458345687","9.567806216422468","-5.352717782370746","632.2685458345687","-4.799061726146192e-05","0.0001437102124040024","10.963325382962983","10.967695645410878","119.22487035642209","119.09019297855579"
"700","5.23","112.6053225783487","-247.26","11.555444373182953","-6.079276328026133","488828.84522191563","5909148.5152651165","-657.1792810378379","4.8309100259843145","53.329505680979025","1.0205089720735308","True","699.6892810378379","11.53652398090344","-6.103988109156489","657.1792810378379","-5.470470961910223e-05","0.00017329239745134117","13.051821957055802","13.057024750463809","117.88336842945897","117.74869105067626"
"725","6.260000000000001","116.2353225783486","-243.63000000000005","13.829997513035186","-7.1198096330204255","488831.11641757376","5909147.469804962","-682.0534602129636","4.83094416039839","53.32949632889407","1.3100543761360113","True","724.5634602129636","13.807719639036804","-7.149448263458908","682.0534602129636","-6.405679457088809e-05","0.00020742681152707831","15.548882020972384","15.55508021261896","117.37450267639005","117.23982531104517"
"750","7.59","120.65532257834866","-239.21000000000004","16.473040513300734","-8.564233883587383","488833.75500624994","5909146.019750103","-706.8707009173283","4.830983825674364","53.32948334778427","1.7182052484240917","True","749.3807009173283","16.446308315207716","-8.599503122270107","706.8707009173283","-7.703790437574298e-05","0.00024709208750106626","18.558893047507002","18.56629111496514","117.60432526128635","117.469647906717"
"775","8.6","121.33532257834861","-238.5300000000001","19.489977176510692","-10.37816731197363","488836.76647036226","5909144.199455818","-731.6212849420957","4.831029102898673","53.32946704657574","1.21741362792733","True","774.1312849420957","19.457772427529562","-10.419797407463193","731.6212849420957","-9.333911290099195e-05","0.0002923693118095372","22.072088389051597","22.080886918242793","118.16941619290589","118.03473885085117"
"800","9.65","122.43532257834865","-237.43000000000004","22.855104314694927","-12.474135592312402","488840.12532256707","5909142.096421732","-756.3045761244963","4.831079606249666","53.3294482112402","1.2772145356051574","True","798.8145761244963","22.816624632338062","-12.522831493988633","756.3045761244963","-0.00011217444844646707","0.0003428726628031953","26.027286993458414","26.037662184055268","118.76004098226964","118.62536365933067"
"825","11.28","122.43532257834865","-237.43000000000004","26.687458853565232","-14.909537192720833","488843.9504171633","5909139.652992711","-780.8878982321428","4.831137122386987","53.32942632604782","1.9559999999999986","True","823.3978982321428","26.641719228588045","-14.966260514222085","780.8878982321428","-0.0001340596408212491","0.0004003888001236078","30.55765300598986","30.56983414024131","119.32554891137332","119.19087160600128"
"850","13.06","122.26532257834869","-237.59999999999997","31.13990566686678","-17.729067006333043","488848.394452673","5909136.824132629","-805.3250765089612","4.831203945694141","53.32940098941493","2.136430611375286","True","847.8350765089612","31.085754738247488","-17.79512059688568","805.3250765089612","-0.00015939627371608367","0.0004672121072779589","35.818856272976966","35.83313469201946","119.78909110577527","119.65441382357241"
"875","14.500000000000002","122.13532257834869","-237.73000000000002","36.17889948467265","-20.90192131462617","488853.4239696616","5909133.640711661","-829.6048751836328","4.83127957264624","53.32937247810366","1.7283984041478289","True","872.1148751836328","36.11527172685601","-20.978541564196348","829.6048751836328","-0.00018790758498710147","0.0005428390593769095","41.766159244840296","41.78280845712589","120.15133155257622","120.01665429487281"
"900","15.51","122.19532257834864","-237.67000000000002","41.65791086620138","-24.34774120055786","488858.89268629253","5909130.183400777","-853.7521435912861","4.831361803896064","53.32934151412834","1.212143186104665","True","896.2621435912861","41.58398835780099","-24.43585244845599","853.7521435912861","-0.00021887156030686583","0.0006250703092005594","48.23213630583287","48.25136308235987","120.43962250247131","120.30494527273355"
"925","16.26","122.72532257834861","-237.1400000000001","47.431027499008934","-28.020866793449485","488864.65485608176","5909126.498184365","-877.7973097323638","4.831448449371628","53.32930850772659","0.9166714031244296","True","920.3073097323638","47.34615814703284","-28.121068860404193","877.7973097323638","-0.00025187796205727864","0.0007117157847646993","55.0677147259212","55.08966641274915","120.70803152971546","120.5733543294604"
"950","17.94","123.43532257834863","-236.43000000000006","53.588966104929014","-32.03475405294316","488870.8008927727","5909122.47143884","-901.6913055032131","4.8315408706605245","53.32927243946723","2.03146983187772","True","944.2013055032131","53.49219483794877","-32.14781438559294","901.6913055032131","-0.00028794622141248283","0.0008041370736613374","62.409108937330686","62.433987181885065","121.00508446786962","120.8704072981559"
"975","19.67","122.83532257834862","-237.03000000000006","60.33786206413143","-36.43800106874678","488877.53673484764","5909118.054101278","-925.3559572952348","4.831642161676562","53.32923287269027","2.0889068220916895","True","967.8659572952348","60.22803691291483","-36.565151947550476","925.3559572952348","-0.00032751299837485703","0.0009054280896991784","70.45868837361994","70.48677549977828","121.26243153806034","121.12775440269093"
"1000","21.75","123.34532257834871","-236.51999999999995","67.74340348336386","-41.26608554897293","488884.92796069535","5909113.2105538715","-948.7392505687949","4.83175330830873","53.32918948860485","2.505342899155137","True","991.2492505687949","67.6192627606215","-41.40869935415685","948.7392505687949","-0.00037089708379767217","0.0010165747218664478","79.29088900052088","79.32249701090473","121.48247868826287","121.34780159247899"
"1025","23.08","123.51532257834869","-236.35","75.69866565610768","-46.51813405871041","488892.86769056274","5909107.941920933","-971.8498901021973","4.831872705644535","53.32914229502738","1.5978929452541843","True","1014.3598901021973","75.55899262800813","-46.67733229231089","971.8498901021973","-0.00041809066126319294","0.001135972057672241","88.81404571849092","88.84945007381492","121.70611849440196","121.57144143839379"
"1050","24.51","123.32532257834862","-236.54000000000005","84.11753425822505","-52.07307346125577","488901.270129152","5909102.3694293685","-994.7241718149826","4.831999061111887","53.329092379803875","1.7184618002615073","True","1037.2341718149826","83.96143121726345","-52.24982385709882","994.7241718149826","-0.0004680058847696955","0.0012623275250236432","98.89168835220235","98.9311101190369","121.89431179768445","121.75963478577115"
"1075","25.590000000000003","123.70532257834861","-236.16000000000008","92.94227641102887","-57.91828638517499","488910.07759639394","5909096.505827135","-1017.3723173460507","4.832131508139849","53.32903985628186","1.3102966799269453","True","1059.8823173460507","92.7688984592096","-58.11342609021813","1017.3723173460507","-0.0005205294067849309","0.0013947745529856448","109.46798076733847","109.51161875462914","122.06435437436762","121.92967740829019"
"1100","26.4","123.67532257834864","-236.19000000000003","102.05923569760216","-63.99626788709703","488919.17661658954","5909090.408863156","-1039.8429377693474","4.832268340791617","53.32898524113584","0.9721280295213691","True","1082.3529377693474","101.86791865481064","-64.21039006952196","1039.8429377693474","-0.0005751445528048293","0.001531607204753982","120.41614112710673","120.4641436057045","122.2244550376974","122.08977811926094"
"1125","27.8","123.18532257834863","-236.68000000000004","111.56401305915385","-70.26934039517447","488928.6628408458","5909084.115975263","-1062.0977323738218","4.832410993924354","53.328928872894934","1.70120674268782","True","1104.6077323738218","111.35414291109191","-70.50327796302736","1062.0977323738218","-0.0006315127937099874","0.0016742603374906295","131.79703087321724","131.84957038017208","122.33972630534768","122.20504943602546"
"1150","29.14","122.40532257834867","-237.45999999999998","121.5824842704453","-76.72256602914467","488938.6621295248","5909077.641799587","-1084.0739794081987","4.832561356790903","53.328870885759265","1.668725664499092","True","1126.5839794081987","121.35343159007607","-76.97745363879949","1084.0739794081987","-0.000689499929379167","0.0018246232040395327","143.7086765905274","143.76596474642233","122.38795682434865","122.2532800056701"
"1175","30.540000000000003","123.38532257834869","-236.48","132.02567052898027","-83.48005540391166","488949.08524791396","5909070.862484383","-1105.75902798988","4.832718093841765","53.328810164539355","1.7789396225802485","True","1148.26902798988","131.77654997922946","-83.75676884222776","1105.75902798988","-0.000750221149289132","0.0019813602549021425","156.14177996717834","156.20402468844077","122.43991374428016","122.30523697854996"
"1200","30.650000000000002","123.93532257834863","-235.93000000000004","142.61631477998802","-90.53266506573691","488959.6550716939","5909063.787820886","-1127.278728640691","4.83287704363538","53.328746791379125","0.36092071981839646","True","1169.788728640691","142.3463737591519","-90.83143233973533","1127.278728640691","-0.0008135943095197717","0.0021403100485164472","168.85745237705112","168.92476634682532","122.54200787533038","122.40733116493469"
"1225","30.72","124.25532257834855","-235.61000000000016","153.18119143171742","-97.68441082875198","488970.19890526746","5909056.614121651","-1148.7783894064669","4.833035606196444","53.32868252724609","0.21320646960888867","True","1191.2883894064669","152.89020733273355","-98.00513157434762","1148.7783894064669","-0.0008778584425570557","0.0022988726095807266","181.60512468857107","181.67752069917967","122.66053778999677","122.52586113560348"
"1250","30.85","124.21532257834862","-235.65000000000006","163.7596250614837","-104.88303417788758","488980.7561802195","5909049.393531829","-1170.2557330280943","4.833194371751314","53.328617841694076","0.15792260107170536","True","1212.7657330280942","163.44748228479875","-105.22572139650583","1170.2557330280943","-0.0009425439945687231","0.0024576381644507705","194.39015383669684","194.46764681724733","122.77299656013902","122.63831996217891"
"1275","30.88","124.52532257834866","-235.34","174.34576734163733","-112.12348430282117","488991.3210624366","5909042.13111394","-1191.7152078134018","4.833353252517447","53.32855278010558","0.19420792601975279","True","1234.2252078134018","174.01236450189026","-112.48813928570598","1191.7152078134018","-0.0010076055830623432","0.0026165189305835668","207.20493353079002","207.28753537574158","122.88014767711756","122.74547113485201"
"1300","30.950000000000003","124.84532257834873","-235.01999999999992","184.90732349228148","-119.43269494493045","489001.86120681505","5909034.800020941","-1213.1634819840156","4.8335117637703355","53.32848710047792","0.21442407494116256","True","1255.6734819840156","184.55250888032606","-119.81923228502274","1213.1634819840156","-0.0010732852107224744","0.00277503018347236","220.03698997985558","220.12470761567872","122.99332440486171","122.85864792025531"
"1325","30.89","124.94532257834862","-234.92000000000004","195.44361149690968","-126.7816206480686","489012.3759998573","5909027.429288227","-1234.6106222849403","4.833669895275974","53.328421063793066","0.09479483779604865","True","1277.1206222849403","195.0673019225942","-127.18996499851346","1234.6106222849403","-0.0011393218955788598","0.0029331616891106194","232.87022024227056","232.96305417191314","123.10560437074783","122.97092794366837"
"1350","30.820000000000004","125.1053225783487","-234.75999999999996","205.94326639098773","-134.14045356367234","489022.85415119625","5909020.048738389","-1256.0723240034042","4.8338274764641795","53.32835493788503","0.12943115067054412","True","1298.5823240034042","205.54545326152584","-134.5705148363486","1256.0723240034042","-0.0012054478036134242","0.003090742877316366","245.67897105736589","245.7769115561042","123.21275062585403","123.07807425592232"
"1375","30.85","125.19532257834862","-234.67000000000007","216.42070898226697","-141.51788514008337","489033.3100554318","5909012.649649587","-1277.5384986053198","4.83398472377521","53.32828864465869","0.06603353821835393","True","1320.0484986053198","216.00135749706533","-141.9696036381647","1277.5384986053198","-0.0012717410299529774","0.003247990188346428","258.4800858823608","258.5831299425949","123.31542025302075","123.18074394074073"
"1400","31.02","125.16532257834865","-234.70000000000005","226.9248995224334","-148.92236488098166","489043.792633316","5909005.22346067","-1298.9822668976838","4.834142372047655","53.32822210818472","0.20483769840695493","True","1341.4922668976837","226.48393538128585","-149.39579255599529","1298.9822668976838","-0.0013382775039261219","0.003405638460791671","271.31914016380864","271.4273029468678","123.41007596105462","123.27539970646264"
"1425","31.3","124.76532257834867","-235.10000000000002","237.52576962214505","-156.3353936937258","489054.3718318616","5908997.788498996","-1320.3754114416038","4.834301470882581","53.328155494664955","0.41782830187586567","True","1362.8854114416038","237.06313392688753","-156.8307542297989","1320.3754114416038","-0.0014048910236894585","0.0035647372957177126","284.2442874351655","284.35760330253976","123.48690403758286","123.35222784069458"
"1450","31.57","125.31532257834861","-234.55000000000007","248.20058326391884","-163.82147467314698","489065.024772619","5908990.280340776","-1341.7062455400492","4.8344616790024295","53.32808822452327","0.4727093937931486","True","1384.2162455400492","247.71607468428556","-164.33891244977713","1341.7062455400492","-0.0014721611653740752","0.0037249454155663386","297.2718146783614","297.3903244838911","123.56094892474005","123.42627278594998"
"1475","31.65","124.95532257834861","-234.91000000000008","258.9164324471215","-171.36251619808465","489075.718603301","5908982.717147694","-1362.9971497623005","4.834622502490713","53.32802046032132","0.24593615876650374","True","1405.5071497623005","258.4099053662503","-171.90210553165525","1362.9971497623005","-0.0015399253673251678","0.003885768903849396","310.36432313913076","310.48805282793677","123.63305540866268","123.49837932858793"
"1500","31.660000000000004","125.64532257834868","-234.22","269.62401658336915","-178.94401257188153","489086.4040771856","5908975.11353546","-1384.2778093560219","4.8347832014006205","53.32795233240757","0.4347008574161763","True","1426.7878093560219","269.0953792508808","-179.50571776553988","1384.2778093560219","-0.0016080532810747172","0.004046467813757282","323.47275904579203","323.6017150045324","123.70610206479782","123.57142604363571"
"1525","31.54","125.53532257834866","-234.33000000000004","280.2766194773302","-186.5678323631781","489097.03449243493","5908967.467746019","-1405.5709806135492","4.834943074572125","53.327883824006946","0.15974961092111692","True","1448.0809806135492","279.72579450020567","-187.15150720626116","1405.5709806135492","-0.0016765616816982742","0.00420634098526218","336.5593658752442","336.6935394365848","123.78463805358223","123.6499620916268"
"1550","31.76","125.93532257834863","-233.93000000000006","290.92484934736444","-194.22949603480666","489107.6604474838","5908959.784138204","-1426.8527249873814","4.835102881576508","53.32781497535634","0.3648747337154864","True","1469.3627249873814","290.351749549096","-194.835115022026","1426.8527249873814","-0.0017454103323046866","0.004366147989644631","349.6639250936062","349.8033234515099","123.86284825556771","123.72817235308884"
"1575","31.82","126.29532257834863","-233.57000000000008","301.5640872074371","-201.9921640490624","489118.27717680007","5908951.999587749","-1448.1023596972627","4.8352625530477145","53.32774521894565","0.23869827132556257","True","1490.6123596972627","300.9684788653394","-202.61966547649354","1448.1023596972627","-0.0018151667429933127","0.004525819460851288","362.8177973974298","362.96244024758","123.94944669719479","123.81477085479595"
"1600","31.79","126.21532257834862","-233.65000000000006","312.1888705828534","-209.78410010084852","489128.8793886513","5908944.185815009","-1469.3485280178766","4.8354220070359695","53.327675199345336","0.06209541597096512","True","1511.8585280178766","311.5706907165586","-210.43343821633607","1469.3485280178766","-0.001885186343308476","0.0046852734491062975","375.97676421973466","376.12665363002446","124.03491412777163","123.90023834572379"
"1625","31.860000000000003","126.29532257834863","-233.57000000000008","322.81963014667843","-217.58042534720678","489139.4875639662","5908936.36764084","-1490.5900947626567","4.835581550194252","53.32760514009083","0.09807507656212959","True","1533.1000947626567","322.17886603146326","-218.25161238573492","1490.5900947626567","-0.0019552455978129046","0.004844816607389113","389.1439168563382","389.29905612820295","124.11464516617549","123.97996944456834"
"1650","32.85","125.37532257834869","-234.49","333.6665368345689","-225.4118242581584","489150.31171724014","5908928.513899273","-1511.708674539914","4.835744336895539","53.32753476539059","1.3267757566273768","True","1554.218674539914","333.0030193054117","-226.10535395238549","1511.708674539914","-0.0020256202980561966","0.00500760330867589","402.5104246506591","402.6708933093695","124.17606935597189","124.04139369491537"
"1675","33.38","123.06532257834863","-236.80000000000004","344.95932511164966","-233.0898911424846","489161.5819334104","5908920.8123806175","-1532.6488393312186","4.83591381527107","53.32746576800602","1.6424254637274682","True","1575.1588393312186","344.27323547564447","-233.8068726081401","1532.6488393312186","-0.002094617682622868","0.005177081684206719","416.1606833227613","416.32659455564465","124.18166958856409","124.04699398690967"
"1700","31.919999999999998","123.90532257834866","-235.96000000000004","356.20892355374133","-240.52933710795497","489172.80953771493","5908913.34948864","-1553.6979272859414","4.836082645059684","53.32739891446529","1.8344234682872083","True","1596.2079272859414","355.5008397802012","-241.2697645854205","1553.6979272859414","-0.002161471223352862","0.00534591147282093","429.6416488045968","429.81293515773507","124.16378321289388","124.02910766879886"
"1725","30.78","124.59532257834871","-235.26999999999998","366.96039908067735","-247.8482975523091","489183.5395020829","5908906.008204242","-1575.0477734121769","4.836243998267819","53.32733314350628","1.4342026901607912","True","1617.5577734121769","366.2308041481883","-248.61104898341","1575.0477734121769","-0.002227242182364364","0.00550726468095597","442.6425822078804","442.8190523148569","124.17011504635042","124.03543955870082"
"1750","31.230000000000004","124.63532257834869","-235.22999999999996","377.55860217351477","-255.1637277022838","489194.11626380787","5908898.670808886","-1596.4757773657254","4.836403050575472","53.32726740412294","0.5405657379368912","True","1638.9857773657254","376.80756587313954","-255.94844433944672","1596.4757773657254","-0.0022929815657022345","0.005666316988608422","455.5145967573632","455.6961992491748","124.18650566022063","124.0518302289937"
"1775","31.470000000000002","124.68532257834863","-235.18000000000004","388.2570178144199","-262.5607300170997","489204.7930061887","5908891.25163869","-1617.8258905959049","4.836563606372752","53.327200931530626","0.28968675809397","True","1660.3358905959049","387.4843082539737","-263.36761453561485","1617.8258905959049","-0.0023594541580180817","0.0058268727858887814","468.51530340986807","468.70208963611316","124.20339349033424","124.0687181162048"
"1800","31.67","124.99532257834859","-234.8700000000001","398.9992719469735","-270.0381309969638","489215.5133805509","5908883.751999136","-1639.1259234179379","4.836724819551706","53.32713373629705","0.30907897361563724","True","1681.6359234179379","398.2046826161677","-270.8672540895641","1639.1259234179379","-0.0024266493915945375","0.005988085964842682","481.59738225561745","481.7893846968282","124.22436642248877","124.08969110597864"
"1825","31.970000000000002","124.88532257834868","-234.98000000000005","409.8046527106818","-277.58731462951954","489226.2966875367","5908876.180457462","-1660.368618439384","4.83688697959615","53.32706589582605","0.36666563614258413","True","1702.878618439384","408.9879896019702","-278.4387957639992","1660.368618439384","-0.00249448986259182","0.006150246009286597","494.7720067113411","494.96926230479244","124.24701211564322","124.11233685724562"
"1850","32.36","125.09532257834871","-234.77","420.7079098626814","-285.2192744129957","489237.177637127","5908868.525942937","-1681.5315473935793","4.8370506080263205","53.32699731131503","0.4868478492119437","True","1724.0415473935793","419.86893919226713","-286.0933102890849","1681.5315473935793","-0.0025630743736115846","0.006313874439457301","508.07411692646417","508.2766765431026","124.27001559562446","124.13534039603537"
"1875","32.62","125.04532257834863","-234.82000000000005","431.69868679368506","-292.9351945578806","489248.14587408636","5908860.787296157","-1702.618659922803","4.837215549388469","53.32692797212366","0.31366017074265073","True","1745.128659922803","430.83717615163187","-293.8319570682943","1702.618659922803","-0.0026324135649815616","0.0064788158016062525","521.4958210272601","521.7037323903822","124.29407887488095","124.1594037345364"
"1900","32.77","125.04532257834863","-234.82000000000005","442.754523285305","-300.6896151407589","489259.17905402055","5908853.01001158","-1723.6576020045936","4.837381466620948","53.32685828672848","0.18000000000000407","True","1766.1676020045936","441.87035608582664","-301.6092416457832","1723.6576020045936","-0.0027020989601638234","0.006644733034084638","534.9930338177869","535.2063270768531","124.31643116797653","124.18175608742244"
"1925","32.74","125.0753225783486","-234.7900000000001","453.8263609738877","-308.4595823386913","489270.22819218604","5908845.217149072","-1744.6823969258735","4.837547623449367","53.326788461401634","0.040931425817135846","True","1787.1923969258735","452.91949425131315","-309.40210415329784","1744.6823969258735","-0.002771924287010563","0.006810889862503444","548.5122882191004","548.7309721998215","124.33808673803797","124.20341171696417"
"1950","32.83","125.55532257834864","-234.31000000000003","464.8723699955867","-316.28511320015184","489281.2513814859","5908837.368805936","-1765.7001406469603","4.837713392026298","53.32671813660638","0.33006556032232803","True","1808.2101406469603","463.94268355116947","-317.2504472900182","1765.7001406469603","-0.0028422490822634927","0.006976658439434402","562.0415108569625","562.2655895725316","124.3648624092298","124.23018744827851"
"1975","32.78","125.45532257834861","-234.41000000000008","475.8984503297003","-324.1514952267207","489292.2545540995","5908829.479674898","-1786.7131247292966","4.837878860913863","53.32664744453569","0.08846914482635136","True","1829.2231247292966","474.9458561647916","-325.1395783275366","1786.7131247292966","-0.002912941152956705","0.007142127326999592","575.5773724557935","575.8068485906789","124.39485529730699","124.26018039672672"
"2000","32.78","125.3653225783487","-234.49999999999997","486.93009037674335","-331.9942653845063","489303.2633396562","5908821.614133236","-1807.7320170991234","4.83804441272436","53.32657696438914","0.058472790283087585","True","1850.2420170991234","485.9546417214442","-333.0051199896261","1807.7320170991234","-0.00298342129950413","0.0073076791374964145","589.1046797895282","589.3395499731046","124.42126878792966","124.28659394754216"
"2025","32.78","125.54532257834866","-234.32000000000002","497.95555911669777","-339.84569150726145","489314.2659360296","5908813.739953628","-1828.7509132695277","4.838209871357626","53.326506406240476","0.11694555507018416","True","1871.2609132695277","496.9572380948812","-340.8792995978147","1828.7509132695277","-0.0030539794481683202","0.007473137770762861","602.6318887921458","602.8721530235675","124.44750656470757","124.31283178449678"
"2050","32.72","125.42532257834864","-234.44000000000008","508.96795136497917","-347.6965131507188","489325.25546256447","5908805.866409024","-1849.776889882195","4.838375133189423","53.3264358533024","0.10607758630030983","True","1892.286889882195","507.94676462974166","-348.7528442014009","1849.776889882195","-0.0031245323862449936","0.007638399602559964","616.1480845027344","616.3937384284753","124.47323151645531","124.33855679627783"
"2075","32.76","124.90532257834867","-234.96000000000004","520.0209581183402","-355.4834966556789","489336.2857372773","5908798.056581559","-1870.8052671238254","4.838541004112305","53.326365873705214","0.34087208101117544","True","1913.3152671238254","518.9770393425715","-356.5626716669649","1870.8052671238254","-0.003194511983430459","0.007804270525442192","629.6618983161239","629.9129410298415","124.49097368080557","124.35629902025384"
"2100","32.92","125.62532257834867","-234.23999999999998","531.0900934008375","-363.3110533126317","489347.3320387023","5908790.206159377","-1891.810046961326","4.838707116500704","53.326295529304616","0.5063527857788734","True","1934.320046961326","530.0233407675987","-364.41309384908527","1891.810046961326","-0.003264856384028292","0.007970382913840446","643.2119749562412","643.4684209560281","124.51014132378548","124.37546672312983"
"2125","33.1","125.76532257834867","-234.1","542.1509888075082","-371.257793353746","489358.36982351856","5908782.236621051","-1912.774428878983","4.838873104516223","53.326224113787","0.23459022612098812","True","1955.284428878983","541.0611255838303","-372.38263217452914","1912.774428878983","-0.0033362719016452047","0.008136370929359593","656.8226293020606","657.0845027778784","124.53749946787399","124.40282492789271"
"2150","33.36","125.86532257834868","-234","553.2604083191335","-379.2747277173297","489369.4559480251","5908774.196802617","-1933.6863499139831","4.839039820141617","53.326152067285385","0.3188547282048943","True","1976.196349913983","552.1472500903765","-380.42245060857385","1933.6863499139831","-0.0034083184032596137","0.008303086554754202","670.5131070377354","670.7804398598016","124.56634886556957","124.4316743869174"
"2175","33.52","126.23532257834859","-233.63000000000008","564.3986787933858","-387.3822273913895","489380.5706991139","5908766.066387482","-1954.5479489456438","4.839206968078579","53.326079206774864","0.311011282784626","True","1997.0579489456438","563.2620011791587","-388.5528657436371","1954.5479489456438","-0.003481178913780525","0.0084702344917158","684.2787527389283","684.5515749177952","124.59892745603469","124.46425303921697"
"2200","32.82","126.4853225783486","-233.38000000000008","575.4138113112429","-395.4911689225565","489391.5623582689","5908757.93482043","-1975.4741012916954","4.839372267367428","53.32600633317894","0.8558845732210395","True","2017.9841012916954","574.2536603341578","-396.6844327952713","1975.4741012916954","-0.003554052509706196","0.008635533780564586","697.9439845928069","698.2222561215452","124.63604131379216","124.50136695875649"
"2225","32.46","126.72532257834861","-233.14000000000004","586.2382767586652","-403.53151414528526","489402.36358803796","5908749.872270178","-1996.5259770863477","4.8395347046342305","53.32593407587419","0.4590777503971483","True","2039.0359770863477","585.0548901032307","-404.74698304757476","1996.5259770863477","-0.003626309814457329","0.008797971047367348","711.4136242157703","711.6972671335445","124.67588301480164","124.54120872112561"
"2250","31.270000000000003","126.77532257834865","-233.09","596.8130393616686","-411.4280365767125","489412.91555309034","5908741.954071714","-2017.7579541853236","4.839693393999231","53.32586311085376","1.428351147557743","True","2060.2679541853236","595.6068551556091","-412.6651815120131","2017.7579541853236","-0.0036972748348844675","0.008956660412367867","724.5964931882415","724.885393171556","124.71608601174296","124.5814117782314"
"2275","30.430000000000003","126.94532257834862","-232.92000000000007","607.0702085772658","-419.11794375561584","489423.1505376662","5908734.243151803","-2039.2205843155286","4.839847316686287","53.325794002401175","1.0134127107952495","True","2081.7305843155286","605.8418397314963","-420.37610142305493","2039.2205843155286","-0.003766383287469921","0.009110583099423586","737.4011129750826","737.6951192193022","124.75566035651775","124.62098618159473"
"2300","29.800000000000004","127.64532257834868","-232.22","617.0490301835275","-426.7175684242604","489433.1074984672","5908726.623132184","-2060.846045476829","4.839997061559163","53.32572570522094","0.8655313442533104","True","2103.3560454768294","615.7988005324733","-427.9961210414767","2060.846045476829","-0.003834680467704743","0.009260327972300253","749.925891247784","750.2248921839006","124.80030147264978","124.66562735554028"
"2329","29.200000000000003","128.8453225783486","-231.0200000000001","628.2645900039377","-435.55595617505566","489444.29779056826","5908717.761941028","-2086.086469028318","4.840165363984623","53.32564627553027","0.8711363408740728","True","2128.596469028318","626.9890926335356","-436.857312197797","2086.086469028318","-0.003914110158376616","0.009428630397759541","764.1725155369746","764.477197836785","124.8670190286344","124.73234497874942"
"2357","28.899999999999995","128.36532257834872","-231.49999999999994","638.8891236434487","-444.0393695153704","489454.89812772715","5908709.25697047","-2110.5639711637255","4.840324796491281","53.325570035850156","0.40703334539762503","True","2153.0739711637257","637.5894297924242","-445.3622827557847","2110.5639711637255","-0.0039903498384887826","0.009588062904417605","777.7325014968013","778.0425913724142","124.93466558964958","124.79999160437752"
"2385","28.1","129.06532257834863","-230.80000000000004","649.3141937373574","-452.39465904126126","489465.2993824221","5908700.880540984","-2135.170720108795","4.840481235101509","53.32549494738036","0.9288378029627887","True","2177.6807201087954","647.9906844873913","-453.73871224187315","2135.170720108795","-0.004065438308280989","0.009744501514646231","791.0567275292913","791.3721309964444","125.00063782136468","124.86596389962894"
"2413","27.100000000000005","128.76532257834867","-231.09999999999997","659.4070960210656","-460.54379060328677","489475.36908699863","5908692.710967184","-2159.9841175479637","4.840632688360034","53.325421711425335","1.0817248033703686","True","2202.494117547964","658.0603890639031","-461.90828604158014","2159.9841175479637","-0.004138674263309383","0.009895954773170956","803.9917539184129","804.3123157991421","125.06593244948175","124.93125858971327"
"2441","26.1","127.76532257834867","-232.10000000000002","669.2491076891565","-468.30930404765485","489485.1889029699","5908684.925447025","-2185.0202457876494","4.840780376427529","53.32535192244371","1.1738956707965538","True","2227.5302457876496","667.8802050351514","-469.69380620028824","2185.0202457876494","-0.004208463244935956","0.010043642840665612","816.5024432668342","816.8279943784561","125.11720827392301","124.98253447312702"
"2469","25.2","128.36532257834872","-231.49999999999994","678.7920523931899","-475.7812877986645","489494.71046166273","5908677.434041431","-2210.260772781064","4.840923576173187","53.32528477103497","1.0036240131543401","True","2252.7707727810644","677.4017637280049","-477.1852117944509","2210.260772781064","-0.0042756146536717665","0.010186842586323408","828.6005526531627","828.9309284925462","125.16218963004914","125.02751588591491"
"2497","24.4","129.3653225783487","-230.5","687.9373043617063","-483.1494527199072","489503.8347311711","5908670.047347408","-2235.6784492015972","4.841060807137974","53.32521855272337","0.967787301355539","True","2278.1884492015975","686.5260332363541","-484.5719058178365","2235.6784492015972","-0.004341832965273795","0.010324073551110757","840.3141830405898","840.6492302952503","125.21565971403473","125.08098602577299"
"2525","24.3","127.8653225783487","-232.00000000000003","696.956903601013","-490.3540272307014","489512.8337827359","5908662.824473381","-2261.1879204766797","4.841196152204286","53.32515380429293","0.671229667087476","True","2303.69792047668","695.5250848011929","-491.7947798445821","2261.1879204766797","-0.0044065813957132605","0.0104594186174225","851.8317023157141","852.1713428052361","125.26352612954457","125.1288524957745"
"2554","23.9","126.36532257834871","-233.49999999999997","706.3981814786036","-497.49989630815224","489522.2544815916","5908655.659290528","-2287.660309930661","4.8413378252161445","53.32508958258952","0.756735804486201","True","2330.170309930661","704.9457836568472","-498.95996269769967","2287.660309930661","-0.00447080309912451","0.010601091629281356","863.6605827932964","864.0049407398666","125.29082413937142","125.15615055976332"
"2582","23.5","126.4653225783486","-233.4000000000001","715.4551276025966","-504.18089520580537","489531.29209516896","5908648.959694266","-2313.298811529294","4.841473730951202","53.32502953826117","0.4307296253721586","True","2355.8088115292944","713.9833972342312","-505.6595589593053","2313.298811529294","-0.004530847427474782","0.010736997364339196","874.9079272089454","875.2567707269536","125.30700876929878","125.17233524027307"
"2607","24.2","125.56532257834863","-234.30000000000007","723.6319288309337","-510.12367445807655","489539.4516515867","5908643.000089235","-2336.163925169961","4.841596429413587","53.32497612827306","0.9467085302662911","True","2378.6739251699614","722.1429536519572","-511.6191639909521","2336.163925169961","-0.00458425741558699","0.010859695826724192","885.0110815532049","885.3639543522128","125.31656182584398","125.18188834166423"
"2638","23.9","126.34532257834871","-233.51999999999998","733.8585425069949","-517.540944126663","489549.65673330997","5908635.561769696","-2364.472860561577","4.841749886366404","53.324909466309855","0.42298219578832097","True","2406.982860561577","732.3480353752384","-519.057483529672","2364.472860561577","-0.0046509193787898084","0.01101315277954118","897.6381877605961","897.9960964603401","125.32741015312008","125.19273672499887"
"2667","24.7","125.64532257834868","-234.22","743.5142805179058","-524.55365096063","489559.2921190331","5908628.529191892","-2390.9033965441404","4.8418947765653","53.324846440187684","0.8795881202293765","True","2433.4133965441406","741.9834210983827","-526.0900613339618","2390.9033965441404","-0.004713945500959937","0.01115804297843681","909.5659128503177","909.928578554485","125.33786462043729","125.20319124517415"
"2694","26.4","124.3453225783487","-235.52","753.0553655661749","-531.2282252046916","489568.81369224377","5908621.834880354","-2415.262346940371","4.842037946813066","53.32478645249532","1.9888685303709017","True","2457.7723469403713","751.5049943090416","-532.7843728717417","2415.262346940371","-0.004773933193327196","0.011301213226202478","921.2051587175182","921.5724664192892","125.33498328221442","125.20030995730971"
"2722","27","124.84532257834873","-235.01999999999992","763.4113142733064","-538.3717622435331","489579.14870017226","5908614.669879801","-2440.276663561667","4.842193344687604","53.32472224975301","0.6864385434767074","True","2482.7866635616674","761.8400022375281","-539.9493734249845","2440.276663561667","-0.004838135935635535","0.011456611100740588","933.78022835746","934.1525513221619","125.32687071602346","125.19219744493716"
"2769","27.3","127.64532257834868","-232.22","780.7022112706302","-551.0511191367733","489596.4028661719","5908601.954988168","-2482.099650283146","4.8424528033689604","53.32460829489819","0.8376586411867428","True","2524.609650283146","779.0941682371777","-552.6642650580034","2482.099650283146","-0.004952090790453667","0.011716069782097271","955.2096695769378","955.5905391875444","125.3506597225683","125.21598654692887"
"2790","27.3","127.64532257834868","-232.22","788.3286093798351","-556.9338526322119","489604.01238143403","5908596.056698147","-2500.7606121688996","4.84256724021784","53.32455542464951","0","True","2543.2706121689","786.703683499305","-558.5625550784171","2500.7606121688996","-0.005004961039134059","0.011830506630976956","964.8289037788536","965.2136098162433","125.3748941917082","125.24022106037256"