{
  "id": "partition-id:master-data--Coring:KKS1-Core-2",
  "kind": "osdu:wks:master-data--Coring:1.0.0",
  "meta": [
    {
      "kind": "Unit",
      "name": "m",
      "persistableReference": "{\"abcd\":{\"a\":0.0,\"b\":1.0,\"c\":1.0,\"d\":0.0},\"symbol\":\"m\",\"baseMeasurement\":{\"ancestry\":\"L\",\"type\":\"UM\"},\"type\":\"UAD\"}",
      "unitOfMeasureID": "partition-id:reference-data--UnitOfMeasure:m:",
      "propertyNames": [
        "TopDepth",
        "BottomDepth",
        "ConventionalCoring.CoreSections[].TopDepth",
        "ConventionalCoring.CoreSections[].BottomDepth",
        "ConventionalCoring.CoreSections[].RecoveredLength"
      ]
    },
    {
      "kind": "Unit",
      "name": "in",
      "persistableReference": "{\"abcd\":{\"a\":0.0,\"b\":0.0254,\"c\":1.0,\"d\":0.0},\"symbol\":\"in\",\"baseMeasurement\":{\"ancestry\":\"L\",\"type\":\"UM\"},\"type\":\"UAD\"}",
      "unitOfMeasureID": "partition-id:reference-data--UnitOfMeasure:in:",
      "propertyNames": [
        "CoreDiameter"
      ]
    }
  ],
  "data": {
    "TechnicalAssuranceID": "partition-id:reference-data--TechnicalAssuranceType:Certified:",
    "GeoContexts": [
      {
        "GeoPoliticalEntityID": "partition-id:master-data--GeoPoliticalEntity:3298:",
        "GeoTypeID": "partition-id:reference-data--GeoPoliticalEntityType:BlockID:"
      },
      {
        "BasinID": "partition-id:master-data--Basin:Carnarvon:",
        "GeoTypeID": "partition-id:reference-data--BasinType:PassiveMargin:"
      },
      {
        "FieldID": "partition-id:master-data--Field:Gorgon:",
        "GeoTypeID": "Field"
      }
    ],
    "SpatialLocation": {
      "CoordinateQualityCheckRemarks": [
        "Wgs84Coordinates copied from parent Wellbore ProjectedBottomHoleLocation."
      ],
      "Wgs84Coordinates": {
        "type": "FeatureCollection",
        "features": [
          {
            "type": "Feature",
            "geometry": {
              "type": "Point",
              "coordinates": [
                112.81362197200383,
                -19.781020115817476
              ]
            },
            "properties": {}
          }
        ]
      },
      "AppliedOperations": [
        "conversion from GDA_1994_MGA_Zone_49 to GCS_GDA_1994; 1 points converted",
        "transformation GCS_GDA_1994 to GCS_WGS_1984 using GDA_1994_To_WGS_1984; 1 points successfully transformed"
      ],
      "SpatialGeometryTypeID": "partition-id:reference-data--SpatialGeometryType:Point:"
    },
    "VersionCreationReason": "Example VersionCreationReason",
    "CoreIdentifier": "KKS1-Core-2",
    "WellboreID": "partition-id:master-data--Wellbore:KKS1:",
    "Name": "KKS1 Core #2",
    "VerticalMeasurement": {
      "VerticalReferenceID": "ZDP",
      "VerticalMeasurement": 0.0,
      "VerticalMeasurementPathID": "partition-id:reference-data--VerticalMeasurementPath:MeasuredDepth:",
      "VerticalMeasurementSourceID": "partition-id:reference-data--VerticalMeasurementSource:DRL:",
      "VerticalMeasurementDescription": "Same vertical reference as wellbore ZDP, Measured Depth, Drillers Depth."
    },
    "ServiceCompanyID": "partition-id:master-data--Organisation:Baker_Hughes_Inteq_BHI:",
    "TopDepth": 2431.0,
    "BottomDepth": 2450.0,
    "RunNumber": 1,
    "CoreDiameter": 5.125,
    "IsOriented": false,
    "CoreRemarks": [
      {
        "RemarkID": "1",
        "Remark": "None",
        "RemarkSource": "Kentish Knock South 1 Completion Report, Comments"
      },
      {
        "RemarkID": "2",
        "Remark": "1. 2431.0 m SANDSTONE:   100%  light grey to medium light grey, friable, very fine to fine grained quartz, sub-angular, sub-spherical, well sorted, weak siliceous cement, trace carbonaceous detritus, trace pinkish grey quartz, trace micro micas (biotite and muscovite), fair to good visual porosity.",
        "RemarkSource": "Kentish Knock South 1 Completion Report, Lithology/Shows"
      },
      {
        "RemarkID": "3",
        "Remark": "2. 2439.8 m SANDSTONE:   100%  light grey, friable, very fine to minor fine grained quartz, sub-angular, sub-spherical, well sorted, weak siliceous cement, trace carbonaceous detritus, trace pinkish grey and yellowish grey quartz, trace micro micas, trace chlorite, good visual porosity.",
        "RemarkSource": "Kentish Knock South 1 Completion Report, Lithology/Shows"
      },
      {
        "RemarkID": "4",
        "Remark": "3. 2449.9 m SANDSTONE:   100%  medium light grey to medium grey, friable, very fine to fine grained quartz, sub-angular, sub-spherical, well sorted, weak siliceous cement, trace carbonaceous detritus, trace orange grey quartz, trace micro micas, good visual porosity.",
        "RemarkSource": "Kentish Knock South 1 Completion Report, Lithology/Shows"
      }
    ],
    "PreferredDepthShiftsID": "partition-id:work-product-component--WellLog:WellLog-911bb71f-06ab-4deb-8e68-b8c9229dc76b:",
    "HasTrippingSchedule": true,
    "CoringOperationDate": "2012-12-19",
    "CoreRecoveredDate": "2012-12-19",
    "ConventionalCoring": {
      "CoreTypeID": "partition-id:reference-data--ConventionalCoreType:ConventionalCore:",
      "CoreSections": [
        {
          "CoreSectionID": "1A",
          "RecoveredLength": 1.0,
          "TopDepth": 2431.0,
          "BottomDepth": 2432.0
        },
        {
          "CoreSectionID": "1B",
          "RecoveredLength": 1.0,
          "TopDepth": 2432.0,
          "BottomDepth": 2433.0
        },
        {
          "CoreSectionID": "1C",
          "RecoveredLength": 1.0,
          "TopDepth": 2433.0,
          "BottomDepth": 2434.0
        },
        {
          "CoreSectionID": "1D",
          "RecoveredLength": 1.0,
          "TopDepth": 2434.0,
          "BottomDepth": 2435.0
        },
        {
          "CoreSectionID": "1E",
          "RecoveredLength": 1.0,
          "TopDepth": 2435.0,
          "BottomDepth": 2436.0
        },
        {
          "CoreSectionID": "1F",
          "RecoveredLength": 1.0,
          "TopDepth": 2436.0,
          "BottomDepth": 2437.0
        },
        {
          "CoreSectionID": "1G",
          "RecoveredLength": 1.0,
          "TopDepth": 2437.0,
          "BottomDepth": 2438.0
        },
        {
          "CoreSectionID": "1H",
          "RecoveredLength": 1.0,
          "TopDepth": 2438.0,
          "BottomDepth": 2439.0
        },
        {
          "CoreSectionID": "1I",
          "RecoveredLength": 0.81,
          "TopDepth": 2439.0,
          "BottomDepth": 2439.81
        },
        {
          "CoreSectionID": "2A",
          "RecoveredLength": 0.24,
          "TopDepth": 2439.81,
          "BottomDepth": 2440.5
        },
        {
          "CoreSectionID": "2B",
          "RecoveredLength": 0.5,
          "TopDepth": 2440.5,
          "BottomDepth": 2441.0
        },
        {
          "CoreSectionID": "2C",
          "RecoveredLength": 1.0,
          "TopDepth": 2441.0,
          "BottomDepth": 2442.0
        },
        {
          "CoreSectionID": "2D",
          "RecoveredLength": 1.0,
          "TopDepth": 2442.0,
          "BottomDepth": 2443.0
        },
        {
          "CoreSectionID": "2E",
          "RecoveredLength": 1.0,
          "TopDepth": 2443.0,
          "BottomDepth": 2444.0
        },
        {
          "CoreSectionID": "2F",
          "RecoveredLength": 1.0,
          "TopDepth": 2444.0,
          "BottomDepth": 2445.0
        },
        {
          "CoreSectionID": "2G",
          "RecoveredLength": 1.0,
          "TopDepth": 2445.0,
          "BottomDepth": 2446.0
        },
        {
          "CoreSectionID": "2H",
          "RecoveredLength": 1.0,
          "TopDepth": 2446.0,
          "BottomDepth": 2447.0
        },
        {
          "CoreSectionID": "2I",
          "RecoveredLength": 1.0,
          "TopDepth": 2447.0,
          "BottomDepth": 2448.0
        },
        {
          "CoreSectionID": "2J",
          "RecoveredLength": 0.8,
          "TopDepth": 2448.0,
          "BottomDepth": 2448.8
        },
        {
          "CoreSectionID": "2K",
          "RecoveredLength": 1.14,
          "TopDepth": 2448.8,
          "BottomDepth": 2449.94
        }
      ]
    },
    "ExtensionProperties": {}
  },
  "version": 1562066009929332,
  "acl": {
    "owners": [
      "someone@company.com"
    ],
    "viewers": [
      "someone@company.com"
    ]
  },
  "legal": {
    "legaltags": [
      "Example legaltags"
    ],
    "otherRelevantDataCountries": [
      "US"
    ],
    "status": "compliant"
  },
  "tags": {
    "NameOfKey": "String value"
  },
  "createTime": "2022-02-16T14:56:34+00:00",
  "createUser": "some-user@some-company-cloud.com",
  "modifyTime": "2022-02-16T14:56:34+00:00",
  "modifyUser": "some-user@some-company-cloud.com",
  "ancestry": {
    "parents": []
  }
}