{
  "kind": "osdu:wks:Manifest:1.0.0",
  "ReferenceData": [],
  "MasterData": [],
  "Data": {
    "WorkProduct": {
      "id": "surrogate-key:wp-1",
      "kind": "osdu:wks:work-product--WorkProduct:1.0.0",
      "acl": {
        "owners": [
          "data.volve.owners@volve.volve-company.com"
        ],
        "viewers": [
          "data.volve-shared.viewers@volve.volve-company.com"
        ]
      },
      "legal": {
        "legaltags": [
          "ExampleLegalTag"
        ],
        "otherRelevantDataCountries": [
          "NO",
          "US"
        ]
      },
      "data": {
        "ResourceSecurityClassification": "osdu:reference-data--ResourceSecurityClassification:RESTRICTED:",
        "Name": "ST0202R08 CMP Gathers",
        "Description": "Volve - Seismic Trace Data CMP Gathers",
        "Components": [
          "surrogate-key:wpc-1"
        ]
      }
    },
    "WorkProductComponents": [
      {
        "id": "surrogate-key:wpc-1",
        "kind": "osdu:wks:work-product-component--SeismicTraceData:1.3.0",
        "acl": {
          "owners": [
            "data.volve.owners@volve.volve-company.com"
          ],
          "viewers": [
            "data.volve-shared.viewers@volve.volve-company.com"
          ]
        },
        "legal": {
          "legaltags": [
            "ExampleLegalTag"
          ],
          "otherRelevantDataCountries": [
            "NO",
            "US"
          ]
        },
        "meta": [
          {
            "kind": "Unit",
            "name": "ms",
            "persistableReference": "{\"abcd\":{\"a\":0.0,\"b\":0.001,\"c\":1.0,\"d\":0.0},\"symbol\":\"ms\",\"baseMeasurement\":{\"ancestry\":\"T\",\"type\":\"UM\"},\"type\":\"UAD\"}",
            "unitOfMeasureID": "osdu:reference-data--UnitOfMeasure:ms:",
            "propertyNames": [
              "StartTime",
              "EndTime"
            ]
          },
          {
            "kind": "Unit",
            "name": "Amplitude",
            "persistableReference": "{\"abcd\":{\"a\":0.0,\"b\":1.0,\"c\":1.0,\"d\":0.0},\"symbol\":\"Euc\",\"baseMeasurement\":{\"ancestry\":\"1\",\"type\":\"UM\"},\"type\":\"UAD\"}",
            "unitOfMeasureID": "osdu:reference-data--UnitOfMeasure:Euc:",
            "propertyNames": [
              "RangeAmplitudeMax",
              "RangeAmplitudeMin"
            ]
          }
        ],
        "data": {
          "ResourceSecurityClassification": "osdu:reference-data--ResourceSecurityClassification:RESTRICTED:",
          "Name": "ST0202R08_PS_PSDM_RAW_PP_TIME.MIG_RAW.POST_Stack.3D.JS-017534",
          "Description": "Volve - Seismic Trace Data - RAW PS PSDM Stack IN PP TIME",
          "Datasets": [
            "surrogate-key:file-1"
          ],
          "SpatialArea": {
            "AsIngestedCoordinates": {
              "type": "AnyCrsFeatureCollection",
              "CoordinateReferenceSystemID": "osdu:reference-data--CoordinateReferenceSystem:BoundProjected:EPSG::23031_EPSG::1613:",
              "persistableReferenceCrs": "{\"authCode\":{\"auth\":\"OSDU\",\"code\":\"23031024\"},\"lateBoundCRS\":{\"authCode\":{\"auth\":\"EPSG\",\"code\":\"23031\"},\"name\":\"ED_1950_UTM_Zone_31N\",\"type\":\"LBC\",\"ver\":\"PE_10_9_1\",\"wkt\":\"PROJCS[\\\"ED_1950_UTM_Zone_31N\\\",GEOGCS[\\\"GCS_European_1950\\\",DATUM[\\\"D_European_1950\\\",SPHEROID[\\\"International_1924\\\",6378388.0,297.0]],PRIMEM[\\\"Greenwich\\\",0.0],UNIT[\\\"Degree\\\",0.0174532925199433]],PROJECTION[\\\"Transverse_Mercator\\\"],PARAMETER[\\\"False_Easting\\\",500000.0],PARAMETER[\\\"False_Northing\\\",0.0],PARAMETER[\\\"Central_Meridian\\\",3.0],PARAMETER[\\\"Scale_Factor\\\",0.9996],PARAMETER[\\\"Latitude_Of_Origin\\\",0.0],UNIT[\\\"Meter\\\",1.0],AUTHORITY[\\\"EPSG\\\",23031]]\"},\"name\":\"ED50 * EPSG-Nor S62 2001 / UTM zone 31N [23031,1613]\",\"singleCT\":{\"authCode\":{\"auth\":\"EPSG\",\"code\":\"1613\"},\"name\":\"ED_1950_To_WGS_1984_24\",\"type\":\"ST\",\"ver\":\"PE_10_9_1\",\"wkt\":\"GEOGTRAN[\\\"ED_1950_To_WGS_1984_24\\\",GEOGCS[\\\"GCS_European_1950\\\",DATUM[\\\"D_European_1950\\\",SPHEROID[\\\"International_1924\\\",6378388.0,297.0]],PRIMEM[\\\"Greenwich\\\",0.0],UNIT[\\\"Degree\\\",0.0174532925199433]],GEOGCS[\\\"GCS_WGS_1984\\\",DATUM[\\\"D_WGS_1984\\\",SPHEROID[\\\"WGS_1984\\\",6378137.0,298.257223563]],PRIMEM[\\\"Greenwich\\\",0.0],UNIT[\\\"Degree\\\",0.0174532925199433]],METHOD[\\\"Position_Vector\\\"],PARAMETER[\\\"X_Axis_Translation\\\",-90.365],PARAMETER[\\\"Y_Axis_Translation\\\",-101.13],PARAMETER[\\\"Z_Axis_Translation\\\",-123.384],PARAMETER[\\\"X_Axis_Rotation\\\",0.333],PARAMETER[\\\"Y_Axis_Rotation\\\",0.077],PARAMETER[\\\"Z_Axis_Rotation\\\",0.894],PARAMETER[\\\"Scale_Difference\\\",1.994],AUTHORITY[\\\"EPSG\\\",1613]]\"},\"type\":\"EBC\",\"ver\":\"PE_10_9_1\"}",
              "features": [
                {
                  "type": "AnyCrsFeature",
                  "properties": {},
                  "geometry": {
                    "type": "AnyCrsPolygon",
                    "coordinates": [
                      [
                        [
                          438727.125,
                          6475514.5
                        ],
                        [
                          439888.34375,
                          6480172.0
                        ],
                        [
                          432562.59375,
                          6481998.5
                        ],
                        [
                          431401.375,
                          6477341.0
                        ],
                        [
                          438727.125,
                          6475514.5
                        ]
                      ]
                    ]
                  }
                }
              ]
            },
            "Wgs84Coordinates": {
              "type": "FeatureCollection",
              "features": [
                {
                  "type": "Feature",
                  "properties": {},
                  "geometry": {
                    "type": "Polygon",
                    "coordinates": [
                      [
                        [
                          1.9496878,
                          58.4141503
                        ],
                        [
                          1.9683366,
                          58.4561357
                        ],
                        [
                          1.8422866,
                          58.4714655
                        ],
                        [
                          1.8237804,
                          58.4294624
                        ],
                        [
                          1.9496878,
                          58.4141503
                        ]
                      ]
                    ]
                  }
                }
              ]
            },
            "AppliedOperations": [
              "AsIngestedCoordinates converted to Wgs84Coordinates: Input CRS EPSG 23031 (ED50 / UTM zone 31N) to Target CRS EPSG 4326 (WGS84) using CT EPSG 1613 (ED50 to WGS 84 (24) - Norway - offshore south of 62°N - North Sea.)"
            ],
            "SpatialParameterTypeID": "osdu:reference-data--SpatialParameterType:Outline:",
            "SpatialGeometryTypeID": "osdu:reference-data--SpatialGeometryType:Polygon:"
          },
          "LiveTraceOutline": {
            "AsIngestedCoordinates": {
              "type": "AnyCrsFeatureCollection",
              "CoordinateReferenceSystemID": "osdu:reference-data--CoordinateReferenceSystem:BoundProjected:EPSG::23031_EPSG::1613:",
              "persistableReferenceCrs": "{\"authCode\":{\"auth\":\"OSDU\",\"code\":\"23031024\"},\"lateBoundCRS\":{\"authCode\":{\"auth\":\"EPSG\",\"code\":\"23031\"},\"name\":\"ED_1950_UTM_Zone_31N\",\"type\":\"LBC\",\"ver\":\"PE_10_9_1\",\"wkt\":\"PROJCS[\\\"ED_1950_UTM_Zone_31N\\\",GEOGCS[\\\"GCS_European_1950\\\",DATUM[\\\"D_European_1950\\\",SPHEROID[\\\"International_1924\\\",6378388.0,297.0]],PRIMEM[\\\"Greenwich\\\",0.0],UNIT[\\\"Degree\\\",0.0174532925199433]],PROJECTION[\\\"Transverse_Mercator\\\"],PARAMETER[\\\"False_Easting\\\",500000.0],PARAMETER[\\\"False_Northing\\\",0.0],PARAMETER[\\\"Central_Meridian\\\",3.0],PARAMETER[\\\"Scale_Factor\\\",0.9996],PARAMETER[\\\"Latitude_Of_Origin\\\",0.0],UNIT[\\\"Meter\\\",1.0],AUTHORITY[\\\"EPSG\\\",23031]]\"},\"name\":\"ED50 * EPSG-Nor S62 2001 / UTM zone 31N [23031,1613]\",\"singleCT\":{\"authCode\":{\"auth\":\"EPSG\",\"code\":\"1613\"},\"name\":\"ED_1950_To_WGS_1984_24\",\"type\":\"ST\",\"ver\":\"PE_10_9_1\",\"wkt\":\"GEOGTRAN[\\\"ED_1950_To_WGS_1984_24\\\",GEOGCS[\\\"GCS_European_1950\\\",DATUM[\\\"D_European_1950\\\",SPHEROID[\\\"International_1924\\\",6378388.0,297.0]],PRIMEM[\\\"Greenwich\\\",0.0],UNIT[\\\"Degree\\\",0.0174532925199433]],GEOGCS[\\\"GCS_WGS_1984\\\",DATUM[\\\"D_WGS_1984\\\",SPHEROID[\\\"WGS_1984\\\",6378137.0,298.257223563]],PRIMEM[\\\"Greenwich\\\",0.0],UNIT[\\\"Degree\\\",0.0174532925199433]],METHOD[\\\"Position_Vector\\\"],PARAMETER[\\\"X_Axis_Translation\\\",-90.365],PARAMETER[\\\"Y_Axis_Translation\\\",-101.13],PARAMETER[\\\"Z_Axis_Translation\\\",-123.384],PARAMETER[\\\"X_Axis_Rotation\\\",0.333],PARAMETER[\\\"Y_Axis_Rotation\\\",0.077],PARAMETER[\\\"Z_Axis_Rotation\\\",0.894],PARAMETER[\\\"Scale_Difference\\\",1.994],AUTHORITY[\\\"EPSG\\\",1613]]\"},\"type\":\"EBC\",\"ver\":\"PE_10_9_1\"}",
              "features": [
                {
                  "type": "AnyCrsFeature",
                  "properties": {},
                  "geometry": {
                    "type": "AnyCrsPolygon",
                    "coordinates": [
                      [
                        [
                          438727.125,
                          6475514.5
                        ],
                        [
                          439888.34375,
                          6480172.0
                        ],
                        [
                          432562.59375,
                          6481998.5
                        ],
                        [
                          431401.375,
                          6477341.0
                        ],
                        [
                          438727.125,
                          6475514.5
                        ]
                      ]
                    ]
                  }
                }
              ]
            },
            "Wgs84Coordinates": {
              "type": "FeatureCollection",
              "features": [
                {
                  "type": "Feature",
                  "properties": {},
                  "geometry": {
                    "type": "Polygon",
                    "coordinates": [
                      [
                        [
                          1.9496878,
                          58.4141503
                        ],
                        [
                          1.9683366,
                          58.4561357
                        ],
                        [
                          1.8422866,
                          58.4714655
                        ],
                        [
                          1.8237804,
                          58.4294624
                        ],
                        [
                          1.9496878,
                          58.4141503
                        ]
                      ]
                    ]
                  }
                }
              ]
            },
            "AppliedOperations": [
              "AsIngestedCoordinates converted to Wgs84Coordinates: Input CRS EPSG 23031 (ED50 / UTM zone 31N) to Target CRS EPSG 4326 (WGS84) using CT EPSG 1613 (ED50 to WGS 84 (24) - Norway - offshore south of 62°N - North Sea.)"
            ],
            "SpatialParameterTypeID": "osdu:reference-data--SpatialParameterType:Outline:",
            "SpatialGeometryTypeID": "osdu:reference-data--SpatialGeometryType:Polygon:"
          },
          "HorizontalCRSID": "osdu:reference-data--CoordinateReferenceSystem:23031:",
          "PrincipalAcquisitionProjectID": "osdu:master-data--SeismicAcquisitionSurvey:ST0202R08:",
          "ProcessingProjectID": "osdu:master-data--SeismicProcessingProject:ST0202R08:",
          "SeismicTraceDataDimensionalityTypeID": "osdu:reference-data--SeismicTraceDataDimensionalityType:3D:",
          "SeismicDomainTypeID": "osdu:reference-data--SeismicDomainType:Time:",
          "SeismicFilteringTypeID": "osdu:reference-data--SeismicFilteringType:TauP:",
          "SeismicPhaseID": "osdu:reference-data--SeismicPhase:ZeroPhase:",
          "SeismicPolarityID": "osdu:reference-data--SeismicPolarity:PositiveSEG:",
          "SampleInterval": 4.0,
          "SampleCount": 1126,
          "Difference": false,
          "StartTime": 0.0,
          "EndTime": 10200.0,
          "TraceCount": 58479,
          "TraceLength": 4500.0,
          "TraceDomainUOM": "osdu:reference-data--UnitOfMeasure:ms:",
          "InlineMin": 9985,
          "InlineMax": 10369,
          "CrosslineMin": 1932,
          "CrosslineMax": 2536,
          "InlineIncrement": 2,
          "CrosslineIncrement": 2,
          "Precision": {
            "WordFormat": "osdu:reference-data--WordFormatType:IBMFLOAT:",
            "WordWidth": 4
          },
          "SortOrderID": "namespace:reference-data--SeismicTraceSortOrder:CMP.AbsoluteOffset:",
          "GatherTypeID": "namespace:reference-data--SeismicGatherType:CMP:",
          "ProcessingParameters": [
            {
              "ProcessingParameterTypeID": "osdu:reference-data--ProcessingParameterType:Reformat:"
            },
            {
              "ProcessingParameterTypeID": "osdu:reference-data--ProcessingParameterType:NavigationMerge:"
            },
            {
              "ProcessingParameterTypeID": "osdu:reference-data--ProcessingParameterType:TraceEditing:"
            },
            {
              "ProcessingParameterTypeID": "osdu:reference-data--ProcessingParameterType:Designature-Zerophase:"
            },
            {
              "ProcessingParameterTypeID": "osdu:reference-data--ProcessingParameterType:TidalStatics:"
            },
            {
              "ProcessingParameterTypeID": "osdu:reference-data--ProcessingParameterType:Resample:",
              "ProcessingParameterValue": "4 ms"
            },
            {
              "ProcessingParameterTypeID": "osdu:reference-data--ProcessingParameterType:GeophoneMatchingCorrection:"
            },
            {
              "ProcessingParameterTypeID": "osdu:reference-data--ProcessingParameterType:GeophoneOrientationCorrection:"
            },
            {
              "ProcessingParameterTypeID": "osdu:reference-data--ProcessingParameterType:GatherCMP:"
            },
            {
              "ProcessingParameterTypeID": "osdu:reference-data--ProcessingParameterType:OutputSEGY:"
            }
          ],
          "TextualFileHeader": [
            "C 1 CLIENT=STATOIL,      PROCESSED BY=WESTERNGECO                               C 2 LINE ST0202D04-9985                                                         C 3 SURVEY:ST0202 ,   AREA: VOLVE 15/9                                          C 4 DATAFORMAT: SEG-Y,     DATE:02012008                                        C 5 DATATYPE: RAW PS PSDM Stack IN PP TIME                                      C 6 DATA SHOT BY/VESSEL:GECO ANGLER,  CABLE LENGTH:6000 M  NO OF GROUPS: 240x4  C 7 NO OF CABLES 2,      SOURCE:2,  POP INTERVAL 25.0 M (FLIP-FLOP)             C 8 RCV LINE SPACING: 400 M,    SRC LINE SPACING: 100 M, RECORD LENGTH: 10.2 S  C 9 GEODETIC DATUM: ED-50,      SPHEROID: INTERNAT., PROJECTION: UTM            C10 CENTR. MERID.: 03,          UTM ZONE: 31 N, FALSE EASTING: 500000           C11 FIRST SAMPLE= 0,            LAST SAMPLE= 4500, SAMPLE INTERVAL= 4 ms        C12 DIST. BETWEEN INLINES=25.0M, XLINES=25.0M BIN SIZE (I x X):12.5M x 12.5M    C13 INLINE DIRECTION (GRID): 284.0000000 DEGREES (CLOCKWISE FROM NORTH);        C14 X-LINE DIRECTION (GRID): 014.0000000 DEGREES (CLOCKWISE FROM NORTH);        C15 ORIGO(1.1) UTMX:431955.70E;    UTMY:6348582.15N  ;                          C16 DATA RANGE INLINES=9985-10369 (EVERY 2ND), X-LINES=1932-2536 (EVERY 2ND)    C17 CORNER1:3D INLINE  9985, 3D XLINE 1932, UTM-X 438727.0, UTM-Y 6475514.4     C18 CORNER2:3D INLINE  9985, 3D XLINE 2536, UTM-X 431401.3, UTM-Y 6477341.0     C19 CORNER3:3D INLINE 10369, 3D XLINE 2536, UTM-X 432562.5, UTM-Y 6481998.4     C20 CORNER4:3D INLINE 10369, 3D XLINE 1932, UTM-X 439888.3, UTM-Y 6480171.9     C21 LIVE DATA POLYGON: (9985,1932);(9985,2536);(10369,2536);(10369,1932);       C22 NAVIGATION SOURCE: P1/90 UKOOA BIN CENTER CELL GRID,                        C23 PROCESSING SEQUENCE:                                                        C24 1) Reformat 2) Navigation Merge 3) Trace Editing 4) Designature-Zerophase   C25 5) Tidal Statics 6) Resample 4MS 7) Geophone Matching Correction            C26 8) Geophone Orientation Correction 9) Rotation To Radial                    C27 10) Noise Band Editing 11) Receiver Shear Static Correction                 C28 12) Taup Deconvolution 13) 3D Kirchhoff Depth Migration                     C29 14) Velocity Analysis and RMO Correction 200m X 200m 15) Conversion To PP TWT    C30 16) Pre-Radon Mild Dip Filter 17) Parabolic Radon Transform Demultiple      C31 18) 3-37 DEGREE Angle Mute 19) Stack 20) OUTPUT TO SEGY FORMAT              C32                                                                             C33                                                                             C34                                                                             C35 HEADER WORD POSITIONS:                                                      C36 INLINE: 189-192             ;  X-LINE: 193-196;                             C37 BINX (CDPX): 181-184,          BINY (CDPY): 185-188,                        C38 MERID.: 3.0E, SPHEROID: INT.;  ROTATION (AMS): 1245600000,                  C39 A POSITIVE SAMPLE CORRESPONDS TO A INCREASE IN ACOUSTIC IMPEDANCE.          C40 END EBCDIC.                                                                 "
          ],
          "RangeAmplitudeMax": 0.07441109418869019,
          "RangeAmplitudeMin": -0.10446560382843018
        }
      }
    ],
    "Datasets": [
      {
        "id": "surrogate-key:file-1",
        "kind": "osdu:wks:dataset--FileCollection.SEGY:1.0.0",
        "acl": {
          "owners": [
            "data.volve.owners@volve.volve-company.com"
          ],
          "viewers": [
            "data.volve-shared.viewers@volve.volve-company.com"
          ]
        },
        "legal": {
          "legaltags": [
            "ExampleLegalTag"
          ],
          "otherRelevantDataCountries": [
            "NO",
            "US"
          ]
        },
        "data": {
          "ResourceSecurityClassification": "osdu:reference-data--ResourceSecurityClassification:RESTRICTED:",
          "Name": "ST0202R08_PS_PSDM_RAW_PP_TIME.MIG_RAW.POST_Stack.3D.JS-017534",
          "Description": "Volve - Seismic Trace Data - RAW PS PSDM Stack IN PP TIME",
          "TotalSize": "277427976",
          "Endian": "BIG",
          "DatasetProperties": {
            "FileCollectionPath": "s3://osdu-seismic-test-data/volve/seismic/st0202/stacks/",
            "FileSourceInfos": [
              {
                "FileSource": "",
                "PreloadFilePath": "s3://osdu-seismic-test-data/volve/seismic/st0202/stacks/ST0202R08_PS_PSDM_RAW_PP_TIME.MIG_RAW.POST_Stack.3D.JS-017534.segy",
                "Name": "ST0202R08_PS_PSDM_RAW_PP_TIME.MIG_RAW.POST_Stack.3D.JS-017534.segy",
                "FileSize": "277427976"
              }
            ],
            "Checksum": "c9df7234d5d0a7a2c2676ee2e2aa48b6"
          },
          "VectorHeaderMapping": [
            {
              "KeyName": "osdu:reference-data--HeaderKeyName:Inline:",
              "WordFormat": "osdu:reference-data--WordFormatType:INT:",
              "WordWidth": 4,
              "Position": 189
            },
            {
              "KeyName": "osdu:reference-data--HeaderKeyName:Crossline:",
              "WordFormat": "osdu:reference-data--WordFormatType:INT:",
              "WordWidth": 4,
              "Position": 193
            },
            {
              "KeyName": "osdu:reference-data--HeaderKeyName:CMPX:",
              "WordFormat": "osdu:reference-data--WordFormatType:INT:",
              "WordWidth": 4,
              "Position": 181,
              "UoM": "osdu:reference-data--UnitOfMeasure:m:",
              "ScalarIndicator": "OVERRIDE",
              "ScalarOverride": -100.0
            },
            {
              "KeyName": "osdu:reference-data--HeaderKeyName:CMPY:",
              "WordFormat": "osdu:reference-data--WordFormatType:INT:",
              "WordWidth": 4,
              "Position": 185,
              "UoM": "osdu:reference-data--UnitOfMeasure:m:",
              "ScalarIndicator": "OVERRIDE",
              "ScalarOverride": -100.0
            }
          ],
          "SEGYRevision": "Rev 1.0"
        }
      }
    ]
  }
}
