{
  "id": "namespace:work-product-component--DataQuality:DataQuality2",
  "kind": "osdu:wks:work-product-component--DataQuality:1.1.0",
  "version": 1562066009929332,
  "acl": {
    "owners": [
      "someone@company.com"
    ],
    "viewers": [
      "someone@company.com"
    ]
  },
  "legal": {
    "legaltags": [
      "Example legaltags"
    ],
    "otherRelevantDataCountries": [
      "US"
    ],
    "status": "compliant"
  },
  "tags": {
    "NameOfKey": "String value"
  },
  "createTime": "2020-12-16T11:46:20.163Z",
  "createUser": "some-user@some-company-cloud.com",
  "modifyTime": "2020-12-16T11:52:24.477Z",
  "modifyUser": "some-user@some-company-cloud.com",
  "ancestry": {
    "parents": []
  },
  "meta": [],
  "data": {
    "Datasets": [
      "namespace:dataset--AnyDataset:SomeUniqueAnyDatasetID:"
    ],
    "Artefacts": [
      {
        "RoleID": "namespace:reference-data--ArtefactRole:AdaptedContent:",
        "ResourceKind": "namespace:source_name:group_type--IndividualType:0.0.0",
        "ResourceID": "namespace:dataset--AnyDataset:SomeUniqueAnyDatasetID:"
      }
    ],
    "IsExtendedLoad": true,
    "IsDiscoverable": true,
    "EvaluatedRecordID": "partition-id:master-data--Wellbore:8816:",
    "BusinessRules": {
      "DataRuleSets": [
        {
          "DataRuleSetID": "namespace:reference-data--QualityDataRuleSet:QualityDataRuleSet1-4Rules:",
          "DataRuleSetRunStatus": true
        },
        {
          "DataRuleSetID": "namespace:reference-data--QualityDataRuleSet:QualityDataRuleSet2-2Rules:",
          "DataRuleSetRunStatus": true
        }
      ],
      "DataRules": [
        {
            "DataRuleID": "namespace:reference-data--QualityDataRule:CompletenessRule1:",
            "DataRuleRunStatus": true
        },
        {
            "DataRuleID": "namespace:reference-data--QualityDataRule:CompletenessRule2:",
            "DataRuleRunStatus": true
        },
        {
            "DataRuleID": "namespace:reference-data--QualityDataRule:ValidityRule1:",
            "DataRuleRunStatus": true
        },
        {
            "DataRuleID": "namespace:reference-data--QualityDataRule:ValidityRule2:",
            "DataRuleRunStatus": false
        },
        {
            "DataRuleID": "namespace:reference-data--QualityDataRule:CompletenessRule3:",
            "DataRuleRunStatus": true
        },
        {
            "DataRuleID": "namespace:reference-data--QualityDataRule:UniquenessRule1:",
            "DataRuleRunStatus": false
        }
      ]
    },
    "QualityMetric": {
      "MetadataScore": 66.67
    },
    "ExtensionProperties": {}
  }
}
