{
  "x-osdu-review-status": "Accepted",
  "$id": "https://schema.osdu.opengroup.org/json/work-product-component/EarthModelInterpretation.1.0.0.json",
  "$schema": "http://json-schema.org/draft-07/schema#",
  "title": "EarthModelInterpretation",
  "description": "A single, consistent interpretation of an entire earth model.",
  "type": "object",
  "x-osdu-virtual-properties": {
    "data.VirtualProperties.DefaultLocation": {
      "type": "object",
      "priority": [
        {
          "path": "data.SpatialArea"
        },
        {
          "path": "data.SpatialPoint"
        }
      ]
    },
    "data.VirtualProperties.DefaultName": {
      "type": "string",
      "priority": [
        {
          "path": "data.Name"
        }
      ]
    }
  },
  "allOf": [
    {
      "$ref": "../abstract/AbstractWPCGroupType.1.0.0.json"
    },
    {
      "$ref": "../abstract/AbstractWorkProductComponent.1.0.0.json"
    },
    {
      "$ref": "../abstract/AbstractInterpretation.1.0.0.json"
    },
    {
      "type": "object",
      "properties": {
        "FeatureID": {
          "type": "string",
          "title": "Feature ID",
          "description": "Reference to the local model feature the interpretation refers to.",
          "example": "namespace:work-product-component--LocalModelFeature:01038741-3433-406B-9189-22B298C3E2A2:",
          "pattern": "^[\\w\\-\\.]+:(master-data\\-\\-ModelFeature|work-product-component\\-\\-LocalModelFeature):[\\w\\-\\.\\:\\%]+:[0-9]*$"
        },
        "StructuralOrganizationInterpretationIDs": {
          "type": "array",
          "title": "Structural Organization Interpretation IDs",
          "description": "The references to  StructuralOrganizationInterpretationIDs belonging to this model.",
          "example": [
            "namespace:work-product-component--StructuralOrganizationInterpretation:71008741-3433-406B-9189-22B298C3E2D2:",
            "namespace:work-product-component--StructuralOrganizationInterpretation:16508888-3433-406B-9189-33B298F3E2D4:"
          ],
          "items": {
            "type": "string",
            "pattern": "^[\\w\\-\\.]+:work-product-component\\-\\-StructuralOrganizationInterpretation:[\\w\\-\\.\\:\\%]+:[0-9]*$"
          }
        },
        "WellboreCollectionIDs": {
          "type": "array",
          "title": "Wellbore Collection IDs",
          "description": "References to PersistableCollections containing Wellbores belonging to this model.",
          "items": {
            "type": "string",
            "pattern": "^[\\w\\-\\.]+:work-product-component\\-\\-PersistedCollection:[\\w\\-\\.\\:\\%]+:[0-9]*$"
          }
        },
        "StratigraphicColumnID": {
          "type": "string",
          "title": "Stratigraphic Column ID",
          "description": "The reference to the model's StratigraphicColumn.",
          "example": "namespace:work-product-component--StratigraphicColumn:85348741-3433-406B-9189-22B298C3E2D6:",
          "pattern": "^[\\w\\-\\.]+:work-product-component\\-\\-StratigraphicColumn:[\\w\\-\\.\\:\\%]+:[0-9]*$"
        },
        "GeologicUnitOccurrenceInterpretationIDs": {
          "type": "array",
          "title": "Geologic Unit Occurrence Interpretation IDs",
          "description": "References to Geologic Unit Occurrence Interpretations belonging to this model.",
          "example": [
            "namespace:work-product-component--GeologicUnitOccurrenceInterpretation:90008741-3433-406B-9189-22B298C3E2D2:",
            "namespace:work-product-component--GeologicUnitOccurrenceInterpretation:11008888-3433-406B-9189-33B298F3E2D4:"
          ],
          "items": {
            "type": "string",
            "pattern": "^[\\w\\-\\.]+:work-product-component\\-\\-GeologicUnitOccurrenceInterpretation:[\\w\\-\\.\\:\\%]+:[0-9]*$"
          }
        },
        "RockFluidOrganizationInterpretationIDs": {
          "type": "array",
          "title": "Rock Fluid Organization Interpretation IDs",
          "description": "References to Rock Fluid Organization Interpretation belonging to this model.",
          "example": [
            "namespace:work-product-component--RockFluidOrganizationInterpretation:33008741-3433-406B-9189-22B298C3E2F2:",
            "namespace:work-product-component--RockFluidOrganizationInterpretation:22008888-3433-406B-9189-33B298F3E2H4:"
          ],
          "items": {
            "type": "string",
            "pattern": "^[\\w\\-\\.]+:work-product-component\\-\\-RockFluidOrganizationInterpretation:[\\w\\-\\.\\:\\%]+:[0-9]*$"
          }
        }
      }
    }
  ]
}