{
  "x-osdu-review-status": "Accepted",
  "$id": "https://schema.osdu.opengroup.org/json/work-product-component/SealedVolumeFramework.1.0.0.json",
  "$schema": "http://json-schema.org/draft-07/schema#",
  "title": "SealedVolumeFramework",
  "description": "Sealed volume model representations associated to geometric elements such as faults, horizons, and intrusions on a scale of meters to kilometers.",
  "type": "object",
  "x-osdu-virtual-properties": {
    "data.VirtualProperties.DefaultName": {
      "type": "string",
      "priority": [
        {
          "path": "data.Name"
        }
      ]
    },
    "data.VirtualProperties.DefaultLocation": {
      "type": "object",
      "priority": [
        {
          "path": "data.SpatialArea"
        },
        {
          "path": "data.SpatialPoint"
        }
      ]
    }
  },
  "allOf": [
    {
      "$ref": "../abstract/AbstractWPCGroupType.1.0.0.json"
    },
    {
      "$ref": "../abstract/AbstractWorkProductComponent.1.1.0.json"
    },
    {
      "$ref": "../abstract/AbstractRepresentation.1.0.0.json"
    },
    {
      "type": "object",
      "properties": {
        "InterpretationID": {
          "type": "string",
          "title": "ID of the interpretation",
          "description": "The reference to the StructuralOrganizationInterpretation this framework belongs to.",
          "pattern": "^[\\w\\-\\.]+:work-product-component\\-\\-StructuralOrganizationInterpretation:[\\w\\-\\.\\:\\%]+:[0-9]*$"
        },
        "SealedSurfaceFrameworkID": {
          "type": "string",
          "title": "ID of the sealed Surface Framework",
          "description": "the reference to a sealed surface framework",
          "pattern": "^[\\w\\-\\.]+:work-product-component\\-\\-SealedSurfaceFramework:[\\w\\-\\.\\:\\%]+:[0-9]*$"
        }
      }
    }
  ]
}