{
  "x-osdu-review-status": "Accepted",
  "x-osdu-supported-file-formats": [
    "WITSML"
  ],
  "$id": "https://schema.osdu.opengroup.org/json/work-product-component/TubularComponent.1.1.0.json",
  "$schema": "http://json-schema.org/draft-07/schema#",
  "title": "TubularComponent",
  "description": "Well Tubular data contains information on the tubular assemblies and their components for the well, wellbore, or wellbore completion (as appropriate). The tubulars can be tubing, casing or liners or other related equipment which is installed into the well. Tubulars can also be equipment which is lowered into the well in the context of drilling, which is then pulled back out.",
  "type": "object",
  "x-osdu-virtual-properties": {
    "data.VirtualProperties.DefaultLocation": {
      "type": "object",
      "priority": [
        {
          "path": "data.SpatialArea"
        },
        {
          "path": "data.SpatialPoint"
        }
      ]
    },
    "data.VirtualProperties.DefaultName": {
      "type": "string",
      "priority": [
        {
          "path": "data.Name"
        }
      ]
    }
  },
  "allOf": [
    {
      "$ref": "../abstract/AbstractWPCGroupType.1.0.0.json"
    },
    {
      "$ref": "../abstract/AbstractWorkProductComponent.1.0.0.json"
    },
    {
      "type": "object",
      "properties": {
        "ParentWellboreID": {
          "type": "string",
          "description": "Identifier of the wellbore the Component is standing in.",
          "pattern": "^[\\w\\-\\.]+:master-data\\-\\-Wellbore:[\\w\\-\\.\\:\\%]+:[0-9]*$"
        },
        "ParentAssemblyID": {
          "type": "string",
          "description": "Identifier of the Assembly the component is taking part on.",
          "pattern": "^[\\w\\-\\.]+:work-product-component\\-\\-TubularAssembly:[\\w\\-\\.\\:\\%]+:[0-9]*$"
        },
        "TubularComponentSequence": {
          "type": "integer",
          "description": "The sequence within which the components entered the hole. That is, a sequence number of 1 entered first, 2 entered next, etc."
        },
        "TubularComponentNominalSize": {
          "type": "number",
          "description": "Nominal size (diameter) of the component, e.g. 9.625\", 12.25",
          "x-osdu-frame-of-reference": "UOM:length"
        },
        "TubularComponentNominalWeight": {
          "type": "number",
          "description": "Nominal weight of the component.",
          "x-osdu-frame-of-reference": "UOM:force"
        },
        "TubularComponentLength": {
          "type": "number",
          "description": "Total Length of the component",
          "x-osdu-frame-of-reference": "UOM:length"
        },
        "MaximumOuterDiameter": {
          "type": "number",
          "description": "This is the maximum outer diameter of the component.",
          "x-osdu-frame-of-reference": "UOM:length"
        },
        "DriftDiameter": {
          "type": "number",
          "description": "The drift diameter is the inside diameter (ID) that the pipe manufacturer guarantees per specifications. Note that the nominal inside diameter is not the same as the drift diameter but is always slightly larger. The drift diameter is used by the well planner to determine what size tools or casing strings can later be run through the casing, whereas the nominal inside diameter is used for fluid volume calculations such as mud circulating times and cement slurry placement calculations.",
          "x-osdu-frame-of-reference": "UOM:length"
        },
        "InnerDiameter": {
          "type": "number",
          "description": "Nominal inner diameter of the component.",
          "x-osdu-frame-of-reference": "UOM:length"
        },
        "ManufacturerID": {
          "type": "string",
          "description": "Unique identifier for the manufacturer of this equipment.",
          "pattern": "^[\\w\\-\\.]+:master-data\\-\\-Organisation:[\\w\\-\\.\\:\\%]+:[0-9]*$"
        },
        "SupplierID": {
          "type": "string",
          "description": "Unique identifier for the supplier of this equipment.",
          "pattern": "^[\\w\\-\\.]+:master-data\\-\\-Organisation:[\\w\\-\\.\\:\\%]+:[0-9]*$"
        },
        "Model": {
          "type": "string",
          "description": "Name of the component Model as defined per the operating company"
        },
        "SerialNumber": {
          "type": "string",
          "description": "Serial Number of the component as provided by the manufacturer and/or the supplier"
        },
        "SectionTypeID": {
          "type": "string",
          "description": "Identifier of the Section Type.",
          "pattern": "^[\\w\\-\\.]+:reference-data\\-\\-SectionType:[\\w\\-\\.\\:\\%]+:[0-9]*$"
        },
        "TubularComponentTypeID": {
          "type": "string",
          "description": "Specifies the types of components that can be used in a tubular string. These are used to specify the type of component and multiple components are used to define a tubular string (Tubular).",
          "pattern": "^[\\w\\-\\.]+:reference-data\\-\\-TubularComponentType:[\\w\\-\\.\\:\\%]+:[0-9]*$"
        },
        "TubularComponentMaterialTypeID": {
          "type": "string",
          "description": "Specifies the material type constituting the component.",
          "pattern": "^[\\w\\-\\.]+:reference-data\\-\\-TubularMaterialType:[\\w\\-\\.\\:\\%]+:[0-9]*$"
        },
        "TubularComponentTubingGradeID": {
          "type": "string",
          "description": "Id of tubing grade - eg. the tensile strength of the tubing material. A system of classifying the material specifications for steel alloys used in the manufacture of tubing.",
          "pattern": "^[\\w\\-\\.]+:reference-data\\-\\-TubularComponentGrade:[\\w\\-\\.\\:\\%]+:[0-9]*$"
        },
        "TubularComponentTubingGradeStrength": {
          "type": "number",
          "description": "The tensile strength of the tubing material. A system of classifying the material specifications for steel alloys used in the manufacture of tubing.",
          "x-osdu-frame-of-reference": "UOM:pressure"
        },
        "TubularComponentTubingStrength": {
          "type": "number",
          "description": "The axial load required to yield the pipe.",
          "x-osdu-frame-of-reference": "UOM:pressure"
        },
        "PilotHoleSize": {
          "type": "number",
          "description": "Size of the Pilot Hole",
          "x-osdu-frame-of-reference": "UOM:length"
        },
        "TubularComponentBoxPinConfigID": {
          "type": "string",
          "description": "ID of Reference Object for type of collar used to couple the tubular with another tubing string.",
          "pattern": "^[\\w\\-\\.]+:reference-data\\-\\-TubularComponentPinBoxType:[\\w\\-\\.\\:\\%]+:[0-9]*$"
        },
        "TubularComponentTopConnectionTypeID": {
          "type": "string",
          "description": "Id of the Top Connection Type",
          "pattern": "^[\\w\\-\\.]+:reference-data\\-\\-TubularComponentConnectionType:[\\w\\-\\.\\:\\%]+:[0-9]*$"
        },
        "TubularComponentBottomConnectionTypeID": {
          "type": "string",
          "description": "Id of the Bottom Connection Type",
          "pattern": "^[\\w\\-\\.]+:reference-data\\-\\-TubularComponentConnectionType:[\\w\\-\\.\\:\\%]+:[0-9]*$"
        },
        "TubularComponentTopMD": {
          "type": "number",
          "description": "The measured depth of the top from the specific component",
          "x-osdu-frame-of-reference": "UOM:length"
        },
        "TubularComponentBaseMD": {
          "type": "number",
          "description": "The measured depth of the base from the specific component",
          "x-osdu-frame-of-reference": "UOM:length"
        },
        "TubularComponentTopReportedTVD": {
          "type": "number",
          "description": "Depth of the top of the component measured from the Well-Head",
          "x-osdu-frame-of-reference": "UOM:length"
        },
        "TubularComponentBaseReportedTVD": {
          "type": "number",
          "description": "Depth of the base of the component measured from the Well-Head",
          "x-osdu-frame-of-reference": "UOM:length"
        },
        "PackerSetDepthTVD": {
          "type": "number",
          "description": "The depth the packer equipment was set to seal the casing or tubing.",
          "x-osdu-frame-of-reference": "UOM:length"
        },
        "ShoeDepthTVD": {
          "type": "number",
          "description": "Depth of the tubing shoe measured from the surface.",
          "x-osdu-frame-of-reference": "UOM:length"
        }
      }
    }
  ]
}