@startuml
hide methods
skinparam groupInheritance 2
skinparam class {
    ArrowColor Black
    BorderColor Black
    BackgroundColor<<master-data>> LightSalmon
    BackgroundColor<<work-product-component>> Gold
    BackgroundColor<<abstract>> LightSteelBlue
    BackgroundColor<<dataset>> Ivory
    BackgroundColor<<reference-data>> Turquoise
    BackgroundColor<<Abstraction>> LightSkyBlue
    BackgroundColor<<error>> Red
    BackgroundColor<<Activity>> LightSkyBlue
    BackgroundColor<<ReferenceType>> LightSkyBlue
    BackgroundColor<<WorkProductComponent>> LightSkyBlue
    BackgroundColor<<Project>> LightSkyBlue
    BackgroundColor<<File>> LightSkyBlue
    BackgroundColor<<FileCollection>> LightSkyBlue
    BackgroundColor<<MasterData>> LightSkyBlue
    BackgroundColor<<nested array>> WhiteSmoke
    BackgroundColor<<nested>> WhiteSmoke
    packageStyle rectangle
}
package "AquiferInterpretation Referenced-by View" <<rectangle>>
{
class "<size:16>AquiferInterpretation</size>" as AquiferInterpretation <<work-product-component>>
left to right direction
class "AquiferInterpretation" <<work-product-component>>
package "abstract Entities" as Abstract <<frame>>
{
abstract "AbstractGridRepresentation" <<abstract>> {
GpGridRepresentation  →  InterpretationID
IjkGridRepresentation  →  InterpretationID
UnstructuredColumnLayerGridRepresentation  →  InterpretationID
UnstructuredGridRepresentation  →  InterpretationID
}
abstract "AbstractRepresentation" <<abstract>> {
GenericRepresentation  →  InterpretationID
GridConnectionSetRepresentation  →  InterpretationID
IjkGridNumericalAquiferRepresentation  →  InterpretationID
SealedSurfaceFramework  →  InterpretationID
SealedVolumeFramework  →  InterpretationID
SeismicFault  →  InterpretationID
SeismicHorizon  →  InterpretationID
SubRepresentation  →  InterpretationID
UnsealedSurfaceFramework  →  InterpretationID
}
}
package "work-product-component Entities" as WorkProductComponent <<frame>>
{
class "IjkGridNumericalAquiferRepresentation" <<work-product-component>> {
InterpretationID
}
}
"Abstract" -->  "AquiferInterpretation"
"WorkProductComponent" -->  "AquiferInterpretation"
abstract "AbstractWPCGroupType" <<Abstraction>>
"AquiferInterpretation" -right-|>  "AbstractWPCGroupType"
}
@enduml