@startuml
hide methods
skinparam groupInheritance 2
skinparam class {
    ArrowColor Black
    BorderColor Black
    BackgroundColor<<master-data>> LightSalmon
    BackgroundColor<<work-product-component>> Gold
    BackgroundColor<<abstract>> LightSteelBlue
    BackgroundColor<<dataset>> Ivory
    BackgroundColor<<reference-data>> Turquoise
    BackgroundColor<<Abstraction>> LightSkyBlue
    BackgroundColor<<error>> Red
    BackgroundColor<<Activity>> LightSkyBlue
    BackgroundColor<<ReferenceType>> LightSkyBlue
    BackgroundColor<<WorkProductComponent>> LightSkyBlue
    BackgroundColor<<Project>> LightSkyBlue
    BackgroundColor<<File>> LightSkyBlue
    BackgroundColor<<FileCollection>> LightSkyBlue
    BackgroundColor<<MasterData>> LightSkyBlue
    BackgroundColor<<nested array>> WhiteSmoke
    BackgroundColor<<nested>> WhiteSmoke
    packageStyle rectangle
}
package "FaultSystem Outgoing Relationships View" <<rectangle>>
{
class "<size:36>FaultSystem</size>" as FaultSystem <<work-product-component>>
class "AnyGroupTypeObject" <<any-group-type>>
abstract "LineageAssertions[]" <<nested array>>
"FaultSystem" *-- "*" "LineageAssertions[]"
"LineageAssertions[]" --> "1" "AnyGroupTypeObject" : "ID"
class "AnyDataset" <<dataset>>
abstract "Artefacts[]" <<nested array>>
"FaultSystem" *-- "*" "Artefacts[]"
"Artefacts[]" --> "1" "AnyDataset" : "ResourceID"
"FaultSystem" --> "*" "AnyDataset" : "Datasets[]"
class "Basin" <<master-data>>
abstract "GeoContexts[]" <<nested array>>
"FaultSystem" *-- "*" "GeoContexts[]"
"GeoContexts[]" --> "1" "Basin" : "BasinID"
class "Field" <<master-data>>
"GeoContexts[]" --> "1" "Field" : "FieldID"
class "GeoPoliticalEntity" <<master-data>>
"GeoContexts[]" --> "1" "GeoPoliticalEntity" : "GeoPoliticalEntityID"
class "Organisation" <<master-data>>
abstract "TechnicalAssurances[]" <<nested array>>
"FaultSystem" *-- "*" "TechnicalAssurances[]"
abstract "Reviewers[]" <<nested array>>
"TechnicalAssurances[]" *-- "*" "Reviewers[]"
"Reviewers[]" --> "1" "Organisation" : "OrganisationID"
class "Play" <<master-data>>
"GeoContexts[]" --> "1" "Play" : "PlayID"
class "Prospect" <<master-data>>
"GeoContexts[]" --> "1" "Prospect" : "ProspectID"
class "FaultInterpretation" <<work-product-component>>
abstract "Faults[]" <<nested array>>
"FaultSystem" *-- "*" "Faults[]"
"Faults[]" --> "1" "FaultInterpretation" : "FaultInterpretationID"
class "SeismicBinGrid" <<work-product-component>>
"FaultSystem" --> "1" "SeismicBinGrid" : "BinGridID"
class "SeismicTraceData" <<work-product-component>>
"FaultSystem" --> "*" "SeismicTraceData" : "SeismicTraceDataIDs[]"

class "Reference Data Relationships" <<reference-data>> {
==
"data.Artefacts[].RoleID" → ArtefactRole
==
"data.Faults[].FaultHeaveNumberUOM" → UnitOfMeasure
"data.Faults[].FaultNetSlipNumberUOM" → UnitOfMeasure
"data.Faults[].Role" → RepresentationRole
"data.Faults[].SeismicFaultLengthUOM" → UnitOfMeasure
"data.Faults[].SeismicFaultSurfaceAreaUOM" → UnitOfMeasure
"data.Faults[].SeismicFaultTypeID" → SeismicFaultType
"data.Faults[].SeismicPickingTypeID" → SeismicPickingType
"data.Faults[].StratigraphicFaultOffsetUOM" → UnitOfMeasure
"data.Faults[].Type" → RepresentationType
"data.Faults[].VerticalFaultDipAngleUOM" → UnitOfMeasure
==
"data.GeoContexts[].GeoTypeID" → BasinType
"data.GeoContexts[].GeoTypeID" → GeoPoliticalEntityType
"data.GeoContexts[].GeoTypeID" → PlayType
"data.GeoContexts[].GeoTypeID" → ProspectType
==
"data.HorizontalCRSID" → CoordinateReferenceSystem
==
"data.LineageAssertions[].LineageRelationshipType" → LineageRelationshipType
==
"data.SeismicDomainTypeID" → SeismicDomainType
"data.SeismicDomainUOM" → UnitOfMeasure
"data.SeismicPickingTypeID" → SeismicPickingType
==
"data.SpatialArea.AsIngestedCoordinates.CoordinateReferenceSystemID" → CoordinateReferenceSystem
"data.SpatialArea.AsIngestedCoordinates.VerticalCoordinateReferenceSystemID" → CoordinateReferenceSystem
"data.SpatialArea.AsIngestedCoordinates.VerticalUnitID" → UnitOfMeasure
==
"data.SpatialArea.QualitativeSpatialAccuracyTypeID" → QualitativeSpatialAccuracyType
"data.SpatialArea.QuantitativeAccuracyBandID" → QuantitativeAccuracyBand
"data.SpatialArea.SpatialGeometryTypeID" → SpatialGeometryType
"data.SpatialArea.SpatialParameterTypeID" → SpatialParameterType
==
"data.SpatialPoint.AsIngestedCoordinates.CoordinateReferenceSystemID" → CoordinateReferenceSystem
"data.SpatialPoint.AsIngestedCoordinates.VerticalCoordinateReferenceSystemID" → CoordinateReferenceSystem
"data.SpatialPoint.AsIngestedCoordinates.VerticalUnitID" → UnitOfMeasure
==
"data.SpatialPoint.QualitativeSpatialAccuracyTypeID" → QualitativeSpatialAccuracyType
"data.SpatialPoint.QuantitativeAccuracyBandID" → QuantitativeAccuracyBand
"data.SpatialPoint.SpatialGeometryTypeID" → SpatialGeometryType
"data.SpatialPoint.SpatialParameterTypeID" → SpatialParameterType
==
"data.TechnicalAssurances[].AcceptableUsage[].WorkflowPersona" → WorkflowPersonaType
"data.TechnicalAssurances[].AcceptableUsage[].WorkflowUsage" → WorkflowUsageType
==
"data.TechnicalAssurances[].Reviewers[].RoleTypeID" → ContactRoleType
==
"data.TechnicalAssurances[].TechnicalAssuranceTypeID" → TechnicalAssuranceType
==
"data.TechnicalAssurances[].UnacceptableUsage[].WorkflowPersona" → WorkflowPersonaType
"data.TechnicalAssurances[].UnacceptableUsage[].WorkflowUsage" → WorkflowUsageType
==
"data.VerticalMeasurementTypeID" → VerticalMeasurementType
}
"FaultSystem" .up.> "Reference Data Relationships"
abstract "AbstractWPCGroupType" <<Abstraction>>
"FaultSystem" -right-|>  "AbstractWPCGroupType"
}
@enduml