@startuml
hide methods
skinparam groupInheritance 2
skinparam class {
    ArrowColor Black
    BorderColor Black
    BackgroundColor<<master-data>> LightSalmon
    BackgroundColor<<work-product-component>> Gold
    BackgroundColor<<abstract>> LightSteelBlue
    BackgroundColor<<dataset>> Ivory
    BackgroundColor<<reference-data>> Turquoise
    BackgroundColor<<Abstraction>> LightSkyBlue
    BackgroundColor<<error>> Red
    BackgroundColor<<Activity>> LightSkyBlue
    BackgroundColor<<ReferenceType>> LightSkyBlue
    BackgroundColor<<WorkProductComponent>> LightSkyBlue
    BackgroundColor<<Project>> LightSkyBlue
    BackgroundColor<<File>> LightSkyBlue
    BackgroundColor<<FileCollection>> LightSkyBlue
    BackgroundColor<<MasterData>> LightSkyBlue
    BackgroundColor<<nested array>> WhiteSmoke
    BackgroundColor<<nested>> WhiteSmoke
    packageStyle rectangle
}
package "PPFGDataset Referenced-by View" <<rectangle>>
{
class "<size:16>PPFGDataset</size>" as PPFGDataset <<work-product-component>>
left to right direction
class "PPFGDataset" <<work-product-component>>
package "master-data Entities" as MasterData <<frame>>
{
class "CasingDesign" <<master-data>> {
PPFGDatasetID
}
class "OperationsReport" <<master-data>> {
PorePressure[]
}
class "WellPlanningWellbore" <<master-data>> {
PPFGDatasetID
}
}
"MasterData" -->  "PPFGDataset" 
abstract "AbstractWPCGroupType" <<Abstraction>>
"PPFGDataset" -right-|>  "AbstractWPCGroupType"
}
@enduml