@startuml
hide methods
skinparam groupInheritance 2
skinparam class {
    ArrowColor Black
    BorderColor Black
    BackgroundColor<<master-data>> LightSalmon
    BackgroundColor<<work-product-component>> Gold
    BackgroundColor<<abstract>> LightSteelBlue
    BackgroundColor<<dataset>> Ivory
    BackgroundColor<<reference-data>> Turquoise
    BackgroundColor<<Abstraction>> LightSkyBlue
    BackgroundColor<<error>> Red
    BackgroundColor<<Activity>> LightSkyBlue
    BackgroundColor<<ReferenceType>> LightSkyBlue
    BackgroundColor<<WorkProductComponent>> LightSkyBlue
    BackgroundColor<<Project>> LightSkyBlue
    BackgroundColor<<File>> LightSkyBlue
    BackgroundColor<<FileCollection>> LightSkyBlue
    BackgroundColor<<MasterData>> LightSkyBlue
    BackgroundColor<<nested array>> WhiteSmoke
    BackgroundColor<<nested>> WhiteSmoke
    packageStyle rectangle
}
package "SealedVolumeFramework Outgoing Relationships View" <<rectangle>>
{
class "<size:48>SealedVolumeFramework</size>" as SealedVolumeFramework <<work-product-component>>
class "AnyGroupTypeObject" <<any-group-type>>
abstract "LineageAssertions[]" <<nested array>>
"SealedVolumeFramework" *-- "*" "LineageAssertions[]"
"LineageAssertions[]" --> "1" "AnyGroupTypeObject" : "ID"
class "AnyDataset" <<dataset>>
abstract "Artefacts[]" <<nested array>>
"SealedVolumeFramework" *-- "*" "Artefacts[]"
"Artefacts[]" --> "1" "AnyDataset" : "ResourceID"
"SealedVolumeFramework" --> "*" "AnyDataset" : "Datasets[]"
class "Basin" <<master-data>>
abstract "GeoContexts[]" <<nested array>>
"SealedVolumeFramework" *-- "*" "GeoContexts[]"
"GeoContexts[]" --> "1" "Basin" : "BasinID"
class "Field" <<master-data>>
"GeoContexts[]" --> "1" "Field" : "FieldID"
class "GeoPoliticalEntity" <<master-data>>
"GeoContexts[]" --> "1" "GeoPoliticalEntity" : "GeoPoliticalEntityID"
class "Organisation" <<master-data>>
abstract "TechnicalAssurances[]" <<nested array>>
"SealedVolumeFramework" *-- "*" "TechnicalAssurances[]"
abstract "Reviewers[]" <<nested array>>
"TechnicalAssurances[]" *-- "*" "Reviewers[]"
"Reviewers[]" --> "1" "Organisation" : "OrganisationID"
class "Play" <<master-data>>
"GeoContexts[]" --> "1" "Play" : "PlayID"
class "Prospect" <<master-data>>
"GeoContexts[]" --> "1" "Prospect" : "ProspectID"
class "AquiferInterpretation" <<work-product-component>>
"SealedVolumeFramework" --> "1" "AquiferInterpretation" : "InterpretationID"
class "EarthModelInterpretation" <<work-product-component>>
"SealedVolumeFramework" --> "1" "EarthModelInterpretation" : "InterpretationID"
class "FaultInterpretation" <<work-product-component>>
"SealedVolumeFramework" --> "1" "FaultInterpretation" : "InterpretationID"
class "GeobodyBoundaryInterpretation" <<work-product-component>>
"SealedVolumeFramework" --> "1" "GeobodyBoundaryInterpretation" : "InterpretationID"
class "GeobodyInterpretation" <<work-product-component>>
"SealedVolumeFramework" --> "1" "GeobodyInterpretation" : "InterpretationID"
class "HorizonInterpretation" <<work-product-component>>
"SealedVolumeFramework" --> "1" "HorizonInterpretation" : "InterpretationID"
class "LocalModelCompoundCrs" <<work-product-component>>
"SealedVolumeFramework" --> "1" "LocalModelCompoundCrs" : "LocalModelCompoundCrsID"
class "RockFluidOrganizationInterpretation" <<work-product-component>>
"SealedVolumeFramework" --> "1" "RockFluidOrganizationInterpretation" : "InterpretationID"
class "RockFluidUnitInterpretation" <<work-product-component>>
"SealedVolumeFramework" --> "1" "RockFluidUnitInterpretation" : "InterpretationID"
class "SealedSurfaceFramework" <<work-product-component>>
"SealedVolumeFramework" --> "1" "SealedSurfaceFramework" : "SealedSurfaceFrameworkID"
class "StratigraphicUnitInterpretation" <<work-product-component>>
"SealedVolumeFramework" --> "1" "StratigraphicUnitInterpretation" : "InterpretationID"
class "StructuralOrganizationInterpretation" <<work-product-component>>
"SealedVolumeFramework" --> "1" "StructuralOrganizationInterpretation" : "InterpretationID"
class "TimeSeries" <<work-product-component>>
"SealedVolumeFramework" --> "1" "TimeSeries" : "TimeSeriesID"

class "Reference Data Relationships" <<reference-data>> {
==
"data.Artefacts[].RoleID" → ArtefactRole
==
"data.GeoContexts[].GeoTypeID" → BasinType
"data.GeoContexts[].GeoTypeID" → GeoPoliticalEntityType
"data.GeoContexts[].GeoTypeID" → PlayType
"data.GeoContexts[].GeoTypeID" → ProspectType
==
"data.IndexableElementCount[].IndexableElementID" → IndexableElement
==
"data.LineageAssertions[].LineageRelationshipType" → LineageRelationshipType
==
"data.SpatialArea.AsIngestedCoordinates.CoordinateReferenceSystemID" → CoordinateReferenceSystem
"data.SpatialArea.AsIngestedCoordinates.VerticalCoordinateReferenceSystemID" → CoordinateReferenceSystem
"data.SpatialArea.AsIngestedCoordinates.VerticalUnitID" → UnitOfMeasure
==
"data.SpatialArea.QualitativeSpatialAccuracyTypeID" → QualitativeSpatialAccuracyType
"data.SpatialArea.QuantitativeAccuracyBandID" → QuantitativeAccuracyBand
"data.SpatialArea.SpatialGeometryTypeID" → SpatialGeometryType
"data.SpatialArea.SpatialParameterTypeID" → SpatialParameterType
==
"data.SpatialPoint.AsIngestedCoordinates.CoordinateReferenceSystemID" → CoordinateReferenceSystem
"data.SpatialPoint.AsIngestedCoordinates.VerticalCoordinateReferenceSystemID" → CoordinateReferenceSystem
"data.SpatialPoint.AsIngestedCoordinates.VerticalUnitID" → UnitOfMeasure
==
"data.SpatialPoint.QualitativeSpatialAccuracyTypeID" → QualitativeSpatialAccuracyType
"data.SpatialPoint.QuantitativeAccuracyBandID" → QuantitativeAccuracyBand
"data.SpatialPoint.SpatialGeometryTypeID" → SpatialGeometryType
"data.SpatialPoint.SpatialParameterTypeID" → SpatialParameterType
==
"data.TechnicalAssurances[].AcceptableUsage[].WorkflowPersona" → WorkflowPersonaType
"data.TechnicalAssurances[].AcceptableUsage[].WorkflowUsage" → WorkflowUsageType
==
"data.TechnicalAssurances[].Reviewers[].RoleTypeID" → ContactRoleType
==
"data.TechnicalAssurances[].TechnicalAssuranceTypeID" → TechnicalAssuranceType
==
"data.TechnicalAssurances[].UnacceptableUsage[].WorkflowPersona" → WorkflowPersonaType
"data.TechnicalAssurances[].UnacceptableUsage[].WorkflowUsage" → WorkflowUsageType
}
"SealedVolumeFramework" .up.> "Reference Data Relationships"
abstract "AbstractWPCGroupType" <<Abstraction>>
"SealedVolumeFramework" -right-|>  "AbstractWPCGroupType"
}
@enduml