@startuml
hide methods
skinparam groupInheritance 2
skinparam class {
    ArrowColor Black
    BorderColor Black
    BackgroundColor<<master-data>> LightSalmon
    BackgroundColor<<work-product-component>> Gold
    BackgroundColor<<abstract>> LightSteelBlue
    BackgroundColor<<dataset>> Ivory
    BackgroundColor<<reference-data>> Turquoise
    BackgroundColor<<Abstraction>> LightSkyBlue
    BackgroundColor<<error>> Red
    BackgroundColor<<Activity>> LightSkyBlue
    BackgroundColor<<ReferenceType>> LightSkyBlue
    BackgroundColor<<WorkProductComponent>> LightSkyBlue
    BackgroundColor<<Project>> LightSkyBlue
    BackgroundColor<<File>> LightSkyBlue
    BackgroundColor<<FileCollection>> LightSkyBlue
    BackgroundColor<<MasterData>> LightSkyBlue
    BackgroundColor<<nested array>> WhiteSmoke
    BackgroundColor<<nested>> WhiteSmoke
    packageStyle rectangle
}
package "SeismicTraceData Referenced-by View" <<rectangle>>
{
class "<size:16>SeismicTraceData</size>" as SeismicTraceData <<work-product-component>>
left to right direction
class "SeismicTraceData" <<work-product-component>>
package "work-product-component Entities" as WorkProductComponent <<frame>>
{
class "FaultSystem" <<work-product-component>> {
SeismicTraceDataIDs[]
}
class "SeismicFault" <<work-product-component>> {
SeismicTraceDataIDs[]
}
class "SeismicHorizon" <<work-product-component>> {
SeismicTraceDataID[]
}
}
"WorkProductComponent" -->  "SeismicTraceData" 
abstract "AbstractWPCGroupType" <<Abstraction>>
"SeismicTraceData" -right-|>  "AbstractWPCGroupType"
}
@enduml