@startuml
hide methods
skinparam groupInheritance 2
skinparam class {
    ArrowColor Black
    BorderColor Black
    BackgroundColor<<master-data>> LightSalmon
    BackgroundColor<<work-product-component>> Gold
    BackgroundColor<<abstract>> LightSteelBlue
    BackgroundColor<<dataset>> Ivory
    BackgroundColor<<reference-data>> Turquoise
    BackgroundColor<<Abstraction>> LightSkyBlue
    BackgroundColor<<error>> Red
    BackgroundColor<<Activity>> LightSkyBlue
    BackgroundColor<<ReferenceType>> LightSkyBlue
    BackgroundColor<<WorkProductComponent>> LightSkyBlue
    BackgroundColor<<Project>> LightSkyBlue
    BackgroundColor<<File>> LightSkyBlue
    BackgroundColor<<FileCollection>> LightSkyBlue
    BackgroundColor<<MasterData>> LightSkyBlue
    BackgroundColor<<nested array>> WhiteSmoke
    BackgroundColor<<nested>> WhiteSmoke
    packageStyle rectangle
}
package "StratigraphicColumnRankInterpretation Referenced-by View" <<rectangle>>
{
class "<size:24>StratigraphicColumnRankInterpretation</size>" as StratigraphicColumnRankInterpretation <<work-product-component>>
left to right direction
class "StratigraphicColumnRankInterpretation" <<work-product-component>>
package "abstract Entities" as Abstract <<frame>>
{
abstract "AbstractGridRepresentation" <<abstract>> {
GpGridRepresentation  →  StratigraphicColumnRankInterpretationID
IjkGridRepresentation  →  StratigraphicColumnRankInterpretationID
UnstructuredColumnLayerGridRepresentation  →  StratigraphicColumnRankInterpretationID
UnstructuredGridRepresentation  →  StratigraphicColumnRankInterpretationID
}
}
package "work-product-component Entities" as WorkProductComponent <<frame>>
{
class "GeologicUnitOccurrenceInterpretation" <<work-product-component>> {
StratigraphicColumnRankInterpretationID
}
class "StratigraphicColumn" <<work-product-component>> {
StratigraphicColumnRankInterpretationSet[]
}
class "VoidageGroupInterpretation" <<work-product-component>> {
GeologicUnitOrganizationInterpretationIDs[]
}
class "WellboreIntervalSet" <<work-product-component>> {
StratigraphicColumnRankInterpretationID
}
class "WellboreMarkerSet" <<work-product-component>> {
StratigraphicColumnRankInterpretationID
}
}
"Abstract" -->  "StratigraphicColumnRankInterpretation" 
"WorkProductComponent" -->  "StratigraphicColumnRankInterpretation" 
abstract "AbstractWPCGroupType" <<Abstraction>>
"StratigraphicColumnRankInterpretation" -right-|>  "AbstractWPCGroupType"
}
@enduml