@startuml
hide methods
skinparam groupInheritance 2
skinparam class {
    ArrowColor Black
    BorderColor Black
    BackgroundColor<<master-data>> LightSalmon
    BackgroundColor<<work-product-component>> Gold
    BackgroundColor<<abstract>> LightSteelBlue
    BackgroundColor<<dataset>> Ivory
    BackgroundColor<<reference-data>> Turquoise
    BackgroundColor<<Abstraction>> LightSkyBlue
    BackgroundColor<<error>> Red
    BackgroundColor<<Activity>> LightSkyBlue
    BackgroundColor<<ReferenceType>> LightSkyBlue
    BackgroundColor<<WorkProductComponent>> LightSkyBlue
    BackgroundColor<<Project>> LightSkyBlue
    BackgroundColor<<File>> LightSkyBlue
    BackgroundColor<<FileCollection>> LightSkyBlue
    BackgroundColor<<MasterData>> LightSkyBlue
    BackgroundColor<<nested array>> WhiteSmoke
    BackgroundColor<<nested>> WhiteSmoke
    packageStyle rectangle
}
package "StratigraphicColumn Outgoing Relationships View" <<rectangle>>
{
class "<size:36>StratigraphicColumn</size>" as StratigraphicColumn <<work-product-component>>
class "AnyGroupTypeObject" <<any-group-type>>
abstract "LineageAssertions[]" <<nested array>>
"StratigraphicColumn" *-- "*" "LineageAssertions[]"
"LineageAssertions[]" --> "1" "AnyGroupTypeObject" : "ID"
class "AnyDataset" <<dataset>>
abstract "Artefacts[]" <<nested array>>
"StratigraphicColumn" *-- "*" "Artefacts[]"
"Artefacts[]" --> "1" "AnyDataset" : "ResourceID"
"StratigraphicColumn" --> "*" "AnyDataset" : "Datasets[]"
class "Basin" <<master-data>>
abstract "GeoContexts[]" <<nested array>>
"StratigraphicColumn" *-- "*" "GeoContexts[]"
"GeoContexts[]" --> "1" "Basin" : "BasinID"
class "Field" <<master-data>>
"GeoContexts[]" --> "1" "Field" : "FieldID"
class "GeoPoliticalEntity" <<master-data>>
"GeoContexts[]" --> "1" "GeoPoliticalEntity" : "GeoPoliticalEntityID"
class "Organisation" <<master-data>>
abstract "TechnicalAssurances[]" <<nested array>>
"StratigraphicColumn" *-- "*" "TechnicalAssurances[]"
abstract "Reviewers[]" <<nested array>>
"TechnicalAssurances[]" *-- "*" "Reviewers[]"
"Reviewers[]" --> "1" "Organisation" : "OrganisationID"
class "Play" <<master-data>>
"GeoContexts[]" --> "1" "Play" : "PlayID"
class "Prospect" <<master-data>>
"GeoContexts[]" --> "1" "Prospect" : "ProspectID"
class "StratigraphicColumnRankInterpretation" <<work-product-component>>
"StratigraphicColumn" --> "*" "StratigraphicColumnRankInterpretation" : "StratigraphicColumnRankInterpretationSet[]"

class "Reference Data Relationships" <<reference-data>> {
==
"data.Artefacts[].RoleID" → ArtefactRole
==
"data.GeoContexts[].GeoTypeID" → BasinType
"data.GeoContexts[].GeoTypeID" → GeoPoliticalEntityType
"data.GeoContexts[].GeoTypeID" → PlayType
"data.GeoContexts[].GeoTypeID" → ProspectType
==
"data.LineageAssertions[].LineageRelationshipType" → LineageRelationshipType
==
"data.SpatialArea.AsIngestedCoordinates.CoordinateReferenceSystemID" → CoordinateReferenceSystem
"data.SpatialArea.AsIngestedCoordinates.VerticalCoordinateReferenceSystemID" → CoordinateReferenceSystem
"data.SpatialArea.AsIngestedCoordinates.VerticalUnitID" → UnitOfMeasure
==
"data.SpatialArea.QualitativeSpatialAccuracyTypeID" → QualitativeSpatialAccuracyType
"data.SpatialArea.QuantitativeAccuracyBandID" → QuantitativeAccuracyBand
"data.SpatialArea.SpatialGeometryTypeID" → SpatialGeometryType
"data.SpatialArea.SpatialParameterTypeID" → SpatialParameterType
==
"data.SpatialPoint.AsIngestedCoordinates.CoordinateReferenceSystemID" → CoordinateReferenceSystem
"data.SpatialPoint.AsIngestedCoordinates.VerticalCoordinateReferenceSystemID" → CoordinateReferenceSystem
"data.SpatialPoint.AsIngestedCoordinates.VerticalUnitID" → UnitOfMeasure
==
"data.SpatialPoint.QualitativeSpatialAccuracyTypeID" → QualitativeSpatialAccuracyType
"data.SpatialPoint.QuantitativeAccuracyBandID" → QuantitativeAccuracyBand
"data.SpatialPoint.SpatialGeometryTypeID" → SpatialGeometryType
"data.SpatialPoint.SpatialParameterTypeID" → SpatialParameterType
==
"data.StratigraphicColumnValidityAreaType" → StratigraphicColumnValidityAreaType
==
"data.TechnicalAssurances[].AcceptableUsage[].WorkflowPersona" → WorkflowPersonaType
"data.TechnicalAssurances[].AcceptableUsage[].WorkflowUsage" → WorkflowUsageType
==
"data.TechnicalAssurances[].Reviewers[].RoleTypeID" → ContactRoleType
==
"data.TechnicalAssurances[].TechnicalAssuranceTypeID" → TechnicalAssuranceType
==
"data.TechnicalAssurances[].UnacceptableUsage[].WorkflowPersona" → WorkflowPersonaType
"data.TechnicalAssurances[].UnacceptableUsage[].WorkflowUsage" → WorkflowUsageType
==
"data.ValueChainStatusType" → ValueChainStatusType
}
"StratigraphicColumn" .up.> "Reference Data Relationships"
abstract "AbstractWPCGroupType" <<Abstraction>>
"StratigraphicColumn" -right-|>  "AbstractWPCGroupType"
}
@enduml