@startuml
hide methods
skinparam groupInheritance 2
skinparam class {
    ArrowColor Black
    BorderColor Black
    BackgroundColor<<master-data>> LightSalmon
    BackgroundColor<<work-product-component>> Gold
    BackgroundColor<<abstract>> LightSteelBlue
    BackgroundColor<<dataset>> Ivory
    BackgroundColor<<reference-data>> Turquoise
    BackgroundColor<<Abstraction>> LightSkyBlue
    BackgroundColor<<error>> Red
    BackgroundColor<<Activity>> LightSkyBlue
    BackgroundColor<<ReferenceType>> LightSkyBlue
    BackgroundColor<<WorkProductComponent>> LightSkyBlue
    BackgroundColor<<Project>> LightSkyBlue
    BackgroundColor<<File>> LightSkyBlue
    BackgroundColor<<FileCollection>> LightSkyBlue
    BackgroundColor<<MasterData>> LightSkyBlue
    BackgroundColor<<nested array>> WhiteSmoke
    BackgroundColor<<nested>> WhiteSmoke
    packageStyle rectangle
}
package "UnstructuredGridRepresentation Referenced-by View" <<rectangle>>
{
class "<size:16>UnstructuredGridRepresentation</size>" as UnstructuredGridRepresentation <<work-product-component>>
left to right direction
class "UnstructuredGridRepresentation" <<work-product-component>>
package "abstract Entities" as Abstract <<frame>>
{
abstract "AbstractGridRepresentation" <<abstract>> {
GpGridRepresentation  →  ParentGridID
IjkGridRepresentation  →  ParentGridID
UnstructuredColumnLayerGridRepresentation  →  ParentGridID
UnstructuredGridRepresentation  →  ParentGridID
}
}
package "work-product-component Entities" as WorkProductComponent <<frame>>
{
class "GenericProperty" <<work-product-component>> {
PropertyTopologyID
}
class "GridConnectionSetRepresentation" <<work-product-component>> {
GridRepresentationIDs[]
}
}
"Abstract" -->  "UnstructuredGridRepresentation" 
"WorkProductComponent" -->  "UnstructuredGridRepresentation" 
abstract "AbstractWPCGroupType" <<Abstraction>>
"UnstructuredGridRepresentation" -right-|>  "AbstractWPCGroupType"
}
@enduml