@startuml
hide methods
skinparam groupInheritance 2
skinparam class {
    ArrowColor Black
    BorderColor Black
    BackgroundColor<<master-data>> LightSalmon
    BackgroundColor<<work-product-component>> Gold
    BackgroundColor<<abstract>> LightSteelBlue
    BackgroundColor<<dataset>> Ivory
    BackgroundColor<<reference-data>> Turquoise
    BackgroundColor<<Abstraction>> LightSkyBlue
    BackgroundColor<<error>> Red
    BackgroundColor<<Activity>> LightSkyBlue
    BackgroundColor<<ReferenceType>> LightSkyBlue
    BackgroundColor<<WorkProductComponent>> LightSkyBlue
    BackgroundColor<<Project>> LightSkyBlue
    BackgroundColor<<File>> LightSkyBlue
    BackgroundColor<<FileCollection>> LightSkyBlue
    BackgroundColor<<MasterData>> LightSkyBlue
    BackgroundColor<<nested array>> WhiteSmoke
    BackgroundColor<<nested>> WhiteSmoke
    packageStyle rectangle
}
package "WellLog Outgoing Relationships View" <<rectangle>>
{
class "<size:36>WellLog</size>" as WellLog <<work-product-component>>
class "AnyGroupTypeObject" <<any-group-type>>
abstract "LineageAssertions[]" <<nested array>>
"WellLog" *-- "*" "LineageAssertions[]"
"LineageAssertions[]" --> "1" "AnyGroupTypeObject" : "ID"
class "AnyDataset" <<dataset>>
abstract "Artefacts[]" <<nested array>>
"WellLog" *-- "*" "Artefacts[]"
"Artefacts[]" --> "1" "AnyDataset" : "ResourceID"
"WellLog" --> "*" "AnyDataset" : "Datasets[]"
class "Basin" <<master-data>>
abstract "GeoContexts[]" <<nested array>>
"WellLog" *-- "*" "GeoContexts[]"
"GeoContexts[]" --> "1" "Basin" : "BasinID"
class "Field" <<master-data>>
"GeoContexts[]" --> "1" "Field" : "FieldID"
class "GeoPoliticalEntity" <<master-data>>
"GeoContexts[]" --> "1" "GeoPoliticalEntity" : "GeoPoliticalEntityID"
class "Organisation" <<master-data>>
"WellLog" --> "1" "Organisation" : "ServiceCompanyID"
abstract "TechnicalAssurances[]" <<nested array>>
"WellLog" *-- "*" "TechnicalAssurances[]"
abstract "Reviewers[]" <<nested array>>
"TechnicalAssurances[]" *-- "*" "Reviewers[]"
"Reviewers[]" --> "1" "Organisation" : "OrganisationID"
class "Play" <<master-data>>
"GeoContexts[]" --> "1" "Play" : "PlayID"
class "Prospect" <<master-data>>
"GeoContexts[]" --> "1" "Prospect" : "ProspectID"
class "Rig" <<master-data>>
abstract "VerticalMeasurement" <<nested>>
"WellLog" *-- "1" "VerticalMeasurement"
"VerticalMeasurement" --> "1" "Rig" : "VerticalReferenceEntityID"
class "Well" <<master-data>>
"VerticalMeasurement" --> "1" "Well" : "VerticalReferenceEntityID"
class "Wellbore" <<master-data>>
"VerticalMeasurement" --> "1" "Wellbore" : "VerticalReferenceEntityID"
"WellLog" --> "1" "Wellbore" : "WellboreID"
class "WellboreTrajectory" <<work-product-component>>
"VerticalMeasurement" --> "1" "WellboreTrajectory" : "WellboreTVDTrajectoryID"

class "Reference Data Relationships" <<reference-data>> {
==
"data.Artefacts[].RoleID" → ArtefactRole
==
"data.Curves[].CurveUnit" → UnitOfMeasure
"data.Curves[].DepthUnit" → UnitOfMeasure
"data.Curves[].LogCurveBusinessValueID" → LogCurveBusinessValue
"data.Curves[].LogCurveFamilyID" → LogCurveFamily
"data.Curves[].LogCurveMainFamilyID" → LogCurveMainFamily
"data.Curves[].LogCurveTypeID" → LogCurveType
==
"data.GeoContexts[].GeoTypeID" → BasinType
"data.GeoContexts[].GeoTypeID" → GeoPoliticalEntityType
"data.GeoContexts[].GeoTypeID" → PlayType
"data.GeoContexts[].GeoTypeID" → ProspectType
==
"data.LineageAssertions[].LineageRelationshipType" → LineageRelationshipType
==
"data.SpatialArea.AsIngestedCoordinates.CoordinateReferenceSystemID" → CoordinateReferenceSystem
"data.SpatialArea.AsIngestedCoordinates.VerticalCoordinateReferenceSystemID" → CoordinateReferenceSystem
"data.SpatialArea.AsIngestedCoordinates.VerticalUnitID" → UnitOfMeasure
==
"data.SpatialArea.QualitativeSpatialAccuracyTypeID" → QualitativeSpatialAccuracyType
"data.SpatialArea.QuantitativeAccuracyBandID" → QuantitativeAccuracyBand
"data.SpatialArea.SpatialGeometryTypeID" → SpatialGeometryType
"data.SpatialArea.SpatialParameterTypeID" → SpatialParameterType
==
"data.SpatialPoint.AsIngestedCoordinates.CoordinateReferenceSystemID" → CoordinateReferenceSystem
"data.SpatialPoint.AsIngestedCoordinates.VerticalCoordinateReferenceSystemID" → CoordinateReferenceSystem
"data.SpatialPoint.AsIngestedCoordinates.VerticalUnitID" → UnitOfMeasure
==
"data.SpatialPoint.QualitativeSpatialAccuracyTypeID" → QualitativeSpatialAccuracyType
"data.SpatialPoint.QuantitativeAccuracyBandID" → QuantitativeAccuracyBand
"data.SpatialPoint.SpatialGeometryTypeID" → SpatialGeometryType
"data.SpatialPoint.SpatialParameterTypeID" → SpatialParameterType
==
"data.TechnicalAssurances[].AcceptableUsage[].WorkflowPersona" → WorkflowPersonaType
"data.TechnicalAssurances[].AcceptableUsage[].WorkflowUsage" → WorkflowUsageType
==
"data.TechnicalAssurances[].Reviewers[].RoleTypeID" → ContactRoleType
==
"data.TechnicalAssurances[].TechnicalAssuranceTypeID" → TechnicalAssuranceType
==
"data.TechnicalAssurances[].UnacceptableUsage[].WorkflowPersona" → WorkflowPersonaType
"data.TechnicalAssurances[].UnacceptableUsage[].WorkflowUsage" → WorkflowUsageType
==
"data.VerticalMeasurement.VerticalCRSID" → CoordinateReferenceSystem
"data.VerticalMeasurement.VerticalMeasurementPathID" → VerticalMeasurementPath
"data.VerticalMeasurement.VerticalMeasurementSourceID" → VerticalMeasurementSource
"data.VerticalMeasurement.VerticalMeasurementTypeID" → VerticalMeasurementType
"data.VerticalMeasurement.VerticalMeasurementUnitOfMeasureID" → UnitOfMeasure
==
"data.WellLogTypeID" → LogType
}
"WellLog" .up.> "Reference Data Relationships"
abstract "AbstractWPCGroupType" <<Abstraction>>
"WellLog" -right-|>  "AbstractWPCGroupType"
}
@enduml