@startuml
hide methods
skinparam groupInheritance 2
skinparam class {
    ArrowColor Black
    BorderColor Black
    BackgroundColor<<master-data>> LightSalmon
    BackgroundColor<<work-product-component>> Gold
    BackgroundColor<<abstract>> LightSteelBlue
    BackgroundColor<<dataset>> Ivory
    BackgroundColor<<reference-data>> Turquoise
    BackgroundColor<<Abstraction>> LightSkyBlue
    BackgroundColor<<error>> Red
    BackgroundColor<<Activity>> LightSkyBlue
    BackgroundColor<<ReferenceType>> LightSkyBlue
    BackgroundColor<<WorkProductComponent>> LightSkyBlue
    BackgroundColor<<Project>> LightSkyBlue
    BackgroundColor<<File>> LightSkyBlue
    BackgroundColor<<FileCollection>> LightSkyBlue
    BackgroundColor<<MasterData>> LightSkyBlue
    BackgroundColor<<nested array>> WhiteSmoke
    BackgroundColor<<nested>> WhiteSmoke
    packageStyle rectangle
}
package "WellboreMarkerSet Referenced-by View" <<rectangle>>
{
class "<size:16>WellboreMarkerSet</size>" as WellboreMarkerSet <<work-product-component>>
left to right direction
class "WellboreMarkerSet" <<work-product-component>>
package "master-data Entities" as MasterData <<frame>>
{
class "WellPlanningWellbore" <<master-data>> {
WellboreMarkerSetID
}
}
package "work-product-component Entities" as WorkProductComponent <<frame>>
{
class "FormationIntegrityTest" <<work-product-component>> {
WellboreMarkerID
}
class "WellboreIntervalSet" <<work-product-component>> {
Intervals[].StartMarkerSetID
Intervals[].StopMarkerSetID
}
}
"MasterData" -->  "WellboreMarkerSet"
"WorkProductComponent" -->  "WellboreMarkerSet"
abstract "AbstractWPCGroupType" <<Abstraction>>
"WellboreMarkerSet" -right-|>  "AbstractWPCGroupType"
}
@enduml