{
  "id": "partition-id:work-product-component--StratigraphicUnitInterpretation:Viking-e75315f0-7af4-4f4f-aa98-cadc0ae15403",
  "kind": "osdu:wks:work-product-component--StratigraphicUnitInterpretation:1.0.0",
  "version": 1608119544929332,
  "acl": {
    "owners": [
      "someone@company.com"
    ],
    "viewers": [
      "someone@company.com"
    ]
  },
  "legal": {
    "legaltags": [
      "Example legaltags"
    ],
    "otherRelevantDataCountries": [
      "US"
    ],
    "status": "compliant"
  },
  "tags": {
    "NameOfKey": "String value"
  },
  "createTime": "2020-12-16T11:46:20.163Z",
  "createUser": "some-user@some-company-cloud.com",
  "modifyTime": "2020-12-16T11:52:24.477Z",
  "modifyUser": "some-user@some-company-cloud.com",
  "ancestry": {
    "parents": []
  },
  "meta": [],
  "data": {
    "IsDiscoverable": true,
    "Name": "Viking",
    "GeoContexts": [
      {
        "FieldID": "partition-id:master-data--Field:Gudrun:",
        "GeoTypeID": "Field"
      }
    ],
    "LithologyTypeID": "partition-id:reference-data--LithologyType:sand:",
    "IsIntrusive": false,
    "GeologicUnitShapeTypeID": "partition-id:reference-data--GeologicUnitShapeType:Delta:",
    "OlderPossibleAge": 163.5,
    "YoungerPossibleAge": 145.0,
    "FeatureID": "partition-id:work-product-component--LocalRockVolumeFeature:Viking-:",
    "FeatureName": "Viking",
    "DepositionGeometryTypeID": "partition-id:reference-data--DepositionGeometryType:ParallelToTop:",
    "StratigraphicRoleTypeID": "partition-id:reference-data--StratigraphicRoleType:Lithostratigraphic:",
    "MinimumThickness": 2.0,
    "MaximumThickness": 100.0,
    "ColumnStratigraphicHorizonTopID": "partition-id:work-product-component--HorizonInterpretation:Top-Draupne-:",
    "ColumnStratigraphicHorizonBaseID": "partition-id:work-product-component--HorizonInterpretation:Top-Hugin-:",
    "ExtensionProperties": {}
  }
}