{
  "id": "namespace:work-product-component--SealedSurfaceFramework:863d3d66-9988-5d79-89c8-0708c97a5818",
  "kind": "osdu:wks:work-product-component--SealedSurfaceFramework:1.0.0",
  "version": 1562066009929332,
  "acl": {
    "owners": [
      "someone@company.com"
    ],
    "viewers": [
      "someone@company.com"
    ]
  },
  "legal": {
    "legaltags": [
      "Example legaltags"
    ],
    "otherRelevantDataCountries": [
      "US"
    ],
    "status": "compliant"
  },
  "tags": {
    "NameOfKey": "String value"
  },
  "createTime": "2020-12-16T11:46:20.163Z",
  "createUser": "some-user@some-company-cloud.com",
  "modifyTime": "2020-12-16T11:52:24.477Z",
  "modifyUser": "some-user@some-company-cloud.com",
  "ancestry": {
    "parents": []
  },
  "meta": [],
  "data": {
    "ResourceHomeRegionID": "namespace:reference-data--OSDURegion:AWSEastUSA:",
    "ResourceHostRegionIDs": [
      "namespace:reference-data--OSDURegion:AWSEastUSA:"
    ],
    "ResourceCurationStatus": "namespace:reference-data--ResourceCurationStatus:CREATED:",
    "ResourceLifecycleStatus": "namespace:reference-data--ResourceLifecycleStatus:LOADING:",
    "ResourceSecurityClassification": "namespace:reference-data--ResourceSecurityClassification:RESTRICTED:",
    "Source": "Example Data Source",
    "ExistenceKind": "namespace:reference-data--ExistenceKind:Prototype:",
    "Datasets": [
      "namespace:dataset--AnyDataset:SomeUniqueAnyDatasetID:"
    ],
    "Artefacts": [
      {
        "RoleID": "namespace:reference-data--ArtefactRole:AdaptedContent:",
        "ResourceKind": "namespace:source_name:group_type--IndividualType:0.0.0",
        "ResourceID": "namespace:dataset--AnyDataset:SomeUniqueAnyDatasetID:"
      }
    ],
    "IsExtendedLoad": true,
    "IsDiscoverable": true,
    "TechnicalAssurances": [
      {
        "TechnicalAssuranceTypeID": "namespace:reference-data--TechnicalAssuranceType:Trusted:",
        "Reviewers": [
          {
            "RoleTypeID": "namespace:reference-data--ContactRoleType:AccountOwner:",
            "OrganisationID": "namespace:master-data--Organisation:SomeUniqueOrganisationID:",
            "Name": "Example Name"
          }
        ],
        "AcceptableUsage": [
          {
            "WorkflowUsage": "namespace:reference-data--WorkflowUsageType:SeismicProcessing:",
            "WorkflowPersona": "namespace:reference-data--WorkflowPersonaType:SeismicProcessor:"
          }
        ],
        "UnacceptableUsage": [
          {
            "WorkflowUsage": "namespace:reference-data--WorkflowUsageType:SeismicInterpretation:",
            "WorkflowPersona": "namespace:reference-data--WorkflowPersonaType:SeismicInterpreter:"
          }
        ],
        "EffectiveDate": "2020-02-13",
        "Comment": "This is free form text from reviewer, e.g. restrictions on use"
      }
    ],
    "Name": "Example Name",
    "Description": "Example Description",
    "CreationDateTime": "2020-02-13T09:13:15.55Z",
    "Tags": [
      "Example Tags"
    ],
    "SpatialPoint": {
      "SpatialLocationCoordinatesDate": "2020-02-13T09:13:15.55Z",
      "QuantitativeAccuracyBandID": "namespace:reference-data--QuantitativeAccuracyBand:Length.LessThan1m:",
      "QualitativeSpatialAccuracyTypeID": "namespace:reference-data--QualitativeSpatialAccuracyType:Assumed:",
      "CoordinateQualityCheckPerformedBy": "Example CoordinateQualityCheckPerformedBy",
      "CoordinateQualityCheckDateTime": "2020-02-13T09:13:15.55Z",
      "CoordinateQualityCheckRemarks": [
        "Example CoordinateQualityCheckRemarks"
      ],
      "AsIngestedCoordinates": {
        "type": "AnyCrsFeatureCollection",
        "CoordinateReferenceSystemID": "namespace:reference-data--CoordinateReferenceSystem:BoundProjected:EPSG::32021_EPSG::15851:",
        "VerticalCoordinateReferenceSystemID": "namespace:reference-data--CoordinateReferenceSystem:Vertical:EPSG::5714:",
        "persistableReferenceCrs": "{\"authCode\":{\"auth\":\"OSDU\",\"code\":\"32021079\"},\"lateBoundCRS\":{\"authCode\":{\"auth\":\"EPSG\",\"code\":\"32021\"},\"name\":\"NAD_1927_StatePlane_North_Dakota_South_FIPS_3302\",\"type\":\"LBC\",\"ver\":\"PE_10_9_1\",\"wkt\":\"PROJCS[\\\"NAD_1927_StatePlane_North_Dakota_South_FIPS_3302\\\",GEOGCS[\\\"GCS_North_American_1927\\\",DATUM[\\\"D_North_American_1927\\\",SPHEROID[\\\"Clarke_1866\\\",6378206.4,294.9786982]],PRIMEM[\\\"Greenwich\\\",0.0],UNIT[\\\"Degree\\\",0.0174532925199433]],PROJECTION[\\\"Lambert_Conformal_Conic\\\"],PARAMETER[\\\"False_Easting\\\",2000000.0],PARAMETER[\\\"False_Northing\\\",0.0],PARAMETER[\\\"Central_Meridian\\\",-100.5],PARAMETER[\\\"Standard_Parallel_1\\\",46.18333333333333],PARAMETER[\\\"Standard_Parallel_2\\\",47.48333333333333],PARAMETER[\\\"Latitude_Of_Origin\\\",45.66666666666666],UNIT[\\\"Foot_US\\\",0.3048006096012192],AUTHORITY[\\\"EPSG\\\",32021]]\"},\"name\":\"NAD27 * OGP-Usa Conus / North Dakota CS27 South zone [32021,15851]\",\"singleCT\":{\"authCode\":{\"auth\":\"EPSG\",\"code\":\"15851\"},\"name\":\"NAD_1927_To_WGS_1984_79_CONUS\",\"type\":\"ST\",\"ver\":\"PE_10_9_1\",\"wkt\":\"GEOGTRAN[\\\"NAD_1927_To_WGS_1984_79_CONUS\\\",GEOGCS[\\\"GCS_North_American_1927\\\",DATUM[\\\"D_North_American_1927\\\",SPHEROID[\\\"Clarke_1866\\\",6378206.4,294.9786982]],PRIMEM[\\\"Greenwich\\\",0.0],UNIT[\\\"Degree\\\",0.0174532925199433]],GEOGCS[\\\"GCS_WGS_1984\\\",DATUM[\\\"D_WGS_1984\\\",SPHEROID[\\\"WGS_1984\\\",6378137.0,298.257223563]],PRIMEM[\\\"Greenwich\\\",0.0],UNIT[\\\"Degree\\\",0.0174532925199433]],METHOD[\\\"NADCON\\\"],PARAMETER[\\\"Dataset_conus\\\",0.0],OPERATIONACCURACY[5.0],AUTHORITY[\\\"EPSG\\\",15851]]\"},\"type\":\"EBC\",\"ver\":\"PE_10_9_1\"}",
        "persistableReferenceVerticalCrs": "{\"authCode\":{\"auth\":\"EPSG\",\"code\":\"5714\"},\"name\":\"MSL_Height\",\"type\":\"LBC\",\"ver\":\"PE_10_9_1\",\"wkt\":\"VERTCS[\\\"MSL_Height\\\",VDATUM[\\\"Mean_Sea_Level\\\"],PARAMETER[\\\"Vertical_Shift\\\",0.0],PARAMETER[\\\"Direction\\\",1.0],UNIT[\\\"Meter\\\",1.0],AUTHORITY[\\\"EPSG\\\",5714]]\"}",
        "persistableReferenceUnitZ": "{\"scaleOffset\":{\"scale\":1.0,\"offset\":0.0},\"symbol\":\"m\",\"baseMeasurement\":{\"ancestry\":\"Length\",\"type\":\"UM\"},\"type\":\"USO\"}",
        "features": [
          {
            "type": "AnyCrsFeature",
            "properties": {},
            "geometry": {
              "type": "AnyCrsPoint",
              "coordinates": [
                12345.6,
                12345.6
              ],
              "bbox": [
                12345.6,
                12345.6,
                12345.6,
                12345.6
              ]
            },
            "bbox": [
              12345.6,
              12345.6,
              12345.6,
              12345.6
            ]
          }
        ],
        "bbox": [
          12345.6,
          12345.6,
          12345.6,
          12345.6
        ]
      },
      "Wgs84Coordinates": {
        "type": "FeatureCollection",
        "features": [
          {
            "type": "Feature",
            "properties": {},
            "geometry": {
              "type": "Point",
              "coordinates": [
                12345.6,
                12345.6
              ],
              "bbox": [
                12345.6,
                12345.6,
                12345.6,
                12345.6
              ]
            },
            "bbox": [
              12345.6,
              12345.6,
              12345.6,
              12345.6
            ]
          }
        ],
        "bbox": [
          12345.6,
          12345.6,
          12345.6,
          12345.6
        ]
      },
      "AppliedOperations": [
        "conversion from ED_1950_UTM_Zone_31N to GCS_European_1950; 1 points converted",
        "transformation GCS_European_1950 to GCS_WGS_1984 using ED_1950_To_WGS_1984_24; 1 points successfully transformed"
      ],
      "SpatialParameterTypeID": "namespace:reference-data--SpatialParameterType:Outline:",
      "SpatialGeometryTypeID": "namespace:reference-data--SpatialGeometryType:Point:"
    },
    "SpatialArea": {
      "SpatialLocationCoordinatesDate": "2020-02-13T09:13:15.55Z",
      "QuantitativeAccuracyBandID": "namespace:reference-data--QuantitativeAccuracyBand:Length.LessThan1m:",
      "QualitativeSpatialAccuracyTypeID": "namespace:reference-data--QualitativeSpatialAccuracyType:Assumed:",
      "CoordinateQualityCheckPerformedBy": "Example CoordinateQualityCheckPerformedBy",
      "CoordinateQualityCheckDateTime": "2020-02-13T09:13:15.55Z",
      "CoordinateQualityCheckRemarks": [
        "Example CoordinateQualityCheckRemarks"
      ],
      "AsIngestedCoordinates": {
        "type": "AnyCrsFeatureCollection",
        "CoordinateReferenceSystemID": "namespace:reference-data--CoordinateReferenceSystem:BoundProjected:EPSG::32021_EPSG::15851:",
        "VerticalCoordinateReferenceSystemID": "namespace:reference-data--CoordinateReferenceSystem:Vertical:EPSG::5714:",
        "persistableReferenceCrs": "{\"authCode\":{\"auth\":\"OSDU\",\"code\":\"32021079\"},\"lateBoundCRS\":{\"authCode\":{\"auth\":\"EPSG\",\"code\":\"32021\"},\"name\":\"NAD_1927_StatePlane_North_Dakota_South_FIPS_3302\",\"type\":\"LBC\",\"ver\":\"PE_10_9_1\",\"wkt\":\"PROJCS[\\\"NAD_1927_StatePlane_North_Dakota_South_FIPS_3302\\\",GEOGCS[\\\"GCS_North_American_1927\\\",DATUM[\\\"D_North_American_1927\\\",SPHEROID[\\\"Clarke_1866\\\",6378206.4,294.9786982]],PRIMEM[\\\"Greenwich\\\",0.0],UNIT[\\\"Degree\\\",0.0174532925199433]],PROJECTION[\\\"Lambert_Conformal_Conic\\\"],PARAMETER[\\\"False_Easting\\\",2000000.0],PARAMETER[\\\"False_Northing\\\",0.0],PARAMETER[\\\"Central_Meridian\\\",-100.5],PARAMETER[\\\"Standard_Parallel_1\\\",46.18333333333333],PARAMETER[\\\"Standard_Parallel_2\\\",47.48333333333333],PARAMETER[\\\"Latitude_Of_Origin\\\",45.66666666666666],UNIT[\\\"Foot_US\\\",0.3048006096012192],AUTHORITY[\\\"EPSG\\\",32021]]\"},\"name\":\"NAD27 * OGP-Usa Conus / North Dakota CS27 South zone [32021,15851]\",\"singleCT\":{\"authCode\":{\"auth\":\"EPSG\",\"code\":\"15851\"},\"name\":\"NAD_1927_To_WGS_1984_79_CONUS\",\"type\":\"ST\",\"ver\":\"PE_10_9_1\",\"wkt\":\"GEOGTRAN[\\\"NAD_1927_To_WGS_1984_79_CONUS\\\",GEOGCS[\\\"GCS_North_American_1927\\\",DATUM[\\\"D_North_American_1927\\\",SPHEROID[\\\"Clarke_1866\\\",6378206.4,294.9786982]],PRIMEM[\\\"Greenwich\\\",0.0],UNIT[\\\"Degree\\\",0.0174532925199433]],GEOGCS[\\\"GCS_WGS_1984\\\",DATUM[\\\"D_WGS_1984\\\",SPHEROID[\\\"WGS_1984\\\",6378137.0,298.257223563]],PRIMEM[\\\"Greenwich\\\",0.0],UNIT[\\\"Degree\\\",0.0174532925199433]],METHOD[\\\"NADCON\\\"],PARAMETER[\\\"Dataset_conus\\\",0.0],OPERATIONACCURACY[5.0],AUTHORITY[\\\"EPSG\\\",15851]]\"},\"type\":\"EBC\",\"ver\":\"PE_10_9_1\"}",
        "persistableReferenceVerticalCrs": "{\"authCode\":{\"auth\":\"EPSG\",\"code\":\"5714\"},\"name\":\"MSL_Height\",\"type\":\"LBC\",\"ver\":\"PE_10_9_1\",\"wkt\":\"VERTCS[\\\"MSL_Height\\\",VDATUM[\\\"Mean_Sea_Level\\\"],PARAMETER[\\\"Vertical_Shift\\\",0.0],PARAMETER[\\\"Direction\\\",1.0],UNIT[\\\"Meter\\\",1.0],AUTHORITY[\\\"EPSG\\\",5714]]\"}",
        "persistableReferenceUnitZ": "{\"scaleOffset\":{\"scale\":1.0,\"offset\":0.0},\"symbol\":\"m\",\"baseMeasurement\":{\"ancestry\":\"Length\",\"type\":\"UM\"},\"type\":\"USO\"}",
        "features": [
          {
            "type": "AnyCrsFeature",
            "properties": {},
            "geometry": {
              "type": "AnyCrsPoint",
              "coordinates": [
                12345.6,
                12345.6
              ],
              "bbox": [
                12345.6,
                12345.6,
                12345.6,
                12345.6
              ]
            },
            "bbox": [
              12345.6,
              12345.6,
              12345.6,
              12345.6
            ]
          }
        ],
        "bbox": [
          12345.6,
          12345.6,
          12345.6,
          12345.6
        ]
      },
      "Wgs84Coordinates": {
        "type": "FeatureCollection",
        "features": [
          {
            "type": "Feature",
            "properties": {},
            "geometry": {
              "type": "Point",
              "coordinates": [
                12345.6,
                12345.6
              ],
              "bbox": [
                12345.6,
                12345.6,
                12345.6,
                12345.6
              ]
            },
            "bbox": [
              12345.6,
              12345.6,
              12345.6,
              12345.6
            ]
          }
        ],
        "bbox": [
          12345.6,
          12345.6,
          12345.6,
          12345.6
        ]
      },
      "AppliedOperations": [
        "conversion from ED_1950_UTM_Zone_31N to GCS_European_1950; 1 points converted",
        "transformation GCS_European_1950 to GCS_WGS_1984 using ED_1950_To_WGS_1984_24; 1 points successfully transformed"
      ],
      "SpatialParameterTypeID": "namespace:reference-data--SpatialParameterType:Outline:",
      "SpatialGeometryTypeID": "namespace:reference-data--SpatialGeometryType:Point:"
    },
    "GeoContexts": [
      {
        "BasinID": "namespace:master-data--Basin:SomeUniqueBasinID:",
        "GeoTypeID": "namespace:reference-data--BasinType:ArcWrenchOceanContinent:"
      }
    ],
    "SubmitterName": "Example SubmitterName",
    "BusinessActivities": [
      "Example BusinessActivities"
    ],
    "AuthorIDs": [
      "Example AuthorIDs"
    ],
    "LineageAssertions": [
      {
        "ID": "namespace:any-group-type--AnyIndividualType:SomeUniqueAnyIndividualTypeID:",
        "LineageRelationshipType": "namespace:reference-data--LineageRelationshipType:Direct:"
      }
    ],
    "InterpretationID": "namespace:work-product-component--StructuralOrganizationInterpretation:StructuralOrganizationInterpretation-911bb71f-06ab-4deb-8e68-b8c9229dc76b:",
    "InterpretationName": "My Interpretation",
    "TimeSeries": {
      "TimeIndex": 3,
      "TimeSeriesID": "namespace:work-product-component--TimeSeries:85348741-3433-406B-9189-22B298C3E2D2:"
    },
    "RealizationIndex": 10,
    "IndexableElementCount": [
      {
        "Count": 10000,
        "IndexableElementID": "namespace:reference-data--IndexableElement:cells:"
      }
    ],
    "LocalModelCompoundCrsID": "namespace:work-product-component--LocalModelCompoundCrs:LocalModelCompoundCrs-911bb71f-06ab-4deb-8e68-b8c9229dc76b:",
    "GenericRepresentationIDs": [
      "namespace:work-product-component--GenericRepresentation:GenericRepresentation-911bb71f-06ab-4deb-8e68-b8c9229dc76b:"
    ],
    "ExtensionProperties": {}
  }
}