{
  "successCount": 1,
  "totalCount": 1,
  "featureCollection": {
    "features": [
      {
        "geometry": {
          "coordinates": [
            4.83073672457101,
            53.32956038067355
          ],
          "type": "Point",
          "bbox": null
        },
        "properties": {},
        "type": "Feature",
        "bbox": null
      }
    ],
    "properties": null,
    "persistableReferenceCrs": null,
    "persistableReferenceUnitZ": "{\"scaleOffset\":{\"scale\":1.0,\"offset\":0.0},\"symbol\":\"m\",\"baseMeasurement\":{\"ancestry\":\"Length\",\"type\":\"UM\"},\"type\":\"USO\"}",
    "type": "FeatureCollection",
    "bbox": null
  },
  "operationsApplied": [
    "conversion from ED_1950_UTM_Zone_31N to GCS_European_1950; 1 points converted",
    "transformation GCS_European_1950 to GCS_WGS_1984 using ED_1950_To_WGS_1984_1; 1 points successfully transformed"
  ]
}