{
  "x-osdu-review-status": "Accepted",
  "$id": "https://schema.osdu.opengroup.org/json/abstract/AbstractMaster.1.0.0.json",
  "$schema": "http://json-schema.org/draft-07/schema#",
  "title": "Abstract Master",
  "description": "Properties shared with all master-data schema instances.",
  "type": "object",
  "properties": {
    "NameAliases": {
      "type": "array",
      "description": "Alternative names, including historical, by which this master data is/has been known (it should include all the identifiers).",
      "x-osdu-indexing": {
        "type": "nested"
      },
      "items": {
        "$ref": "../abstract/AbstractAliasNames.1.0.0.json"
      }
    },
    "GeoContexts": {
      "type": "array",
      "description": "List of geographic entities which provide context to the master data. This may include multiple types or multiple values of the same type.",
      "x-osdu-indexing": {
        "type": "nested"
      },
      "items": {
        "$ref": "../abstract/AbstractGeoContext.1.0.0.json"
      }
    },
    "SpatialLocation": {
      "$ref": "../abstract/AbstractSpatialLocation.1.0.0.json",
      "description": "The spatial location information such as coordinates, CRS information (left empty when not appropriate)."
    },
    "VersionCreationReason": {
      "type": "string",
      "description": "This describes the reason that caused the creation of a new version of this master data."
    },
    "TechnicalAssuranceTypeID": {
      "type": "string",
      "title": "Technical Assurance Type ID",
      "description": "Describes a master-data record's overall suitability for general business consumption based on data quality. Clarifications: Since Certified is the highest classification of suitable quality, any further change or versioning of a Certified record should be carefully considered and justified. If a Technical Assurance value is not populated then one can assume the data has not been evaluated or its quality is unknown (=Unevaluated). Technical Assurance values are not intended to be used for the identification of a single \"preferred\" or \"definitive\" record by comparison with other records.",
      "example": "namespace:reference-data--TechnicalAssuranceType:Certified:",
      "pattern": "^[\\w\\-\\.]+:reference-data\\-\\-TechnicalAssuranceType:[\\w\\-\\.\\:\\%]+:[0-9]*$"
    }
  }
}