{
  "$schema": "http://json-schema.org/draft-07/schema#",
  "$id": "https://schema.osdu.opengroup.org/json/abstract/AbstractAnyCrsFeatureCollection.1.0.0.json",
  "title": "AbstractAnyCrsFeatureCollection",
  "description": "A schema like GeoJSON FeatureCollection with a non-WGS 84 CRS context; based on https://geojson.org/schema/FeatureCollection.json. Attention: the coordinate order is fixed: Longitude/Easting/Westing/X first, followed by Latitude/Northing/Southing/Y, optionally height as third coordinate.",
  "type": "object",
  "required": [
    "type",
    "persistableReferenceCrs",
    "features"
  ],
  "properties": {
    "type": {
      "type": "string",
      "enum": [
        "AnyCrsFeatureCollection"
      ]
    },
    "CoordinateReferenceSystemID": {
      "title": "Coordinate Reference System ID",
      "description": "The CRS reference into the CoordinateReferenceSystem catalog.",
      "type": "string",
      "pattern": "^[\\w\\-\\.]+:reference-data\\-\\-CoordinateReferenceSystem:[\\w\\-\\.\\:\\%]+:[0-9]*$",
      "example": "namespace:reference-data--CoordinateReferenceSystem:BoundProjected:EPSG::32021_EPSG::15851:"
    },
    "VerticalCoordinateReferenceSystemID": {
      "title": "Vertical Coordinate Reference System ID",
      "description": "The explicit VerticalCRS reference into the CoordinateReferenceSystem catalog. This property stays empty for 2D geometries. Absent or empty values for 3D geometries mean the context may be provided by a CompoundCRS in 'CoordinateReferenceSystemID' or implicitly EPSG:5714 MSL height",
      "type": "string",
      "pattern": "^[\\w\\-\\.]+:reference-data\\-\\-CoordinateReferenceSystem:[\\w\\-\\.\\:\\%]+:[0-9]*$",
      "example": "namespace:reference-data--CoordinateReferenceSystem:Vertical:EPSG::5714:"
    },
    "persistableReferenceCrs": {
      "type": "string",
      "title": "CRS Reference",
      "description": "The CRS reference as persistableReference string. If populated, the CoordinateReferenceSystemID takes precedence.",
      "example": "{\"authCode\":{\"auth\":\"OSDU\",\"code\":\"32021079\"},\"lateBoundCRS\":{\"authCode\":{\"auth\":\"EPSG\",\"code\":\"32021\"},\"name\":\"NAD_1927_StatePlane_North_Dakota_South_FIPS_3302\",\"type\":\"LBC\",\"ver\":\"PE_10_9_1\",\"wkt\":\"PROJCS[\\\"NAD_1927_StatePlane_North_Dakota_South_FIPS_3302\\\",GEOGCS[\\\"GCS_North_American_1927\\\",DATUM[\\\"D_North_American_1927\\\",SPHEROID[\\\"Clarke_1866\\\",6378206.4,294.9786982]],PRIMEM[\\\"Greenwich\\\",0.0],UNIT[\\\"Degree\\\",0.0174532925199433]],PROJECTION[\\\"Lambert_Conformal_Conic\\\"],PARAMETER[\\\"False_Easting\\\",2000000.0],PARAMETER[\\\"False_Northing\\\",0.0],PARAMETER[\\\"Central_Meridian\\\",-100.5],PARAMETER[\\\"Standard_Parallel_1\\\",46.18333333333333],PARAMETER[\\\"Standard_Parallel_2\\\",47.48333333333333],PARAMETER[\\\"Latitude_Of_Origin\\\",45.66666666666666],UNIT[\\\"Foot_US\\\",0.3048006096012192],AUTHORITY[\\\"EPSG\\\",32021]]\"},\"name\":\"NAD27 * OGP-Usa Conus / North Dakota CS27 South zone [32021,15851]\",\"singleCT\":{\"authCode\":{\"auth\":\"EPSG\",\"code\":\"15851\"},\"name\":\"NAD_1927_To_WGS_1984_79_CONUS\",\"type\":\"ST\",\"ver\":\"PE_10_9_1\",\"wkt\":\"GEOGTRAN[\\\"NAD_1927_To_WGS_1984_79_CONUS\\\",GEOGCS[\\\"GCS_North_American_1927\\\",DATUM[\\\"D_North_American_1927\\\",SPHEROID[\\\"Clarke_1866\\\",6378206.4,294.9786982]],PRIMEM[\\\"Greenwich\\\",0.0],UNIT[\\\"Degree\\\",0.0174532925199433]],GEOGCS[\\\"GCS_WGS_1984\\\",DATUM[\\\"D_WGS_1984\\\",SPHEROID[\\\"WGS_1984\\\",6378137.0,298.257223563]],PRIMEM[\\\"Greenwich\\\",0.0],UNIT[\\\"Degree\\\",0.0174532925199433]],METHOD[\\\"NADCON\\\"],PARAMETER[\\\"Dataset_conus\\\",0.0],OPERATIONACCURACY[5.0],AUTHORITY[\\\"EPSG\\\",15851]]\"},\"type\":\"EBC\",\"ver\":\"PE_10_9_1\"}"
    },
    "persistableReferenceVerticalCrs": {
      "type": "string",
      "title": "Vertical CRS Reference",
      "description": "The VerticalCRS reference as persistableReference string. If populated, the VerticalCoordinateReferenceSystemID takes precedence. The property is null or empty for 2D geometries. For 3D geometries and absent or null persistableReferenceVerticalCrs the vertical CRS is either provided via persistableReferenceCrs's CompoundCRS or it is implicitly defined as EPSG:5714 MSL height.",
      "example": "{\"authCode\":{\"auth\":\"EPSG\",\"code\":\"5714\"},\"name\":\"MSL_Height\",\"type\":\"LBC\",\"ver\":\"PE_10_9_1\",\"wkt\":\"VERTCS[\\\"MSL_Height\\\",VDATUM[\\\"Mean_Sea_Level\\\"],PARAMETER[\\\"Vertical_Shift\\\",0.0],PARAMETER[\\\"Direction\\\",1.0],UNIT[\\\"Meter\\\",1.0],AUTHORITY[\\\"EPSG\\\",5714]]\"}"
    },
    "persistableReferenceUnitZ": {
      "type": "string",
      "title": "Z-Unit Reference",
      "description": "The unit of measure for the Z-axis (only for 3-dimensional coordinates, where the CRS does not describe the vertical unit). Note that the direction is upwards positive, i.e. Z means height.",
      "example": "{\"scaleOffset\":{\"scale\":1.0,\"offset\":0.0},\"symbol\":\"m\",\"baseMeasurement\":{\"ancestry\":\"Length\",\"type\":\"UM\"},\"type\":\"USO\"}"
    },
    "features": {
      "type": "array",
      "items": {
        "title": "AnyCrsGeoJSON Feature",
        "type": "object",
        "required": [
          "type",
          "properties",
          "geometry"
        ],
        "properties": {
          "type": {
            "type": "string",
            "enum": [
              "AnyCrsFeature"
            ]
          },
          "properties": {
            "oneOf": [
              {
                "type": "null"
              },
              {
                "type": "object"
              }
            ]
          },
          "geometry": {
            "oneOf": [
              {
                "type": "null"
              },
              {
                "title": "AnyCrsGeoJSON Point",
                "type": "object",
                "required": [
                  "type",
                  "coordinates"
                ],
                "properties": {
                  "type": {
                    "type": "string",
                    "enum": [
                      "AnyCrsPoint"
                    ]
                  },
                  "coordinates": {
                    "type": "array",
                    "minItems": 2,
                    "items": {
                      "type": "number"
                    }
                  },
                  "bbox": {
                    "type": "array",
                    "minItems": 4,
                    "items": {
                      "type": "number"
                    }
                  }
                }
              },
              {
                "title": "AnyCrsGeoJSON LineString",
                "type": "object",
                "required": [
                  "type",
                  "coordinates"
                ],
                "properties": {
                  "type": {
                    "type": "string",
                    "enum": [
                      "AnyCrsLineString"
                    ]
                  },
                  "coordinates": {
                    "type": "array",
                    "minItems": 2,
                    "items": {
                      "type": "array",
                      "minItems": 2,
                      "items": {
                        "type": "number"
                      }
                    }
                  },
                  "bbox": {
                    "type": "array",
                    "minItems": 4,
                    "items": {
                      "type": "number"
                    }
                  }
                }
              },
              {
                "title": "AnyCrsGeoJSON Polygon",
                "type": "object",
                "required": [
                  "type",
                  "coordinates"
                ],
                "properties": {
                  "type": {
                    "type": "string",
                    "enum": [
                      "AnyCrsPolygon"
                    ]
                  },
                  "coordinates": {
                    "type": "array",
                    "items": {
                      "type": "array",
                      "minItems": 4,
                      "items": {
                        "type": "array",
                        "minItems": 2,
                        "items": {
                          "type": "number"
                        }
                      }
                    }
                  },
                  "bbox": {
                    "type": "array",
                    "minItems": 4,
                    "items": {
                      "type": "number"
                    }
                  }
                }
              },
              {
                "title": "AnyCrsGeoJSON MultiPoint",
                "type": "object",
                "required": [
                  "type",
                  "coordinates"
                ],
                "properties": {
                  "type": {
                    "type": "string",
                    "enum": [
                      "AnyCrsMultiPoint"
                    ]
                  },
                  "coordinates": {
                    "type": "array",
                    "items": {
                      "type": "array",
                      "minItems": 2,
                      "items": {
                        "type": "number"
                      }
                    }
                  },
                  "bbox": {
                    "type": "array",
                    "minItems": 4,
                    "items": {
                      "type": "number"
                    }
                  }
                }
              },
              {
                "title": "AnyCrsGeoJSON MultiLineString",
                "type": "object",
                "required": [
                  "type",
                  "coordinates"
                ],
                "properties": {
                  "type": {
                    "type": "string",
                    "enum": [
                      "AnyCrsMultiLineString"
                    ]
                  },
                  "coordinates": {
                    "type": "array",
                    "items": {
                      "type": "array",
                      "minItems": 2,
                      "items": {
                        "type": "array",
                        "minItems": 2,
                        "items": {
                          "type": "number"
                        }
                      }
                    }
                  },
                  "bbox": {
                    "type": "array",
                    "minItems": 4,
                    "items": {
                      "type": "number"
                    }
                  }
                }
              },
              {
                "title": "AnyCrsGeoJSON MultiPolygon",
                "type": "object",
                "required": [
                  "type",
                  "coordinates"
                ],
                "properties": {
                  "type": {
                    "type": "string",
                    "enum": [
                      "AnyCrsMultiPolygon"
                    ]
                  },
                  "coordinates": {
                    "type": "array",
                    "items": {
                      "type": "array",
                      "items": {
                        "type": "array",
                        "minItems": 4,
                        "items": {
                          "type": "array",
                          "minItems": 2,
                          "items": {
                            "type": "number"
                          }
                        }
                      }
                    }
                  },
                  "bbox": {
                    "type": "array",
                    "minItems": 4,
                    "items": {
                      "type": "number"
                    }
                  }
                }
              },
              {
                "title": "AnyCrsGeoJSON GeometryCollection",
                "type": "object",
                "required": [
                  "type",
                  "geometries"
                ],
                "properties": {
                  "type": {
                    "type": "string",
                    "enum": [
                      "AnyCrsGeometryCollection"
                    ]
                  },
                  "geometries": {
                    "type": "array",
                    "items": {
                      "oneOf": [
                        {
                          "title": "AnyCrsGeoJSON Point",
                          "type": "object",
                          "required": [
                            "type",
                            "coordinates"
                          ],
                          "properties": {
                            "type": {
                              "type": "string",
                              "enum": [
                                "AnyCrsPoint"
                              ]
                            },
                            "coordinates": {
                              "type": "array",
                              "minItems": 2,
                              "items": {
                                "type": "number"
                              }
                            },
                            "bbox": {
                              "type": "array",
                              "minItems": 4,
                              "items": {
                                "type": "number"
                              }
                            }
                          }
                        },
                        {
                          "title": "AnyCrsGeoJSON LineString",
                          "type": "object",
                          "required": [
                            "type",
                            "coordinates"
                          ],
                          "properties": {
                            "type": {
                              "type": "string",
                              "enum": [
                                "AnyCrsLineString"
                              ]
                            },
                            "coordinates": {
                              "type": "array",
                              "minItems": 2,
                              "items": {
                                "type": "array",
                                "minItems": 2,
                                "items": {
                                  "type": "number"
                                }
                              }
                            },
                            "bbox": {
                              "type": "array",
                              "minItems": 4,
                              "items": {
                                "type": "number"
                              }
                            }
                          }
                        },
                        {
                          "title": "AnyCrsGeoJSON Polygon",
                          "type": "object",
                          "required": [
                            "type",
                            "coordinates"
                          ],
                          "properties": {
                            "type": {
                              "type": "string",
                              "enum": [
                                "AnyCrsPolygon"
                              ]
                            },
                            "coordinates": {
                              "type": "array",
                              "items": {
                                "type": "array",
                                "minItems": 4,
                                "items": {
                                  "type": "array",
                                  "minItems": 2,
                                  "items": {
                                    "type": "number"
                                  }
                                }
                              }
                            },
                            "bbox": {
                              "type": "array",
                              "minItems": 4,
                              "items": {
                                "type": "number"
                              }
                            }
                          }
                        },
                        {
                          "title": "AnyCrsGeoJSON MultiPoint",
                          "type": "object",
                          "required": [
                            "type",
                            "coordinates"
                          ],
                          "properties": {
                            "type": {
                              "type": "string",
                              "enum": [
                                "AnyCrsMultiPoint"
                              ]
                            },
                            "coordinates": {
                              "type": "array",
                              "items": {
                                "type": "array",
                                "minItems": 2,
                                "items": {
                                  "type": "number"
                                }
                              }
                            },
                            "bbox": {
                              "type": "array",
                              "minItems": 4,
                              "items": {
                                "type": "number"
                              }
                            }
                          }
                        },
                        {
                          "title": "AnyCrsGeoJSON MultiLineString",
                          "type": "object",
                          "required": [
                            "type",
                            "coordinates"
                          ],
                          "properties": {
                            "type": {
                              "type": "string",
                              "enum": [
                                "AnyCrsMultiLineString"
                              ]
                            },
                            "coordinates": {
                              "type": "array",
                              "items": {
                                "type": "array",
                                "minItems": 2,
                                "items": {
                                  "type": "array",
                                  "minItems": 2,
                                  "items": {
                                    "type": "number"
                                  }
                                }
                              }
                            },
                            "bbox": {
                              "type": "array",
                              "minItems": 4,
                              "items": {
                                "type": "number"
                              }
                            }
                          }
                        },
                        {
                          "title": "AnyCrsGeoJSON MultiPolygon",
                          "type": "object",
                          "required": [
                            "type",
                            "coordinates"
                          ],
                          "properties": {
                            "type": {
                              "type": "string",
                              "enum": [
                                "AnyCrsMultiPolygon"
                              ]
                            },
                            "coordinates": {
                              "type": "array",
                              "items": {
                                "type": "array",
                                "items": {
                                  "type": "array",
                                  "minItems": 4,
                                  "items": {
                                    "type": "array",
                                    "minItems": 2,
                                    "items": {
                                      "type": "number"
                                    }
                                  }
                                }
                              }
                            },
                            "bbox": {
                              "type": "array",
                              "minItems": 4,
                              "items": {
                                "type": "number"
                              }
                            }
                          }
                        }
                      ]
                    }
                  },
                  "bbox": {
                    "type": "array",
                    "minItems": 4,
                    "items": {
                      "type": "number"
                    }
                  }
                }
              }
            ]
          },
          "bbox": {
            "type": "array",
            "minItems": 4,
            "items": {
              "type": "number"
            }
          }
        }
      }
    },
    "bbox": {
      "type": "array",
      "minItems": 4,
      "items": {
        "type": "number"
      }
    }
  }
}