{
  "x-osdu-review-status": "Accepted",
  "$id": "https://schema.osdu.opengroup.org/json/abstract/AbstractFacilityEvent.1.1.0.json",
  "$schema": "http://json-schema.org/draft-07/schema#",
  "title": "AbstractFacilityEvent",
  "description": "A significant occurrence in the life of a facility, which often changes its state, or the state of one of its components. It can describe a point-in-time (event) or a time interval of a specific type (FacilityEventType).",
  "type": "object",
  "properties": {
    "FacilityEventTypeID": {
      "type": "string",
      "description": "The facility event type is a picklist. Examples: 'Permit', 'Spud', 'Abandon', etc.",
      "pattern": "^[\\w\\-\\.]+:reference-data\\-\\-FacilityEventType:[\\w\\-\\.\\:\\%]+:[0-9]*$"
    },
    "EffectiveDateTime": {
      "type": "string",
      "description": "The date and time at which the event took place or takes effect.",
      "format": "date-time",
      "x-osdu-frame-of-reference": "DateTime"
    },
    "TerminationDateTime": {
      "type": "string",
      "description": "The date and time at which the event is no longer in effect. For point-in-time events the 'TerminationDateTime' must be set equal to 'EffectiveDateTime'. Open time intervals have an absent 'TerminationDateTime'.",
      "format": "date-time",
      "x-osdu-frame-of-reference": "DateTime"
    },
    "Remark": {
      "type": "string",
      "description": "A comment or remark about the facility event."
    }
  }
}