{
  "x-osdu-review-status": "Accepted",
  "$id": "https://schema.osdu.opengroup.org/json/abstract/AbstractActivityState.1.0.0.json",
  "$schema": "http://json-schema.org/draft-07/schema#",
  "title": "AbstractActivityState",
  "description": "One step/interval in an Activity's or ProjectActivity's state.",
  "type": "object",
  "properties": {
    "EffectiveDateTime": {
      "type": "string",
      "title": "Effective Date Time",
      "description": "The date and time at which the activity status becomes effective.",
      "format": "date-time",
      "x-osdu-frame-of-reference": "DateTime"
    },
    "TerminationDateTime": {
      "type": "string",
      "title": "Termination Date Time",
      "description": "The date and time at which the activity status is no longer in effect. For still effective activity states, the TerminationDateTime is left absent. For zero-duration intervals (events), the TerminationDateTime set to the same value as EffectiveDateTime.",
      "format": "date-time",
      "x-osdu-frame-of-reference": "DateTime"
    },
    "ActivityStatusID": {
      "type": "string",
      "title": "Activity Status ID",
      "description": "The ActivityStatus is a set of major activity phases that are significant to business stakeholders.",
      "pattern": "^[\\w\\-\\.]+:reference-data\\-\\-ActivityStatus:[\\w\\-\\.\\:\\%]+:[0-9]*$"
    },
    "Remark": {
      "type": "string",
      "title": "Remark",
      "description": "An optional remark associated with the ActivityStatus and time interval."
    }
  }
}