{
  "id": "namespace:reference-data--CoordinateReferenceSystem:8cfcd4e5-9fda-5a85-93cd-4562b92e6172",
  "kind": "osdu:wks:reference-data--CoordinateReferenceSystem:1.0.0",
  "version": 1562066009929332,
  "acl": {
    "owners": [
      "someone@company.com"
    ],
    "viewers": [
      "someone@company.com"
    ]
  },
  "legal": {
    "legaltags": [
      "Example legaltags"
    ],
    "otherRelevantDataCountries": [
      "US"
    ],
    "status": "compliant"
  },
  "tags": {
    "NameOfKey": "String value"
  },
  "createTime": "2020-12-16T11:46:20.163Z",
  "createUser": "some-user@some-company-cloud.com",
  "modifyTime": "2020-12-16T11:52:24.477Z",
  "modifyUser": "some-user@some-company-cloud.com",
  "ancestry": {
    "parents": []
  },
  "meta": [],
  "data": {
    "ResourceHomeRegionID": "namespace:reference-data--OSDURegion:AWSEastUSA:",
    "ResourceHostRegionIDs": [
      "namespace:reference-data--OSDURegion:AWSEastUSA:"
    ],
    "ResourceCurationStatus": "namespace:reference-data--ResourceCurationStatus:CREATED:",
    "ResourceLifecycleStatus": "namespace:reference-data--ResourceLifecycleStatus:LOADING:",
    "ResourceSecurityClassification": "namespace:reference-data--ResourceSecurityClassification:RESTRICTED:",
    "Source": "Example Data Source",
    "ExistenceKind": "namespace:reference-data--ExistenceKind:Prototype:",
    "Name": "Example Name",
    "NameAlias": [
      {
        "AliasName": "Example AliasName",
        "AliasNameTypeID": "namespace:reference-data--AliasNameType:RegulatoryIdentifier:",
        "DefinitionOrganisationID": "namespace:master-data--Organisation:SomeUniqueOrganisationID:",
        "EffectiveDateTime": "2020-02-13T09:13:15.55Z",
        "TerminationDateTime": "2020-02-13T09:13:15.55Z"
      }
    ],
    "ID": "Example External Identifier",
    "InactiveIndicator": true,
    "Description": "Example Description",
    "Code": "Example Code",
    "AttributionAuthority": "Example AttributionAuthority",
    "AttributionPublication": "Example AttributionPublication",
    "AttributionRevision": "Example AttributionRevision",
    "CommitDate": "2021-02-08T21:36:40-05:00",
    "CodeSpace": "Example CRS CodeSpace",
    "InformationSource": "Example CRS InformationSource",
    "RevisionDate": "2020-02-13T09:13:15.55Z",
    "Kind": "Example CRS Kind",
    "CodeAsNumber": 2,
    "CoordinateReferenceSystemType": "BoundCRS",
    "HorizontalCRS": {
      "AuthorityCode": {
        "Authority": "EPSG",
        "Code": 32615
      },
      "Name": "WGS 84 / UTM zone 15N",
      "HorizontalCRSID": "namespace:reference-data--CoordinateReferenceSystem:Projected:EPSG::32615:"
    },
    "VerticalCRS": {
      "AuthorityCode": {
        "Authority": "EPSG",
        "Code": 5714
      },
      "Name": "Mean Sea Level",
      "VerticalCRSID": "namespace:reference-data--CoordinateReferenceSystem:Vertical:EPSG::5714:"
    },
    "Transformation": {
      "AuthorityCode": {
        "Authority": "EPSG",
        "Code": 1613
      },
      "Name": "ED50 to WGS 84 (24)",
      "TransformationID": "namespace:reference-data--CoordinateTransformation:EPSG::1613:"
    },
    "Datum": {
      "AuthorityCode": {
        "Authority": "EPSG",
        "Code": 6230
      },
      "Name": "Example Datum Name."
    },
    "DatumEnsemble": {
      "AuthorityCode": {
        "Authority": "EPSG",
        "Code": 6326
      },
      "Name": "World Geodetic System 1984 ensemble"
    },
    "Projection": {
      "AuthorityCode": {
        "Authority": "EPSG",
        "Code": 16031
      },
      "Name": "UTM zone 31N"
    },
    "BaseCRS": {
      "AuthorityCode": {
        "Authority": "EPSG",
        "Code": 4230
      },
      "Name": "ED50",
      "BaseCRSID": "namespace:reference-data--CoordinateReferenceSystem:Geographic2D:EPSG:4230:"
    },
    "SourceCRS": {
      "AuthorityCode": {
        "Authority": "EPSG",
        "Code": 23031
      },
      "Name": "ED50 / UTM zone 31N",
      "SourceCRSID": "namespace:reference-data--CoordinateReferenceSystem:Projected:EPSG::23031:"
    },
    "TargetCRS": {
      "AuthorityCode": {
        "Authority": "EPSG",
        "Code": 4326
      },
      "Name": "WGS 84",
      "TargetCRSID": "namespace:reference-data--CoordinateReferenceSystem:Geographic2D:EPSG::4326:"
    },
    "Usages": [
      {
        "AuthorityCode": {
          "Authority": "EPSG",
          "Code": 6394
        },
        "Name": "Europe - 0\u00b0E to 6\u00b0E and ED50 by country",
        "Extent": {
          "AuthorityCode": {
            "Authority": "EPSG",
            "Code": 1634
          },
          "Name": "Europe - 0\u00b0E to 6\u00b0E and ED50 by country",
          "BoundingBoxSouthBoundLatitude": 38.56,
          "BoundingBoxWestBoundLongitude": 0.0,
          "BoundingBoxEastBoundLongitude": 6.01,
          "BoundingBoxNorthBoundLatitude": 82.41
        },
        "Scope": {
          "AuthorityCode": {
            "Authority": "EPSG",
            "Code": 1142
          },
          "Name": "Engineering survey, topographic mapping."
        }
      }
    ],
    "CoordinateSystem": {
      "AuthorityCode": {
        "Authority": "EPSG",
        "Code": 4400
      },
      "Name": "Cartesian 2D CS. Axes: easting, northing (E,N). Orientations: east, north. UoM: m.",
      "HorizontalAxisUnitID": "namespace:reference-data--UnitOfMeasure:m:",
      "VerticalAxisUnitID": "namespace:reference-data--UnitOfMeasure:m:"
    },
    "PreferredUsage": {
      "AuthorityCode": {
        "Authority": "EPSG",
        "Code": 6394
      },
      "Name": "Europe - 0\u00b0E to 6\u00b0E and ED50 by country",
      "Extent": {
        "AuthorityCode": {
          "Authority": "EPSG",
          "Code": 1634
        },
        "Name": "Europe - 0\u00b0E to 6\u00b0E and ED50 by country",
        "BoundingBoxSouthBoundLatitude": 38.56,
        "BoundingBoxWestBoundLongitude": 0.0,
        "BoundingBoxEastBoundLongitude": 6.01,
        "BoundingBoxNorthBoundLatitude": 82.41
      },
      "Scope": {
        "AuthorityCode": {
          "Authority": "EPSG",
          "Code": 1142
        },
        "Name": "Engineering survey, topographic mapping."
      }
    },
    "PersistableReference": "Example Persistable Reference",
    "ExtensionProperties": {}
  }
}