{
  "id": "namespace:reference-data--SeismicMigrationType:35883bd0-ac7f-5a1f-99b7-1032616ce42d",
  "kind": "osdu:wks:reference-data--SeismicMigrationType:1.0.1",
  "version": 1562066009929332,
  "acl": {
    "owners": [
      "someone@company.com"
    ],
    "viewers": [
      "someone@company.com"
    ]
  },
  "legal": {
    "legaltags": [
      "Example legaltags"
    ],
    "otherRelevantDataCountries": [
      "US"
    ],
    "status": "compliant"
  },
  "tags": {
    "NameOfKey": "String value"
  },
  "createTime": "2020-12-16T11:46:20.163Z",
  "createUser": "some-user@some-company-cloud.com",
  "modifyTime": "2020-12-16T11:52:24.477Z",
  "modifyUser": "some-user@some-company-cloud.com",
  "ancestry": {
    "parents": []
  },
  "meta": [],
  "data": {
    "ResourceHomeRegionID": "namespace:reference-data--OSDURegion:AWSEastUSA:",
    "ResourceHostRegionIDs": [
      "namespace:reference-data--OSDURegion:AWSEastUSA:"
    ],
    "ResourceCurationStatus": "namespace:reference-data--ResourceCurationStatus:CREATED:",
    "ResourceLifecycleStatus": "namespace:reference-data--ResourceLifecycleStatus:LOADING:",
    "ResourceSecurityClassification": "namespace:reference-data--ResourceSecurityClassification:RESTRICTED:",
    "Source": "Example Data Source",
    "ExistenceKind": "namespace:reference-data--ExistenceKind:Prototype:",
    "Name": "Example Name",
    "NameAlias": [
      {
        "AliasName": "Example AliasName",
        "AliasNameTypeID": "namespace:reference-data--AliasNameType:RegulatoryIdentifier:",
        "DefinitionOrganisationID": "namespace:master-data--Organisation:SomeUniqueOrganisationID:",
        "EffectiveDateTime": "2020-02-13T09:13:15.55Z",
        "TerminationDateTime": "2020-02-13T09:13:15.55Z"
      }
    ],
    "ID": "Example External Identifier",
    "InactiveIndicator": true,
    "Description": "Example Description",
    "Code": "Example Code",
    "AttributionAuthority": "Example AttributionAuthority",
    "AttributionPublication": "Example AttributionPublication",
    "AttributionRevision": "Example AttributionRevision",
    "CommitDate": "2021-02-08T21:36:40-05:00",
    "ExtensionProperties": {}
  }
}