{
  "id": "namespace:reference-data--UnitOfMeasureConfiguration:87c5069b-9cbd-5ccf-b839-47f646216d14",
  "kind": "osdu:wks:reference-data--UnitOfMeasureConfiguration:1.0.0",
  "version": 1562066009929332,
  "acl": {
    "owners": [
      "someone@company.com"
    ],
    "viewers": [
      "someone@company.com"
    ]
  },
  "legal": {
    "legaltags": [
      "Example legaltags"
    ],
    "otherRelevantDataCountries": [
      "US"
    ],
    "status": "compliant"
  },
  "tags": {
    "NameOfKey": "String value"
  },
  "createTime": "2020-12-16T11:46:20.163Z",
  "createUser": "some-user@some-company-cloud.com",
  "modifyTime": "2020-12-16T11:52:24.477Z",
  "modifyUser": "some-user@some-company-cloud.com",
  "ancestry": {
    "parents": []
  },
  "meta": [],
  "data": {
    "ResourceHomeRegionID": "namespace:reference-data--OSDURegion:AWSEastUSA:",
    "ResourceHostRegionIDs": [
      "namespace:reference-data--OSDURegion:AWSEastUSA:"
    ],
    "ResourceCurationStatus": "namespace:reference-data--ResourceCurationStatus:CREATED:",
    "ResourceLifecycleStatus": "namespace:reference-data--ResourceLifecycleStatus:LOADING:",
    "ResourceSecurityClassification": "namespace:reference-data--ResourceSecurityClassification:RESTRICTED:",
    "Source": "Example Data Source",
    "ExistenceKind": "namespace:reference-data--ExistenceKind:Prototype:",
    "Name": "Example Name",
    "NameAlias": [
      {
        "AliasName": "Example AliasName",
        "AliasNameTypeID": "namespace:reference-data--AliasNameType:RegulatoryIdentifier:",
        "DefinitionOrganisationID": "namespace:master-data--Organisation:SomeUniqueOrganisationID:",
        "EffectiveDateTime": "2020-02-13T09:13:15.55Z",
        "TerminationDateTime": "2020-02-13T09:13:15.55Z"
      }
    ],
    "ID": "Example External Identifier",
    "InactiveIndicator": true,
    "Description": "Example Description",
    "Code": "Example Code",
    "AttributionAuthority": "Example AttributionAuthority",
    "AttributionPublication": "Example AttributionPublication",
    "AttributionRevision": "Example AttributionRevision",
    "CommitDate": "2021-02-08T21:36:40-05:00",
    "ParentConfigurationID": "namespace:reference-data--UnitOfMeasureConfiguration:SomeUniqueUnitOfMeasureConfigurationID:",
    "Configurations": [
      {
        "Name": "Diameter",
        "UnitQuantityID": "namespace:reference-data--UnitQuantity:length:",
        "PropertyType": {
          "PropertyTypeID": "namespace:reference-data--PropertyType:a391d150-5f9d-43ec-be44-b3e020e8e0b9:",
          "Name": "inside diameter"
        },
        "PropertyNames": [
          "TubularComponentNominalSize",
          "DriftDiameter",
          "InnerDiameter"
        ],
        "DefaultUnitID": "namespace:reference-data--UnitOfMeasure:in:",
        "PreferredUnitIDs": [
          "namespace:reference-data--UnitOfMeasure:in:",
          "namespace:reference-data--UnitOfMeasure:cm:",
          "namespace:reference-data--UnitOfMeasure:mm:"
        ],
        "NumericFormatType": "f",
        "NumericPrecision": 2
      }
    ],
    "ExtensionProperties": {}
  }
}