{
  "id": "namespace:master-data--ActivityPlan:7dd54874-46de-5ec1-a358-5a0d8abf5242",
  "kind": "osdu:wks:master-data--ActivityPlan:1.1.0",
  "version": 1562066009929332,
  "acl": {
    "owners": [
      "someone@company.com"
    ],
    "viewers": [
      "someone@company.com"
    ]
  },
  "legal": {
    "legaltags": [
      "Example legaltags"
    ],
    "otherRelevantDataCountries": [
      "US"
    ],
    "status": "compliant"
  },
  "tags": {
    "NameOfKey": "String value"
  },
  "createTime": "2020-12-16T11:46:20.163Z",
  "createUser": "some-user@some-company-cloud.com",
  "modifyTime": "2020-12-16T11:52:24.477Z",
  "modifyUser": "some-user@some-company-cloud.com",
  "ancestry": {
    "parents": []
  },
  "meta": [
    {
      "kind": "Unit",
      "name": "m",
      "persistableReference": "{\"abcd\":{\"a\":0.0,\"b\":1.0,\"c\":1.0,\"d\":0.0},\"symbol\":\"m\",\"baseMeasurement\":{\"ancestry\":\"L\",\"type\":\"UM\"},\"type\":\"UAD\"}",
      "unitOfMeasureID": "namespace:reference-data--UnitOfMeasure:m:",
      "propertyNames": [
        "ProjectSpecifications[0].ProjectSpecificationQuantity",
        "WellPlanningActivities[].DepthRange.HoleDepthStart",
        "WellPlanningActivities[].DepthRange.HoleDepthEnd",
        "WellPlanningActivities[].DepthRange.ActivityDepthStart",
        "WellPlanningActivities[].DepthRange.ActivityDepthEnd"
      ]
    },
    {
      "kind": "Unit",
      "name": "s",
      "persistableReference": "{\"abcd\":{\"a\":0.0,\"b\":1.0,\"c\":1.0,\"d\":0.0},\"symbol\":\"s\",\"baseMeasurement\":{\"ancestry\":\"T\",\"type\":\"UM\"},\"type\":\"UAD\"}",
      "unitOfMeasureID": "namespace:reference-data--UnitOfMeasure:s:",
      "propertyNames": [
        "WellPlanningActivities[].ProductiveTimeDuration",
        "WellPlanningActivities[].NonProductiveTimeDuration",
        "WellPlanningActivities[].ProductiveTimeStatistics[].StatisticRecord",
        "WellPlanningActivities[].NonProductiveTimeStatistics[].StatisticRecord",
        "WellPlanningActivities[].EstimatedDuration"
      ]
    },
    {
      "kind": "Unit",
      "name": "m/s",
      "persistableReference": "{\"abcd\":{\"a\":0.0,\"b\":1.0,\"c\":1.0,\"d\":0.0},\"symbol\":\"m/s\",\"baseMeasurement\":{\"ancestry\":\"L/T\",\"type\":\"UM\"},\"type\":\"UAD\"}",
      "unitOfMeasureID": "namespace:reference-data--UnitOfMeasure:m%2Fs:",
      "propertyNames": [
        "WellPlanningActivities[].RateOfPenetrationStatistics[].StatisticRecord"
      ]
    }
  ],
  "data": {
    "ResourceHomeRegionID": "namespace:reference-data--OSDURegion:AWSEastUSA:",
    "ResourceHostRegionIDs": [
      "namespace:reference-data--OSDURegion:AWSEastUSA:"
    ],
    "ResourceCurationStatus": "namespace:reference-data--ResourceCurationStatus:CREATED:",
    "ResourceLifecycleStatus": "namespace:reference-data--ResourceLifecycleStatus:LOADING:",
    "ResourceSecurityClassification": "namespace:reference-data--ResourceSecurityClassification:RESTRICTED:",
    "Source": "Example Data Source",
    "ExistenceKind": "namespace:reference-data--ExistenceKind:Prototype:",
    "NameAliases": [
      {
        "AliasName": "Example AliasName",
        "AliasNameTypeID": "namespace:reference-data--AliasNameType:RegulatoryIdentifier:",
        "DefinitionOrganisationID": "namespace:master-data--Organisation:SomeUniqueOrganisationID:",
        "EffectiveDateTime": "2020-02-13T09:13:15.55Z",
        "TerminationDateTime": "2020-02-13T09:13:15.55Z"
      }
    ],
    "GeoContexts": [
      {
        "BasinID": "namespace:master-data--Basin:SomeUniqueBasinID:",
        "GeoTypeID": "namespace:reference-data--BasinType:ArcWrenchOceanContinent:"
      }
    ],
    "SpatialLocation": {
      "SpatialLocationCoordinatesDate": "2020-02-13T09:13:15.55Z",
      "QuantitativeAccuracyBandID": "namespace:reference-data--QuantitativeAccuracyBand:Length.LessThan1m:",
      "QualitativeSpatialAccuracyTypeID": "namespace:reference-data--QualitativeSpatialAccuracyType:Assumed:",
      "CoordinateQualityCheckPerformedBy": "Example CoordinateQualityCheckPerformedBy",
      "CoordinateQualityCheckDateTime": "2020-02-13T09:13:15.55Z",
      "CoordinateQualityCheckRemarks": [
        "Example CoordinateQualityCheckRemarks"
      ],
      "AsIngestedCoordinates": {
        "type": "AnyCrsFeatureCollection",
        "CoordinateReferenceSystemID": "namespace:reference-data--CoordinateReferenceSystem:BoundProjected:EPSG::32021_EPSG::15851:",
        "VerticalCoordinateReferenceSystemID": "namespace:reference-data--CoordinateReferenceSystem:Vertical:EPSG::5714:",
        "VerticalUnitID": "namespace:reference-data--UnitOfMeasure:m:",
        "persistableReferenceCrs": "{\"authCode\":{\"auth\":\"OSDU\",\"code\":\"32021079\"},\"lateBoundCRS\":{\"authCode\":{\"auth\":\"EPSG\",\"code\":\"32021\"},\"name\":\"NAD_1927_StatePlane_North_Dakota_South_FIPS_3302\",\"type\":\"LBC\",\"ver\":\"PE_10_9_1\",\"wkt\":\"PROJCS[\\\"NAD_1927_StatePlane_North_Dakota_South_FIPS_3302\\\",GEOGCS[\\\"GCS_North_American_1927\\\",DATUM[\\\"D_North_American_1927\\\",SPHEROID[\\\"Clarke_1866\\\",6378206.4,294.9786982]],PRIMEM[\\\"Greenwich\\\",0.0],UNIT[\\\"Degree\\\",0.0174532925199433]],PROJECTION[\\\"Lambert_Conformal_Conic\\\"],PARAMETER[\\\"False_Easting\\\",2000000.0],PARAMETER[\\\"False_Northing\\\",0.0],PARAMETER[\\\"Central_Meridian\\\",-100.5],PARAMETER[\\\"Standard_Parallel_1\\\",46.18333333333333],PARAMETER[\\\"Standard_Parallel_2\\\",47.48333333333333],PARAMETER[\\\"Latitude_Of_Origin\\\",45.66666666666666],UNIT[\\\"Foot_US\\\",0.3048006096012192],AUTHORITY[\\\"EPSG\\\",32021]]\"},\"name\":\"NAD27 * OGP-Usa Conus / North Dakota CS27 South zone [32021,15851]\",\"singleCT\":{\"authCode\":{\"auth\":\"EPSG\",\"code\":\"15851\"},\"name\":\"NAD_1927_To_WGS_1984_79_CONUS\",\"type\":\"ST\",\"ver\":\"PE_10_9_1\",\"wkt\":\"GEOGTRAN[\\\"NAD_1927_To_WGS_1984_79_CONUS\\\",GEOGCS[\\\"GCS_North_American_1927\\\",DATUM[\\\"D_North_American_1927\\\",SPHEROID[\\\"Clarke_1866\\\",6378206.4,294.9786982]],PRIMEM[\\\"Greenwich\\\",0.0],UNIT[\\\"Degree\\\",0.0174532925199433]],GEOGCS[\\\"GCS_WGS_1984\\\",DATUM[\\\"D_WGS_1984\\\",SPHEROID[\\\"WGS_1984\\\",6378137.0,298.257223563]],PRIMEM[\\\"Greenwich\\\",0.0],UNIT[\\\"Degree\\\",0.0174532925199433]],METHOD[\\\"NADCON\\\"],PARAMETER[\\\"Dataset_conus\\\",0.0],OPERATIONACCURACY[5.0],AUTHORITY[\\\"EPSG\\\",15851]]\"},\"type\":\"EBC\",\"ver\":\"PE_10_9_1\"}",
        "persistableReferenceVerticalCrs": "{\"authCode\":{\"auth\":\"EPSG\",\"code\":\"5714\"},\"name\":\"MSL_Height\",\"type\":\"LBC\",\"ver\":\"PE_10_9_1\",\"wkt\":\"VERTCS[\\\"MSL_Height\\\",VDATUM[\\\"Mean_Sea_Level\\\"],PARAMETER[\\\"Vertical_Shift\\\",0.0],PARAMETER[\\\"Direction\\\",1.0],UNIT[\\\"Meter\\\",1.0],AUTHORITY[\\\"EPSG\\\",5714]]\"}",
        "persistableReferenceUnitZ": "{\"scaleOffset\":{\"scale\":1.0,\"offset\":0.0},\"symbol\":\"m\",\"baseMeasurement\":{\"ancestry\":\"Length\",\"type\":\"UM\"},\"type\":\"USO\"}",
        "features": [
          {
            "type": "AnyCrsFeature",
            "properties": {},
            "geometry": {
              "type": "AnyCrsPoint",
              "coordinates": [
                12345.6,
                12345.6
              ],
              "bbox": [
                12345.6,
                12345.6,
                12345.6,
                12345.6
              ]
            },
            "bbox": [
              12345.6,
              12345.6,
              12345.6,
              12345.6
            ]
          }
        ],
        "bbox": [
          12345.6,
          12345.6,
          12345.6,
          12345.6
        ]
      },
      "Wgs84Coordinates": {
        "type": "FeatureCollection",
        "features": [
          {
            "type": "Feature",
            "properties": {},
            "geometry": {
              "type": "Point",
              "coordinates": [
                12345.6,
                12345.6
              ],
              "bbox": [
                12345.6,
                12345.6,
                12345.6,
                12345.6
              ]
            },
            "bbox": [
              12345.6,
              12345.6,
              12345.6,
              12345.6
            ]
          }
        ],
        "bbox": [
          12345.6,
          12345.6,
          12345.6,
          12345.6
        ]
      },
      "AppliedOperations": [
        "conversion from ED_1950_UTM_Zone_31N to GCS_European_1950; 1 points converted",
        "transformation GCS_European_1950 to GCS_WGS_1984 using ED_1950_To_WGS_1984_24; 1 points successfully transformed"
      ],
      "SpatialParameterTypeID": "namespace:reference-data--SpatialParameterType:Outline:",
      "SpatialGeometryTypeID": "namespace:reference-data--SpatialGeometryType:Point:"
    },
    "VersionCreationReason": "Example VersionCreationReason",
    "TechnicalAssuranceTypeID": "namespace:reference-data--TechnicalAssuranceType:Certified:",
    "ProjectID": "Example External Project Identifier",
    "ProjectName": "Example ProjectName",
    "Purpose": "Example Purpose",
    "ProjectBeginDate": "2020-02-13T09:13:15.55Z",
    "ProjectEndDate": "2020-02-13T09:13:15.55Z",
    "FundsAuthorizations": [
      {
        "AuthorizationID": "Example AuthorizationID",
        "EffectiveDateTime": "2020-02-13T09:13:15.55Z",
        "FundsAmount": 12345.6,
        "CurrencyID": "namespace:reference-data--Currency:AFN:"
      }
    ],
    "ContractIDs": [
      "namespace:master-data--Agreement:SomeUniqueAgreementID:"
    ],
    "Operator": "namespace:master-data--Organisation:SomeUniqueOrganisationID:",
    "Contractors": [
      {
        "ContractorOrganisationID": "namespace:master-data--Organisation:SomeUniqueOrganisationID:",
        "ContractorCrew": "Example ContractorCrew",
        "ContractorTypeID": "namespace:reference-data--ContractorType:Record:"
      }
    ],
    "Personnel": [
      {
        "PersonName": "Example PersonName",
        "CompanyOrganisationID": "namespace:master-data--Organisation:SomeUniqueOrganisationID:",
        "ProjectRoleID": "namespace:reference-data--ProjectRole:ProjMgr:"
      }
    ],
    "ProjectSpecifications": [
      {
        "EffectiveDateTime": "2020-02-13T09:13:15.55Z",
        "TerminationDateTime": "2020-02-13T09:13:15.55Z",
        "ProjectSpecificationQuantity": 12345.6,
        "ProjectSpecificationDateTime": "2020-02-13T09:13:15.55Z",
        "ProjectSpecificationIndicator": true,
        "ProjectSpecificationText": "Example ProjectSpecificationText",
        "UnitOfMeasureID": "namespace:reference-data--UnitOfMeasure:m:",
        "ParameterTypeID": "namespace:reference-data--ParameterType:SlotName:"
      }
    ],
    "ProjectStates": [
      {
        "EffectiveDateTime": "2020-02-13T09:13:15.55Z",
        "TerminationDateTime": "2020-02-13T09:13:15.55Z",
        "ProjectStateTypeID": "namespace:reference-data--ProjectStateType:Prop:"
      }
    ],
    "WellboreID": "namespace:master-data--Wellbore:SomeUniqueWellboreID:",
    "WellPlanningActivities": [
      {
        "Name": "Example Name",
        "ActivityID": "Example Activity ID",
        "DepthRange": {
          "HoleDepthStart": 12345.6,
          "HoleDepthEnd": 12345.6,
          "ActivityDepthStart": 12345.6,
          "ActivityDepthEnd": 12345.6
        },
        "ParentID": "Example Parent ID",
        "ActivityCodeID": "namespace:reference-data--ActivityCode:root:",
        "PredecessorsID": "Example Predecessors ID",
        "ProductiveTimeDuration": 12345.6,
        "NonProductiveTimeDuration": 12345.6,
        "ProductiveTimeStatistics": [
          {
            "StatisticRecord": 12345.6,
            "ProbabilityTypeID": "namespace:reference-data--PPFGCurveProbability:Most%20Likely:"
          }
        ],
        "NonProductiveTimeStatistics": [
          {
            "StatisticRecord": 12345.6,
            "ProbabilityTypeID": "namespace:reference-data--PPFGCurveProbability:Most%20Likely:"
          }
        ],
        "RateOfPenetrationStatistics": [
          {
            "StatisticRecord": 12345.6,
            "ProbabilityTypeID": "namespace:reference-data--PPFGCurveProbability:Most%20Likely:"
          }
        ],
        "Comment": "Example Comment",
        "ObjectReferenceIDs": [
          "Example ObjectReferenceIDs"
        ],
        "ActivityCodeCatalogVersion": "Example Catalog Version",
        "ActivityLevel": "namespace:reference-data--ActivityLevel:L1:",
        "PlannedStartTime": "2020-02-13T09:13:15.55Z",
        "PlannedEndTime": "2020-02-13T09:13:15.55Z",
        "RiskIDs": [
          "namespace:master-data--Risk:SomeUniqueRiskID:"
        ],
        "IsOptional": true,
        "EstimatedDuration": 12345.6
      }
    ],
    "Name": "Example Name",
    "ExtensionProperties": {}
  }
}