{
  "id": "osdu:master-data--BHARun:8edbb259-e01e-4c25-afe9-b99ed1d2d376",
  "kind": "osdu:wks:master-data--BHARun:1.0.0",
  "version": 1635454819839,
  "legal": {
    "legaltags": [
      "slb-osdu-dev-sis-internal-hq-public-usa-dataset-1"
    ],
    "otherRelevantDataCountries": [
      "US"
    ]
  },
  "acl": {
    "viewers": [
      "data.default.viewers@slb-osdu-dev-sis-internal-hq.enterprisedata.cloud.slb-ds.com"
    ],
    "owners": [
      "data.default.viewers@slb-osdu-dev-sis-internal-hq.enterprisedata.cloud.slb-ds.com"
    ]
  },
  "data": {
    "ExistenceKind": "namespace:reference-data--ExistenceKind:planned:",
    "WellboreID": "namespace:master-data--Wellbore:bfa6c73d-4b12-4980-be91-80ce7cdb3291:1635454816654",
    "Name": "Drilling run",
    "TubularID": "namespace:work-product-component--TubularAssembly:b9ccd054-4a46-4a84-8601-761edc69e0c9:1635454819316",
    "StatusBhaID": "namespace:reference-data--BhaStatus:final:",
    "StringRunNumber": 0.0,
    "TripReasonID": "namespace:reference-data--ReasonTripType:none:",
    "RunParameterPlans": [
      {
        "RunStartHoleMeasuredDepth": 9.144,
        "RunEndHoleMeasuredDepth": 274.32,
        "OperationParameterPlan": {
          "RealizationStrategy": "linearInterpolation",
          "TorqueOnBottomGroup": {
            "MaximumTorqueOnBottom": {
              "Point": [
                {
                  "ObservationMeasuredDepth": 9.144000000000005,
                  "Value": 13558.179483314,
                  "ValueUnitID": "namespace:reference-data--UnitOfMeasure:J:",
                  "PointsSources": [
                    {
                      "Name": "Manual Input",
                      "Value": 13558.179483314,
                      "ValueUnitID": "namespace:reference-data--UnitOfMeasure:J:",
                      "Description": "System default"
                    }
                  ]
                },
                {
                  "ObservationMeasuredDepth": 274.31999999999994,
                  "Value": 13558.179483314,
                  "ValueUnitID": "namespace:reference-data--UnitOfMeasure:J:",
                  "PointsSources": [
                    {
                      "Name": "Manual Input",
                      "Value": 13558.179483314,
                      "ValueUnitID": "namespace:reference-data--UnitOfMeasure:J:",
                      "Description": "System default"
                    }
                  ]
                }
              ]
            },
            "MinimumTorqueOnBottom": {
              "Point": [
                {
                  "ObservationMeasuredDepth": 9.144000000000005,
                  "Value": 0.0,
                  "ValueUnitID": "namespace:reference-data--UnitOfMeasure:J:",
                  "PointsSources": [
                    {
                      "Name": "Manual Input",
                      "Value": 0.0,
                      "ValueUnitID": "namespace:reference-data--UnitOfMeasure:J:",
                      "Description": "System default"
                    }
                  ]
                },
                {
                  "ObservationMeasuredDepth": 274.31999999999994,
                  "Value": 0.0,
                  "ValueUnitID": "namespace:reference-data--UnitOfMeasure:J:",
                  "PointsSources": [
                    {
                      "Name": "Manual Input",
                      "Value": 0.0,
                      "ValueUnitID": "namespace:reference-data--UnitOfMeasure:J:",
                      "Description": "System default"
                    }
                  ]
                }
              ]
            }
          },
          "RPMGroup": {
            "MaximumRPM": {
              "Point": [
                {
                  "ObservationMeasuredDepth": 9.144000000000005,
                  "Value": 12.5663706143592,
                  "ValueUnitID": "namespace:reference-data--UnitOfMeasure:rad%2Fs:",
                  "PointsSources": [
                    {
                      "Name": "Manual Input",
                      "Value": 12.5663706143592,
                      "ValueUnitID": "namespace:reference-data--UnitOfMeasure:rad%2Fs:",
                      "Description": "Batch Input"
                    }
                  ]
                },
                {
                  "ObservationMeasuredDepth": 274.31999999999994,
                  "Value": 12.5663706143592,
                  "ValueUnitID": "namespace:reference-data--UnitOfMeasure:rad%2Fs:",
                  "PointsSources": [
                    {
                      "Name": "Manual Input",
                      "Value": 12.5663706143592,
                      "ValueUnitID": "namespace:reference-data--UnitOfMeasure:rad%2Fs:",
                      "Description": "Batch Input"
                    }
                  ]
                }
              ]
            },
            "MinimumRPM": {
              "Point": [
                {
                  "ObservationMeasuredDepth": 9.144000000000005,
                  "Value": 4.1887902047864,
                  "ValueUnitID": "namespace:reference-data--UnitOfMeasure:rad%2Fs:",
                  "PointsSources": [
                    {
                      "Name": "Tool Spec",
                      "Value": 0.0,
                      "ValueUnitID": "namespace:reference-data--UnitOfMeasure:rad%2Fs:",
                      "Description": "Comp#2: PowerPak A962M5640XP"
                    },
                    {
                      "Name": "Manual Input",
                      "Value": 4.1887902047864,
                      "ValueUnitID": "namespace:reference-data--UnitOfMeasure:rad%2Fs:",
                      "Description": "Batch Input"
                    }
                  ]
                },
                {
                  "ObservationMeasuredDepth": 274.31999999999994,
                  "Value": 4.1887902047864,
                  "ValueUnitID": "namespace:reference-data--UnitOfMeasure:rad%2Fs:",
                  "PointsSources": [
                    {
                      "Name": "Tool Spec",
                      "Value": 0.0,
                      "ValueUnitID": "namespace:reference-data--UnitOfMeasure:rad%2Fs:",
                      "Description": "Comp#2: PowerPak A962M5640XP"
                    },
                    {
                      "Name": "Manual Input",
                      "Value": 4.1887902047864,
                      "ValueUnitID": "namespace:reference-data--UnitOfMeasure:rad%2Fs:",
                      "Description": "Batch Input"
                    }
                  ]
                }
              ]
            },
            "RecommendedRPM": {
              "Point": [
                {
                  "ObservationMeasuredDepth": 9.144000000000005,
                  "Value": 10.471975511966,
                  "ValueUnitID": "namespace:reference-data--UnitOfMeasure:rad%2Fs:",
                  "PointsSources": [
                    {
                      "Name": "Manual Input",
                      "Value": 10.471975511966,
                      "ValueUnitID": "namespace:reference-data--UnitOfMeasure:rad%2Fs:",
                      "Description": "Batch Input"
                    }
                  ]
                },
                {
                  "ObservationMeasuredDepth": 274.31999999999994,
                  "Value": 10.471975511966,
                  "ValueUnitID": "namespace:reference-data--UnitOfMeasure:rad%2Fs:",
                  "PointsSources": [
                    {
                      "Name": "Manual Input",
                      "Value": 10.471975511966,
                      "ValueUnitID": "namespace:reference-data--UnitOfMeasure:rad%2Fs:",
                      "Description": "Batch Input"
                    }
                  ]
                }
              ]
            }
          },
          "ROPGroup": {
            "MaximumROP": {
              "Point": [
                {
                  "ObservationMeasuredDepth": 9.144000000000005,
                  "Value": 0.0016933333333333336,
                  "ValueUnitID": "namespace:reference-data--UnitOfMeasure:m%2Fs:",
                  "PointsSources": [
                    {
                      "Name": "Manual Input",
                      "Value": 0.0016933333333333336,
                      "ValueUnitID": "namespace:reference-data--UnitOfMeasure:m%2Fs:",
                      "Description": "Batch Input"
                    }
                  ]
                },
                {
                  "ObservationMeasuredDepth": 274.31999999999994,
                  "Value": 0.0016933333333333336,
                  "ValueUnitID": "namespace:reference-data--UnitOfMeasure:m%2Fs:",
                  "PointsSources": [
                    {
                      "Name": "Manual Input",
                      "Value": 0.0016933333333333336,
                      "ValueUnitID": "namespace:reference-data--UnitOfMeasure:m%2Fs:",
                      "Description": "Batch Input"
                    }
                  ]
                }
              ]
            },
            "MinimumROP": {
              "Point": [
                {
                  "ObservationMeasuredDepth": 9.144000000000005,
                  "Value": 4.233333333333334E-4,
                  "ValueUnitID": "namespace:reference-data--UnitOfMeasure:m%2Fs:",
                  "PointsSources": [
                    {
                      "Name": "Manual Input",
                      "Value": 4.233333333333334E-4,
                      "ValueUnitID": "namespace:reference-data--UnitOfMeasure:m%2Fs:",
                      "Description": "Batch Input"
                    }
                  ]
                },
                {
                  "ObservationMeasuredDepth": 274.31999999999994,
                  "Value": 4.233333333333334E-4,
                  "ValueUnitID": "namespace:reference-data--UnitOfMeasure:m%2Fs:",
                  "PointsSources": [
                    {
                      "Name": "Manual Input",
                      "Value": 4.233333333333334E-4,
                      "ValueUnitID": "namespace:reference-data--UnitOfMeasure:m%2Fs:",
                      "Description": "Batch Input"
                    }
                  ]
                }
              ]
            },
            "RecommendedROP": {
              "Point": [
                {
                  "ObservationMeasuredDepth": 9.144000000000005,
                  "Value": 0.00127,
                  "ValueUnitID": "namespace:reference-data--UnitOfMeasure:m%2Fs:",
                  "PointsSources": [
                    {
                      "Name": "Manual Input",
                      "Value": 0.00127,
                      "ValueUnitID": "namespace:reference-data--UnitOfMeasure:m%2Fs:",
                      "Description": "Batch Input"
                    }
                  ]
                },
                {
                  "ObservationMeasuredDepth": 274.31999999999994,
                  "Value": 0.00127,
                  "ValueUnitID": "namespace:reference-data--UnitOfMeasure:m%2Fs:",
                  "PointsSources": [
                    {
                      "Name": "Manual Input",
                      "Value": 0.00127,
                      "ValueUnitID": "namespace:reference-data--UnitOfMeasure:m%2Fs:",
                      "Description": "Batch Input"
                    }
                  ]
                }
              ]
            }
          },
          "WOBGroup": {
            "MaximumWOB": {
              "Point": [
                {
                  "ObservationMeasuredDepth": 9.144000000000005,
                  "Value": 44482.216152605,
                  "ValueUnitID": "namespace:reference-data--UnitOfMeasure:N:",
                  "PointsSources": [
                    {
                      "Name": "Manual Input",
                      "Value": 44482.216152605,
                      "ValueUnitID": "namespace:reference-data--UnitOfMeasure:N:",
                      "Description": "Batch Input"
                    },
                    {
                      "Name": "Tool Spec",
                      "Value": 333616.621145,
                      "ValueUnitID": "namespace:reference-data--UnitOfMeasure:N:",
                      "Description": "Comp#2: PowerPak A962M5640XP"
                    }
                  ]
                },
                {
                  "ObservationMeasuredDepth": 274.31999999999994,
                  "Value": 44482.216152605,
                  "ValueUnitID": "namespace:reference-data--UnitOfMeasure:N:",
                  "PointsSources": [
                    {
                      "Name": "Manual Input",
                      "Value": 44482.216152605,
                      "ValueUnitID": "namespace:reference-data--UnitOfMeasure:N:",
                      "Description": "Batch Input"
                    },
                    {
                      "Name": "Tool Spec",
                      "Value": 333616.621145,
                      "ValueUnitID": "namespace:reference-data--UnitOfMeasure:N:",
                      "Description": "Comp#2: PowerPak A962M5640XP"
                    }
                  ]
                }
              ]
            },
            "MinimumWOB": {
              "Point": [
                {
                  "ObservationMeasuredDepth": 9.144000000000005,
                  "Value": 0.0,
                  "ValueUnitID": "namespace:reference-data--UnitOfMeasure:N:",
                  "PointsSources": [
                    {
                      "Name": "Manual Input",
                      "Value": 0.0,
                      "ValueUnitID": "namespace:reference-data--UnitOfMeasure:N:",
                      "Description": "Batch Input"
                    },
                    {
                      "Name": "Tool Spec",
                      "Value": 0.0,
                      "ValueUnitID": "namespace:reference-data--UnitOfMeasure:N:",
                      "Description": "Comp#2: PowerPak A962M5640XP"
                    }
                  ]
                },
                {
                  "ObservationMeasuredDepth": 274.31999999999994,
                  "Value": 0.0,
                  "ValueUnitID": "namespace:reference-data--UnitOfMeasure:N:",
                  "PointsSources": [
                    {
                      "Name": "Manual Input",
                      "Value": 0.0,
                      "ValueUnitID": "namespace:reference-data--UnitOfMeasure:N:",
                      "Description": "Batch Input"
                    },
                    {
                      "Name": "Tool Spec",
                      "Value": 0.0,
                      "ValueUnitID": "namespace:reference-data--UnitOfMeasure:N:",
                      "Description": "Comp#2: PowerPak A962M5640XP"
                    }
                  ]
                }
              ]
            },
            "RecommendedWOB": {
              "Point": [
                {
                  "ObservationMeasuredDepth": 9.144000000000005,
                  "Value": 35585.772922084,
                  "ValueUnitID": "namespace:reference-data--UnitOfMeasure:N:",
                  "PointsSources": [
                    {
                      "Name": "Manual Input",
                      "Value": 35585.772922084,
                      "ValueUnitID": "namespace:reference-data--UnitOfMeasure:N:",
                      "Description": "Batch Input"
                    }
                  ]
                },
                {
                  "ObservationMeasuredDepth": 274.31999999999994,
                  "Value": 35585.772922084,
                  "ValueUnitID": "namespace:reference-data--UnitOfMeasure:N:",
                  "PointsSources": [
                    {
                      "Name": "Manual Input",
                      "Value": 35585.772922084,
                      "ValueUnitID": "namespace:reference-data--UnitOfMeasure:N:",
                      "Description": "Batch Input"
                    }
                  ]
                }
              ]
            }
          },
          "FlowratePumpGroup": {
            "MaximumFlowratePump": {
              "Point": [
                {
                  "ObservationMeasuredDepth": 9.144000000000005,
                  "Value": 0.050472159999999995,
                  "ValueUnitID": "namespace:reference-data--UnitOfMeasure:m3%2Fs:",
                  "PointsSources": [
                    {
                      "Name": "Manual Input",
                      "Value": 0.050472159999999995,
                      "ValueUnitID": "namespace:reference-data--UnitOfMeasure:m3%2Fs:",
                      "Description": "Batch Input"
                    },
                    {
                      "Name": "Tool Spec",
                      "Value": 0.075708,
                      "ValueUnitID": "namespace:reference-data--UnitOfMeasure:m3%2Fs:",
                      "Description": "Comp#2: PowerPak A962M5640XP"
                    }
                  ]
                },
                {
                  "ObservationMeasuredDepth": 274.31999999999994,
                  "Value": 0.050472159999999995,
                  "ValueUnitID": "namespace:reference-data--UnitOfMeasure:m3%2Fs:",
                  "PointsSources": [
                    {
                      "Name": "Manual Input",
                      "Value": 0.050472159999999995,
                      "ValueUnitID": "namespace:reference-data--UnitOfMeasure:m3%2Fs:",
                      "Description": "Batch Input"
                    },
                    {
                      "Name": "Tool Spec",
                      "Value": 0.075708,
                      "ValueUnitID": "namespace:reference-data--UnitOfMeasure:m3%2Fs:",
                      "Description": "Comp#2: PowerPak A962M5640XP"
                    }
                  ]
                }
              ]
            },
            "MinimumFlowratePump": {
              "Point": [
                {
                  "ObservationMeasuredDepth": 9.144000000000005,
                  "Value": 0.037854,
                  "ValueUnitID": "namespace:reference-data--UnitOfMeasure:m3%2Fs:",
                  "PointsSources": [
                    {
                      "Name": "Manual Input",
                      "Value": 0.0315451,
                      "ValueUnitID": "namespace:reference-data--UnitOfMeasure:m3%2Fs:",
                      "Description": "Batch Input"
                    },
                    {
                      "Name": "Tool Spec",
                      "Value": 0.037854,
                      "ValueUnitID": "namespace:reference-data--UnitOfMeasure:m3%2Fs:",
                      "Description": "Comp#2: PowerPak A962M5640XP"
                    }
                  ]
                },
                {
                  "ObservationMeasuredDepth": 274.31999999999994,
                  "Value": 0.037854,
                  "ValueUnitID": "namespace:reference-data--UnitOfMeasure:m3%2Fs:",
                  "PointsSources": [
                    {
                      "Name": "Manual Input",
                      "Value": 0.0315451,
                      "ValueUnitID": "namespace:reference-data--UnitOfMeasure:m3%2Fs:",
                      "Description": "Batch Input"
                    },
                    {
                      "Name": "Tool Spec",
                      "Value": 0.037854,
                      "ValueUnitID": "namespace:reference-data--UnitOfMeasure:m3%2Fs:",
                      "Description": "Comp#2: PowerPak A962M5640XP"
                    }
                  ]
                }
              ]
            },
            "RecommendedFlowratePump": {
              "Point": [
                {
                  "ObservationMeasuredDepth": 9.144000000000005,
                  "Value": 0.047317649999999996,
                  "ValueUnitID": "namespace:reference-data--UnitOfMeasure:m3%2Fs:",
                  "PointsSources": [
                    {
                      "Name": "Manual Input",
                      "Value": 0.047317649999999996,
                      "ValueUnitID": "namespace:reference-data--UnitOfMeasure:m3%2Fs:",
                      "Description": "Batch Input"
                    }
                  ]
                },
                {
                  "ObservationMeasuredDepth": 274.31999999999994,
                  "Value": 0.047317649999999996,
                  "ValueUnitID": "namespace:reference-data--UnitOfMeasure:m3%2Fs:",
                  "PointsSources": [
                    {
                      "Name": "Manual Input",
                      "Value": 0.047317649999999996,
                      "ValueUnitID": "namespace:reference-data--UnitOfMeasure:m3%2Fs:",
                      "Description": "Batch Input"
                    }
                  ]
                }
              ]
            }
          }
        }
      }
    ],
    "HoleSectionID": "namespace:master-data--HoleSection:341b6f97-8dc9-42bc-b825-0049d8753b51:1635454818831"
  },
  "meta": [
    {
      "kind": "Unit",
      "name": "m",
      "persistableReference": "",
      "propertyNames": [
        "RunStartHoleMeasuredDepth",
        "RunEndHoleMeasuredDepth",
        "ObservationMeasuredDepth"
      ]
    },
    {
      "kind": "Unit",
      "name": "J",
      "persistableReference": "",
      "propertyNames": [
        "Value"
      ]
    },
    {
      "kind": "Unit",
      "name": "rad/s",
      "persistableReference": "",
      "propertyNames": [
        "Value"
      ]
    },
    {
      "kind": "Unit",
      "name": "m/s",
      "persistableReference": "",
      "propertyNames": [
        "Value"
      ]
    },
    {
      "kind": "Unit",
      "name": "N",
      "persistableReference": "",
      "propertyNames": [
        "Value"
      ]
    },
    {
      "kind": "Unit",
      "name": "m3/s",
      "persistableReference": "",
      "propertyNames": [
        "Value"
      ]
    }
  ]
}