{
  "kind": "osdu:wks:Manifest:1.0.0",
  "ReferenceData": [
    {
      "id": "{{NAMESPACE}}:reference-data--IsolatedIntervalType:CasedHole.FullString",
      "kind": "osdu:wks:reference-data--IsolatedIntervalType:1.0.0",
      "acl": {
        "owners": [
          "{{DATA_OWNERS_GROUP}}"
        ],
        "viewers": [
          "{{DATA_VIEWERS_GROUP}}"
        ]
      },
      "legal": {
        "legaltags": [
          "{{LEGAL_TAG}}"
        ],
        "otherRelevantDataCountries": [
          "{{ISO_3166_ALPHA_2_CODE}}"
        ]
      },
      "data": {
        "Name": "CasedHole, FullString",
        "NameAlias": [
          {
            "AliasName": "FS"
          }
        ],
        "Description": "Completion by Cased Hole, Full String.",
        "Code": "CasedHole.FullString",
        "Source": "Workbook Published/IsolatedIntervalType.1.0.0.xlsx; commit SHA c28000e6.",
        "CommitDate": "2022-09-14T11:28:34+02:00"
      }
    },
    {
      "id": "{{NAMESPACE}}:reference-data--IsolatedIntervalType:CasedHole.ProductionLiner",
      "kind": "osdu:wks:reference-data--IsolatedIntervalType:1.0.0",
      "acl": {
        "owners": [
          "{{DATA_OWNERS_GROUP}}"
        ],
        "viewers": [
          "{{DATA_VIEWERS_GROUP}}"
        ]
      },
      "legal": {
        "legaltags": [
          "{{LEGAL_TAG}}"
        ],
        "otherRelevantDataCountries": [
          "{{ISO_3166_ALPHA_2_CODE}}"
        ]
      },
      "data": {
        "Name": "CasedHole, ProductionLiner",
        "NameAlias": [
          {
            "AliasName": "PL"
          }
        ],
        "Description": "Completion by Cased Hole with Production Liner.",
        "Code": "CasedHole.ProductionLiner",
        "Source": "Workbook Published/IsolatedIntervalType.1.0.0.xlsx; commit SHA c28000e6.",
        "CommitDate": "2022-09-14T11:28:34+02:00"
      }
    },
    {
      "id": "{{NAMESPACE}}:reference-data--IsolatedIntervalType:OpenHole",
      "kind": "osdu:wks:reference-data--IsolatedIntervalType:1.0.0",
      "acl": {
        "owners": [
          "{{DATA_OWNERS_GROUP}}"
        ],
        "viewers": [
          "{{DATA_VIEWERS_GROUP}}"
        ]
      },
      "legal": {
        "legaltags": [
          "{{LEGAL_TAG}}"
        ],
        "otherRelevantDataCountries": [
          "{{ISO_3166_ALPHA_2_CODE}}"
        ]
      },
      "data": {
        "Name": "OpenHole",
        "NameAlias": [
          {
            "AliasName": "OH"
          }
        ],
        "Description": "Open-hole completion.",
        "Code": "OpenHole",
        "Source": "Workbook Published/IsolatedIntervalType.1.0.0.xlsx; commit SHA c28000e6.",
        "CommitDate": "2022-09-14T11:28:34+02:00"
      }
    }
  ]
}