{
  "kind": "osdu:wks:Manifest:1.0.0",
  "ReferenceData": [
    {
      "id": "{{NAMESPACE}}:reference-data--OrderingCriteriaType:Age",
      "kind": "osdu:wks:reference-data--OrderingCriteriaType:1.0.0",
      "acl": {
        "owners": [
          "{{DATA_OWNERS_GROUP}}"
        ],
        "viewers": [
          "{{DATA_VIEWERS_GROUP}}"
        ]
      },
      "legal": {
        "legaltags": [
          "{{LEGAL_TAG}}"
        ],
        "otherRelevantDataCountries": [
          "{{ISO_3166_ALPHA_2_CODE}}"
        ]
      },
      "data": {
        "Name": "Age",
        "NameAlias": [
          {
            "AliasName": "Age",
            "AliasNameTypeID": "{{NAMESPACE}}:reference-data--AliasNameType:IndustryCode:",
            "DefinitionOrganisationID": "{{NAMESPACE}}:reference-data--StandardsOrganisation:Energistics%20RESQML%20201:"
          }
        ],
        "Description": "Indicates that units are ordered from youngest to oldest period (increasing age).",
        "Code": "Age",
        "AttributionAuthority": "Energistics",
        "AttributionPublication": "RESQML",
        "AttributionRevision": "2",
        "Source": "Workbook Published/OrderingCriteriaType.1.0.0.xlsx; commit SHA 285303df.",
        "CommitDate": "2022-01-06T09:31:36+01:00"
      }
    },
    {
      "id": "{{NAMESPACE}}:reference-data--OrderingCriteriaType:ApparentDepth",
      "kind": "osdu:wks:reference-data--OrderingCriteriaType:1.0.0",
      "acl": {
        "owners": [
          "{{DATA_OWNERS_GROUP}}"
        ],
        "viewers": [
          "{{DATA_VIEWERS_GROUP}}"
        ]
      },
      "legal": {
        "legaltags": [
          "{{LEGAL_TAG}}"
        ],
        "otherRelevantDataCountries": [
          "{{ISO_3166_ALPHA_2_CODE}}"
        ]
      },
      "data": {
        "Name": "ApparentDepth",
        "NameAlias": [
          {
            "AliasName": "ApparentDepth",
            "AliasNameTypeID": "{{NAMESPACE}}:reference-data--AliasNameType:IndustryCode:",
            "DefinitionOrganisationID": "{{NAMESPACE}}:reference-data--StandardsOrganisation:Energistics%20RESQML%20201:"
          }
        ],
        "Description": "Indicates that units are ordered from surface to subsurface",
        "Code": "ApparentDepth",
        "AttributionAuthority": "Energistics",
        "AttributionPublication": "RESQML",
        "AttributionRevision": "2",
        "Source": "Workbook Published/OrderingCriteriaType.1.0.0.xlsx; commit SHA 285303df.",
        "CommitDate": "2022-01-06T09:31:36+01:00"
      }
    },
    {
      "id": "{{NAMESPACE}}:reference-data--OrderingCriteriaType:MeasuredDepth",
      "kind": "osdu:wks:reference-data--OrderingCriteriaType:1.0.0",
      "acl": {
        "owners": [
          "{{DATA_OWNERS_GROUP}}"
        ],
        "viewers": [
          "{{DATA_VIEWERS_GROUP}}"
        ]
      },
      "legal": {
        "legaltags": [
          "{{LEGAL_TAG}}"
        ],
        "otherRelevantDataCountries": [
          "{{ISO_3166_ALPHA_2_CODE}}"
        ]
      },
      "data": {
        "Name": "MeasuredDepth",
        "NameAlias": [
          {
            "AliasName": "MeasuredDepth",
            "AliasNameTypeID": "{{NAMESPACE}}:reference-data--AliasNameType:IndustryCode:",
            "DefinitionOrganisationID": "{{NAMESPACE}}:reference-data--StandardsOrganisation:Energistics%20RESQML%20201:"
          }
        ],
        "Description": "Indicates that units are ordered from well head to wellbore bottom/total depth (TD)",
        "Code": "MeasuredDepth",
        "AttributionAuthority": "Energistics",
        "AttributionPublication": "RESQML",
        "AttributionRevision": "2",
        "Source": "Workbook Published/OrderingCriteriaType.1.0.0.xlsx; commit SHA 285303df.",
        "CommitDate": "2022-01-06T09:31:36+01:00"
      }
    }
  ]
}