{
  "kind": "osdu:wks:Manifest:1.0.0",
  "ReferenceData": [
    {
      "id": "{{NAMESPACE}}:reference-data--ResourceLifecycleStatus:LOADING",
      "kind": "osdu:wks:reference-data--ResourceLifecycleStatus:1.0.0",
      "acl": {
        "owners": [
          "{{DATA_OWNERS_GROUP}}"
        ],
        "viewers": [
          "{{DATA_VIEWERS_GROUP}}"
        ]
      },
      "legal": {
        "legaltags": [
          "{{LEGAL_TAG}}"
        ],
        "otherRelevantDataCountries": [
          "{{ISO_3166_ALPHA_2_CODE}}"
        ]
      },
      "data": {
        "Name": "LOADING",
        "Description": "When the ingestion process received a request to create a resource.",
        "Code": "LOADING",
        "AttributionAuthority": "OSDU",
        "Source": "Workbook Published/ResourceLifecycleStatus.1.0.0.xlsx; commit SHA 38615b34.",
        "CommitDate": "2021-02-25T09:18:48-05:00"
      }
    },
    {
      "id": "{{NAMESPACE}}:reference-data--ResourceLifecycleStatus:RECIEVED",
      "kind": "osdu:wks:reference-data--ResourceLifecycleStatus:1.0.0",
      "acl": {
        "owners": [
          "{{DATA_OWNERS_GROUP}}"
        ],
        "viewers": [
          "{{DATA_VIEWERS_GROUP}}"
        ]
      },
      "legal": {
        "legaltags": [
          "{{LEGAL_TAG}}"
        ],
        "otherRelevantDataCountries": [
          "{{ISO_3166_ALPHA_2_CODE}}"
        ]
      },
      "data": {
        "Name": "RECIEVED",
        "Description": "After RECEIVED, the resource records are created and the content file is placed into storage. ",
        "Code": "RECIEVED",
        "AttributionAuthority": "OSDU",
        "Source": "Workbook Published/ResourceLifecycleStatus.1.0.0.xlsx; commit SHA 38615b34.",
        "CommitDate": "2021-02-25T09:18:48-05:00"
      }
    },
    {
      "id": "{{NAMESPACE}}:reference-data--ResourceLifecycleStatus:ACCEPTED",
      "kind": "osdu:wks:reference-data--ResourceLifecycleStatus:1.0.0",
      "acl": {
        "owners": [
          "{{DATA_OWNERS_GROUP}}"
        ],
        "viewers": [
          "{{DATA_VIEWERS_GROUP}}"
        ]
      },
      "legal": {
        "legaltags": [
          "{{LEGAL_TAG}}"
        ],
        "otherRelevantDataCountries": [
          "{{ISO_3166_ALPHA_2_CODE}}"
        ]
      },
      "data": {
        "Name": "ACCEPTED",
        "Description": "When the ingestion process has completed successfully.",
        "Code": "ACCEPTED",
        "AttributionAuthority": "OSDU",
        "Source": "Workbook Published/ResourceLifecycleStatus.1.0.0.xlsx; commit SHA 38615b34.",
        "CommitDate": "2021-02-25T09:18:48-05:00"
      }
    },
    {
      "id": "{{NAMESPACE}}:reference-data--ResourceLifecycleStatus:RESCINDED",
      "kind": "osdu:wks:reference-data--ResourceLifecycleStatus:1.0.0",
      "acl": {
        "owners": [
          "{{DATA_OWNERS_GROUP}}"
        ],
        "viewers": [
          "{{DATA_VIEWERS_GROUP}}"
        ]
      },
      "legal": {
        "legaltags": [
          "{{LEGAL_TAG}}"
        ],
        "otherRelevantDataCountries": [
          "{{ISO_3166_ALPHA_2_CODE}}"
        ]
      },
      "data": {
        "Name": "RESCINDED",
        "Description": "When a resource is logically deleted from the data platform.\u00a0 This means that the data, metadata, and content file(s) should not be used. ",
        "Code": "RESCINDED",
        "AttributionAuthority": "OSDU",
        "Source": "Workbook Published/ResourceLifecycleStatus.1.0.0.xlsx; commit SHA 38615b34.",
        "CommitDate": "2021-02-25T09:18:48-05:00"
      }
    }
  ]
}