{
  "kind": "osdu:wks:Manifest:1.0.0",
  "ReferenceData": [
    {
      "id": "{{NAMESPACE}}:reference-data--RiskCategory:Hydraulics",
      "kind": "osdu:wks:reference-data--RiskCategory:1.0.0",
      "acl": {
        "owners": [
          "{{DATA_OWNERS_GROUP}}"
        ],
        "viewers": [
          "{{DATA_VIEWERS_GROUP}}"
        ]
      },
      "legal": {
        "legaltags": [
          "{{LEGAL_TAG}}"
        ],
        "otherRelevantDataCountries": [
          "{{ISO_3166_ALPHA_2_CODE}}"
        ]
      },
      "data": {
        "Name": "Hydraulics",
        "NameAlias": [
          {
            "AliasName": "Hyd",
            "AliasNameTypeID": "{{NAMESPACE}}:reference-data--AliasNameType:Abbreviation:"
          }
        ],
        "Description": "Use to categorize a risk as related to Hydraulics with examples being poor hole cleaning, drilling fluid stability \u2026",
        "Code": "Hydraulics",
        "AttributionAuthority": "WITSML",
        "Source": "Workbook Published/RiskCategory.1.0.0.xlsx; commit SHA 951f2a10.",
        "CommitDate": "2021-12-06T11:34:44+01:00"
      }
    },
    {
      "id": "{{NAMESPACE}}:reference-data--RiskCategory:Mechanical",
      "kind": "osdu:wks:reference-data--RiskCategory:1.0.0",
      "acl": {
        "owners": [
          "{{DATA_OWNERS_GROUP}}"
        ],
        "viewers": [
          "{{DATA_VIEWERS_GROUP}}"
        ]
      },
      "legal": {
        "legaltags": [
          "{{LEGAL_TAG}}"
        ],
        "otherRelevantDataCountries": [
          "{{ISO_3166_ALPHA_2_CODE}}"
        ]
      },
      "data": {
        "Name": "Mechanical",
        "NameAlias": [
          {
            "AliasName": "Mech",
            "AliasNameTypeID": "{{NAMESPACE}}:reference-data--AliasNameType:Abbreviation:"
          }
        ],
        "Description": "Use to categorize a risk as related to Mechanical with examples being stuck pipe, drillstring fatigue, drilling dynamics \u2026",
        "Code": "Mechanical",
        "AttributionAuthority": "WITSML",
        "Source": "Workbook Published/RiskCategory.1.0.0.xlsx; commit SHA 951f2a10.",
        "CommitDate": "2021-12-06T11:34:44+01:00"
      }
    },
    {
      "id": "{{NAMESPACE}}:reference-data--RiskCategory:TimeRelated",
      "kind": "osdu:wks:reference-data--RiskCategory:1.0.0",
      "acl": {
        "owners": [
          "{{DATA_OWNERS_GROUP}}"
        ],
        "viewers": [
          "{{DATA_VIEWERS_GROUP}}"
        ]
      },
      "legal": {
        "legaltags": [
          "{{LEGAL_TAG}}"
        ],
        "otherRelevantDataCountries": [
          "{{ISO_3166_ALPHA_2_CODE}}"
        ]
      },
      "data": {
        "Name": "Time Related",
        "Description": "Use to categorize a risk as Time related with examples being waiting on resources, waiting on weather \u2026",
        "Code": "TimeRelated",
        "AttributionAuthority": "WITSML",
        "Source": "Workbook Published/RiskCategory.1.0.0.xlsx; commit SHA 951f2a10.",
        "CommitDate": "2021-12-06T11:34:44+01:00"
      }
    },
    {
      "id": "{{NAMESPACE}}:reference-data--RiskCategory:WellboreStability",
      "kind": "osdu:wks:reference-data--RiskCategory:1.0.0",
      "acl": {
        "owners": [
          "{{DATA_OWNERS_GROUP}}"
        ],
        "viewers": [
          "{{DATA_VIEWERS_GROUP}}"
        ]
      },
      "legal": {
        "legaltags": [
          "{{LEGAL_TAG}}"
        ],
        "otherRelevantDataCountries": [
          "{{ISO_3166_ALPHA_2_CODE}}"
        ]
      },
      "data": {
        "Name": "Wellbore Stability",
        "Description": "Use to categorize a risk as related to Wellbore Stability with examples being ballooning, breakouts, drilling induced fractures \u2026",
        "Code": "WellboreStability",
        "AttributionAuthority": "WITSML",
        "Source": "Workbook Published/RiskCategory.1.0.0.xlsx; commit SHA 951f2a10.",
        "CommitDate": "2021-12-06T11:34:44+01:00"
      }
    },
    {
      "id": "{{NAMESPACE}}:reference-data--RiskCategory:DirectionalDrilling",
      "kind": "osdu:wks:reference-data--RiskCategory:1.0.0",
      "acl": {
        "owners": [
          "{{DATA_OWNERS_GROUP}}"
        ],
        "viewers": [
          "{{DATA_VIEWERS_GROUP}}"
        ]
      },
      "legal": {
        "legaltags": [
          "{{LEGAL_TAG}}"
        ],
        "otherRelevantDataCountries": [
          "{{ISO_3166_ALPHA_2_CODE}}"
        ]
      },
      "data": {
        "Name": "Directional Drilling",
        "Description": "Use to categorize a risk as related to Directional Drilling with examples being excessive doglegs, well collision \u2026",
        "Code": "DirectionalDrilling",
        "AttributionAuthority": "WITSML",
        "Source": "Workbook Published/RiskCategory.1.0.0.xlsx; commit SHA 951f2a10.",
        "CommitDate": "2021-12-06T11:34:44+01:00"
      }
    },
    {
      "id": "{{NAMESPACE}}:reference-data--RiskCategory:Bit",
      "kind": "osdu:wks:reference-data--RiskCategory:1.0.0",
      "acl": {
        "owners": [
          "{{DATA_OWNERS_GROUP}}"
        ],
        "viewers": [
          "{{DATA_VIEWERS_GROUP}}"
        ]
      },
      "legal": {
        "legaltags": [
          "{{LEGAL_TAG}}"
        ],
        "otherRelevantDataCountries": [
          "{{ISO_3166_ALPHA_2_CODE}}"
        ]
      },
      "data": {
        "Name": "Bit",
        "Description": "Use to categorize a risk as related to the Bit with examples being bit balling, excessive bit wear, low ROP \u2026",
        "Code": "Bit",
        "AttributionAuthority": "WITSML",
        "Source": "Workbook Published/RiskCategory.1.0.0.xlsx; commit SHA 951f2a10.",
        "CommitDate": "2021-12-06T11:34:44+01:00"
      }
    },
    {
      "id": "{{NAMESPACE}}:reference-data--RiskCategory:EquipmentFailure",
      "kind": "osdu:wks:reference-data--RiskCategory:1.0.0",
      "acl": {
        "owners": [
          "{{DATA_OWNERS_GROUP}}"
        ],
        "viewers": [
          "{{DATA_VIEWERS_GROUP}}"
        ]
      },
      "legal": {
        "legaltags": [
          "{{LEGAL_TAG}}"
        ],
        "otherRelevantDataCountries": [
          "{{ISO_3166_ALPHA_2_CODE}}"
        ]
      },
      "data": {
        "Name": "Equipment Failure",
        "Description": "Use to categorize a risk as related to Equipment Failure with examples being BOP events, downhole tool failure \u2026",
        "Code": "EquipmentFailure",
        "AttributionAuthority": "WITSML",
        "Source": "Workbook Published/RiskCategory.1.0.0.xlsx; commit SHA 951f2a10.",
        "CommitDate": "2021-12-06T11:34:44+01:00"
      }
    },
    {
      "id": "{{NAMESPACE}}:reference-data--RiskCategory:Completion",
      "kind": "osdu:wks:reference-data--RiskCategory:1.0.0",
      "acl": {
        "owners": [
          "{{DATA_OWNERS_GROUP}}"
        ],
        "viewers": [
          "{{DATA_VIEWERS_GROUP}}"
        ]
      },
      "legal": {
        "legaltags": [
          "{{LEGAL_TAG}}"
        ],
        "otherRelevantDataCountries": [
          "{{ISO_3166_ALPHA_2_CODE}}"
        ]
      },
      "data": {
        "Name": "Completion",
        "Description": "Use to categorize a risk as related to Completion with examples being completion collapse, unable to land completion \u2026",
        "Code": "Completion",
        "AttributionAuthority": "WITSML",
        "Source": "Workbook Published/RiskCategory.1.0.0.xlsx; commit SHA 951f2a10.",
        "CommitDate": "2021-12-06T11:34:44+01:00"
      }
    },
    {
      "id": "{{NAMESPACE}}:reference-data--RiskCategory:Casing",
      "kind": "osdu:wks:reference-data--RiskCategory:1.0.0",
      "acl": {
        "owners": [
          "{{DATA_OWNERS_GROUP}}"
        ],
        "viewers": [
          "{{DATA_VIEWERS_GROUP}}"
        ]
      },
      "legal": {
        "legaltags": [
          "{{LEGAL_TAG}}"
        ],
        "otherRelevantDataCountries": [
          "{{ISO_3166_ALPHA_2_CODE}}"
        ]
      },
      "data": {
        "Name": "Casing",
        "NameAlias": [
          {
            "AliasName": "Csg",
            "AliasNameTypeID": "{{NAMESPACE}}:reference-data--AliasNameType:Abbreviation:"
          }
        ],
        "Description": "Use to categorize a risk as related to Casing with examples being casing collapse, casing wear ..",
        "Code": "Casing",
        "AttributionAuthority": "WITSML",
        "Source": "Workbook Published/RiskCategory.1.0.0.xlsx; commit SHA 951f2a10.",
        "CommitDate": "2021-12-06T11:34:44+01:00"
      }
    },
    {
      "id": "{{NAMESPACE}}:reference-data--RiskCategory:Other",
      "kind": "osdu:wks:reference-data--RiskCategory:1.0.0",
      "acl": {
        "owners": [
          "{{DATA_OWNERS_GROUP}}"
        ],
        "viewers": [
          "{{DATA_VIEWERS_GROUP}}"
        ]
      },
      "legal": {
        "legaltags": [
          "{{LEGAL_TAG}}"
        ],
        "otherRelevantDataCountries": [
          "{{ISO_3166_ALPHA_2_CODE}}"
        ]
      },
      "data": {
        "Name": "Other",
        "Description": "Use to categorize a risk as related to Other with an example being delay due to political unrest",
        "Code": "Other",
        "AttributionAuthority": "WITSML",
        "Source": "Workbook Published/RiskCategory.1.0.0.xlsx; commit SHA 951f2a10.",
        "CommitDate": "2021-12-06T11:34:44+01:00"
      }
    },
    {
      "id": "{{NAMESPACE}}:reference-data--RiskCategory:HealthSafetyAndEnvironment",
      "kind": "osdu:wks:reference-data--RiskCategory:1.0.0",
      "acl": {
        "owners": [
          "{{DATA_OWNERS_GROUP}}"
        ],
        "viewers": [
          "{{DATA_VIEWERS_GROUP}}"
        ]
      },
      "legal": {
        "legaltags": [
          "{{LEGAL_TAG}}"
        ],
        "otherRelevantDataCountries": [
          "{{ISO_3166_ALPHA_2_CODE}}"
        ]
      },
      "data": {
        "Name": "Health Safety and Environment",
        "Description": "Use to categorize a risk as related to HSE with examples being personnel, information, environment \u2026",
        "Code": "HealthSafetyAndEnvironment",
        "AttributionAuthority": "WITSML",
        "Source": "Workbook Published/RiskCategory.1.0.0.xlsx; commit SHA 951f2a10.",
        "CommitDate": "2021-12-06T11:34:44+01:00"
      }
    }
  ]
}