{
  "kind": "osdu:wks:Manifest:1.0.0",
  "ReferenceData": [
    {
      "id": "{{NAMESPACE}}:reference-data--BottomHolePressureType:Gauge",
      "kind": "osdu:wks:reference-data--BottomHolePressureType:1.0.0",
      "acl": {
        "owners": [
          "{{DATA_OWNERS_GROUP}}"
        ],
        "viewers": [
          "{{DATA_VIEWERS_GROUP}}"
        ]
      },
      "legal": {
        "legaltags": [
          "{{LEGAL_TAG}}"
        ],
        "otherRelevantDataCountries": [
          "{{ISO_3166_ALPHA_2_CODE}}"
        ]
      },
      "data": {
        "Name": "Gauge",
        "Description": "Bottom hole pressure was measured by a downhole gauge.",
        "Code": "Gauge",
        "Source": "Workbook Published/BottomHolePressureType.1.0.0.xlsx; commit SHA 65d9f2cb.",
        "CommitDate": "2022-08-04T09:24:50+02:00"
      }
    },
    {
      "id": "{{NAMESPACE}}:reference-data--BottomHolePressureType:Calculated",
      "kind": "osdu:wks:reference-data--BottomHolePressureType:1.0.0",
      "acl": {
        "owners": [
          "{{DATA_OWNERS_GROUP}}"
        ],
        "viewers": [
          "{{DATA_VIEWERS_GROUP}}"
        ]
      },
      "legal": {
        "legaltags": [
          "{{LEGAL_TAG}}"
        ],
        "otherRelevantDataCountries": [
          "{{ISO_3166_ALPHA_2_CODE}}"
        ]
      },
      "data": {
        "Name": "Calculated",
        "Description": "Bottom hole pressure was calculated using Mud Weight and TVD.",
        "Code": "Calculated",
        "Source": "Workbook Published/BottomHolePressureType.1.0.0.xlsx; commit SHA 65d9f2cb.",
        "CommitDate": "2022-08-04T09:24:50+02:00"
      }
    }
  ]
}