{
  "kind": "osdu:wks:Manifest:1.0.0",
  "ReferenceData": [
    {
      "id": "{{NAMESPACE}}:reference-data--ColumnBasedTableType:Facies",
      "kind": "osdu:wks:reference-data--ColumnBasedTableType:1.0.0",
      "acl": {
        "owners": [
          "{{DATA_OWNERS_GROUP}}"
        ],
        "viewers": [
          "{{DATA_VIEWERS_GROUP}}"
        ]
      },
      "legal": {
        "legaltags": [
          "{{LEGAL_TAG}}"
        ],
        "otherRelevantDataCountries": [
          "{{ISO_3166_ALPHA_2_CODE}}"
        ]
      },
      "data": {
        "Name": "Facies",
        "Description": "A table consisting of a lookup between an integer code and a facies",
        "Code": "Facies",
        "AttributionAuthority": "OSDU Data Definitions subcommittee",
        "Columns": [
          {
            "PropertyType": {
              "Name": "facies type",
              "PropertyTypeID": "{{NAMESPACE}}:reference-data--PropertyType:838b1a9b-2fca-4e2e-aae3-323ef1bc59c7:"
            },
            "UnitQuantityID": "{{NAMESPACE}}:reference-data--UnitQuantity:non-dimensional:",
            "ValueCount": 1,
            "ValueType": "string"
          }
        ],
        "KeyColumns": [
          {
            "PropertyType": {
              "Name": "ordinal number",
              "PropertyTypeID": "{{NAMESPACE}}:reference-data--PropertyType:323df361-784e-4062-a346-ff4ba80a78f0:"
            },
            "UnitQuantityID": "{{NAMESPACE}}:reference-data--UnitQuantity:non-dimensional:",
            "ValueCount": 1,
            "ValueType": "integer"
          }
        ],
        "Source": "Workbook Published/ColumnBasedTableType.1.0.0.xlsx; commit SHA 285303df.",
        "CommitDate": "2022-01-06T09:31:36+01:00"
      }
    }
  ]
}