{
  "kind": "osdu:wks:Manifest:1.0.0",
  "ReferenceData": [
    {
      "id": "{{NAMESPACE}}:reference-data--CorePreservationType:Standard",
      "kind": "osdu:wks:reference-data--CorePreservationType:1.0.0",
      "acl": {
        "owners": [
          "{{DATA_OWNERS_GROUP}}"
        ],
        "viewers": [
          "{{DATA_VIEWERS_GROUP}}"
        ]
      },
      "legal": {
        "legaltags": [
          "{{LEGAL_TAG}}"
        ],
        "otherRelevantDataCountries": [
          "{{ISO_3166_ALPHA_2_CODE}}"
        ]
      },
      "data": {
        "Name": "Standard ",
        "Description": "Non-preserved, standard core.",
        "Code": "Standard",
        "AttributionAuthority": "OSDU Petrophysics",
        "AttributionPublication": "OSDU reference-values repository",
        "AttributionRevision": "OSDU M12 0.15",
        "Source": "Workbook Published/CorePreservationType.1.0.0.xlsx; commit SHA c5c4b73e.",
        "CommitDate": "2022-05-19T15:16:22+02:00"
      }
    },
    {
      "id": "{{NAMESPACE}}:reference-data--CorePreservationType:WaxSealed",
      "kind": "osdu:wks:reference-data--CorePreservationType:1.0.0",
      "acl": {
        "owners": [
          "{{DATA_OWNERS_GROUP}}"
        ],
        "viewers": [
          "{{DATA_VIEWERS_GROUP}}"
        ]
      },
      "legal": {
        "legaltags": [
          "{{LEGAL_TAG}}"
        ],
        "otherRelevantDataCountries": [
          "{{ISO_3166_ALPHA_2_CODE}}"
        ]
      },
      "data": {
        "Name": "Wax-sealed",
        "Description": "Core sealed in wax, either with or without inner barrel.",
        "Code": "WaxSealed",
        "AttributionAuthority": "OSDU Petrophysics",
        "AttributionPublication": "OSDU reference-values repository",
        "AttributionRevision": "OSDU M12 0.15",
        "Source": "Workbook Published/CorePreservationType.1.0.0.xlsx; commit SHA c5c4b73e.",
        "CommitDate": "2022-05-19T15:16:22+02:00"
      }
    },
    {
      "id": "{{NAMESPACE}}:reference-data--CorePreservationType:Gypsum",
      "kind": "osdu:wks:reference-data--CorePreservationType:1.0.0",
      "acl": {
        "owners": [
          "{{DATA_OWNERS_GROUP}}"
        ],
        "viewers": [
          "{{DATA_VIEWERS_GROUP}}"
        ]
      },
      "legal": {
        "legaltags": [
          "{{LEGAL_TAG}}"
        ],
        "otherRelevantDataCountries": [
          "{{ISO_3166_ALPHA_2_CODE}}"
        ]
      },
      "data": {
        "Name": "Gypsum",
        "Description": "Core injected with Gypsum.",
        "Code": "Gypsum",
        "AttributionAuthority": "OSDU Petrophysics",
        "AttributionPublication": "OSDU reference-values repository",
        "AttributionRevision": "OSDU M12 0.15",
        "Source": "Workbook Published/CorePreservationType.1.0.0.xlsx; commit SHA c5c4b73e.",
        "CommitDate": "2022-05-19T15:16:22+02:00"
      }
    },
    {
      "id": "{{NAMESPACE}}:reference-data--CorePreservationType:ClingWrap",
      "kind": "osdu:wks:reference-data--CorePreservationType:1.0.0",
      "acl": {
        "owners": [
          "{{DATA_OWNERS_GROUP}}"
        ],
        "viewers": [
          "{{DATA_VIEWERS_GROUP}}"
        ]
      },
      "legal": {
        "legaltags": [
          "{{LEGAL_TAG}}"
        ],
        "otherRelevantDataCountries": [
          "{{ISO_3166_ALPHA_2_CODE}}"
        ]
      },
      "data": {
        "Name": "Cling-wrap",
        "Description": "Core wrapped in plastic or cling wrap",
        "Code": "ClingWrap",
        "AttributionAuthority": "OSDU Petrophysics",
        "AttributionPublication": "OSDU reference-values repository",
        "AttributionRevision": "OSDU M12 0.15",
        "Source": "Workbook Published/CorePreservationType.1.0.0.xlsx; commit SHA c5c4b73e.",
        "CommitDate": "2022-05-19T15:16:22+02:00"
      }
    },
    {
      "id": "{{NAMESPACE}}:reference-data--CorePreservationType:FoamInjected",
      "kind": "osdu:wks:reference-data--CorePreservationType:1.0.0",
      "acl": {
        "owners": [
          "{{DATA_OWNERS_GROUP}}"
        ],
        "viewers": [
          "{{DATA_VIEWERS_GROUP}}"
        ]
      },
      "legal": {
        "legaltags": [
          "{{LEGAL_TAG}}"
        ],
        "otherRelevantDataCountries": [
          "{{ISO_3166_ALPHA_2_CODE}}"
        ]
      },
      "data": {
        "Name": "Foam-injected",
        "Description": "Core injected with foam",
        "Code": "FoamInjected",
        "AttributionAuthority": "OSDU Petrophysics",
        "AttributionPublication": "OSDU reference-values repository",
        "AttributionRevision": "OSDU M12 0.15",
        "Source": "Workbook Published/CorePreservationType.1.0.0.xlsx; commit SHA c5c4b73e.",
        "CommitDate": "2022-05-19T15:16:22+02:00"
      }
    },
    {
      "id": "{{NAMESPACE}}:reference-data--CorePreservationType:ResinCoated",
      "kind": "osdu:wks:reference-data--CorePreservationType:1.0.0",
      "acl": {
        "owners": [
          "{{DATA_OWNERS_GROUP}}"
        ],
        "viewers": [
          "{{DATA_VIEWERS_GROUP}}"
        ]
      },
      "legal": {
        "legaltags": [
          "{{LEGAL_TAG}}"
        ],
        "otherRelevantDataCountries": [
          "{{ISO_3166_ALPHA_2_CODE}}"
        ]
      },
      "data": {
        "Name": "Resin-coated",
        "Description": "Core coated in resin",
        "Code": "ResinCoated",
        "AttributionAuthority": "OSDU Petrophysics",
        "AttributionPublication": "OSDU reference-values repository",
        "AttributionRevision": "OSDU M12 0.15",
        "Source": "Workbook Published/CorePreservationType.1.0.0.xlsx; commit SHA c5c4b73e.",
        "CommitDate": "2022-05-19T15:16:22+02:00"
      }
    },
    {
      "id": "{{NAMESPACE}}:reference-data--CorePreservationType:MineralOil",
      "kind": "osdu:wks:reference-data--CorePreservationType:1.0.0",
      "acl": {
        "owners": [
          "{{DATA_OWNERS_GROUP}}"
        ],
        "viewers": [
          "{{DATA_VIEWERS_GROUP}}"
        ]
      },
      "legal": {
        "legaltags": [
          "{{LEGAL_TAG}}"
        ],
        "otherRelevantDataCountries": [
          "{{ISO_3166_ALPHA_2_CODE}}"
        ]
      },
      "data": {
        "Name": "Mineral Oil",
        "Description": "Preserved in mineral oil typically for shale samples reserved for rock mechanics",
        "Code": "MineralOil",
        "AttributionAuthority": "OSDU Petrophysics",
        "AttributionPublication": "OSDU reference-values repository",
        "AttributionRevision": "OSDU M12 0.15",
        "Source": "Workbook Published/CorePreservationType.1.0.0.xlsx; commit SHA c5c4b73e.",
        "CommitDate": "2022-05-19T15:16:22+02:00"
      }
    },
    {
      "id": "{{NAMESPACE}}:reference-data--CorePreservationType:Cryogenic",
      "kind": "osdu:wks:reference-data--CorePreservationType:1.0.0",
      "acl": {
        "owners": [
          "{{DATA_OWNERS_GROUP}}"
        ],
        "viewers": [
          "{{DATA_VIEWERS_GROUP}}"
        ]
      },
      "legal": {
        "legaltags": [
          "{{LEGAL_TAG}}"
        ],
        "otherRelevantDataCountries": [
          "{{ISO_3166_ALPHA_2_CODE}}"
        ]
      },
      "data": {
        "Name": "Cryogenic",
        "Description": "Core is maintained at a freezing condition typically for saturated fluids.",
        "Code": "Cryogenic",
        "AttributionAuthority": "OSDU Petrophysics",
        "AttributionPublication": "OSDU reference-values repository",
        "AttributionRevision": "OSDU M12 0.15",
        "Source": "Workbook Published/CorePreservationType.1.0.0.xlsx; commit SHA c5c4b73e.",
        "CommitDate": "2022-05-19T15:16:22+02:00"
      }
    },
    {
      "id": "{{NAMESPACE}}:reference-data--CorePreservationType:ClingWrapWaxSealed",
      "kind": "osdu:wks:reference-data--CorePreservationType:1.0.0",
      "acl": {
        "owners": [
          "{{DATA_OWNERS_GROUP}}"
        ],
        "viewers": [
          "{{DATA_VIEWERS_GROUP}}"
        ]
      },
      "legal": {
        "legaltags": [
          "{{LEGAL_TAG}}"
        ],
        "otherRelevantDataCountries": [
          "{{ISO_3166_ALPHA_2_CODE}}"
        ]
      },
      "data": {
        "Name": "Cling-wrap and Wax-sealed",
        "Description": "Combination of cling-wrap and wax-sealed. Will be cling-wrapped first such as plastic cling-wrap. ",
        "Code": "ClingWrapWaxSealed",
        "AttributionAuthority": "OSDU Petrophysics",
        "AttributionPublication": "OSDU reference-values repository",
        "AttributionRevision": "OSDU M12 0.15",
        "Source": "Workbook Published/CorePreservationType.1.0.0.xlsx; commit SHA c5c4b73e.",
        "CommitDate": "2022-05-19T15:16:22+02:00"
      }
    },
    {
      "id": "{{NAMESPACE}}:reference-data--CorePreservationType:FoilWrapWaxSealed",
      "kind": "osdu:wks:reference-data--CorePreservationType:1.0.0",
      "acl": {
        "owners": [
          "{{DATA_OWNERS_GROUP}}"
        ],
        "viewers": [
          "{{DATA_VIEWERS_GROUP}}"
        ]
      },
      "legal": {
        "legaltags": [
          "{{LEGAL_TAG}}"
        ],
        "otherRelevantDataCountries": [
          "{{ISO_3166_ALPHA_2_CODE}}"
        ]
      },
      "data": {
        "Name": "Foil-wrap and Wax-sealed",
        "Description": "Combination of foil-wrap and wax-sealed. Will be foil-wrapped first such as aluminum foil. ",
        "Code": "FoilWrapWaxSealed",
        "AttributionAuthority": "OSDU Petrophysics",
        "AttributionPublication": "OSDU reference-values repository",
        "AttributionRevision": "OSDU M12 0.15",
        "Source": "Workbook Published/CorePreservationType.1.0.0.xlsx; commit SHA c5c4b73e.",
        "CommitDate": "2022-05-19T15:16:22+02:00"
      }
    },
    {
      "id": "{{NAMESPACE}}:reference-data--CorePreservationType:TeflonEncapsulation",
      "kind": "osdu:wks:reference-data--CorePreservationType:1.0.0",
      "acl": {
        "owners": [
          "{{DATA_OWNERS_GROUP}}"
        ],
        "viewers": [
          "{{DATA_VIEWERS_GROUP}}"
        ]
      },
      "legal": {
        "legaltags": [
          "{{LEGAL_TAG}}"
        ],
        "otherRelevantDataCountries": [
          "{{ISO_3166_ALPHA_2_CODE}}"
        ]
      },
      "data": {
        "Name": "Teflon Encapsulation",
        "Description": "Sample is wrapped in a teflon sleeve with a screen on one or both ends. ",
        "Code": "TeflonEncapsulation",
        "AttributionAuthority": "OSDU Petrophysics",
        "AttributionPublication": "OSDU reference-values repository",
        "AttributionRevision": "OSDU M12 0.15",
        "Source": "Workbook Published/CorePreservationType.1.0.0.xlsx; commit SHA c5c4b73e.",
        "CommitDate": "2022-05-19T15:16:22+02:00"
      }
    }
  ]
}