{
  "kind": "osdu:wks:Manifest:1.0.0",
  "ReferenceData": [
    {
      "id": "{{NAMESPACE}}:reference-data--DepositionGeometryType:ProportionalBetweenTopAndBottom",
      "kind": "osdu:wks:reference-data--DepositionGeometryType:1.0.0",
      "acl": {
        "owners": [
          "{{DATA_OWNERS_GROUP}}"
        ],
        "viewers": [
          "{{DATA_VIEWERS_GROUP}}"
        ]
      },
      "legal": {
        "legaltags": [
          "{{LEGAL_TAG}}"
        ],
        "otherRelevantDataCountries": [
          "{{ISO_3166_ALPHA_2_CODE}}"
        ]
      },
      "data": {
        "Name": "Proportional between Top and Bottom",
        "NameAlias": [
          {
            "AliasName": "proportional between top and bottom",
            "AliasNameTypeID": "{{NAMESPACE}}:reference-data--AliasNameType:IndustryCode:",
            "DefinitionOrganisationID": "{{NAMESPACE}}:reference-data--StandardsOrganisation:Energistics%20RESQML%20201:"
          }
        ],
        "Description": "Indicates that the layering of the unit is proportional between the top and the bottom of the unit",
        "Code": "ProportionalBetweenTopAndBottom",
        "AttributionAuthority": "Energistics",
        "AttributionPublication": "RESQML",
        "AttributionRevision": "2",
        "Source": "Workbook Published/DepositionGeometryType.1.0.0.xlsx; commit SHA 285303df.",
        "CommitDate": "2022-01-06T09:31:36+01:00"
      }
    },
    {
      "id": "{{NAMESPACE}}:reference-data--DepositionGeometryType:ParallelToBottom",
      "kind": "osdu:wks:reference-data--DepositionGeometryType:1.0.0",
      "acl": {
        "owners": [
          "{{DATA_OWNERS_GROUP}}"
        ],
        "viewers": [
          "{{DATA_VIEWERS_GROUP}}"
        ]
      },
      "legal": {
        "legaltags": [
          "{{LEGAL_TAG}}"
        ],
        "otherRelevantDataCountries": [
          "{{ISO_3166_ALPHA_2_CODE}}"
        ]
      },
      "data": {
        "Name": "Parallel to Bottom",
        "NameAlias": [
          {
            "AliasName": "parallel to bottom",
            "AliasNameTypeID": "{{NAMESPACE}}:reference-data--AliasNameType:IndustryCode:",
            "DefinitionOrganisationID": "{{NAMESPACE}}:reference-data--StandardsOrganisation:Energistics%20RESQML%20201:"
          }
        ],
        "Description": "Indicates that the layering of the unit is parallel to the bottom of the unit",
        "Code": "ParallelToBottom",
        "AttributionAuthority": "Energistics",
        "AttributionPublication": "RESQML",
        "AttributionRevision": "2",
        "Source": "Workbook Published/DepositionGeometryType.1.0.0.xlsx; commit SHA 285303df.",
        "CommitDate": "2022-01-06T09:31:36+01:00"
      }
    },
    {
      "id": "{{NAMESPACE}}:reference-data--DepositionGeometryType:ParallelToTop",
      "kind": "osdu:wks:reference-data--DepositionGeometryType:1.0.0",
      "acl": {
        "owners": [
          "{{DATA_OWNERS_GROUP}}"
        ],
        "viewers": [
          "{{DATA_VIEWERS_GROUP}}"
        ]
      },
      "legal": {
        "legaltags": [
          "{{LEGAL_TAG}}"
        ],
        "otherRelevantDataCountries": [
          "{{ISO_3166_ALPHA_2_CODE}}"
        ]
      },
      "data": {
        "Name": "Parallel to Top",
        "NameAlias": [
          {
            "AliasName": "parallel to top",
            "AliasNameTypeID": "{{NAMESPACE}}:reference-data--AliasNameType:IndustryCode:",
            "DefinitionOrganisationID": "{{NAMESPACE}}:reference-data--StandardsOrganisation:Energistics%20RESQML%20201:"
          }
        ],
        "Description": "Indicates that the layering of the unit is parallel to the top of the unit",
        "Code": "ParallelToTop",
        "AttributionAuthority": "Energistics",
        "AttributionPublication": "RESQML",
        "AttributionRevision": "2",
        "Source": "Workbook Published/DepositionGeometryType.1.0.0.xlsx; commit SHA 285303df.",
        "CommitDate": "2022-01-06T09:31:36+01:00"
      }
    },
    {
      "id": "{{NAMESPACE}}:reference-data--DepositionGeometryType:ParallelToAnotherBoundary",
      "kind": "osdu:wks:reference-data--DepositionGeometryType:1.0.0",
      "acl": {
        "owners": [
          "{{DATA_OWNERS_GROUP}}"
        ],
        "viewers": [
          "{{DATA_VIEWERS_GROUP}}"
        ]
      },
      "legal": {
        "legaltags": [
          "{{LEGAL_TAG}}"
        ],
        "otherRelevantDataCountries": [
          "{{ISO_3166_ALPHA_2_CODE}}"
        ]
      },
      "data": {
        "Name": "Parallel to another Boundary",
        "NameAlias": [
          {
            "AliasName": "parallel to another boundary",
            "AliasNameTypeID": "{{NAMESPACE}}:reference-data--AliasNameType:IndustryCode:",
            "DefinitionOrganisationID": "{{NAMESPACE}}:reference-data--StandardsOrganisation:Energistics%20RESQML%20201:"
          }
        ],
        "Description": "Indicates that the layering of the unit is parallel to a boundary which is not the top nor the bottom of the unit",
        "Code": "ParallelToAnotherBoundary",
        "AttributionAuthority": "Energistics",
        "AttributionPublication": "RESQML",
        "AttributionRevision": "2",
        "Source": "Workbook Published/DepositionGeometryType.1.0.0.xlsx; commit SHA 285303df.",
        "CommitDate": "2022-01-06T09:31:36+01:00"
      }
    }
  ]
}