{
  "kind": "osdu:wks:Manifest:1.0.0",
  "ReferenceData": [
    {
      "id": "{{NAMESPACE}}:reference-data--DiscretisationSchemeType:Vertex",
      "kind": "osdu:wks:reference-data--DiscretisationSchemeType:1.0.0",
      "acl": {
        "owners": [
          "{{DATA_OWNERS_GROUP}}"
        ],
        "viewers": [
          "{{DATA_VIEWERS_GROUP}}"
        ]
      },
      "legal": {
        "legaltags": [
          "{{LEGAL_TAG}}"
        ],
        "otherRelevantDataCountries": [
          "{{ISO_3166_ALPHA_2_CODE}}"
        ]
      },
      "data": {
        "Name": "Vertex",
        "Description": "Vertex-Centered Discretisation Schema",
        "Code": "Vertex",
        "Source": "Workbook Published/DiscretisationSchemeType.1.0.0.xlsx; commit SHA 38615b34.",
        "CommitDate": "2021-02-25T09:18:48-05:00"
      }
    },
    {
      "id": "{{NAMESPACE}}:reference-data--DiscretisationSchemeType:Center",
      "kind": "osdu:wks:reference-data--DiscretisationSchemeType:1.0.0",
      "acl": {
        "owners": [
          "{{DATA_OWNERS_GROUP}}"
        ],
        "viewers": [
          "{{DATA_VIEWERS_GROUP}}"
        ]
      },
      "legal": {
        "legaltags": [
          "{{LEGAL_TAG}}"
        ],
        "otherRelevantDataCountries": [
          "{{ISO_3166_ALPHA_2_CODE}}"
        ]
      },
      "data": {
        "Name": "Center",
        "Description": "Center Discretisation Scheme",
        "Code": "Center",
        "Source": "Workbook Published/DiscretisationSchemeType.1.0.0.xlsx; commit SHA 38615b34.",
        "CommitDate": "2021-02-25T09:18:48-05:00"
      }
    },
    {
      "id": "{{NAMESPACE}}:reference-data--DiscretisationSchemeType:Average",
      "kind": "osdu:wks:reference-data--DiscretisationSchemeType:1.0.0",
      "acl": {
        "owners": [
          "{{DATA_OWNERS_GROUP}}"
        ],
        "viewers": [
          "{{DATA_VIEWERS_GROUP}}"
        ]
      },
      "legal": {
        "legaltags": [
          "{{LEGAL_TAG}}"
        ],
        "otherRelevantDataCountries": [
          "{{ISO_3166_ALPHA_2_CODE}}"
        ]
      },
      "data": {
        "Name": "Average",
        "Description": "Average Based Discretisation Scheme",
        "Code": "Average",
        "Source": "Workbook Published/DiscretisationSchemeType.1.0.0.xlsx; commit SHA 38615b34.",
        "CommitDate": "2021-02-25T09:18:48-05:00"
      }
    }
  ]
}