{
  "kind": "osdu:wks:Manifest:1.0.0",
  "ReferenceData": [
    {
      "id": "{{NAMESPACE}}:reference-data--FacilityStateType:Closed",
      "kind": "osdu:wks:reference-data--FacilityStateType:1.0.0",
      "acl": {
        "owners": [
          "{{DATA_OWNERS_GROUP}}"
        ],
        "viewers": [
          "{{DATA_VIEWERS_GROUP}}"
        ]
      },
      "legal": {
        "legaltags": [
          "{{LEGAL_TAG}}"
        ],
        "otherRelevantDataCountries": [
          "{{ISO_3166_ALPHA_2_CODE}}"
        ]
      },
      "data": {
        "Name": "Closed",
        "Code": "Closed",
        "Description": "Closed is the phase of the Life Cycle when the well  or component [or other facility] is permanently incapable of performing any Role.",
        "AttributionAuthority": "PPDM WSC v3",
        "AttributionPublication": "https://ppdm.org/ppdm/PPDM/IPDS/Well_Status_Classification/Well_Status_Facets/PPDM/Member/WellStatus/Well_Status_Facets.aspx",
        "Source": "Workbook Published/FacilityStateType.1.0.0.xlsx; commit SHA f15fa6a4.",
        "CommitDate": "2022-04-27T12:05:47+02:00"
      }
    },
    {
      "id": "{{NAMESPACE}}:reference-data--FacilityStateType:Closing",
      "kind": "osdu:wks:reference-data--FacilityStateType:1.0.0",
      "acl": {
        "owners": [
          "{{DATA_OWNERS_GROUP}}"
        ],
        "viewers": [
          "{{DATA_VIEWERS_GROUP}}"
        ]
      },
      "legal": {
        "legaltags": [
          "{{LEGAL_TAG}}"
        ],
        "otherRelevantDataCountries": [
          "{{ISO_3166_ALPHA_2_CODE}}"
        ]
      },
      "data": {
        "Name": "Closing",
        "Code": "Closing",
        "Description": "Closing is the set of activities of the Life Cycle to make the well or component [or other facility] permanently incapable of any Role.",
        "AttributionAuthority": "PPDM WSC v3",
        "AttributionPublication": "https://ppdm.org/ppdm/PPDM/IPDS/Well_Status_Classification/Well_Status_Facets/PPDM/Member/WellStatus/Well_Status_Facets.aspx",
        "Source": "Workbook Published/FacilityStateType.1.0.0.xlsx; commit SHA f15fa6a4.",
        "CommitDate": "2022-04-27T12:05:47+02:00"
      }
    },
    {
      "id": "{{NAMESPACE}}:reference-data--FacilityStateType:Constructing",
      "kind": "osdu:wks:reference-data--FacilityStateType:1.0.0",
      "acl": {
        "owners": [
          "{{DATA_OWNERS_GROUP}}"
        ],
        "viewers": [
          "{{DATA_VIEWERS_GROUP}}"
        ]
      },
      "legal": {
        "legaltags": [
          "{{LEGAL_TAG}}"
        ],
        "otherRelevantDataCountries": [
          "{{ISO_3166_ALPHA_2_CODE}}"
        ]
      },
      "data": {
        "Name": "Constructing",
        "Code": "Constructing",
        "Description": "Constructing is the approved activities of the Life Cycle prior to operation.",
        "AttributionAuthority": "PPDM WSC v3",
        "AttributionPublication": "https://ppdm.org/ppdm/PPDM/IPDS/Well_Status_Classification/Well_Status_Facets/PPDM/Member/WellStatus/Well_Status_Facets.aspx",
        "Source": "Workbook Published/FacilityStateType.1.0.0.xlsx; commit SHA f15fa6a4.",
        "CommitDate": "2022-04-27T12:05:47+02:00"
      }
    },
    {
      "id": "{{NAMESPACE}}:reference-data--FacilityStateType:Operating",
      "kind": "osdu:wks:reference-data--FacilityStateType:1.0.0",
      "acl": {
        "owners": [
          "{{DATA_OWNERS_GROUP}}"
        ],
        "viewers": [
          "{{DATA_VIEWERS_GROUP}}"
        ]
      },
      "legal": {
        "legaltags": [
          "{{LEGAL_TAG}}"
        ],
        "otherRelevantDataCountries": [
          "{{ISO_3166_ALPHA_2_CODE}}"
        ]
      },
      "data": {
        "Name": "Operating",
        "Code": "Operating",
        "Description": "Operating is the activities of the Life Cycle while the well or component [or other facility] is capable of performing its intended Role. It includes periods where the well is temporarily shut in.",
        "AttributionAuthority": "PPDM WSC v3",
        "AttributionPublication": "https://ppdm.org/ppdm/PPDM/IPDS/Well_Status_Classification/Well_Status_Facets/PPDM/Member/WellStatus/Well_Status_Facets.aspx",
        "Source": "Workbook Published/FacilityStateType.1.0.0.xlsx; commit SHA f15fa6a4.",
        "CommitDate": "2022-04-27T12:05:47+02:00"
      }
    },
    {
      "id": "{{NAMESPACE}}:reference-data--FacilityStateType:Planning",
      "kind": "osdu:wks:reference-data--FacilityStateType:1.0.0",
      "acl": {
        "owners": [
          "{{DATA_OWNERS_GROUP}}"
        ],
        "viewers": [
          "{{DATA_VIEWERS_GROUP}}"
        ]
      },
      "legal": {
        "legaltags": [
          "{{LEGAL_TAG}}"
        ],
        "otherRelevantDataCountries": [
          "{{ISO_3166_ALPHA_2_CODE}}"
        ]
      },
      "data": {
        "Name": "Planning",
        "Code": "Planning",
        "Description": "Planning is all the activities of the Life Cycle before construction has commenced. It includes designing a well [or other facility] and obtaining management and regulatory approvals.",
        "AttributionAuthority": "PPDM WSC v3",
        "AttributionPublication": "https://ppdm.org/ppdm/PPDM/IPDS/Well_Status_Classification/Well_Status_Facets/PPDM/Member/WellStatus/Well_Status_Facets.aspx",
        "Source": "Workbook Published/FacilityStateType.1.0.0.xlsx; commit SHA f15fa6a4.",
        "CommitDate": "2022-04-27T12:05:47+02:00"
      }
    }
  ]
}