{
  "kind": "osdu:wks:Manifest:1.0.0",
  "ReferenceData": [
    {
      "id": "{{NAMESPACE}}:reference-data--FormationIntegritySurfacePressureDataSource:CementingUnitGauge",
      "kind": "osdu:wks:reference-data--FormationIntegritySurfacePressureDataSource:1.0.0",
      "acl": {
        "owners": [
          "{{DATA_OWNERS_GROUP}}"
        ],
        "viewers": [
          "{{DATA_VIEWERS_GROUP}}"
        ]
      },
      "legal": {
        "legaltags": [
          "{{LEGAL_TAG}}"
        ],
        "otherRelevantDataCountries": [
          "{{ISO_3166_ALPHA_2_CODE}}"
        ]
      },
      "data": {
        "Name": "Cementing Unit Gauge",
        "NameAlias": [
          {
            "AliasName": "CUGauge",
            "AliasNameTypeID": "{{NAMESPACE}}:reference-data--AliasNameType:Abbreviation:"
          }
        ],
        "Description": "Gauge located on cementing unit",
        "Code": "CementingUnitGauge",
        "AttributionAuthority": "XOM",
        "(COMPANY: insert comment)": "XOM",
        "Source": "Workbook Published/FormationIntegritySurfacePressureDataSource.1.0.0.xlsx; commit SHA 192570de.",
        "CommitDate": "2023-01-27T11:34:12+00:00"
      }
    },
    {
      "id": "{{NAMESPACE}}:reference-data--FormationIntegritySurfacePressureDataSource:UnitSupervisorReading",
      "kind": "osdu:wks:reference-data--FormationIntegritySurfacePressureDataSource:1.0.0",
      "acl": {
        "owners": [
          "{{DATA_OWNERS_GROUP}}"
        ],
        "viewers": [
          "{{DATA_VIEWERS_GROUP}}"
        ]
      },
      "legal": {
        "legaltags": [
          "{{LEGAL_TAG}}"
        ],
        "otherRelevantDataCountries": [
          "{{ISO_3166_ALPHA_2_CODE}}"
        ]
      },
      "data": {
        "Name": "Unit Supervisor Reading",
        "NameAlias": [
          {
            "AliasName": "UnitSupv",
            "AliasNameTypeID": "{{NAMESPACE}}:reference-data--AliasNameType:Abbreviation:"
          }
        ],
        "Description": "Visual reading made by unit supervisor",
        "Code": "UnitSupervisorReading",
        "AttributionAuthority": "XOM",
        "(COMPANY: insert comment)": "XOM",
        "Source": "Workbook Published/FormationIntegritySurfacePressureDataSource.1.0.0.xlsx; commit SHA 192570de.",
        "CommitDate": "2023-01-27T11:34:12+00:00"
      }
    }
  ]
}