{
  "kind": "osdu:wks:Manifest:1.0.0",
  "ReferenceData": [
    {
      "id": "{{NAMESPACE}}:reference-data--GeoPoliticalEntityType:Area",
      "kind": "osdu:wks:reference-data--GeoPoliticalEntityType:1.0.0",
      "acl": {
        "owners": [
          "{{DATA_OWNERS_GROUP}}"
        ],
        "viewers": [
          "{{DATA_VIEWERS_GROUP}}"
        ]
      },
      "legal": {
        "legaltags": [
          "{{LEGAL_TAG}}"
        ],
        "otherRelevantDataCountries": [
          "{{ISO_3166_ALPHA_2_CODE}}"
        ]
      },
      "data": {
        "Name": "Area",
        "Description": "Generic Geopolitical Entity type",
        "Code": "Area",
        "AttributionAuthority": "OSDU",
        "Source": "Workbook Published/GeoPoliticalEntityType.1.0.0.xlsx; commit SHA c1d72417.",
        "CommitDate": "2021-03-16T11:23:02+01:00"
      }
    },
    {
      "id": "{{NAMESPACE}}:reference-data--GeoPoliticalEntityType:AssociatedState",
      "kind": "osdu:wks:reference-data--GeoPoliticalEntityType:1.0.0",
      "acl": {
        "owners": [
          "{{DATA_OWNERS_GROUP}}"
        ],
        "viewers": [
          "{{DATA_VIEWERS_GROUP}}"
        ]
      },
      "legal": {
        "legaltags": [
          "{{LEGAL_TAG}}"
        ],
        "otherRelevantDataCountries": [
          "{{ISO_3166_ALPHA_2_CODE}}"
        ]
      },
      "data": {
        "Name": "Associated State",
        "Description": "Area governed by a Associated State-like related system",
        "Code": "AssociatedState",
        "AttributionAuthority": "OSDU",
        "Source": "Workbook Published/GeoPoliticalEntityType.1.0.0.xlsx; commit SHA c1d72417.",
        "CommitDate": "2021-03-16T11:23:02+01:00"
      }
    },
    {
      "id": "{{NAMESPACE}}:reference-data--GeoPoliticalEntityType:AutonomousCommunity",
      "kind": "osdu:wks:reference-data--GeoPoliticalEntityType:1.0.0",
      "acl": {
        "owners": [
          "{{DATA_OWNERS_GROUP}}"
        ],
        "viewers": [
          "{{DATA_VIEWERS_GROUP}}"
        ]
      },
      "legal": {
        "legaltags": [
          "{{LEGAL_TAG}}"
        ],
        "otherRelevantDataCountries": [
          "{{ISO_3166_ALPHA_2_CODE}}"
        ]
      },
      "data": {
        "Name": "Autonomous Community",
        "Description": "Area governed by a Autonomous Community-like related system",
        "Code": "AutonomousCommunity",
        "AttributionAuthority": "OSDU",
        "Source": "Workbook Published/GeoPoliticalEntityType.1.0.0.xlsx; commit SHA c1d72417.",
        "CommitDate": "2021-03-16T11:23:02+01:00"
      }
    },
    {
      "id": "{{NAMESPACE}}:reference-data--GeoPoliticalEntityType:Barony",
      "kind": "osdu:wks:reference-data--GeoPoliticalEntityType:1.0.0",
      "acl": {
        "owners": [
          "{{DATA_OWNERS_GROUP}}"
        ],
        "viewers": [
          "{{DATA_VIEWERS_GROUP}}"
        ]
      },
      "legal": {
        "legaltags": [
          "{{LEGAL_TAG}}"
        ],
        "otherRelevantDataCountries": [
          "{{ISO_3166_ALPHA_2_CODE}}"
        ]
      },
      "data": {
        "Name": "Barony",
        "Description": "Area governed by a Barony-like related system",
        "Code": "Barony",
        "AttributionAuthority": "OSDU",
        "Source": "Workbook Published/GeoPoliticalEntityType.1.0.0.xlsx; commit SHA c1d72417.",
        "CommitDate": "2021-03-16T11:23:02+01:00"
      }
    },
    {
      "id": "{{NAMESPACE}}:reference-data--GeoPoliticalEntityType:Canton",
      "kind": "osdu:wks:reference-data--GeoPoliticalEntityType:1.0.0",
      "acl": {
        "owners": [
          "{{DATA_OWNERS_GROUP}}"
        ],
        "viewers": [
          "{{DATA_VIEWERS_GROUP}}"
        ]
      },
      "legal": {
        "legaltags": [
          "{{LEGAL_TAG}}"
        ],
        "otherRelevantDataCountries": [
          "{{ISO_3166_ALPHA_2_CODE}}"
        ]
      },
      "data": {
        "Name": "Canton",
        "Description": "Area governed by a Canton-like related system",
        "Code": "Canton",
        "AttributionAuthority": "OSDU",
        "Source": "Workbook Published/GeoPoliticalEntityType.1.0.0.xlsx; commit SHA c1d72417.",
        "CommitDate": "2021-03-16T11:23:02+01:00"
      }
    },
    {
      "id": "{{NAMESPACE}}:reference-data--GeoPoliticalEntityType:CapitalCity",
      "kind": "osdu:wks:reference-data--GeoPoliticalEntityType:1.0.0",
      "acl": {
        "owners": [
          "{{DATA_OWNERS_GROUP}}"
        ],
        "viewers": [
          "{{DATA_VIEWERS_GROUP}}"
        ]
      },
      "legal": {
        "legaltags": [
          "{{LEGAL_TAG}}"
        ],
        "otherRelevantDataCountries": [
          "{{ISO_3166_ALPHA_2_CODE}}"
        ]
      },
      "data": {
        "Name": "Capital City",
        "Description": "Area governed by a Capital City-like related system",
        "Code": "CapitalCity",
        "AttributionAuthority": "OSDU",
        "Source": "Workbook Published/GeoPoliticalEntityType.1.0.0.xlsx; commit SHA c1d72417.",
        "CommitDate": "2021-03-16T11:23:02+01:00"
      }
    },
    {
      "id": "{{NAMESPACE}}:reference-data--GeoPoliticalEntityType:City",
      "kind": "osdu:wks:reference-data--GeoPoliticalEntityType:1.0.0",
      "acl": {
        "owners": [
          "{{DATA_OWNERS_GROUP}}"
        ],
        "viewers": [
          "{{DATA_VIEWERS_GROUP}}"
        ]
      },
      "legal": {
        "legaltags": [
          "{{LEGAL_TAG}}"
        ],
        "otherRelevantDataCountries": [
          "{{ISO_3166_ALPHA_2_CODE}}"
        ]
      },
      "data": {
        "Name": "City",
        "Description": "Area governed by a City-like related system",
        "Code": "City",
        "AttributionAuthority": "OSDU",
        "Source": "Workbook Published/GeoPoliticalEntityType.1.0.0.xlsx; commit SHA c1d72417.",
        "CommitDate": "2021-03-16T11:23:02+01:00"
      }
    },
    {
      "id": "{{NAMESPACE}}:reference-data--GeoPoliticalEntityType:Community",
      "kind": "osdu:wks:reference-data--GeoPoliticalEntityType:1.0.0",
      "acl": {
        "owners": [
          "{{DATA_OWNERS_GROUP}}"
        ],
        "viewers": [
          "{{DATA_VIEWERS_GROUP}}"
        ]
      },
      "legal": {
        "legaltags": [
          "{{LEGAL_TAG}}"
        ],
        "otherRelevantDataCountries": [
          "{{ISO_3166_ALPHA_2_CODE}}"
        ]
      },
      "data": {
        "Name": "Community",
        "Description": "Area governed by a Community-like related system",
        "Code": "Community",
        "AttributionAuthority": "OSDU",
        "Source": "Workbook Published/GeoPoliticalEntityType.1.0.0.xlsx; commit SHA c1d72417.",
        "CommitDate": "2021-03-16T11:23:02+01:00"
      }
    },
    {
      "id": "{{NAMESPACE}}:reference-data--GeoPoliticalEntityType:ConfederatedState",
      "kind": "osdu:wks:reference-data--GeoPoliticalEntityType:1.0.0",
      "acl": {
        "owners": [
          "{{DATA_OWNERS_GROUP}}"
        ],
        "viewers": [
          "{{DATA_VIEWERS_GROUP}}"
        ]
      },
      "legal": {
        "legaltags": [
          "{{LEGAL_TAG}}"
        ],
        "otherRelevantDataCountries": [
          "{{ISO_3166_ALPHA_2_CODE}}"
        ]
      },
      "data": {
        "Name": "Confederated State",
        "Description": "Area governed by a Confederated State-like related system",
        "Code": "ConfederatedState",
        "AttributionAuthority": "OSDU",
        "Source": "Workbook Published/GeoPoliticalEntityType.1.0.0.xlsx; commit SHA c1d72417.",
        "CommitDate": "2021-03-16T11:23:02+01:00"
      }
    },
    {
      "id": "{{NAMESPACE}}:reference-data--GeoPoliticalEntityType:Constituency",
      "kind": "osdu:wks:reference-data--GeoPoliticalEntityType:1.0.0",
      "acl": {
        "owners": [
          "{{DATA_OWNERS_GROUP}}"
        ],
        "viewers": [
          "{{DATA_VIEWERS_GROUP}}"
        ]
      },
      "legal": {
        "legaltags": [
          "{{LEGAL_TAG}}"
        ],
        "otherRelevantDataCountries": [
          "{{ISO_3166_ALPHA_2_CODE}}"
        ]
      },
      "data": {
        "Name": "Constituency",
        "Description": "Area governed by a Constituency-like related system",
        "Code": "Constituency",
        "AttributionAuthority": "OSDU",
        "Source": "Workbook Published/GeoPoliticalEntityType.1.0.0.xlsx; commit SHA c1d72417.",
        "CommitDate": "2021-03-16T11:23:02+01:00"
      }
    },
    {
      "id": "{{NAMESPACE}}:reference-data--GeoPoliticalEntityType:Country",
      "kind": "osdu:wks:reference-data--GeoPoliticalEntityType:1.0.0",
      "acl": {
        "owners": [
          "{{DATA_OWNERS_GROUP}}"
        ],
        "viewers": [
          "{{DATA_VIEWERS_GROUP}}"
        ]
      },
      "legal": {
        "legaltags": [
          "{{LEGAL_TAG}}"
        ],
        "otherRelevantDataCountries": [
          "{{ISO_3166_ALPHA_2_CODE}}"
        ]
      },
      "data": {
        "Name": "Country",
        "Description": "Area governed by a Country-like related system",
        "Code": "Country",
        "AttributionAuthority": "OSDU",
        "Source": "Workbook Published/GeoPoliticalEntityType.1.0.0.xlsx; commit SHA c1d72417.",
        "CommitDate": "2021-03-16T11:23:02+01:00"
      }
    },
    {
      "id": "{{NAMESPACE}}:reference-data--GeoPoliticalEntityType:County",
      "kind": "osdu:wks:reference-data--GeoPoliticalEntityType:1.0.0",
      "acl": {
        "owners": [
          "{{DATA_OWNERS_GROUP}}"
        ],
        "viewers": [
          "{{DATA_VIEWERS_GROUP}}"
        ]
      },
      "legal": {
        "legaltags": [
          "{{LEGAL_TAG}}"
        ],
        "otherRelevantDataCountries": [
          "{{ISO_3166_ALPHA_2_CODE}}"
        ]
      },
      "data": {
        "Name": "County",
        "Description": "Area governed by a County-like related system",
        "Code": "County",
        "AttributionAuthority": "OSDU",
        "Source": "Workbook Published/GeoPoliticalEntityType.1.0.0.xlsx; commit SHA c1d72417.",
        "CommitDate": "2021-03-16T11:23:02+01:00"
      }
    },
    {
      "id": "{{NAMESPACE}}:reference-data--GeoPoliticalEntityType:CrownDependency",
      "kind": "osdu:wks:reference-data--GeoPoliticalEntityType:1.0.0",
      "acl": {
        "owners": [
          "{{DATA_OWNERS_GROUP}}"
        ],
        "viewers": [
          "{{DATA_VIEWERS_GROUP}}"
        ]
      },
      "legal": {
        "legaltags": [
          "{{LEGAL_TAG}}"
        ],
        "otherRelevantDataCountries": [
          "{{ISO_3166_ALPHA_2_CODE}}"
        ]
      },
      "data": {
        "Name": "Crown Dependency",
        "Description": "Area governed by a Crown Dependency-like related system",
        "Code": "CrownDependency",
        "AttributionAuthority": "OSDU",
        "Source": "Workbook Published/GeoPoliticalEntityType.1.0.0.xlsx; commit SHA c1d72417.",
        "CommitDate": "2021-03-16T11:23:02+01:00"
      }
    },
    {
      "id": "{{NAMESPACE}}:reference-data--GeoPoliticalEntityType:Department",
      "kind": "osdu:wks:reference-data--GeoPoliticalEntityType:1.0.0",
      "acl": {
        "owners": [
          "{{DATA_OWNERS_GROUP}}"
        ],
        "viewers": [
          "{{DATA_VIEWERS_GROUP}}"
        ]
      },
      "legal": {
        "legaltags": [
          "{{LEGAL_TAG}}"
        ],
        "otherRelevantDataCountries": [
          "{{ISO_3166_ALPHA_2_CODE}}"
        ]
      },
      "data": {
        "Name": "Department",
        "Description": "Area governed by a Department-like related system",
        "Code": "Department",
        "AttributionAuthority": "OSDU",
        "Source": "Workbook Published/GeoPoliticalEntityType.1.0.0.xlsx; commit SHA c1d72417.",
        "CommitDate": "2021-03-16T11:23:02+01:00"
      }
    },
    {
      "id": "{{NAMESPACE}}:reference-data--GeoPoliticalEntityType:District",
      "kind": "osdu:wks:reference-data--GeoPoliticalEntityType:1.0.0",
      "acl": {
        "owners": [
          "{{DATA_OWNERS_GROUP}}"
        ],
        "viewers": [
          "{{DATA_VIEWERS_GROUP}}"
        ]
      },
      "legal": {
        "legaltags": [
          "{{LEGAL_TAG}}"
        ],
        "otherRelevantDataCountries": [
          "{{ISO_3166_ALPHA_2_CODE}}"
        ]
      },
      "data": {
        "Name": "District",
        "Description": "Area governed by a District-like related system",
        "Code": "District",
        "AttributionAuthority": "OSDU",
        "Source": "Workbook Published/GeoPoliticalEntityType.1.0.0.xlsx; commit SHA c1d72417.",
        "CommitDate": "2021-03-16T11:23:02+01:00"
      }
    },
    {
      "id": "{{NAMESPACE}}:reference-data--GeoPoliticalEntityType:Division",
      "kind": "osdu:wks:reference-data--GeoPoliticalEntityType:1.0.0",
      "acl": {
        "owners": [
          "{{DATA_OWNERS_GROUP}}"
        ],
        "viewers": [
          "{{DATA_VIEWERS_GROUP}}"
        ]
      },
      "legal": {
        "legaltags": [
          "{{LEGAL_TAG}}"
        ],
        "otherRelevantDataCountries": [
          "{{ISO_3166_ALPHA_2_CODE}}"
        ]
      },
      "data": {
        "Name": "Division",
        "Description": "Area governed by a Division-like related system",
        "Code": "Division",
        "AttributionAuthority": "OSDU",
        "Source": "Workbook Published/GeoPoliticalEntityType.1.0.0.xlsx; commit SHA c1d72417.",
        "CommitDate": "2021-03-16T11:23:02+01:00"
      }
    },
    {
      "id": "{{NAMESPACE}}:reference-data--GeoPoliticalEntityType:Duchy",
      "kind": "osdu:wks:reference-data--GeoPoliticalEntityType:1.0.0",
      "acl": {
        "owners": [
          "{{DATA_OWNERS_GROUP}}"
        ],
        "viewers": [
          "{{DATA_VIEWERS_GROUP}}"
        ]
      },
      "legal": {
        "legaltags": [
          "{{LEGAL_TAG}}"
        ],
        "otherRelevantDataCountries": [
          "{{ISO_3166_ALPHA_2_CODE}}"
        ]
      },
      "data": {
        "Name": "Duchy",
        "Description": "Area governed by a Duchy-like related system",
        "Code": "Duchy",
        "AttributionAuthority": "OSDU",
        "Source": "Workbook Published/GeoPoliticalEntityType.1.0.0.xlsx; commit SHA c1d72417.",
        "CommitDate": "2021-03-16T11:23:02+01:00"
      }
    },
    {
      "id": "{{NAMESPACE}}:reference-data--GeoPoliticalEntityType:Empire",
      "kind": "osdu:wks:reference-data--GeoPoliticalEntityType:1.0.0",
      "acl": {
        "owners": [
          "{{DATA_OWNERS_GROUP}}"
        ],
        "viewers": [
          "{{DATA_VIEWERS_GROUP}}"
        ]
      },
      "legal": {
        "legaltags": [
          "{{LEGAL_TAG}}"
        ],
        "otherRelevantDataCountries": [
          "{{ISO_3166_ALPHA_2_CODE}}"
        ]
      },
      "data": {
        "Name": "Empire",
        "Description": "Area governed by a Empire-like related system",
        "Code": "Empire",
        "AttributionAuthority": "OSDU",
        "Source": "Workbook Published/GeoPoliticalEntityType.1.0.0.xlsx; commit SHA c1d72417.",
        "CommitDate": "2021-03-16T11:23:02+01:00"
      }
    },
    {
      "id": "{{NAMESPACE}}:reference-data--GeoPoliticalEntityType:Entity",
      "kind": "osdu:wks:reference-data--GeoPoliticalEntityType:1.0.0",
      "acl": {
        "owners": [
          "{{DATA_OWNERS_GROUP}}"
        ],
        "viewers": [
          "{{DATA_VIEWERS_GROUP}}"
        ]
      },
      "legal": {
        "legaltags": [
          "{{LEGAL_TAG}}"
        ],
        "otherRelevantDataCountries": [
          "{{ISO_3166_ALPHA_2_CODE}}"
        ]
      },
      "data": {
        "Name": "Entity",
        "Description": "Area governed by a Entity-like related system",
        "Code": "Entity",
        "AttributionAuthority": "OSDU",
        "Source": "Workbook Published/GeoPoliticalEntityType.1.0.0.xlsx; commit SHA c1d72417.",
        "CommitDate": "2021-03-16T11:23:02+01:00"
      }
    },
    {
      "id": "{{NAMESPACE}}:reference-data--GeoPoliticalEntityType:FederatedState",
      "kind": "osdu:wks:reference-data--GeoPoliticalEntityType:1.0.0",
      "acl": {
        "owners": [
          "{{DATA_OWNERS_GROUP}}"
        ],
        "viewers": [
          "{{DATA_VIEWERS_GROUP}}"
        ]
      },
      "legal": {
        "legaltags": [
          "{{LEGAL_TAG}}"
        ],
        "otherRelevantDataCountries": [
          "{{ISO_3166_ALPHA_2_CODE}}"
        ]
      },
      "data": {
        "Name": "Federated state",
        "Description": "Area governed by a Federated state-like related system",
        "Code": "FederatedState",
        "AttributionAuthority": "OSDU",
        "Source": "Workbook Published/GeoPoliticalEntityType.1.0.0.xlsx; commit SHA c1d72417.",
        "CommitDate": "2021-03-16T11:23:02+01:00"
      }
    },
    {
      "id": "{{NAMESPACE}}:reference-data--GeoPoliticalEntityType:Governorate",
      "kind": "osdu:wks:reference-data--GeoPoliticalEntityType:1.0.0",
      "acl": {
        "owners": [
          "{{DATA_OWNERS_GROUP}}"
        ],
        "viewers": [
          "{{DATA_VIEWERS_GROUP}}"
        ]
      },
      "legal": {
        "legaltags": [
          "{{LEGAL_TAG}}"
        ],
        "otherRelevantDataCountries": [
          "{{ISO_3166_ALPHA_2_CODE}}"
        ]
      },
      "data": {
        "Name": "Governorate",
        "Description": "Area governed by a Governorate-like related system",
        "Code": "Governorate",
        "AttributionAuthority": "OSDU",
        "Source": "Workbook Published/GeoPoliticalEntityType.1.0.0.xlsx; commit SHA c1d72417.",
        "CommitDate": "2021-03-16T11:23:02+01:00"
      }
    },
    {
      "id": "{{NAMESPACE}}:reference-data--GeoPoliticalEntityType:Hundred",
      "kind": "osdu:wks:reference-data--GeoPoliticalEntityType:1.0.0",
      "acl": {
        "owners": [
          "{{DATA_OWNERS_GROUP}}"
        ],
        "viewers": [
          "{{DATA_VIEWERS_GROUP}}"
        ]
      },
      "legal": {
        "legaltags": [
          "{{LEGAL_TAG}}"
        ],
        "otherRelevantDataCountries": [
          "{{ISO_3166_ALPHA_2_CODE}}"
        ]
      },
      "data": {
        "Name": "Hundred",
        "Description": "Area governed by a Hundred-like related system",
        "Code": "Hundred",
        "AttributionAuthority": "OSDU",
        "Source": "Workbook Published/GeoPoliticalEntityType.1.0.0.xlsx; commit SHA c1d72417.",
        "CommitDate": "2021-03-16T11:23:02+01:00"
      }
    },
    {
      "id": "{{NAMESPACE}}:reference-data--GeoPoliticalEntityType:IndianReservation",
      "kind": "osdu:wks:reference-data--GeoPoliticalEntityType:1.0.0",
      "acl": {
        "owners": [
          "{{DATA_OWNERS_GROUP}}"
        ],
        "viewers": [
          "{{DATA_VIEWERS_GROUP}}"
        ]
      },
      "legal": {
        "legaltags": [
          "{{LEGAL_TAG}}"
        ],
        "otherRelevantDataCountries": [
          "{{ISO_3166_ALPHA_2_CODE}}"
        ]
      },
      "data": {
        "Name": "Indian Reservation",
        "Description": "Area governed by a Indian Reservation-like related system",
        "Code": "IndianReservation",
        "AttributionAuthority": "OSDU",
        "Source": "Workbook Published/GeoPoliticalEntityType.1.0.0.xlsx; commit SHA c1d72417.",
        "CommitDate": "2021-03-16T11:23:02+01:00"
      }
    },
    {
      "id": "{{NAMESPACE}}:reference-data--GeoPoliticalEntityType:InsularArea",
      "kind": "osdu:wks:reference-data--GeoPoliticalEntityType:1.0.0",
      "acl": {
        "owners": [
          "{{DATA_OWNERS_GROUP}}"
        ],
        "viewers": [
          "{{DATA_VIEWERS_GROUP}}"
        ]
      },
      "legal": {
        "legaltags": [
          "{{LEGAL_TAG}}"
        ],
        "otherRelevantDataCountries": [
          "{{ISO_3166_ALPHA_2_CODE}}"
        ]
      },
      "data": {
        "Name": "Insular Area",
        "Description": "Area governed by a Insular Area-like related system",
        "Code": "InsularArea",
        "AttributionAuthority": "OSDU",
        "Source": "Workbook Published/GeoPoliticalEntityType.1.0.0.xlsx; commit SHA c1d72417.",
        "CommitDate": "2021-03-16T11:23:02+01:00"
      }
    },
    {
      "id": "{{NAMESPACE}}:reference-data--GeoPoliticalEntityType:Kingdom",
      "kind": "osdu:wks:reference-data--GeoPoliticalEntityType:1.0.0",
      "acl": {
        "owners": [
          "{{DATA_OWNERS_GROUP}}"
        ],
        "viewers": [
          "{{DATA_VIEWERS_GROUP}}"
        ]
      },
      "legal": {
        "legaltags": [
          "{{LEGAL_TAG}}"
        ],
        "otherRelevantDataCountries": [
          "{{ISO_3166_ALPHA_2_CODE}}"
        ]
      },
      "data": {
        "Name": "Kingdom",
        "Description": "Area governed by a Kingdom-like related system",
        "Code": "Kingdom",
        "AttributionAuthority": "OSDU",
        "Source": "Workbook Published/GeoPoliticalEntityType.1.0.0.xlsx; commit SHA c1d72417.",
        "CommitDate": "2021-03-16T11:23:02+01:00"
      }
    },
    {
      "id": "{{NAMESPACE}}:reference-data--GeoPoliticalEntityType:LocalCouncil",
      "kind": "osdu:wks:reference-data--GeoPoliticalEntityType:1.0.0",
      "acl": {
        "owners": [
          "{{DATA_OWNERS_GROUP}}"
        ],
        "viewers": [
          "{{DATA_VIEWERS_GROUP}}"
        ]
      },
      "legal": {
        "legaltags": [
          "{{LEGAL_TAG}}"
        ],
        "otherRelevantDataCountries": [
          "{{ISO_3166_ALPHA_2_CODE}}"
        ]
      },
      "data": {
        "Name": "Local Council",
        "Description": "Area governed by a Local Council-like related system",
        "Code": "LocalCouncil",
        "AttributionAuthority": "OSDU",
        "Source": "Workbook Published/GeoPoliticalEntityType.1.0.0.xlsx; commit SHA c1d72417.",
        "CommitDate": "2021-03-16T11:23:02+01:00"
      }
    },
    {
      "id": "{{NAMESPACE}}:reference-data--GeoPoliticalEntityType:LocalGovernmentArea",
      "kind": "osdu:wks:reference-data--GeoPoliticalEntityType:1.0.0",
      "acl": {
        "owners": [
          "{{DATA_OWNERS_GROUP}}"
        ],
        "viewers": [
          "{{DATA_VIEWERS_GROUP}}"
        ]
      },
      "legal": {
        "legaltags": [
          "{{LEGAL_TAG}}"
        ],
        "otherRelevantDataCountries": [
          "{{ISO_3166_ALPHA_2_CODE}}"
        ]
      },
      "data": {
        "Name": "Local Government Area",
        "Description": "Area governed by a Local Government Area-like related system",
        "Code": "LocalGovernmentArea",
        "AttributionAuthority": "OSDU",
        "Source": "Workbook Published/GeoPoliticalEntityType.1.0.0.xlsx; commit SHA c1d72417.",
        "CommitDate": "2021-03-16T11:23:02+01:00"
      }
    },
    {
      "id": "{{NAMESPACE}}:reference-data--GeoPoliticalEntityType:MetropolitanArea",
      "kind": "osdu:wks:reference-data--GeoPoliticalEntityType:1.0.0",
      "acl": {
        "owners": [
          "{{DATA_OWNERS_GROUP}}"
        ],
        "viewers": [
          "{{DATA_VIEWERS_GROUP}}"
        ]
      },
      "legal": {
        "legaltags": [
          "{{LEGAL_TAG}}"
        ],
        "otherRelevantDataCountries": [
          "{{ISO_3166_ALPHA_2_CODE}}"
        ]
      },
      "data": {
        "Name": "Metropolitan Area",
        "Description": "Area governed by a Metropolitan Area-like related system",
        "Code": "MetropolitanArea",
        "AttributionAuthority": "OSDU",
        "Source": "Workbook Published/GeoPoliticalEntityType.1.0.0.xlsx; commit SHA c1d72417.",
        "CommitDate": "2021-03-16T11:23:02+01:00"
      }
    },
    {
      "id": "{{NAMESPACE}}:reference-data--GeoPoliticalEntityType:Municipality",
      "kind": "osdu:wks:reference-data--GeoPoliticalEntityType:1.0.0",
      "acl": {
        "owners": [
          "{{DATA_OWNERS_GROUP}}"
        ],
        "viewers": [
          "{{DATA_VIEWERS_GROUP}}"
        ]
      },
      "legal": {
        "legaltags": [
          "{{LEGAL_TAG}}"
        ],
        "otherRelevantDataCountries": [
          "{{ISO_3166_ALPHA_2_CODE}}"
        ]
      },
      "data": {
        "Name": "Municipality",
        "Description": "Area governed by a Municipality-like related system",
        "Code": "Municipality",
        "AttributionAuthority": "OSDU",
        "Source": "Workbook Published/GeoPoliticalEntityType.1.0.0.xlsx; commit SHA c1d72417.",
        "CommitDate": "2021-03-16T11:23:02+01:00"
      }
    },
    {
      "id": "{{NAMESPACE}}:reference-data--GeoPoliticalEntityType:NationalRecreationArea",
      "kind": "osdu:wks:reference-data--GeoPoliticalEntityType:1.0.0",
      "acl": {
        "owners": [
          "{{DATA_OWNERS_GROUP}}"
        ],
        "viewers": [
          "{{DATA_VIEWERS_GROUP}}"
        ]
      },
      "legal": {
        "legaltags": [
          "{{LEGAL_TAG}}"
        ],
        "otherRelevantDataCountries": [
          "{{ISO_3166_ALPHA_2_CODE}}"
        ]
      },
      "data": {
        "Name": "National Recreation Area",
        "Description": "Area governed by a National Recreation Area-like related system",
        "Code": "NationalRecreationArea",
        "AttributionAuthority": "OSDU",
        "Source": "Workbook Published/GeoPoliticalEntityType.1.0.0.xlsx; commit SHA c1d72417.",
        "CommitDate": "2021-03-16T11:23:02+01:00"
      }
    },
    {
      "id": "{{NAMESPACE}}:reference-data--GeoPoliticalEntityType:Oblast",
      "kind": "osdu:wks:reference-data--GeoPoliticalEntityType:1.0.0",
      "acl": {
        "owners": [
          "{{DATA_OWNERS_GROUP}}"
        ],
        "viewers": [
          "{{DATA_VIEWERS_GROUP}}"
        ]
      },
      "legal": {
        "legaltags": [
          "{{LEGAL_TAG}}"
        ],
        "otherRelevantDataCountries": [
          "{{ISO_3166_ALPHA_2_CODE}}"
        ]
      },
      "data": {
        "Name": "Oblast",
        "Description": "Area governed by a Oblast-like related system",
        "Code": "Oblast",
        "AttributionAuthority": "OSDU",
        "Source": "Workbook Published/GeoPoliticalEntityType.1.0.0.xlsx; commit SHA c1d72417.",
        "CommitDate": "2021-03-16T11:23:02+01:00"
      }
    },
    {
      "id": "{{NAMESPACE}}:reference-data--GeoPoliticalEntityType:Parish",
      "kind": "osdu:wks:reference-data--GeoPoliticalEntityType:1.0.0",
      "acl": {
        "owners": [
          "{{DATA_OWNERS_GROUP}}"
        ],
        "viewers": [
          "{{DATA_VIEWERS_GROUP}}"
        ]
      },
      "legal": {
        "legaltags": [
          "{{LEGAL_TAG}}"
        ],
        "otherRelevantDataCountries": [
          "{{ISO_3166_ALPHA_2_CODE}}"
        ]
      },
      "data": {
        "Name": "Parish",
        "Description": "Area governed by a Parish-like related system",
        "Code": "Parish",
        "AttributionAuthority": "OSDU",
        "Source": "Workbook Published/GeoPoliticalEntityType.1.0.0.xlsx; commit SHA c1d72417.",
        "CommitDate": "2021-03-16T11:23:02+01:00"
      }
    },
    {
      "id": "{{NAMESPACE}}:reference-data--GeoPoliticalEntityType:Prefecture",
      "kind": "osdu:wks:reference-data--GeoPoliticalEntityType:1.0.0",
      "acl": {
        "owners": [
          "{{DATA_OWNERS_GROUP}}"
        ],
        "viewers": [
          "{{DATA_VIEWERS_GROUP}}"
        ]
      },
      "legal": {
        "legaltags": [
          "{{LEGAL_TAG}}"
        ],
        "otherRelevantDataCountries": [
          "{{ISO_3166_ALPHA_2_CODE}}"
        ]
      },
      "data": {
        "Name": "Prefecture",
        "Description": "Area governed by a Prefecture-like related system",
        "Code": "Prefecture",
        "AttributionAuthority": "OSDU",
        "Source": "Workbook Published/GeoPoliticalEntityType.1.0.0.xlsx; commit SHA c1d72417.",
        "CommitDate": "2021-03-16T11:23:02+01:00"
      }
    },
    {
      "id": "{{NAMESPACE}}:reference-data--GeoPoliticalEntityType:Principality",
      "kind": "osdu:wks:reference-data--GeoPoliticalEntityType:1.0.0",
      "acl": {
        "owners": [
          "{{DATA_OWNERS_GROUP}}"
        ],
        "viewers": [
          "{{DATA_VIEWERS_GROUP}}"
        ]
      },
      "legal": {
        "legaltags": [
          "{{LEGAL_TAG}}"
        ],
        "otherRelevantDataCountries": [
          "{{ISO_3166_ALPHA_2_CODE}}"
        ]
      },
      "data": {
        "Name": "Principality",
        "Description": "Area governed by a Principality-like related system",
        "Code": "Principality",
        "AttributionAuthority": "OSDU",
        "Source": "Workbook Published/GeoPoliticalEntityType.1.0.0.xlsx; commit SHA c1d72417.",
        "CommitDate": "2021-03-16T11:23:02+01:00"
      }
    },
    {
      "id": "{{NAMESPACE}}:reference-data--GeoPoliticalEntityType:Province",
      "kind": "osdu:wks:reference-data--GeoPoliticalEntityType:1.0.0",
      "acl": {
        "owners": [
          "{{DATA_OWNERS_GROUP}}"
        ],
        "viewers": [
          "{{DATA_VIEWERS_GROUP}}"
        ]
      },
      "legal": {
        "legaltags": [
          "{{LEGAL_TAG}}"
        ],
        "otherRelevantDataCountries": [
          "{{ISO_3166_ALPHA_2_CODE}}"
        ]
      },
      "data": {
        "Name": "Province",
        "Description": "Area governed by a Province-like related system",
        "Code": "Province",
        "AttributionAuthority": "OSDU",
        "Source": "Workbook Published/GeoPoliticalEntityType.1.0.0.xlsx; commit SHA c1d72417.",
        "CommitDate": "2021-03-16T11:23:02+01:00"
      }
    },
    {
      "id": "{{NAMESPACE}}:reference-data--GeoPoliticalEntityType:Rancheria",
      "kind": "osdu:wks:reference-data--GeoPoliticalEntityType:1.0.0",
      "acl": {
        "owners": [
          "{{DATA_OWNERS_GROUP}}"
        ],
        "viewers": [
          "{{DATA_VIEWERS_GROUP}}"
        ]
      },
      "legal": {
        "legaltags": [
          "{{LEGAL_TAG}}"
        ],
        "otherRelevantDataCountries": [
          "{{ISO_3166_ALPHA_2_CODE}}"
        ]
      },
      "data": {
        "Name": "Rancheria",
        "Description": "Area governed by a Rancheria-like related system",
        "Code": "Rancheria",
        "AttributionAuthority": "OSDU",
        "Source": "Workbook Published/GeoPoliticalEntityType.1.0.0.xlsx; commit SHA c1d72417.",
        "CommitDate": "2021-03-16T11:23:02+01:00"
      }
    },
    {
      "id": "{{NAMESPACE}}:reference-data--GeoPoliticalEntityType:Region",
      "kind": "osdu:wks:reference-data--GeoPoliticalEntityType:1.0.0",
      "acl": {
        "owners": [
          "{{DATA_OWNERS_GROUP}}"
        ],
        "viewers": [
          "{{DATA_VIEWERS_GROUP}}"
        ]
      },
      "legal": {
        "legaltags": [
          "{{LEGAL_TAG}}"
        ],
        "otherRelevantDataCountries": [
          "{{ISO_3166_ALPHA_2_CODE}}"
        ]
      },
      "data": {
        "Name": "Region",
        "Description": "Area governed by a Region-like related system",
        "Code": "Region",
        "AttributionAuthority": "OSDU",
        "Source": "Workbook Published/GeoPoliticalEntityType.1.0.0.xlsx; commit SHA c1d72417.",
        "CommitDate": "2021-03-16T11:23:02+01:00"
      }
    },
    {
      "id": "{{NAMESPACE}}:reference-data--GeoPoliticalEntityType:RegionalCounty",
      "kind": "osdu:wks:reference-data--GeoPoliticalEntityType:1.0.0",
      "acl": {
        "owners": [
          "{{DATA_OWNERS_GROUP}}"
        ],
        "viewers": [
          "{{DATA_VIEWERS_GROUP}}"
        ]
      },
      "legal": {
        "legaltags": [
          "{{LEGAL_TAG}}"
        ],
        "otherRelevantDataCountries": [
          "{{ISO_3166_ALPHA_2_CODE}}"
        ]
      },
      "data": {
        "Name": "Regional County",
        "Description": "Area governed by a Regional County-like related system",
        "Code": "RegionalCounty",
        "AttributionAuthority": "OSDU",
        "Source": "Workbook Published/GeoPoliticalEntityType.1.0.0.xlsx; commit SHA c1d72417.",
        "CommitDate": "2021-03-16T11:23:02+01:00"
      }
    },
    {
      "id": "{{NAMESPACE}}:reference-data--GeoPoliticalEntityType:Rural",
      "kind": "osdu:wks:reference-data--GeoPoliticalEntityType:1.0.0",
      "acl": {
        "owners": [
          "{{DATA_OWNERS_GROUP}}"
        ],
        "viewers": [
          "{{DATA_VIEWERS_GROUP}}"
        ]
      },
      "legal": {
        "legaltags": [
          "{{LEGAL_TAG}}"
        ],
        "otherRelevantDataCountries": [
          "{{ISO_3166_ALPHA_2_CODE}}"
        ]
      },
      "data": {
        "Name": "Rural",
        "Description": "Area governed by a Rural-like related system",
        "Code": "Rural",
        "AttributionAuthority": "OSDU",
        "Source": "Workbook Published/GeoPoliticalEntityType.1.0.0.xlsx; commit SHA c1d72417.",
        "CommitDate": "2021-03-16T11:23:02+01:00"
      }
    },
    {
      "id": "{{NAMESPACE}}:reference-data--GeoPoliticalEntityType:Shire",
      "kind": "osdu:wks:reference-data--GeoPoliticalEntityType:1.0.0",
      "acl": {
        "owners": [
          "{{DATA_OWNERS_GROUP}}"
        ],
        "viewers": [
          "{{DATA_VIEWERS_GROUP}}"
        ]
      },
      "legal": {
        "legaltags": [
          "{{LEGAL_TAG}}"
        ],
        "otherRelevantDataCountries": [
          "{{ISO_3166_ALPHA_2_CODE}}"
        ]
      },
      "data": {
        "Name": "Shire",
        "Description": "Area governed by a Shire-like related system",
        "Code": "Shire",
        "AttributionAuthority": "OSDU",
        "Source": "Workbook Published/GeoPoliticalEntityType.1.0.0.xlsx; commit SHA c1d72417.",
        "CommitDate": "2021-03-16T11:23:02+01:00"
      }
    },
    {
      "id": "{{NAMESPACE}}:reference-data--GeoPoliticalEntityType:SovereignState",
      "kind": "osdu:wks:reference-data--GeoPoliticalEntityType:1.0.0",
      "acl": {
        "owners": [
          "{{DATA_OWNERS_GROUP}}"
        ],
        "viewers": [
          "{{DATA_VIEWERS_GROUP}}"
        ]
      },
      "legal": {
        "legaltags": [
          "{{LEGAL_TAG}}"
        ],
        "otherRelevantDataCountries": [
          "{{ISO_3166_ALPHA_2_CODE}}"
        ]
      },
      "data": {
        "Name": "Sovereign State",
        "Description": "Area governed by a Sovereign State-like related system",
        "Code": "SovereignState",
        "AttributionAuthority": "OSDU",
        "Source": "Workbook Published/GeoPoliticalEntityType.1.0.0.xlsx; commit SHA c1d72417.",
        "CommitDate": "2021-03-16T11:23:02+01:00"
      }
    },
    {
      "id": "{{NAMESPACE}}:reference-data--GeoPoliticalEntityType:SpecialAdministrativeRegion",
      "kind": "osdu:wks:reference-data--GeoPoliticalEntityType:1.0.0",
      "acl": {
        "owners": [
          "{{DATA_OWNERS_GROUP}}"
        ],
        "viewers": [
          "{{DATA_VIEWERS_GROUP}}"
        ]
      },
      "legal": {
        "legaltags": [
          "{{LEGAL_TAG}}"
        ],
        "otherRelevantDataCountries": [
          "{{ISO_3166_ALPHA_2_CODE}}"
        ]
      },
      "data": {
        "Name": "Special Administrative Region",
        "Description": "Area governed by a Special Administrative Region-like related system",
        "Code": "SpecialAdministrativeRegion",
        "AttributionAuthority": "OSDU",
        "Source": "Workbook Published/GeoPoliticalEntityType.1.0.0.xlsx; commit SHA c1d72417.",
        "CommitDate": "2021-03-16T11:23:02+01:00"
      }
    },
    {
      "id": "{{NAMESPACE}}:reference-data--GeoPoliticalEntityType:State",
      "kind": "osdu:wks:reference-data--GeoPoliticalEntityType:1.0.0",
      "acl": {
        "owners": [
          "{{DATA_OWNERS_GROUP}}"
        ],
        "viewers": [
          "{{DATA_VIEWERS_GROUP}}"
        ]
      },
      "legal": {
        "legaltags": [
          "{{LEGAL_TAG}}"
        ],
        "otherRelevantDataCountries": [
          "{{ISO_3166_ALPHA_2_CODE}}"
        ]
      },
      "data": {
        "Name": "State",
        "Description": "Area governed by a State-like related system",
        "Code": "State",
        "AttributionAuthority": "OSDU",
        "Source": "Workbook Published/GeoPoliticalEntityType.1.0.0.xlsx; commit SHA c1d72417.",
        "CommitDate": "2021-03-16T11:23:02+01:00"
      }
    },
    {
      "id": "{{NAMESPACE}}:reference-data--GeoPoliticalEntityType:Territory",
      "kind": "osdu:wks:reference-data--GeoPoliticalEntityType:1.0.0",
      "acl": {
        "owners": [
          "{{DATA_OWNERS_GROUP}}"
        ],
        "viewers": [
          "{{DATA_VIEWERS_GROUP}}"
        ]
      },
      "legal": {
        "legaltags": [
          "{{LEGAL_TAG}}"
        ],
        "otherRelevantDataCountries": [
          "{{ISO_3166_ALPHA_2_CODE}}"
        ]
      },
      "data": {
        "Name": "Territory",
        "Description": "Area governed by a Territory-like related system",
        "Code": "Territory",
        "AttributionAuthority": "OSDU",
        "Source": "Workbook Published/GeoPoliticalEntityType.1.0.0.xlsx; commit SHA c1d72417.",
        "CommitDate": "2021-03-16T11:23:02+01:00"
      }
    },
    {
      "id": "{{NAMESPACE}}:reference-data--GeoPoliticalEntityType:Town",
      "kind": "osdu:wks:reference-data--GeoPoliticalEntityType:1.0.0",
      "acl": {
        "owners": [
          "{{DATA_OWNERS_GROUP}}"
        ],
        "viewers": [
          "{{DATA_VIEWERS_GROUP}}"
        ]
      },
      "legal": {
        "legaltags": [
          "{{LEGAL_TAG}}"
        ],
        "otherRelevantDataCountries": [
          "{{ISO_3166_ALPHA_2_CODE}}"
        ]
      },
      "data": {
        "Name": "Town",
        "Description": "Area governed by a Town-like related system",
        "Code": "Town",
        "AttributionAuthority": "OSDU",
        "Source": "Workbook Published/GeoPoliticalEntityType.1.0.0.xlsx; commit SHA c1d72417.",
        "CommitDate": "2021-03-16T11:23:02+01:00"
      }
    },
    {
      "id": "{{NAMESPACE}}:reference-data--GeoPoliticalEntityType:Township",
      "kind": "osdu:wks:reference-data--GeoPoliticalEntityType:1.0.0",
      "acl": {
        "owners": [
          "{{DATA_OWNERS_GROUP}}"
        ],
        "viewers": [
          "{{DATA_VIEWERS_GROUP}}"
        ]
      },
      "legal": {
        "legaltags": [
          "{{LEGAL_TAG}}"
        ],
        "otherRelevantDataCountries": [
          "{{ISO_3166_ALPHA_2_CODE}}"
        ]
      },
      "data": {
        "Name": "Township",
        "Description": "Area governed by a Township-like related system",
        "Code": "Township",
        "AttributionAuthority": "OSDU",
        "Source": "Workbook Published/GeoPoliticalEntityType.1.0.0.xlsx; commit SHA c1d72417.",
        "CommitDate": "2021-03-16T11:23:02+01:00"
      }
    },
    {
      "id": "{{NAMESPACE}}:reference-data--GeoPoliticalEntityType:UrbanArea",
      "kind": "osdu:wks:reference-data--GeoPoliticalEntityType:1.0.0",
      "acl": {
        "owners": [
          "{{DATA_OWNERS_GROUP}}"
        ],
        "viewers": [
          "{{DATA_VIEWERS_GROUP}}"
        ]
      },
      "legal": {
        "legaltags": [
          "{{LEGAL_TAG}}"
        ],
        "otherRelevantDataCountries": [
          "{{ISO_3166_ALPHA_2_CODE}}"
        ]
      },
      "data": {
        "Name": "Urban area",
        "Description": "Area governed by a Urban area-like related system",
        "Code": "UrbanArea",
        "AttributionAuthority": "OSDU",
        "Source": "Workbook Published/GeoPoliticalEntityType.1.0.0.xlsx; commit SHA c1d72417.",
        "CommitDate": "2021-03-16T11:23:02+01:00"
      }
    },
    {
      "id": "{{NAMESPACE}}:reference-data--GeoPoliticalEntityType:Village",
      "kind": "osdu:wks:reference-data--GeoPoliticalEntityType:1.0.0",
      "acl": {
        "owners": [
          "{{DATA_OWNERS_GROUP}}"
        ],
        "viewers": [
          "{{DATA_VIEWERS_GROUP}}"
        ]
      },
      "legal": {
        "legaltags": [
          "{{LEGAL_TAG}}"
        ],
        "otherRelevantDataCountries": [
          "{{ISO_3166_ALPHA_2_CODE}}"
        ]
      },
      "data": {
        "Name": "Village",
        "Description": "Area governed by a Village-like related system",
        "Code": "Village",
        "AttributionAuthority": "OSDU",
        "Source": "Workbook Published/GeoPoliticalEntityType.1.0.0.xlsx; commit SHA c1d72417.",
        "CommitDate": "2021-03-16T11:23:02+01:00"
      }
    },
    {
      "id": "{{NAMESPACE}}:reference-data--GeoPoliticalEntityType:Voivodeship",
      "kind": "osdu:wks:reference-data--GeoPoliticalEntityType:1.0.0",
      "acl": {
        "owners": [
          "{{DATA_OWNERS_GROUP}}"
        ],
        "viewers": [
          "{{DATA_VIEWERS_GROUP}}"
        ]
      },
      "legal": {
        "legaltags": [
          "{{LEGAL_TAG}}"
        ],
        "otherRelevantDataCountries": [
          "{{ISO_3166_ALPHA_2_CODE}}"
        ]
      },
      "data": {
        "Name": "Voivodeship",
        "Description": "Area governed by a Voivodeship-like related system",
        "Code": "Voivodeship",
        "AttributionAuthority": "OSDU",
        "Source": "Workbook Published/GeoPoliticalEntityType.1.0.0.xlsx; commit SHA c1d72417.",
        "CommitDate": "2021-03-16T11:23:02+01:00"
      }
    },
    {
      "id": "{{NAMESPACE}}:reference-data--GeoPoliticalEntityType:LicenseBlock",
      "kind": "osdu:wks:reference-data--GeoPoliticalEntityType:1.0.0",
      "acl": {
        "owners": [
          "{{DATA_OWNERS_GROUP}}"
        ],
        "viewers": [
          "{{DATA_VIEWERS_GROUP}}"
        ]
      },
      "legal": {
        "legaltags": [
          "{{LEGAL_TAG}}"
        ],
        "otherRelevantDataCountries": [
          "{{ISO_3166_ALPHA_2_CODE}}"
        ]
      },
      "data": {
        "Name": "License Block",
        "Description": "Area governed by the Licence/Block related terms definition",
        "Code": "LicenseBlock",
        "AttributionAuthority": "OSDU",
        "Source": "Workbook Published/GeoPoliticalEntityType.1.0.0.xlsx; commit SHA c1d72417.",
        "CommitDate": "2021-03-16T11:23:02+01:00"
      }
    }
  ]
}