{
  "kind": "osdu:wks:Manifest:1.0.0",
  "ReferenceData": [
    {
      "id": "{{NAMESPACE}}:reference-data--GrainSizeClassification:ISO.LargeBoulder",
      "kind": "osdu:wks:reference-data--GrainSizeClassification:1.0.0",
      "acl": {
        "owners": [
          "{{DATA_OWNERS_GROUP}}"
        ],
        "viewers": [
          "{{DATA_VIEWERS_GROUP}}"
        ]
      },
      "legal": {
        "legaltags": [
          "{{LEGAL_TAG}}"
        ],
        "otherRelevantDataCountries": [
          "{{ISO_3166_ALPHA_2_CODE}}"
        ]
      },
      "data": {
        "Name": "Large boulder",
        "NameAlias": [
          {
            "AliasName": "LBo",
            "AliasNameTypeID": "{{NAMESPACE}}:reference-data--AliasNameType:Abbreviation:"
          }
        ],
        "Description": "ISO 14668-1 scale: Grain size greater than 630 mm.",
        "Code": "ISO.LargeBoulder",
        "AttributionAuthority": "ISO",
        "AttributionPublication": "ISO 14688-1",
        "Source": "Workbook Published/GrainSizeClassification.1.0.0.xlsx; commit SHA cab01380.",
        "CommitDate": "2022-08-18T10:39:13+02:00"
      }
    },
    {
      "id": "{{NAMESPACE}}:reference-data--GrainSizeClassification:ISO.Boulder",
      "kind": "osdu:wks:reference-data--GrainSizeClassification:1.0.0",
      "acl": {
        "owners": [
          "{{DATA_OWNERS_GROUP}}"
        ],
        "viewers": [
          "{{DATA_VIEWERS_GROUP}}"
        ]
      },
      "legal": {
        "legaltags": [
          "{{LEGAL_TAG}}"
        ],
        "otherRelevantDataCountries": [
          "{{ISO_3166_ALPHA_2_CODE}}"
        ]
      },
      "data": {
        "Name": "Boulder",
        "NameAlias": [
          {
            "AliasName": "Bo",
            "AliasNameTypeID": "{{NAMESPACE}}:reference-data--AliasNameType:Abbreviation:"
          }
        ],
        "Description": "ISO 14668-1 scale: Grain size between 200 mm and 630 mm.",
        "Code": "ISO.Boulder",
        "AttributionAuthority": "ISO",
        "AttributionPublication": "ISO 14688-1",
        "Source": "Workbook Published/GrainSizeClassification.1.0.0.xlsx; commit SHA cab01380.",
        "CommitDate": "2022-08-18T10:39:13+02:00"
      }
    },
    {
      "id": "{{NAMESPACE}}:reference-data--GrainSizeClassification:ISO.Cobble",
      "kind": "osdu:wks:reference-data--GrainSizeClassification:1.0.0",
      "acl": {
        "owners": [
          "{{DATA_OWNERS_GROUP}}"
        ],
        "viewers": [
          "{{DATA_VIEWERS_GROUP}}"
        ]
      },
      "legal": {
        "legaltags": [
          "{{LEGAL_TAG}}"
        ],
        "otherRelevantDataCountries": [
          "{{ISO_3166_ALPHA_2_CODE}}"
        ]
      },
      "data": {
        "Name": "Cobble",
        "NameAlias": [
          {
            "AliasName": "Co",
            "AliasNameTypeID": "{{NAMESPACE}}:reference-data--AliasNameType:Abbreviation:"
          }
        ],
        "Description": "ISO 14668-1 scale: Grain size between 63 mm and 200 mm.",
        "Code": "ISO.Cobble",
        "AttributionAuthority": "ISO",
        "AttributionPublication": "ISO 14688-1",
        "Source": "Workbook Published/GrainSizeClassification.1.0.0.xlsx; commit SHA cab01380.",
        "CommitDate": "2022-08-18T10:39:13+02:00"
      }
    },
    {
      "id": "{{NAMESPACE}}:reference-data--GrainSizeClassification:ISO.Gravel",
      "kind": "osdu:wks:reference-data--GrainSizeClassification:1.0.0",
      "acl": {
        "owners": [
          "{{DATA_OWNERS_GROUP}}"
        ],
        "viewers": [
          "{{DATA_VIEWERS_GROUP}}"
        ]
      },
      "legal": {
        "legaltags": [
          "{{LEGAL_TAG}}"
        ],
        "otherRelevantDataCountries": [
          "{{ISO_3166_ALPHA_2_CODE}}"
        ]
      },
      "data": {
        "Name": "Gravel",
        "NameAlias": [
          {
            "AliasName": "Gr",
            "AliasNameTypeID": "{{NAMESPACE}}:reference-data--AliasNameType:Abbreviation:"
          }
        ],
        "Description": "ISO 14668-1 scale: Grain size between 2.0 mm and 63 mm.",
        "Code": "ISO.Gravel",
        "AttributionAuthority": "ISO",
        "AttributionPublication": "ISO 14688-1",
        "Source": "Workbook Published/GrainSizeClassification.1.0.0.xlsx; commit SHA cab01380.",
        "CommitDate": "2022-08-18T10:39:13+02:00"
      }
    },
    {
      "id": "{{NAMESPACE}}:reference-data--GrainSizeClassification:ISO.Gravel.CoarseGravel",
      "kind": "osdu:wks:reference-data--GrainSizeClassification:1.0.0",
      "acl": {
        "owners": [
          "{{DATA_OWNERS_GROUP}}"
        ],
        "viewers": [
          "{{DATA_VIEWERS_GROUP}}"
        ]
      },
      "legal": {
        "legaltags": [
          "{{LEGAL_TAG}}"
        ],
        "otherRelevantDataCountries": [
          "{{ISO_3166_ALPHA_2_CODE}}"
        ]
      },
      "data": {
        "Name": "Coarse gravel",
        "NameAlias": [
          {
            "AliasName": "CGr",
            "AliasNameTypeID": "{{NAMESPACE}}:reference-data--AliasNameType:Abbreviation:"
          }
        ],
        "Description": "ISO 14668-1 scale: Grain size between 20 mm and 63 mm.",
        "Code": "ISO.Gravel.CoarseGravel",
        "AttributionAuthority": "ISO",
        "AttributionPublication": "ISO 14688-1",
        "Source": "Workbook Published/GrainSizeClassification.1.0.0.xlsx; commit SHA cab01380.",
        "CommitDate": "2022-08-18T10:39:13+02:00"
      }
    },
    {
      "id": "{{NAMESPACE}}:reference-data--GrainSizeClassification:ISO.Gravel.MediumGravel",
      "kind": "osdu:wks:reference-data--GrainSizeClassification:1.0.0",
      "acl": {
        "owners": [
          "{{DATA_OWNERS_GROUP}}"
        ],
        "viewers": [
          "{{DATA_VIEWERS_GROUP}}"
        ]
      },
      "legal": {
        "legaltags": [
          "{{LEGAL_TAG}}"
        ],
        "otherRelevantDataCountries": [
          "{{ISO_3166_ALPHA_2_CODE}}"
        ]
      },
      "data": {
        "Name": "Medium gravel",
        "NameAlias": [
          {
            "AliasName": "MGr",
            "AliasNameTypeID": "{{NAMESPACE}}:reference-data--AliasNameType:Abbreviation:"
          }
        ],
        "Description": "ISO 14668-1 scale: Grain size between 6.3 mm and 20 mm.",
        "Code": "ISO.Gravel.MediumGravel",
        "AttributionAuthority": "ISO",
        "AttributionPublication": "ISO 14688-1",
        "Source": "Workbook Published/GrainSizeClassification.1.0.0.xlsx; commit SHA cab01380.",
        "CommitDate": "2022-08-18T10:39:13+02:00"
      }
    },
    {
      "id": "{{NAMESPACE}}:reference-data--GrainSizeClassification:ISO.Gravel.FineGravel",
      "kind": "osdu:wks:reference-data--GrainSizeClassification:1.0.0",
      "acl": {
        "owners": [
          "{{DATA_OWNERS_GROUP}}"
        ],
        "viewers": [
          "{{DATA_VIEWERS_GROUP}}"
        ]
      },
      "legal": {
        "legaltags": [
          "{{LEGAL_TAG}}"
        ],
        "otherRelevantDataCountries": [
          "{{ISO_3166_ALPHA_2_CODE}}"
        ]
      },
      "data": {
        "Name": "Fine gravel",
        "NameAlias": [
          {
            "AliasName": "FGr",
            "AliasNameTypeID": "{{NAMESPACE}}:reference-data--AliasNameType:Abbreviation:"
          }
        ],
        "Description": "ISO 14668-1 scale: Grain size between 2.0 mm and 6.3 mm.",
        "Code": "ISO.Gravel.FineGravel",
        "AttributionAuthority": "ISO",
        "AttributionPublication": "ISO 14688-1",
        "Source": "Workbook Published/GrainSizeClassification.1.0.0.xlsx; commit SHA cab01380.",
        "CommitDate": "2022-08-18T10:39:13+02:00"
      }
    },
    {
      "id": "{{NAMESPACE}}:reference-data--GrainSizeClassification:ISO.Sand",
      "kind": "osdu:wks:reference-data--GrainSizeClassification:1.0.0",
      "acl": {
        "owners": [
          "{{DATA_OWNERS_GROUP}}"
        ],
        "viewers": [
          "{{DATA_VIEWERS_GROUP}}"
        ]
      },
      "legal": {
        "legaltags": [
          "{{LEGAL_TAG}}"
        ],
        "otherRelevantDataCountries": [
          "{{ISO_3166_ALPHA_2_CODE}}"
        ]
      },
      "data": {
        "Name": "Sand",
        "NameAlias": [
          {
            "AliasName": "Sa",
            "AliasNameTypeID": "{{NAMESPACE}}:reference-data--AliasNameType:Abbreviation:"
          }
        ],
        "Description": "ISO 14668-1 scale: Grain size between 0.0063 mm and 2.0 mm.",
        "Code": "ISO.Sand",
        "AttributionAuthority": "ISO",
        "AttributionPublication": "ISO 14688-1",
        "Source": "Workbook Published/GrainSizeClassification.1.0.0.xlsx; commit SHA cab01380.",
        "CommitDate": "2022-08-18T10:39:13+02:00"
      }
    },
    {
      "id": "{{NAMESPACE}}:reference-data--GrainSizeClassification:ISO.Sand.CoarseSand",
      "kind": "osdu:wks:reference-data--GrainSizeClassification:1.0.0",
      "acl": {
        "owners": [
          "{{DATA_OWNERS_GROUP}}"
        ],
        "viewers": [
          "{{DATA_VIEWERS_GROUP}}"
        ]
      },
      "legal": {
        "legaltags": [
          "{{LEGAL_TAG}}"
        ],
        "otherRelevantDataCountries": [
          "{{ISO_3166_ALPHA_2_CODE}}"
        ]
      },
      "data": {
        "Name": "Coarse sand",
        "NameAlias": [
          {
            "AliasName": "CSa",
            "AliasNameTypeID": "{{NAMESPACE}}:reference-data--AliasNameType:Abbreviation:"
          }
        ],
        "Description": "ISO 14668-1 scale: Grain size between 0.63 mm and 2.0 mm.",
        "Code": "ISO.Sand.CoarseSand",
        "AttributionAuthority": "ISO",
        "AttributionPublication": "ISO 14688-1",
        "Source": "Workbook Published/GrainSizeClassification.1.0.0.xlsx; commit SHA cab01380.",
        "CommitDate": "2022-08-18T10:39:13+02:00"
      }
    },
    {
      "id": "{{NAMESPACE}}:reference-data--GrainSizeClassification:ISO.Sand.MediumSand",
      "kind": "osdu:wks:reference-data--GrainSizeClassification:1.0.0",
      "acl": {
        "owners": [
          "{{DATA_OWNERS_GROUP}}"
        ],
        "viewers": [
          "{{DATA_VIEWERS_GROUP}}"
        ]
      },
      "legal": {
        "legaltags": [
          "{{LEGAL_TAG}}"
        ],
        "otherRelevantDataCountries": [
          "{{ISO_3166_ALPHA_2_CODE}}"
        ]
      },
      "data": {
        "Name": "Medium sand",
        "NameAlias": [
          {
            "AliasName": "MSa",
            "AliasNameTypeID": "{{NAMESPACE}}:reference-data--AliasNameType:Abbreviation:"
          }
        ],
        "Description": "ISO 14668-1 scale: Grain size between 0.2 mm and 0.63 mm.",
        "Code": "ISO.Sand.MediumSand",
        "AttributionAuthority": "ISO",
        "AttributionPublication": "ISO 14688-1",
        "Source": "Workbook Published/GrainSizeClassification.1.0.0.xlsx; commit SHA cab01380.",
        "CommitDate": "2022-08-18T10:39:13+02:00"
      }
    },
    {
      "id": "{{NAMESPACE}}:reference-data--GrainSizeClassification:ISO.Sand.FineSand",
      "kind": "osdu:wks:reference-data--GrainSizeClassification:1.0.0",
      "acl": {
        "owners": [
          "{{DATA_OWNERS_GROUP}}"
        ],
        "viewers": [
          "{{DATA_VIEWERS_GROUP}}"
        ]
      },
      "legal": {
        "legaltags": [
          "{{LEGAL_TAG}}"
        ],
        "otherRelevantDataCountries": [
          "{{ISO_3166_ALPHA_2_CODE}}"
        ]
      },
      "data": {
        "Name": "Fine sand",
        "NameAlias": [
          {
            "AliasName": "FSa",
            "AliasNameTypeID": "{{NAMESPACE}}:reference-data--AliasNameType:Abbreviation:"
          }
        ],
        "Description": "ISO 14668-1 scale: Grain size between 0.063 mm and 0.2 mm.",
        "Code": "ISO.Sand.FineSand",
        "AttributionAuthority": "ISO",
        "AttributionPublication": "ISO 14688-1",
        "Source": "Workbook Published/GrainSizeClassification.1.0.0.xlsx; commit SHA cab01380.",
        "CommitDate": "2022-08-18T10:39:13+02:00"
      }
    },
    {
      "id": "{{NAMESPACE}}:reference-data--GrainSizeClassification:ISO.Silt",
      "kind": "osdu:wks:reference-data--GrainSizeClassification:1.0.0",
      "acl": {
        "owners": [
          "{{DATA_OWNERS_GROUP}}"
        ],
        "viewers": [
          "{{DATA_VIEWERS_GROUP}}"
        ]
      },
      "legal": {
        "legaltags": [
          "{{LEGAL_TAG}}"
        ],
        "otherRelevantDataCountries": [
          "{{ISO_3166_ALPHA_2_CODE}}"
        ]
      },
      "data": {
        "Name": "Silt",
        "NameAlias": [
          {
            "AliasName": "Si",
            "AliasNameTypeID": "{{NAMESPACE}}:reference-data--AliasNameType:Abbreviation:"
          }
        ],
        "Description": "ISO 14668-1 scale: Grain size between 0.0002 mm and 0.063 mm.",
        "Code": "ISO.Silt",
        "AttributionAuthority": "ISO",
        "AttributionPublication": "ISO 14688-1",
        "Source": "Workbook Published/GrainSizeClassification.1.0.0.xlsx; commit SHA cab01380.",
        "CommitDate": "2022-08-18T10:39:13+02:00"
      }
    },
    {
      "id": "{{NAMESPACE}}:reference-data--GrainSizeClassification:ISO.Silt.CoarseSilt",
      "kind": "osdu:wks:reference-data--GrainSizeClassification:1.0.0",
      "acl": {
        "owners": [
          "{{DATA_OWNERS_GROUP}}"
        ],
        "viewers": [
          "{{DATA_VIEWERS_GROUP}}"
        ]
      },
      "legal": {
        "legaltags": [
          "{{LEGAL_TAG}}"
        ],
        "otherRelevantDataCountries": [
          "{{ISO_3166_ALPHA_2_CODE}}"
        ]
      },
      "data": {
        "Name": "Coarse silt",
        "NameAlias": [
          {
            "AliasName": "CSi",
            "AliasNameTypeID": "{{NAMESPACE}}:reference-data--AliasNameType:Abbreviation:"
          }
        ],
        "Description": "ISO 14668-1 scale: Grain size between 0.02 mm and 0.063 mm.",
        "Code": "ISO.Silt.CoarseSilt",
        "AttributionAuthority": "ISO",
        "AttributionPublication": "ISO 14688-1",
        "Source": "Workbook Published/GrainSizeClassification.1.0.0.xlsx; commit SHA cab01380.",
        "CommitDate": "2022-08-18T10:39:13+02:00"
      }
    },
    {
      "id": "{{NAMESPACE}}:reference-data--GrainSizeClassification:ISO.Silt.MediumSilt",
      "kind": "osdu:wks:reference-data--GrainSizeClassification:1.0.0",
      "acl": {
        "owners": [
          "{{DATA_OWNERS_GROUP}}"
        ],
        "viewers": [
          "{{DATA_VIEWERS_GROUP}}"
        ]
      },
      "legal": {
        "legaltags": [
          "{{LEGAL_TAG}}"
        ],
        "otherRelevantDataCountries": [
          "{{ISO_3166_ALPHA_2_CODE}}"
        ]
      },
      "data": {
        "Name": "Medium silt",
        "NameAlias": [
          {
            "AliasName": "MSi",
            "AliasNameTypeID": "{{NAMESPACE}}:reference-data--AliasNameType:Abbreviation:"
          }
        ],
        "Description": "ISO 14668-1 scale: Grain size between 0.0063 mm and 0.02 mm.",
        "Code": "ISO.Silt.MediumSilt",
        "AttributionAuthority": "ISO",
        "AttributionPublication": "ISO 14688-1",
        "Source": "Workbook Published/GrainSizeClassification.1.0.0.xlsx; commit SHA cab01380.",
        "CommitDate": "2022-08-18T10:39:13+02:00"
      }
    },
    {
      "id": "{{NAMESPACE}}:reference-data--GrainSizeClassification:ISO.Silt.FineSilt",
      "kind": "osdu:wks:reference-data--GrainSizeClassification:1.0.0",
      "acl": {
        "owners": [
          "{{DATA_OWNERS_GROUP}}"
        ],
        "viewers": [
          "{{DATA_VIEWERS_GROUP}}"
        ]
      },
      "legal": {
        "legaltags": [
          "{{LEGAL_TAG}}"
        ],
        "otherRelevantDataCountries": [
          "{{ISO_3166_ALPHA_2_CODE}}"
        ]
      },
      "data": {
        "Name": "Fine silt",
        "NameAlias": [
          {
            "AliasName": "FSi",
            "AliasNameTypeID": "{{NAMESPACE}}:reference-data--AliasNameType:Abbreviation:"
          }
        ],
        "Description": "ISO 14668-1 scale: Grain size between 0.002 mm and 0.0063 mm.",
        "Code": "ISO.Silt.FineSilt",
        "AttributionAuthority": "ISO",
        "AttributionPublication": "ISO 14688-1",
        "Source": "Workbook Published/GrainSizeClassification.1.0.0.xlsx; commit SHA cab01380.",
        "CommitDate": "2022-08-18T10:39:13+02:00"
      }
    },
    {
      "id": "{{NAMESPACE}}:reference-data--GrainSizeClassification:ISO.Clay",
      "kind": "osdu:wks:reference-data--GrainSizeClassification:1.0.0",
      "acl": {
        "owners": [
          "{{DATA_OWNERS_GROUP}}"
        ],
        "viewers": [
          "{{DATA_VIEWERS_GROUP}}"
        ]
      },
      "legal": {
        "legaltags": [
          "{{LEGAL_TAG}}"
        ],
        "otherRelevantDataCountries": [
          "{{ISO_3166_ALPHA_2_CODE}}"
        ]
      },
      "data": {
        "Name": "Clay",
        "NameAlias": [
          {
            "AliasName": "Cl",
            "AliasNameTypeID": "{{NAMESPACE}}:reference-data--AliasNameType:Abbreviation:"
          }
        ],
        "Description": "ISO 14668-1 scale: Grain size below 0.002 mm.",
        "Code": "ISO.Clay",
        "AttributionAuthority": "ISO",
        "AttributionPublication": "ISO 14688-1",
        "Source": "Workbook Published/GrainSizeClassification.1.0.0.xlsx; commit SHA cab01380.",
        "CommitDate": "2022-08-18T10:39:13+02:00"
      }
    },
    {
      "id": "{{NAMESPACE}}:reference-data--GrainSizeClassification:Wentworth.Boulder",
      "kind": "osdu:wks:reference-data--GrainSizeClassification:1.0.0",
      "acl": {
        "owners": [
          "{{DATA_OWNERS_GROUP}}"
        ],
        "viewers": [
          "{{DATA_VIEWERS_GROUP}}"
        ]
      },
      "legal": {
        "legaltags": [
          "{{LEGAL_TAG}}"
        ],
        "otherRelevantDataCountries": [
          "{{ISO_3166_ALPHA_2_CODE}}"
        ]
      },
      "data": {
        "Name": "Boulder",
        "Description": "Wentworth scale: Grain size larger than 256\u00a0mm",
        "Code": "Wentworth.Boulder",
        "AttributionPublication": "Wentworth, C. K. (1922). \"A Scale of Grade and Class Terms for Clastic Sediments\". The Journal of Geology. 30 (5): 377\u2013392. ",
        "Source": "Workbook Published/GrainSizeClassification.1.0.0.xlsx; commit SHA cab01380.",
        "CommitDate": "2022-08-18T10:39:13+02:00"
      }
    },
    {
      "id": "{{NAMESPACE}}:reference-data--GrainSizeClassification:Wentworth.Cobble",
      "kind": "osdu:wks:reference-data--GrainSizeClassification:1.0.0",
      "acl": {
        "owners": [
          "{{DATA_OWNERS_GROUP}}"
        ],
        "viewers": [
          "{{DATA_VIEWERS_GROUP}}"
        ]
      },
      "legal": {
        "legaltags": [
          "{{LEGAL_TAG}}"
        ],
        "otherRelevantDataCountries": [
          "{{ISO_3166_ALPHA_2_CODE}}"
        ]
      },
      "data": {
        "Name": "Cobble",
        "Description": "Wentworth scale: Grain size between 64 mm and 256\u00a0mm.",
        "Code": "Wentworth.Cobble",
        "AttributionPublication": "Wentworth, C. K. (1922). \"A Scale of Grade and Class Terms for Clastic Sediments\". The Journal of Geology. 30 (5): 377\u2013392. ",
        "Source": "Workbook Published/GrainSizeClassification.1.0.0.xlsx; commit SHA cab01380.",
        "CommitDate": "2022-08-18T10:39:13+02:00"
      }
    },
    {
      "id": "{{NAMESPACE}}:reference-data--GrainSizeClassification:Wentworth.Pebble",
      "kind": "osdu:wks:reference-data--GrainSizeClassification:1.0.0",
      "acl": {
        "owners": [
          "{{DATA_OWNERS_GROUP}}"
        ],
        "viewers": [
          "{{DATA_VIEWERS_GROUP}}"
        ]
      },
      "legal": {
        "legaltags": [
          "{{LEGAL_TAG}}"
        ],
        "otherRelevantDataCountries": [
          "{{ISO_3166_ALPHA_2_CODE}}"
        ]
      },
      "data": {
        "Name": "Pebble",
        "Description": "Wentworth scale: Grain size between 2 mm and 64\u00a0mm.",
        "Code": "Wentworth.Pebble",
        "AttributionPublication": "Wentworth, C. K. (1922). \"A Scale of Grade and Class Terms for Clastic Sediments\". The Journal of Geology. 30 (5): 377\u2013392. ",
        "Source": "Workbook Published/GrainSizeClassification.1.0.0.xlsx; commit SHA cab01380.",
        "CommitDate": "2022-08-18T10:39:13+02:00"
      }
    },
    {
      "id": "{{NAMESPACE}}:reference-data--GrainSizeClassification:Wentworth.Pebble.VeryCoarseGravel",
      "kind": "osdu:wks:reference-data--GrainSizeClassification:1.0.0",
      "acl": {
        "owners": [
          "{{DATA_OWNERS_GROUP}}"
        ],
        "viewers": [
          "{{DATA_VIEWERS_GROUP}}"
        ]
      },
      "legal": {
        "legaltags": [
          "{{LEGAL_TAG}}"
        ],
        "otherRelevantDataCountries": [
          "{{ISO_3166_ALPHA_2_CODE}}"
        ]
      },
      "data": {
        "Name": "Very coarse\u00a0gravel",
        "NameAlias": [
          {
            "AliasName": "Pebble",
            "AliasNameTypeID": "{{NAMESPACE}}:reference-data--AliasNameType:CommonName:"
          }
        ],
        "Description": "Wentworth scale: Grain size between 32 mm and 64\u00a0mm.",
        "Code": "Wentworth.Pebble.VeryCoarseGravel",
        "AttributionPublication": "Wentworth, C. K. (1922). \"A Scale of Grade and Class Terms for Clastic Sediments\". The Journal of Geology. 30 (5): 377\u2013392. ",
        "Source": "Workbook Published/GrainSizeClassification.1.0.0.xlsx; commit SHA cab01380.",
        "CommitDate": "2022-08-18T10:39:13+02:00"
      }
    },
    {
      "id": "{{NAMESPACE}}:reference-data--GrainSizeClassification:Wentworth.Pebble.CoarseGravel",
      "kind": "osdu:wks:reference-data--GrainSizeClassification:1.0.0",
      "acl": {
        "owners": [
          "{{DATA_OWNERS_GROUP}}"
        ],
        "viewers": [
          "{{DATA_VIEWERS_GROUP}}"
        ]
      },
      "legal": {
        "legaltags": [
          "{{LEGAL_TAG}}"
        ],
        "otherRelevantDataCountries": [
          "{{ISO_3166_ALPHA_2_CODE}}"
        ]
      },
      "data": {
        "Name": "Coarse gravel",
        "NameAlias": [
          {
            "AliasName": "Pebble",
            "AliasNameTypeID": "{{NAMESPACE}}:reference-data--AliasNameType:CommonName:"
          }
        ],
        "Description": "Wentworth scale: Grain size between 16 mm and 32\u00a0mm.",
        "Code": "Wentworth.Pebble.CoarseGravel",
        "AttributionPublication": "Wentworth, C. K. (1922). \"A Scale of Grade and Class Terms for Clastic Sediments\". The Journal of Geology. 30 (5): 377\u2013392. ",
        "Source": "Workbook Published/GrainSizeClassification.1.0.0.xlsx; commit SHA cab01380.",
        "CommitDate": "2022-08-18T10:39:13+02:00"
      }
    },
    {
      "id": "{{NAMESPACE}}:reference-data--GrainSizeClassification:Wentworth.Pebble.MediumGravel",
      "kind": "osdu:wks:reference-data--GrainSizeClassification:1.0.0",
      "acl": {
        "owners": [
          "{{DATA_OWNERS_GROUP}}"
        ],
        "viewers": [
          "{{DATA_VIEWERS_GROUP}}"
        ]
      },
      "legal": {
        "legaltags": [
          "{{LEGAL_TAG}}"
        ],
        "otherRelevantDataCountries": [
          "{{ISO_3166_ALPHA_2_CODE}}"
        ]
      },
      "data": {
        "Name": "Medium gravel",
        "NameAlias": [
          {
            "AliasName": "Pebble",
            "AliasNameTypeID": "{{NAMESPACE}}:reference-data--AliasNameType:CommonName:"
          }
        ],
        "Description": "Wentworth scale: Grain size between 8 mm and 16\u00a0mm.",
        "Code": "Wentworth.Pebble.MediumGravel",
        "AttributionPublication": "Wentworth, C. K. (1922). \"A Scale of Grade and Class Terms for Clastic Sediments\". The Journal of Geology. 30 (5): 377\u2013392. ",
        "Source": "Workbook Published/GrainSizeClassification.1.0.0.xlsx; commit SHA cab01380.",
        "CommitDate": "2022-08-18T10:39:13+02:00"
      }
    },
    {
      "id": "{{NAMESPACE}}:reference-data--GrainSizeClassification:Wentworth.Pebble.FineGravel",
      "kind": "osdu:wks:reference-data--GrainSizeClassification:1.0.0",
      "acl": {
        "owners": [
          "{{DATA_OWNERS_GROUP}}"
        ],
        "viewers": [
          "{{DATA_VIEWERS_GROUP}}"
        ]
      },
      "legal": {
        "legaltags": [
          "{{LEGAL_TAG}}"
        ],
        "otherRelevantDataCountries": [
          "{{ISO_3166_ALPHA_2_CODE}}"
        ]
      },
      "data": {
        "Name": "Fine gravel",
        "NameAlias": [
          {
            "AliasName": "Pebble",
            "AliasNameTypeID": "{{NAMESPACE}}:reference-data--AliasNameType:CommonName:"
          }
        ],
        "Description": "Wentworth scale: Grain size between 4 mm and 8\u00a0mm.",
        "Code": "Wentworth.Pebble.FineGravel",
        "AttributionPublication": "Wentworth, C. K. (1922). \"A Scale of Grade and Class Terms for Clastic Sediments\". The Journal of Geology. 30 (5): 377\u2013392. ",
        "Source": "Workbook Published/GrainSizeClassification.1.0.0.xlsx; commit SHA cab01380.",
        "CommitDate": "2022-08-18T10:39:13+02:00"
      }
    },
    {
      "id": "{{NAMESPACE}}:reference-data--GrainSizeClassification:Wentworth.Pebble.VeryFineGravel",
      "kind": "osdu:wks:reference-data--GrainSizeClassification:1.0.0",
      "acl": {
        "owners": [
          "{{DATA_OWNERS_GROUP}}"
        ],
        "viewers": [
          "{{DATA_VIEWERS_GROUP}}"
        ]
      },
      "legal": {
        "legaltags": [
          "{{LEGAL_TAG}}"
        ],
        "otherRelevantDataCountries": [
          "{{ISO_3166_ALPHA_2_CODE}}"
        ]
      },
      "data": {
        "Name": "Very fine gravel",
        "NameAlias": [
          {
            "AliasName": "Granule",
            "AliasNameTypeID": "{{NAMESPACE}}:reference-data--AliasNameType:CommonName:"
          }
        ],
        "Description": "Wentworth scale: Grain size between 2 mm and 4\u00a0mm.",
        "Code": "Wentworth.Pebble.VeryFineGravel",
        "AttributionPublication": "Wentworth, C. K. (1922). \"A Scale of Grade and Class Terms for Clastic Sediments\". The Journal of Geology. 30 (5): 377\u2013392. ",
        "Source": "Workbook Published/GrainSizeClassification.1.0.0.xlsx; commit SHA cab01380.",
        "CommitDate": "2022-08-18T10:39:13+02:00"
      }
    },
    {
      "id": "{{NAMESPACE}}:reference-data--GrainSizeClassification:Wentworth.VeryCoarseSand",
      "kind": "osdu:wks:reference-data--GrainSizeClassification:1.0.0",
      "acl": {
        "owners": [
          "{{DATA_OWNERS_GROUP}}"
        ],
        "viewers": [
          "{{DATA_VIEWERS_GROUP}}"
        ]
      },
      "legal": {
        "legaltags": [
          "{{LEGAL_TAG}}"
        ],
        "otherRelevantDataCountries": [
          "{{ISO_3166_ALPHA_2_CODE}}"
        ]
      },
      "data": {
        "Name": "Very coarse\u00a0sand",
        "Description": "Wentworth scale: Grain size between 1mm and 2\u00a0mm.",
        "Code": "Wentworth.VeryCoarseSand",
        "AttributionPublication": "Wentworth, C. K. (1922). \"A Scale of Grade and Class Terms for Clastic Sediments\". The Journal of Geology. 30 (5): 377\u2013392. ",
        "Source": "Workbook Published/GrainSizeClassification.1.0.0.xlsx; commit SHA cab01380.",
        "CommitDate": "2022-08-18T10:39:13+02:00"
      }
    },
    {
      "id": "{{NAMESPACE}}:reference-data--GrainSizeClassification:Wentworth.CoarseSand",
      "kind": "osdu:wks:reference-data--GrainSizeClassification:1.0.0",
      "acl": {
        "owners": [
          "{{DATA_OWNERS_GROUP}}"
        ],
        "viewers": [
          "{{DATA_VIEWERS_GROUP}}"
        ]
      },
      "legal": {
        "legaltags": [
          "{{LEGAL_TAG}}"
        ],
        "otherRelevantDataCountries": [
          "{{ISO_3166_ALPHA_2_CODE}}"
        ]
      },
      "data": {
        "Name": "Coarse sand",
        "Description": "Wentworth scale: Grain size between 0.5 mm and 1\u00a0mm.",
        "Code": "Wentworth.CoarseSand",
        "AttributionPublication": "Wentworth, C. K. (1922). \"A Scale of Grade and Class Terms for Clastic Sediments\". The Journal of Geology. 30 (5): 377\u2013392. ",
        "Source": "Workbook Published/GrainSizeClassification.1.0.0.xlsx; commit SHA cab01380.",
        "CommitDate": "2022-08-18T10:39:13+02:00"
      }
    },
    {
      "id": "{{NAMESPACE}}:reference-data--GrainSizeClassification:Wentworth.MediumSand",
      "kind": "osdu:wks:reference-data--GrainSizeClassification:1.0.0",
      "acl": {
        "owners": [
          "{{DATA_OWNERS_GROUP}}"
        ],
        "viewers": [
          "{{DATA_VIEWERS_GROUP}}"
        ]
      },
      "legal": {
        "legaltags": [
          "{{LEGAL_TAG}}"
        ],
        "otherRelevantDataCountries": [
          "{{ISO_3166_ALPHA_2_CODE}}"
        ]
      },
      "data": {
        "Name": "Medium sand",
        "Description": "Wentworth scale: Grain size between 0.25 mm and 0.5\u00a0mm.",
        "Code": "Wentworth.MediumSand",
        "AttributionPublication": "Wentworth, C. K. (1922). \"A Scale of Grade and Class Terms for Clastic Sediments\". The Journal of Geology. 30 (5): 377\u2013392. ",
        "Source": "Workbook Published/GrainSizeClassification.1.0.0.xlsx; commit SHA cab01380.",
        "CommitDate": "2022-08-18T10:39:13+02:00"
      }
    },
    {
      "id": "{{NAMESPACE}}:reference-data--GrainSizeClassification:Wentworth.FineSand",
      "kind": "osdu:wks:reference-data--GrainSizeClassification:1.0.0",
      "acl": {
        "owners": [
          "{{DATA_OWNERS_GROUP}}"
        ],
        "viewers": [
          "{{DATA_VIEWERS_GROUP}}"
        ]
      },
      "legal": {
        "legaltags": [
          "{{LEGAL_TAG}}"
        ],
        "otherRelevantDataCountries": [
          "{{ISO_3166_ALPHA_2_CODE}}"
        ]
      },
      "data": {
        "Name": "Fine sand",
        "Description": "Wentworth scale: Grain size between 0.125 mm and 0.250\u00a0mm.",
        "Code": "Wentworth.FineSand",
        "AttributionPublication": "Wentworth, C. K. (1922). \"A Scale of Grade and Class Terms for Clastic Sediments\". The Journal of Geology. 30 (5): 377\u2013392. ",
        "Source": "Workbook Published/GrainSizeClassification.1.0.0.xlsx; commit SHA cab01380.",
        "CommitDate": "2022-08-18T10:39:13+02:00"
      }
    },
    {
      "id": "{{NAMESPACE}}:reference-data--GrainSizeClassification:Wentworth.VeryFineSand",
      "kind": "osdu:wks:reference-data--GrainSizeClassification:1.0.0",
      "acl": {
        "owners": [
          "{{DATA_OWNERS_GROUP}}"
        ],
        "viewers": [
          "{{DATA_VIEWERS_GROUP}}"
        ]
      },
      "legal": {
        "legaltags": [
          "{{LEGAL_TAG}}"
        ],
        "otherRelevantDataCountries": [
          "{{ISO_3166_ALPHA_2_CODE}}"
        ]
      },
      "data": {
        "Name": "Very fine sand",
        "Description": "Wentworth scale: Grain size between 0.0625 mm and 0.125\u00a0mm.",
        "Code": "Wentworth.VeryFineSand",
        "AttributionPublication": "Wentworth, C. K. (1922). \"A Scale of Grade and Class Terms for Clastic Sediments\". The Journal of Geology. 30 (5): 377\u2013392. ",
        "Source": "Workbook Published/GrainSizeClassification.1.0.0.xlsx; commit SHA cab01380.",
        "CommitDate": "2022-08-18T10:39:13+02:00"
      }
    },
    {
      "id": "{{NAMESPACE}}:reference-data--GrainSizeClassification:Wentworth.Silt",
      "kind": "osdu:wks:reference-data--GrainSizeClassification:1.0.0",
      "acl": {
        "owners": [
          "{{DATA_OWNERS_GROUP}}"
        ],
        "viewers": [
          "{{DATA_VIEWERS_GROUP}}"
        ]
      },
      "legal": {
        "legaltags": [
          "{{LEGAL_TAG}}"
        ],
        "otherRelevantDataCountries": [
          "{{ISO_3166_ALPHA_2_CODE}}"
        ]
      },
      "data": {
        "Name": "Silt",
        "NameAlias": [
          {
            "AliasName": "Mud",
            "AliasNameTypeID": "{{NAMESPACE}}:reference-data--AliasNameType:CommonName:"
          }
        ],
        "Description": "Wentworth scale: Grain size between 0.0039 mm and 0.0625 mm.",
        "Code": "Wentworth.Silt",
        "AttributionPublication": "Wentworth, C. K. (1922). \"A Scale of Grade and Class Terms for Clastic Sediments\". The Journal of Geology. 30 (5): 377\u2013392. ",
        "Source": "Workbook Published/GrainSizeClassification.1.0.0.xlsx; commit SHA cab01380.",
        "CommitDate": "2022-08-18T10:39:13+02:00"
      }
    },
    {
      "id": "{{NAMESPACE}}:reference-data--GrainSizeClassification:Wentworth.Clay",
      "kind": "osdu:wks:reference-data--GrainSizeClassification:1.0.0",
      "acl": {
        "owners": [
          "{{DATA_OWNERS_GROUP}}"
        ],
        "viewers": [
          "{{DATA_VIEWERS_GROUP}}"
        ]
      },
      "legal": {
        "legaltags": [
          "{{LEGAL_TAG}}"
        ],
        "otherRelevantDataCountries": [
          "{{ISO_3166_ALPHA_2_CODE}}"
        ]
      },
      "data": {
        "Name": "Clay",
        "NameAlias": [
          {
            "AliasName": "Mud",
            "AliasNameTypeID": "{{NAMESPACE}}:reference-data--AliasNameType:CommonName:"
          }
        ],
        "Description": "Wentworth scale: Grain size between 0.98 \u03bcm and 3.9\u00a0\u03bcm.",
        "Code": "Wentworth.Clay",
        "AttributionPublication": "Wentworth, C. K. (1922). \"A Scale of Grade and Class Terms for Clastic Sediments\". The Journal of Geology. 30 (5): 377\u2013392. ",
        "Source": "Workbook Published/GrainSizeClassification.1.0.0.xlsx; commit SHA cab01380.",
        "CommitDate": "2022-08-18T10:39:13+02:00"
      }
    },
    {
      "id": "{{NAMESPACE}}:reference-data--GrainSizeClassification:Wentworth.Colloid",
      "kind": "osdu:wks:reference-data--GrainSizeClassification:1.0.0",
      "acl": {
        "owners": [
          "{{DATA_OWNERS_GROUP}}"
        ],
        "viewers": [
          "{{DATA_VIEWERS_GROUP}}"
        ]
      },
      "legal": {
        "legaltags": [
          "{{LEGAL_TAG}}"
        ],
        "otherRelevantDataCountries": [
          "{{ISO_3166_ALPHA_2_CODE}}"
        ]
      },
      "data": {
        "Name": "Colloid",
        "NameAlias": [
          {
            "AliasName": "Mud",
            "AliasNameTypeID": "{{NAMESPACE}}:reference-data--AliasNameType:CommonName:"
          }
        ],
        "Description": "Wentworth scale: Grain size between 0.95 nm and 977\u00a0nm.",
        "Code": "Wentworth.Colloid",
        "AttributionPublication": "Wentworth, C. K. (1922). \"A Scale of Grade and Class Terms for Clastic Sediments\". The Journal of Geology. 30 (5): 377\u2013392. ",
        "Source": "Workbook Published/GrainSizeClassification.1.0.0.xlsx; commit SHA cab01380.",
        "CommitDate": "2022-08-18T10:39:13+02:00"
      }
    }
  ]
}