{
  "kind": "osdu:wks:Manifest:1.0.0",
  "ReferenceData": [
    {
      "id": "{{NAMESPACE}}:reference-data--LithoStratigraphy:Bed",
      "kind": "osdu:wks:reference-data--LithoStratigraphy:1.0.0",
      "acl": {
        "owners": [
          "{{DATA_OWNERS_GROUP}}"
        ],
        "viewers": [
          "{{DATA_VIEWERS_GROUP}}"
        ]
      },
      "legal": {
        "legaltags": [
          "{{LEGAL_TAG}}"
        ],
        "otherRelevantDataCountries": [
          "{{ISO_3166_ALPHA_2_CODE}}"
        ]
      },
      "data": {
        "Name": "Bed",
        "Description": "A\u00a0bed\u00a0is a lithologically distinct layer within a member or formation and is the smallest recognisable stratigraphic unit. These are not normally named, but may be in the case of a\u00a0marker horizon",
        "AttributionAuthority": "OSDU",
        "ID": "Bed",
        "Code": "Bed",
        "Source": "Workbook Published/LithoStratigraphy.1.0.0.xlsx; commit SHA 951f2a10.",
        "CommitDate": "2021-12-06T11:34:44+01:00"
      }
    },
    {
      "id": "{{NAMESPACE}}:reference-data--LithoStratigraphy:Member",
      "kind": "osdu:wks:reference-data--LithoStratigraphy:1.0.0",
      "acl": {
        "owners": [
          "{{DATA_OWNERS_GROUP}}"
        ],
        "viewers": [
          "{{DATA_VIEWERS_GROUP}}"
        ]
      },
      "legal": {
        "legaltags": [
          "{{LEGAL_TAG}}"
        ],
        "otherRelevantDataCountries": [
          "{{ISO_3166_ALPHA_2_CODE}}"
        ]
      },
      "data": {
        "Name": "Member",
        "Description": "A member is a named lithologically distinct part of a formation. Not all formations are subdivided in this way and even where they are recognized, they may only form part of the formation.\u00a0A member need not be mappable at the same scale as a formation.",
        "AttributionAuthority": "OSDU",
        "ID": "Member",
        "Code": "Member",
        "Source": "Workbook Published/LithoStratigraphy.1.0.0.xlsx; commit SHA 951f2a10.",
        "CommitDate": "2021-12-06T11:34:44+01:00"
      }
    },
    {
      "id": "{{NAMESPACE}}:reference-data--LithoStratigraphy:Formation",
      "kind": "osdu:wks:reference-data--LithoStratigraphy:1.0.0",
      "acl": {
        "owners": [
          "{{DATA_OWNERS_GROUP}}"
        ],
        "viewers": [
          "{{DATA_VIEWERS_GROUP}}"
        ]
      },
      "legal": {
        "legaltags": [
          "{{LEGAL_TAG}}"
        ],
        "otherRelevantDataCountries": [
          "{{ISO_3166_ALPHA_2_CODE}}"
        ]
      },
      "data": {
        "Name": "Formation",
        "Description": "Formations are the primary units used in the subdivision of a sequence and may vary in scale from tens of centimetres to kilometres. They should be distinct lithologically from other formations, although the boundaries do not need to be sharp. To be formally recognised, a formation must have sufficient extent to be useful in mapping an area.",
        "AttributionAuthority": "OSDU",
        "ID": "Formation",
        "Code": "Formation",
        "Source": "Workbook Published/LithoStratigraphy.1.0.0.xlsx; commit SHA 951f2a10.",
        "CommitDate": "2021-12-06T11:34:44+01:00"
      }
    },
    {
      "id": "{{NAMESPACE}}:reference-data--LithoStratigraphy:Group",
      "kind": "osdu:wks:reference-data--LithoStratigraphy:1.0.0",
      "acl": {
        "owners": [
          "{{DATA_OWNERS_GROUP}}"
        ],
        "viewers": [
          "{{DATA_VIEWERS_GROUP}}"
        ]
      },
      "legal": {
        "legaltags": [
          "{{LEGAL_TAG}}"
        ],
        "otherRelevantDataCountries": [
          "{{ISO_3166_ALPHA_2_CODE}}"
        ]
      },
      "data": {
        "Name": "Group",
        "Description": "A group is a set of two or more formations that share certain lithological characteristics. A group may be made up of different formations in different geographical areas and individual formations may appear in more than one group",
        "AttributionAuthority": "OSDU",
        "ID": "Group",
        "Code": "Group",
        "Source": "Workbook Published/LithoStratigraphy.1.0.0.xlsx; commit SHA 951f2a10.",
        "CommitDate": "2021-12-06T11:34:44+01:00"
      }
    },
    {
      "id": "{{NAMESPACE}}:reference-data--LithoStratigraphy:Supergroup",
      "kind": "osdu:wks:reference-data--LithoStratigraphy:1.0.0",
      "acl": {
        "owners": [
          "{{DATA_OWNERS_GROUP}}"
        ],
        "viewers": [
          "{{DATA_VIEWERS_GROUP}}"
        ]
      },
      "legal": {
        "legaltags": [
          "{{LEGAL_TAG}}"
        ],
        "otherRelevantDataCountries": [
          "{{ISO_3166_ALPHA_2_CODE}}"
        ]
      },
      "data": {
        "Name": "Supergroup",
        "Description": "A supergroup is a set of two or more associated groups and/or formations that share certain lithological characteristics. A supergroup may be made up of different groups in different geographical areas",
        "AttributionAuthority": "OSDU",
        "ID": "Supergroup",
        "Code": "Supergroup",
        "Source": "Workbook Published/LithoStratigraphy.1.0.0.xlsx; commit SHA 951f2a10.",
        "CommitDate": "2021-12-06T11:34:44+01:00"
      }
    }
  ]
}