{
  "kind": "osdu:wks:Manifest:1.0.0",
  "ReferenceData": [
    {
      "id": "{{NAMESPACE}}:reference-data--MarkerType:BioStratigraphy",
      "kind": "osdu:wks:reference-data--MarkerType:1.0.0",
      "acl": {
        "owners": [
          "{{DATA_OWNERS_GROUP}}"
        ],
        "viewers": [
          "{{DATA_VIEWERS_GROUP}}"
        ]
      },
      "legal": {
        "legaltags": [
          "{{LEGAL_TAG}}"
        ],
        "otherRelevantDataCountries": [
          "{{ISO_3166_ALPHA_2_CODE}}"
        ]
      },
      "data": {
        "Name": "Bio Stratigraphy",
        "Description": "A bio-stratigraphic marker. Bio-stratigraphy is the branch of stratigraphy which focuses on correlating and assigning relative ages of rock strata by using the fossil assemblages contained within them.",
        "Code": "BioStratigraphy",
        "AttributionAuthority": "OSDU",
        "Source": "Workbook Published/MarkerType.1.0.0.xlsx; commit SHA 38615b34.",
        "CommitDate": "2021-02-25T09:18:48-05:00"
      }
    },
    {
      "id": "{{NAMESPACE}}:reference-data--MarkerType:ChronoStratigraphy",
      "kind": "osdu:wks:reference-data--MarkerType:1.0.0",
      "acl": {
        "owners": [
          "{{DATA_OWNERS_GROUP}}"
        ],
        "viewers": [
          "{{DATA_VIEWERS_GROUP}}"
        ]
      },
      "legal": {
        "legaltags": [
          "{{LEGAL_TAG}}"
        ],
        "otherRelevantDataCountries": [
          "{{ISO_3166_ALPHA_2_CODE}}"
        ]
      },
      "data": {
        "Name": "Chrono Stratigraphy",
        "Description": "A chrono-stratigraphic marker. Chrono-stratigraphy is the branch of stratigraphy that studies the ages of rock strata in relation to time.",
        "Code": "ChronoStratigraphy",
        "AttributionAuthority": "OSDU",
        "Source": "Workbook Published/MarkerType.1.0.0.xlsx; commit SHA 38615b34.",
        "CommitDate": "2021-02-25T09:18:48-05:00"
      }
    },
    {
      "id": "{{NAMESPACE}}:reference-data--MarkerType:LithoStratigraphy",
      "kind": "osdu:wks:reference-data--MarkerType:1.0.0",
      "acl": {
        "owners": [
          "{{DATA_OWNERS_GROUP}}"
        ],
        "viewers": [
          "{{DATA_VIEWERS_GROUP}}"
        ]
      },
      "legal": {
        "legaltags": [
          "{{LEGAL_TAG}}"
        ],
        "otherRelevantDataCountries": [
          "{{ISO_3166_ALPHA_2_CODE}}"
        ]
      },
      "data": {
        "Name": "Litho Stratigraphy",
        "Description": "A litho-stratigraphic marker. Litho-stratigraphy is a sub-discipline of stratigraphy, the geological science associated with the study of strata or rock layers.",
        "Code": "LithoStratigraphy",
        "AttributionAuthority": "OSDU",
        "Source": "Workbook Published/MarkerType.1.0.0.xlsx; commit SHA 38615b34.",
        "CommitDate": "2021-02-25T09:18:48-05:00"
      }
    },
    {
      "id": "{{NAMESPACE}}:reference-data--MarkerType:SequenceStratigraphy",
      "kind": "osdu:wks:reference-data--MarkerType:1.0.0",
      "acl": {
        "owners": [
          "{{DATA_OWNERS_GROUP}}"
        ],
        "viewers": [
          "{{DATA_VIEWERS_GROUP}}"
        ]
      },
      "legal": {
        "legaltags": [
          "{{LEGAL_TAG}}"
        ],
        "otherRelevantDataCountries": [
          "{{ISO_3166_ALPHA_2_CODE}}"
        ]
      },
      "data": {
        "Name": "Sequence Stratigraphy",
        "Description": "A sequence stratigraphic marker. Sequence stratigraphy is a branch of geology that attempts to subdivide and link sedimentary deposits into unconformity bound units on a variety of scales and explain these stratigraphic units in terms of variations in sediment supply and variations in the rate of change in accommodation space.",
        "Code": "SequenceStratigraphy",
        "AttributionAuthority": "OSDU",
        "Source": "Workbook Published/MarkerType.1.0.0.xlsx; commit SHA 38615b34.",
        "CommitDate": "2021-02-25T09:18:48-05:00"
      }
    },
    {
      "id": "{{NAMESPACE}}:reference-data--MarkerType:Seismic",
      "kind": "osdu:wks:reference-data--MarkerType:1.0.0",
      "acl": {
        "owners": [
          "{{DATA_OWNERS_GROUP}}"
        ],
        "viewers": [
          "{{DATA_VIEWERS_GROUP}}"
        ]
      },
      "legal": {
        "legaltags": [
          "{{LEGAL_TAG}}"
        ],
        "otherRelevantDataCountries": [
          "{{ISO_3166_ALPHA_2_CODE}}"
        ]
      },
      "data": {
        "Name": "Seismic",
        "Description": "A seismic marker, typically based on an interpretation of seismic reflection data.",
        "Code": "Seismic",
        "AttributionAuthority": "OSDU",
        "Source": "Workbook Published/MarkerType.1.0.0.xlsx; commit SHA 38615b34.",
        "CommitDate": "2021-02-25T09:18:48-05:00"
      }
    },
    {
      "id": "{{NAMESPACE}}:reference-data--MarkerType:FluidStratigraphy",
      "kind": "osdu:wks:reference-data--MarkerType:1.0.0",
      "acl": {
        "owners": [
          "{{DATA_OWNERS_GROUP}}"
        ],
        "viewers": [
          "{{DATA_VIEWERS_GROUP}}"
        ]
      },
      "legal": {
        "legaltags": [
          "{{LEGAL_TAG}}"
        ],
        "otherRelevantDataCountries": [
          "{{ISO_3166_ALPHA_2_CODE}}"
        ]
      },
      "data": {
        "Name": "Fluid Stratigraphy",
        "Description": "A fluid stratigraphic marker. Typically identifying a change of pore fluid type.",
        "Code": "FluidStratigraphy",
        "AttributionAuthority": "OSDU",
        "Source": "Workbook Published/MarkerType.1.0.0.xlsx; commit SHA 38615b34.",
        "CommitDate": "2021-02-25T09:18:48-05:00"
      }
    },
    {
      "id": "{{NAMESPACE}}:reference-data--MarkerType:MagnetoStratigraphy",
      "kind": "osdu:wks:reference-data--MarkerType:1.0.0",
      "acl": {
        "owners": [
          "{{DATA_OWNERS_GROUP}}"
        ],
        "viewers": [
          "{{DATA_VIEWERS_GROUP}}"
        ]
      },
      "legal": {
        "legaltags": [
          "{{LEGAL_TAG}}"
        ],
        "otherRelevantDataCountries": [
          "{{ISO_3166_ALPHA_2_CODE}}"
        ]
      },
      "data": {
        "Name": "Magneto Stratigraphy",
        "Description": "A magneto stratigraphic marker. Magneto-stratigraphy is a geophysical correlation technique used to date sedimentary and volcanic sequences.",
        "Code": "MagnetoStratigraphy",
        "AttributionAuthority": "OSDU",
        "Source": "Workbook Published/MarkerType.1.0.0.xlsx; commit SHA 38615b34.",
        "CommitDate": "2021-02-25T09:18:48-05:00"
      }
    }
  ]
}