{
  "kind": "osdu:wks:Manifest:1.0.0",
  "ReferenceData": [
    {
      "id": "{{NAMESPACE}}:reference-data--MarkerPropertyType:WellboreID",
      "kind": "osdu:wks:reference-data--MarkerPropertyType:1.0.0",
      "acl": {
        "owners": [
          "{{DATA_OWNERS_GROUP}}"
        ],
        "viewers": [
          "{{DATA_VIEWERS_GROUP}}"
        ]
      },
      "legal": {
        "legaltags": [
          "{{LEGAL_TAG}}"
        ],
        "otherRelevantDataCountries": [
          "{{ISO_3166_ALPHA_2_CODE}}"
        ]
      },
      "data": {
        "Name": "WellboreID",
        "Description": "A unique wellbore identifier sufficient to create or look up a unique wellbore record in an OSDU platform. ",
        "RelationshipTargetKind": "{{NAMESPACE}}:wks:master-data--Wellbore:",
        "ValueCount": 1,
        "ValueType": "string",
        "Code": "WellboreID",
        "Source": "Workbook Published/MarkerPropertyType.1.0.0.xlsx; commit SHA 42cd3dfb.",
        "CommitDate": "2021-08-02T08:11:14+00:00"
      }
    },
    {
      "id": "{{NAMESPACE}}:reference-data--MarkerPropertyType:MarkerNameSet",
      "kind": "osdu:wks:reference-data--MarkerPropertyType:1.0.0",
      "acl": {
        "owners": [
          "{{DATA_OWNERS_GROUP}}"
        ],
        "viewers": [
          "{{DATA_VIEWERS_GROUP}}"
        ]
      },
      "legal": {
        "legaltags": [
          "{{LEGAL_TAG}}"
        ],
        "otherRelevantDataCountries": [
          "{{ISO_3166_ALPHA_2_CODE}}"
        ]
      },
      "data": {
        "Name": "MarkerNameSet",
        "Description": "The name of the grouping/set into which this Marker Name belongs. Grouping may be related to may be relative to a geographic area, a project, a company etc. [def. derived from PPDM 3.9 STRAT_NAME_SET] Do not confuse with Marker Set Name, which is \"WPCName\".",
        "ValueCount": 1,
        "ValueType": "string",
        "Code": "MarkerNameSet",
        "Source": "Workbook Published/MarkerPropertyType.1.0.0.xlsx; commit SHA 42cd3dfb.",
        "CommitDate": "2021-08-02T08:11:14+00:00"
      }
    },
    {
      "id": "{{NAMESPACE}}:reference-data--MarkerPropertyType:MarkerNameSetType",
      "kind": "osdu:wks:reference-data--MarkerPropertyType:1.0.0",
      "acl": {
        "owners": [
          "{{DATA_OWNERS_GROUP}}"
        ],
        "viewers": [
          "{{DATA_VIEWERS_GROUP}}"
        ]
      },
      "legal": {
        "legaltags": [
          "{{LEGAL_TAG}}"
        ],
        "otherRelevantDataCountries": [
          "{{ISO_3166_ALPHA_2_CODE}}"
        ]
      },
      "data": {
        "Name": "MarkerNameSetType",
        "Description": "The type of MarkerNameSet, such as vendor, scientific, working, corporate, lexicon etc. [def. derived from PPDM 3.9 STRAT_NAME_SET_TYPE]",
        "ValueCount": 1,
        "ValueType": "string",
        "Code": "MarkerNameSetType",
        "Source": "Workbook Published/MarkerPropertyType.1.0.0.xlsx; commit SHA 42cd3dfb.",
        "CommitDate": "2021-08-02T08:11:14+00:00"
      }
    },
    {
      "id": "{{NAMESPACE}}:reference-data--MarkerPropertyType:MarkerAbbreviation",
      "kind": "osdu:wks:reference-data--MarkerPropertyType:1.0.0",
      "acl": {
        "owners": [
          "{{DATA_OWNERS_GROUP}}"
        ],
        "viewers": [
          "{{DATA_VIEWERS_GROUP}}"
        ]
      },
      "legal": {
        "legaltags": [
          "{{LEGAL_TAG}}"
        ],
        "otherRelevantDataCountries": [
          "{{ISO_3166_ALPHA_2_CODE}}"
        ]
      },
      "data": {
        "Name": "MarkerAbbreviation",
        "Description": "An abbreviated form of the marker name for use in situations where visually long and short names would be cumbersome, like when many are posted by respective well symbols on a map.",
        "ValueCount": 1,
        "ValueType": "string",
        "Code": "MarkerAbbreviation",
        "Source": "Workbook Published/MarkerPropertyType.1.0.0.xlsx; commit SHA 42cd3dfb.",
        "CommitDate": "2021-08-02T08:11:14+00:00"
      }
    },
    {
      "id": "{{NAMESPACE}}:reference-data--MarkerPropertyType:MarkerShortName",
      "kind": "osdu:wks:reference-data--MarkerPropertyType:1.0.0",
      "acl": {
        "owners": [
          "{{DATA_OWNERS_GROUP}}"
        ],
        "viewers": [
          "{{DATA_VIEWERS_GROUP}}"
        ]
      },
      "legal": {
        "legaltags": [
          "{{LEGAL_TAG}}"
        ],
        "otherRelevantDataCountries": [
          "{{ISO_3166_ALPHA_2_CODE}}"
        ]
      },
      "data": {
        "Name": "MarkerShortName",
        "Description": "A name for the marker that is shorter than the full name but longer than the abbreviation, if necessary.",
        "ValueCount": 1,
        "ValueType": "string",
        "Code": "MarkerShortName",
        "Source": "Workbook Published/MarkerPropertyType.1.0.0.xlsx; commit SHA 42cd3dfb.",
        "CommitDate": "2021-08-02T08:11:14+00:00"
      }
    },
    {
      "id": "{{NAMESPACE}}:reference-data--MarkerPropertyType:MarkerName",
      "kind": "osdu:wks:reference-data--MarkerPropertyType:1.0.0",
      "acl": {
        "owners": [
          "{{DATA_OWNERS_GROUP}}"
        ],
        "viewers": [
          "{{DATA_VIEWERS_GROUP}}"
        ]
      },
      "legal": {
        "legaltags": [
          "{{LEGAL_TAG}}"
        ],
        "otherRelevantDataCountries": [
          "{{ISO_3166_ALPHA_2_CODE}}"
        ]
      },
      "data": {
        "Name": "MarkerName",
        "Description": "Common full name given to the wellbore marker denoted here. As opposed to FeatureName, MarkerName is more freeform, and may constitute a summary of other captured properties such as MarkerType, FeatureType, and FeatureName; \"Woodford_Shale_Top\" e.g. (As long as no reference object exists, this is freeform.)",
        "ValueCount": 1,
        "ValueType": "string",
        "Code": "MarkerName",
        "Source": "Workbook Published/MarkerPropertyType.1.0.0.xlsx; commit SHA 42cd3dfb.",
        "CommitDate": "2021-08-02T08:11:14+00:00"
      }
    },
    {
      "id": "{{NAMESPACE}}:reference-data--MarkerPropertyType:FeatureType",
      "kind": "osdu:wks:reference-data--MarkerPropertyType:1.0.0",
      "acl": {
        "owners": [
          "{{DATA_OWNERS_GROUP}}"
        ],
        "viewers": [
          "{{DATA_VIEWERS_GROUP}}"
        ]
      },
      "legal": {
        "legaltags": [
          "{{LEGAL_TAG}}"
        ],
        "otherRelevantDataCountries": [
          "{{ISO_3166_ALPHA_2_CODE}}"
        ]
      },
      "data": {
        "Name": "FeatureType",
        "Description": "A reference item describing the type of feature identified by the Marker, such as Base, Top, Sea Floor, or Oil/Water Contact, or other types of fluid contacts.",
        "RelationshipTargetKind": "{{NAMESPACE}}:wks:reference-data--FeatureType:",
        "ValueCount": 1,
        "ValueType": "string",
        "Code": "FeatureType",
        "Source": "Workbook Published/MarkerPropertyType.1.0.0.xlsx; commit SHA 42cd3dfb.",
        "CommitDate": "2021-08-02T08:11:14+00:00"
      }
    },
    {
      "id": "{{NAMESPACE}}:reference-data--MarkerPropertyType:FeatureName",
      "kind": "osdu:wks:reference-data--MarkerPropertyType:1.0.0",
      "acl": {
        "owners": [
          "{{DATA_OWNERS_GROUP}}"
        ],
        "viewers": [
          "{{DATA_VIEWERS_GROUP}}"
        ]
      },
      "legal": {
        "legaltags": [
          "{{LEGAL_TAG}}"
        ],
        "otherRelevantDataCountries": [
          "{{ISO_3166_ALPHA_2_CODE}}"
        ]
      },
      "data": {
        "Name": "FeatureName",
        "Description": "The name of the Feature the marker is identifying. As opposed to the Marker Name property, whose format is more flexible, Feature Name should not combine other facets of information such as Top/Base, or lithology type. \n\nFeature Name would often align with a unit on a stratigraphic column.  (As long as no reference object exists, this is freeform.)",
        "ValueCount": 1,
        "ValueType": "string",
        "Code": "FeatureName",
        "Source": "Workbook Published/MarkerPropertyType.1.0.0.xlsx; commit SHA 42cd3dfb.",
        "CommitDate": "2021-08-02T08:11:14+00:00"
      }
    },
    {
      "id": "{{NAMESPACE}}:reference-data--MarkerPropertyType:MarkerStratUnitRemark",
      "kind": "osdu:wks:reference-data--MarkerPropertyType:1.0.0",
      "acl": {
        "owners": [
          "{{DATA_OWNERS_GROUP}}"
        ],
        "viewers": [
          "{{DATA_VIEWERS_GROUP}}"
        ]
      },
      "legal": {
        "legaltags": [
          "{{LEGAL_TAG}}"
        ],
        "otherRelevantDataCountries": [
          "{{ISO_3166_ALPHA_2_CODE}}"
        ]
      },
      "data": {
        "Name": "MarkerStratUnitRemark",
        "Description": "A textual description of the stratigraphic unit generally (but not relative to a unique pick of the Marker on a well).",
        "ValueCount": 1,
        "ValueType": "string",
        "Code": "MarkerStratUnitRemark",
        "Source": "Workbook Published/MarkerPropertyType.1.0.0.xlsx; commit SHA 42cd3dfb.",
        "CommitDate": "2021-08-02T08:11:14+00:00"
      }
    },
    {
      "id": "{{NAMESPACE}}:reference-data--MarkerPropertyType:GeologicalAge",
      "kind": "osdu:wks:reference-data--MarkerPropertyType:1.0.0",
      "acl": {
        "owners": [
          "{{DATA_OWNERS_GROUP}}"
        ],
        "viewers": [
          "{{DATA_VIEWERS_GROUP}}"
        ]
      },
      "legal": {
        "legaltags": [
          "{{LEGAL_TAG}}"
        ],
        "otherRelevantDataCountries": [
          "{{ISO_3166_ALPHA_2_CODE}}"
        ]
      },
      "data": {
        "Name": "GeologicalAge",
        "Description": "Associated geological age. (A consistent way of identifying this in OSDU is not yet defined.) This would necessarily be null for certain Marker Types.",
        "ValueCount": 1,
        "ValueType": "number",
        "Code": "GeologicalAge",
        "Source": "Workbook Published/MarkerPropertyType.1.0.0.xlsx; commit SHA 42cd3dfb.",
        "CommitDate": "2021-08-02T08:11:14+00:00"
      }
    },
    {
      "id": "{{NAMESPACE}}:reference-data--MarkerPropertyType:MarkerTypeID",
      "kind": "osdu:wks:reference-data--MarkerPropertyType:1.0.0",
      "acl": {
        "owners": [
          "{{DATA_OWNERS_GROUP}}"
        ],
        "viewers": [
          "{{DATA_VIEWERS_GROUP}}"
        ]
      },
      "legal": {
        "legaltags": [
          "{{LEGAL_TAG}}"
        ],
        "otherRelevantDataCountries": [
          "{{ISO_3166_ALPHA_2_CODE}}"
        ]
      },
      "data": {
        "Name": "MarkerTypeID",
        "Description": "The category of stratigraphy or other type of observation along the wellbore, such as biostratigraphy, chronostratigraphy, seismic, etc.",
        "RelationshipTargetKind": "{{NAMESPACE}}:wks:reference-data--MarkerType:",
        "ValueCount": 1,
        "ValueType": "string",
        "Code": "MarkerTypeID",
        "Source": "Workbook Published/MarkerPropertyType.1.0.0.xlsx; commit SHA 42cd3dfb.",
        "CommitDate": "2021-08-02T08:11:14+00:00"
      }
    },
    {
      "id": "{{NAMESPACE}}:reference-data--MarkerPropertyType:OrdinalSequenceNumber",
      "kind": "osdu:wks:reference-data--MarkerPropertyType:1.0.0",
      "acl": {
        "owners": [
          "{{DATA_OWNERS_GROUP}}"
        ],
        "viewers": [
          "{{DATA_VIEWERS_GROUP}}"
        ]
      },
      "legal": {
        "legaltags": [
          "{{LEGAL_TAG}}"
        ],
        "otherRelevantDataCountries": [
          "{{ISO_3166_ALPHA_2_CODE}}"
        ]
      },
      "data": {
        "Name": "OrdinalSequenceNumber",
        "Description": "Sequence in which this unit occurs in the column, from surface to base [PPDM 3.9]",
        "ValueCount": 1,
        "ValueType": "number",
        "Code": "OrdinalSequenceNumber",
        "Source": "Workbook Published/MarkerPropertyType.1.0.0.xlsx; commit SHA 42cd3dfb.",
        "CommitDate": "2021-08-02T08:11:14+00:00"
      }
    },
    {
      "id": "{{NAMESPACE}}:reference-data--MarkerPropertyType:MarkerActiveIndicator",
      "kind": "osdu:wks:reference-data--MarkerPropertyType:1.0.0",
      "acl": {
        "owners": [
          "{{DATA_OWNERS_GROUP}}"
        ],
        "viewers": [
          "{{DATA_VIEWERS_GROUP}}"
        ]
      },
      "legal": {
        "legaltags": [
          "{{LEGAL_TAG}}"
        ],
        "otherRelevantDataCountries": [
          "{{ISO_3166_ALPHA_2_CODE}}"
        ]
      },
      "data": {
        "Name": "MarkerActiveIndicator",
        "Description": "A true / false flag indicating whether this row of data is currently either active / valid (true) or inactive / invalid (false). [based on PPDM 3.9] This could be useful in cases where a MarkerSet file contains multiple interpreter picks for the same marker name, and only one of those is deemed to be \"best-to-use\" but the rest are stored for reference, for example.",
        "ValueCount": 1,
        "ValueType": "boolean",
        "Code": "MarkerActiveIndicator",
        "Source": "Workbook Published/MarkerPropertyType.1.0.0.xlsx; commit SHA 42cd3dfb.",
        "CommitDate": "2021-08-02T08:11:14+00:00"
      }
    },
    {
      "id": "{{NAMESPACE}}:reference-data--MarkerPropertyType:CertifiedIndicator",
      "kind": "osdu:wks:reference-data--MarkerPropertyType:1.0.0",
      "acl": {
        "owners": [
          "{{DATA_OWNERS_GROUP}}"
        ],
        "viewers": [
          "{{DATA_VIEWERS_GROUP}}"
        ]
      },
      "legal": {
        "legaltags": [
          "{{LEGAL_TAG}}"
        ],
        "otherRelevantDataCountries": [
          "{{ISO_3166_ALPHA_2_CODE}}"
        ]
      },
      "data": {
        "Name": "CertifiedIndicator",
        "Description": "A true / false flag indicating that the marker pick has been certified for use and is of long term value. [based on PPDM 3.9]",
        "ValueCount": 1,
        "ValueType": "boolean",
        "Code": "CertifiedIndicator",
        "Source": "Workbook Published/MarkerPropertyType.1.0.0.xlsx; commit SHA 42cd3dfb.",
        "CommitDate": "2021-08-02T08:11:14+00:00"
      }
    },
    {
      "id": "{{NAMESPACE}}:reference-data--MarkerPropertyType:ConformityRelationship",
      "kind": "osdu:wks:reference-data--MarkerPropertyType:1.0.0",
      "acl": {
        "owners": [
          "{{DATA_OWNERS_GROUP}}"
        ],
        "viewers": [
          "{{DATA_VIEWERS_GROUP}}"
        ]
      },
      "legal": {
        "legaltags": [
          "{{LEGAL_TAG}}"
        ],
        "otherRelevantDataCountries": [
          "{{ISO_3166_ALPHA_2_CODE}}"
        ]
      },
      "data": {
        "Name": "ConformityRelationship",
        "Description": "A descriptor assigned to formation markers/picks that identifies the type of conformity relationship that describes the surface that was picked. May be \"unconformity\", \"disconformity\", \"angular unconformity\", \"conformable\" or \"paraconformable\". An unconformity is a substantial break or gap in the geologic record where a rock unit is overlain by another that is not next in stratigraphic succession. Normally implies uplift or erosion with loss of the previously formed strata. [based on PPDM 3.9]",
        "ValueCount": 1,
        "ValueType": "string",
        "Code": "ConformityRelationship",
        "Source": "Workbook Published/MarkerPropertyType.1.0.0.xlsx; commit SHA 42cd3dfb.",
        "CommitDate": "2021-08-02T08:11:14+00:00"
      }
    },
    {
      "id": "{{NAMESPACE}}:reference-data--MarkerPropertyType:SurfaceDipAngle",
      "kind": "osdu:wks:reference-data--MarkerPropertyType:1.0.0",
      "acl": {
        "owners": [
          "{{DATA_OWNERS_GROUP}}"
        ],
        "viewers": [
          "{{DATA_VIEWERS_GROUP}}"
        ]
      },
      "legal": {
        "legaltags": [
          "{{LEGAL_TAG}}"
        ],
        "otherRelevantDataCountries": [
          "{{ISO_3166_ALPHA_2_CODE}}"
        ]
      },
      "data": {
        "Name": "SurfaceDipAngle",
        "Description": "The inclination angle of a tilted planar feature, in degrees relative to the horizontal plane. It must be combined with a dip azimuth direction.",
        "PropertyType": {
          "Name": "dip angle",
          "PropertyTypeID": "{{NAMESPACE}}:reference-data--PropertyType:df4dff81-6714-4bfc-b2d9-ef9ddb961ab1:"
        },
        "UnitQuantityID": "{{NAMESPACE}}:reference-data--UnitQuantity:plane%20angle:",
        "ValueCount": 1,
        "ValueType": "number",
        "Code": "SurfaceDipAngle",
        "Source": "Workbook Published/MarkerPropertyType.1.0.0.xlsx; commit SHA 42cd3dfb.",
        "CommitDate": "2021-08-02T08:11:14+00:00"
      }
    },
    {
      "id": "{{NAMESPACE}}:reference-data--MarkerPropertyType:SurfaceDipAngleUOM",
      "kind": "osdu:wks:reference-data--MarkerPropertyType:1.0.0",
      "acl": {
        "owners": [
          "{{DATA_OWNERS_GROUP}}"
        ],
        "viewers": [
          "{{DATA_VIEWERS_GROUP}}"
        ]
      },
      "legal": {
        "legaltags": [
          "{{LEGAL_TAG}}"
        ],
        "otherRelevantDataCountries": [
          "{{ISO_3166_ALPHA_2_CODE}}"
        ]
      },
      "data": {
        "Name": "SurfaceDipAngleUOM",
        "Description": "The unit of measure describing the value in SurfaceDipAngle.",
        "RelationshipTargetKind": "{{NAMESPACE}}:wks:reference-data--UnitOfMeasure:",
        "ValueCount": 1,
        "ValueType": "string",
        "Code": "SurfaceDipAngleUOM",
        "Source": "Workbook Published/MarkerPropertyType.1.0.0.xlsx; commit SHA 42cd3dfb.",
        "CommitDate": "2021-08-02T08:11:14+00:00"
      }
    },
    {
      "id": "{{NAMESPACE}}:reference-data--MarkerPropertyType:SurfaceDipAngleOUOM",
      "kind": "osdu:wks:reference-data--MarkerPropertyType:1.0.0",
      "acl": {
        "owners": [
          "{{DATA_OWNERS_GROUP}}"
        ],
        "viewers": [
          "{{DATA_VIEWERS_GROUP}}"
        ]
      },
      "legal": {
        "legaltags": [
          "{{LEGAL_TAG}}"
        ],
        "otherRelevantDataCountries": [
          "{{ISO_3166_ALPHA_2_CODE}}"
        ]
      },
      "data": {
        "Name": "SurfaceDipAngleOUOM",
        "Description": "The unit of measure in which SurfaceDipAngle was originally measured when the data was first collected or created. (This may be the same or different from the current UOM. OUOM is captured because sometimes values get converted to different units making the OUOM differ from current UOM; OUOM can inform data users on possible causes of data quality issues, validating the source of data, and other data issues.)",
        "RelationshipTargetKind": "{{NAMESPACE}}:wks:reference-data--UnitOfMeasure:",
        "ValueCount": 1,
        "ValueType": "string",
        "Code": "SurfaceDipAngleOUOM",
        "Source": "Workbook Published/MarkerPropertyType.1.0.0.xlsx; commit SHA 42cd3dfb.",
        "CommitDate": "2021-08-02T08:11:14+00:00"
      }
    },
    {
      "id": "{{NAMESPACE}}:reference-data--MarkerPropertyType:SurfaceDipAzimuth",
      "kind": "osdu:wks:reference-data--MarkerPropertyType:1.0.0",
      "acl": {
        "owners": [
          "{{DATA_OWNERS_GROUP}}"
        ],
        "viewers": [
          "{{DATA_VIEWERS_GROUP}}"
        ]
      },
      "legal": {
        "legaltags": [
          "{{LEGAL_TAG}}"
        ],
        "otherRelevantDataCountries": [
          "{{ISO_3166_ALPHA_2_CODE}}"
        ]
      },
      "data": {
        "Name": "SurfaceDipAzimuth",
        "Description": "The azimuth direction identifying where the planar feature is dipping most steeply downwards relative to a horizontal plane. This is 90 degrees to the strike angle.",
        "PropertyType": {
          "Name": "dip azimuth",
          "PropertyTypeID": "{{NAMESPACE}}:reference-data--PropertyType:ace68d4c-7400-431d-9a33-0541b8bfc4b4:"
        },
        "UnitQuantityID": "{{NAMESPACE}}:reference-data--UnitQuantity:plane%20angle:",
        "ValueCount": 1,
        "ValueType": "number",
        "Code": "SurfaceDipAzimuth",
        "Source": "Workbook Published/MarkerPropertyType.1.0.0.xlsx; commit SHA 42cd3dfb.",
        "CommitDate": "2021-08-02T08:11:14+00:00"
      }
    },
    {
      "id": "{{NAMESPACE}}:reference-data--MarkerPropertyType:SurfaceDipAzimuthUOM",
      "kind": "osdu:wks:reference-data--MarkerPropertyType:1.0.0",
      "acl": {
        "owners": [
          "{{DATA_OWNERS_GROUP}}"
        ],
        "viewers": [
          "{{DATA_VIEWERS_GROUP}}"
        ]
      },
      "legal": {
        "legaltags": [
          "{{LEGAL_TAG}}"
        ],
        "otherRelevantDataCountries": [
          "{{ISO_3166_ALPHA_2_CODE}}"
        ]
      },
      "data": {
        "Name": "SurfaceDipAzimuthUOM",
        "Description": "The unit of measure describing the value in SurfaceDipAzimuth.",
        "ValueCount": 1,
        "ValueType": "string",
        "Code": "SurfaceDipAzimuthUOM",
        "Source": "Workbook Published/MarkerPropertyType.1.0.0.xlsx; commit SHA 42cd3dfb.",
        "CommitDate": "2021-08-02T08:11:14+00:00"
      }
    },
    {
      "id": "{{NAMESPACE}}:reference-data--MarkerPropertyType:SurfaceDipAzimuthOUOM",
      "kind": "osdu:wks:reference-data--MarkerPropertyType:1.0.0",
      "acl": {
        "owners": [
          "{{DATA_OWNERS_GROUP}}"
        ],
        "viewers": [
          "{{DATA_VIEWERS_GROUP}}"
        ]
      },
      "legal": {
        "legaltags": [
          "{{LEGAL_TAG}}"
        ],
        "otherRelevantDataCountries": [
          "{{ISO_3166_ALPHA_2_CODE}}"
        ]
      },
      "data": {
        "Name": "SurfaceDipAzimuthOUOM",
        "Description": "The unit of measure in which SurfaceDipAzimuth was originally measured when the data was first collected or created. (This may be the same or different from the current UOM. OUOM is captured because sometimes values get converted to different units making the OUOM differ from current UOM; OUOM can inform data users on possible causes of data quality issues, validating the source of data, and other data issues.)",
        "RelationshipTargetKind": "{{NAMESPACE}}:wks:reference-data--UnitOfMeasure:",
        "ValueCount": 1,
        "ValueType": "string",
        "Code": "SurfaceDipAzimuthOUOM",
        "Source": "Workbook Published/MarkerPropertyType.1.0.0.xlsx; commit SHA 42cd3dfb.",
        "CommitDate": "2021-08-02T08:11:14+00:00"
      }
    },
    {
      "id": "{{NAMESPACE}}:reference-data--MarkerPropertyType:AzimuthNorthType",
      "kind": "osdu:wks:reference-data--MarkerPropertyType:1.0.0",
      "acl": {
        "owners": [
          "{{DATA_OWNERS_GROUP}}"
        ],
        "viewers": [
          "{{DATA_VIEWERS_GROUP}}"
        ]
      },
      "legal": {
        "legaltags": [
          "{{LEGAL_TAG}}"
        ],
        "otherRelevantDataCountries": [
          "{{ISO_3166_ALPHA_2_CODE}}"
        ]
      },
      "data": {
        "Name": "AzimuthNorthType",
        "Description": "The type of north reference governing the SurfaceDipAzimuth, such as \"Grid\", \"True\", or \"Magnetic\".",
        "ValueCount": 1,
        "ValueType": "string",
        "Code": "AzimuthNorthType",
        "Source": "Workbook Published/MarkerPropertyType.1.0.0.xlsx; commit SHA 42cd3dfb.",
        "CommitDate": "2021-08-02T08:11:14+00:00"
      }
    },
    {
      "id": "{{NAMESPACE}}:reference-data--MarkerPropertyType:AzimuthHorizontalCRS",
      "kind": "osdu:wks:reference-data--MarkerPropertyType:1.0.0",
      "acl": {
        "owners": [
          "{{DATA_OWNERS_GROUP}}"
        ],
        "viewers": [
          "{{DATA_VIEWERS_GROUP}}"
        ]
      },
      "legal": {
        "legaltags": [
          "{{LEGAL_TAG}}"
        ],
        "otherRelevantDataCountries": [
          "{{ISO_3166_ALPHA_2_CODE}}"
        ]
      },
      "data": {
        "Name": "AzimuthHorizontalCRS",
        "Description": "The geographic or projected horizontal coordinate reference system governing the SurfaceDipAzimuth. Must be consistent with AzimuthNorthType indicator. ",
        "RelationshipTargetKind": "{{NAMESPACE}}:wks:reference-data--CoordinateReferenceSystem:",
        "ValueCount": 1,
        "ValueType": "string",
        "Code": "AzimuthHorizontalCRS",
        "Source": "Workbook Published/MarkerPropertyType.1.0.0.xlsx; commit SHA 42cd3dfb.",
        "CommitDate": "2021-08-02T08:11:14+00:00"
      }
    },
    {
      "id": "{{NAMESPACE}}:reference-data--MarkerPropertyType:DominantLithology",
      "kind": "osdu:wks:reference-data--MarkerPropertyType:1.0.0",
      "acl": {
        "owners": [
          "{{DATA_OWNERS_GROUP}}"
        ],
        "viewers": [
          "{{DATA_VIEWERS_GROUP}}"
        ]
      },
      "legal": {
        "legaltags": [
          "{{LEGAL_TAG}}"
        ],
        "otherRelevantDataCountries": [
          "{{ISO_3166_ALPHA_2_CODE}}"
        ]
      },
      "data": {
        "Name": "DominantLithology",
        "Description": "The dominant lithology (if applicable) of this marker pick. For example \"sandstone\", \"limestone\", \"dolomite\" or \"shale\".",
        "ValueCount": 1,
        "ValueType": "string",
        "Code": "DominantLithology",
        "Source": "Workbook Published/MarkerPropertyType.1.0.0.xlsx; commit SHA 42cd3dfb.",
        "CommitDate": "2021-08-02T08:11:14+00:00"
      }
    },
    {
      "id": "{{NAMESPACE}}:reference-data--MarkerPropertyType:MarkerInterpreter",
      "kind": "osdu:wks:reference-data--MarkerPropertyType:1.0.0",
      "acl": {
        "owners": [
          "{{DATA_OWNERS_GROUP}}"
        ],
        "viewers": [
          "{{DATA_VIEWERS_GROUP}}"
        ]
      },
      "legal": {
        "legaltags": [
          "{{LEGAL_TAG}}"
        ],
        "otherRelevantDataCountries": [
          "{{ISO_3166_ALPHA_2_CODE}}"
        ]
      },
      "data": {
        "Name": "MarkerInterpreter",
        "Description": "The name of the Marker interpreter (could be a person, department/team, or vendor).",
        "ValueCount": 1,
        "ValueType": "string",
        "Code": "MarkerInterpreter",
        "Source": "Workbook Published/MarkerPropertyType.1.0.0.xlsx; commit SHA 42cd3dfb.",
        "CommitDate": "2021-08-02T08:11:14+00:00"
      }
    },
    {
      "id": "{{NAMESPACE}}:reference-data--MarkerPropertyType:MissingThickness",
      "kind": "osdu:wks:reference-data--MarkerPropertyType:1.0.0",
      "acl": {
        "owners": [
          "{{DATA_OWNERS_GROUP}}"
        ],
        "viewers": [
          "{{DATA_VIEWERS_GROUP}}"
        ]
      },
      "legal": {
        "legaltags": [
          "{{LEGAL_TAG}}"
        ],
        "otherRelevantDataCountries": [
          "{{ISO_3166_ALPHA_2_CODE}}"
        ]
      },
      "data": {
        "Name": "MissingThickness",
        "Description": "The thickness of material (typically a rock formation) that was expected in this wellbore, but that is actually missing from this wellbore for geologic reasons. It should be recorded as an along-hole length in the wellbore to be consistent with pick depths.",
        "PropertyType": {
          "Name": "thickness loss",
          "PropertyTypeID": "{{NAMESPACE}}:reference-data--PropertyType:e115e20d-9913-4361-a535-3f64342b46e0:"
        },
        "UnitQuantityID": "{{NAMESPACE}}:reference-data--UnitQuantity:length:",
        "ValueCount": 1,
        "ValueType": "number",
        "Code": "MissingThickness",
        "Source": "Workbook Published/MarkerPropertyType.1.0.0.xlsx; commit SHA 42cd3dfb.",
        "CommitDate": "2021-08-02T08:11:14+00:00"
      }
    },
    {
      "id": "{{NAMESPACE}}:reference-data--MarkerPropertyType:MissingReason",
      "kind": "osdu:wks:reference-data--MarkerPropertyType:1.0.0",
      "acl": {
        "owners": [
          "{{DATA_OWNERS_GROUP}}"
        ],
        "viewers": [
          "{{DATA_VIEWERS_GROUP}}"
        ]
      },
      "legal": {
        "legaltags": [
          "{{LEGAL_TAG}}"
        ],
        "otherRelevantDataCountries": [
          "{{ISO_3166_ALPHA_2_CODE}}"
        ]
      },
      "data": {
        "Name": "MissingReason",
        "Description": "The geologic reason why a portion of material (typically a rock formation) is missing from the real world material/rock being measured, compared to what was expected based on offset wells. Examples: fault, unconformity, fold.  ",
        "ValueCount": 1,
        "ValueType": "string",
        "Code": "MissingReason",
        "Source": "Workbook Published/MarkerPropertyType.1.0.0.xlsx; commit SHA 42cd3dfb.",
        "CommitDate": "2021-08-02T08:11:14+00:00"
      }
    },
    {
      "id": "{{NAMESPACE}}:reference-data--MarkerPropertyType:OverturnedIndicator",
      "kind": "osdu:wks:reference-data--MarkerPropertyType:1.0.0",
      "acl": {
        "owners": [
          "{{DATA_OWNERS_GROUP}}"
        ],
        "viewers": [
          "{{DATA_VIEWERS_GROUP}}"
        ]
      },
      "legal": {
        "legaltags": [
          "{{LEGAL_TAG}}"
        ],
        "otherRelevantDataCountries": [
          "{{ISO_3166_ALPHA_2_CODE}}"
        ]
      },
      "data": {
        "Name": "OverturnedIndicator",
        "Description": "A true / false flag indicating that the strat unit is part of an overturned section and that the normal sequence of occurrence is reversed. [based on PPDM 3.9]",
        "ValueCount": 1,
        "ValueType": "boolean",
        "Code": "OverturnedIndicator",
        "Source": "Workbook Published/MarkerPropertyType.1.0.0.xlsx; commit SHA 42cd3dfb.",
        "CommitDate": "2021-08-02T08:11:14+00:00"
      }
    },
    {
      "id": "{{NAMESPACE}}:reference-data--MarkerPropertyType:MarkerDate",
      "kind": "osdu:wks:reference-data--MarkerPropertyType:1.0.0",
      "acl": {
        "owners": [
          "{{DATA_OWNERS_GROUP}}"
        ],
        "viewers": [
          "{{DATA_VIEWERS_GROUP}}"
        ]
      },
      "legal": {
        "legaltags": [
          "{{LEGAL_TAG}}"
        ],
        "otherRelevantDataCountries": [
          "{{ISO_3166_ALPHA_2_CODE}}"
        ]
      },
      "data": {
        "Name": "MarkerDate",
        "Description": "Date-timestamp of the date and time when the when the Marker was interpreted.",
        "ValueCount": 1,
        "ValueType": "string",
        "Code": "MarkerDate",
        "Source": "Workbook Published/MarkerPropertyType.1.0.0.xlsx; commit SHA 42cd3dfb.",
        "CommitDate": "2021-08-02T08:11:14+00:00"
      }
    },
    {
      "id": "{{NAMESPACE}}:reference-data--MarkerPropertyType:MarkerMeasuredDepth",
      "kind": "osdu:wks:reference-data--MarkerPropertyType:1.0.0",
      "acl": {
        "owners": [
          "{{DATA_OWNERS_GROUP}}"
        ],
        "viewers": [
          "{{DATA_VIEWERS_GROUP}}"
        ]
      },
      "legal": {
        "legaltags": [
          "{{LEGAL_TAG}}"
        ],
        "otherRelevantDataCountries": [
          "{{ISO_3166_ALPHA_2_CODE}}"
        ]
      },
      "data": {
        "Name": "MarkerMeasuredDepth",
        "Description": "The Measured Depth from a given Vertical Reference at which the Marker was interpreted or prognosed.",
        "PropertyType": {
          "Name": "measured depth",
          "PropertyTypeID": "{{NAMESPACE}}:reference-data--PropertyType:c48c65d4-9680-4d10-903c-a1b2e30f66b5:"
        },
        "UnitQuantityID": "{{NAMESPACE}}:reference-data--UnitQuantity:length:",
        "ValueCount": 1,
        "ValueType": "number",
        "Code": "MarkerMeasuredDepth",
        "Source": "Workbook Published/MarkerPropertyType.1.0.0.xlsx; commit SHA 42cd3dfb.",
        "CommitDate": "2021-08-02T08:11:14+00:00"
      }
    },
    {
      "id": "{{NAMESPACE}}:reference-data--MarkerPropertyType:MarkerMeasuredDepthUOM",
      "kind": "osdu:wks:reference-data--MarkerPropertyType:1.0.0",
      "acl": {
        "owners": [
          "{{DATA_OWNERS_GROUP}}"
        ],
        "viewers": [
          "{{DATA_VIEWERS_GROUP}}"
        ]
      },
      "legal": {
        "legaltags": [
          "{{LEGAL_TAG}}"
        ],
        "otherRelevantDataCountries": [
          "{{ISO_3166_ALPHA_2_CODE}}"
        ]
      },
      "data": {
        "Name": "MarkerMeasuredDepthUOM",
        "Description": "The unit of measure describing the value in MarkerMeasuredDepth.",
        "RelationshipTargetKind": "{{NAMESPACE}}:wks:reference-data--UnitOfMeasure:",
        "ValueCount": 1,
        "ValueType": "string",
        "Code": "MarkerMeasuredDepthUOM",
        "Source": "Workbook Published/MarkerPropertyType.1.0.0.xlsx; commit SHA 42cd3dfb.",
        "CommitDate": "2021-08-02T08:11:14+00:00"
      }
    },
    {
      "id": "{{NAMESPACE}}:reference-data--MarkerPropertyType:MarkerMeasuredDepthOUOM",
      "kind": "osdu:wks:reference-data--MarkerPropertyType:1.0.0",
      "acl": {
        "owners": [
          "{{DATA_OWNERS_GROUP}}"
        ],
        "viewers": [
          "{{DATA_VIEWERS_GROUP}}"
        ]
      },
      "legal": {
        "legaltags": [
          "{{LEGAL_TAG}}"
        ],
        "otherRelevantDataCountries": [
          "{{ISO_3166_ALPHA_2_CODE}}"
        ]
      },
      "data": {
        "Name": "MarkerMeasuredDepthOUOM",
        "Description": "The unit of measure in which MarkerMeasuredDepth was originally measured when the data was first collected or created. (This may be the same or different from the current UOM. OUOM is captured because sometimes values get converted to different units making the OUOM differ from current UOM; OUOM can inform data users on possible causes of data quality issues, validating the source of data, and other data issues.)",
        "RelationshipTargetKind": "{{NAMESPACE}}:wks:reference-data--UnitOfMeasure:",
        "ValueCount": 1,
        "ValueType": "string",
        "Code": "MarkerMeasuredDepthOUOM",
        "Source": "Workbook Published/MarkerPropertyType.1.0.0.xlsx; commit SHA 42cd3dfb.",
        "CommitDate": "2021-08-02T08:11:14+00:00"
      }
    },
    {
      "id": "{{NAMESPACE}}:reference-data--MarkerPropertyType:MarkerTVD",
      "kind": "osdu:wks:reference-data--MarkerPropertyType:1.0.0",
      "acl": {
        "owners": [
          "{{DATA_OWNERS_GROUP}}"
        ],
        "viewers": [
          "{{DATA_VIEWERS_GROUP}}"
        ]
      },
      "legal": {
        "legaltags": [
          "{{LEGAL_TAG}}"
        ],
        "otherRelevantDataCountries": [
          "{{ISO_3166_ALPHA_2_CODE}}"
        ]
      },
      "data": {
        "Name": "MarkerTVD",
        "Description": "The True Vertical Depth from a given Vertical Reference or Vertical CRS at which the Marker was interpreted or prognosed.",
        "PropertyType": {
          "Name": "true vertical depth",
          "PropertyTypeID": "{{NAMESPACE}}:reference-data--PropertyType:c17d98b8-17f5-4a1b-9a1c-e95e06ea5628:"
        },
        "UnitQuantityID": "{{NAMESPACE}}:reference-data--UnitQuantity:length:",
        "ValueCount": 1,
        "ValueType": "number",
        "Code": "MarkerTVD",
        "Source": "Workbook Published/MarkerPropertyType.1.0.0.xlsx; commit SHA 42cd3dfb.",
        "CommitDate": "2021-08-02T08:11:14+00:00"
      }
    },
    {
      "id": "{{NAMESPACE}}:reference-data--MarkerPropertyType:MarkerTVDUOM",
      "kind": "osdu:wks:reference-data--MarkerPropertyType:1.0.0",
      "acl": {
        "owners": [
          "{{DATA_OWNERS_GROUP}}"
        ],
        "viewers": [
          "{{DATA_VIEWERS_GROUP}}"
        ]
      },
      "legal": {
        "legaltags": [
          "{{LEGAL_TAG}}"
        ],
        "otherRelevantDataCountries": [
          "{{ISO_3166_ALPHA_2_CODE}}"
        ]
      },
      "data": {
        "Name": "MarkerTVDUOM",
        "Description": "The unit of measure describing the value in MarkerTVD.",
        "RelationshipTargetKind": "{{NAMESPACE}}:wks:reference-data--UnitOfMeasure:",
        "ValueCount": 1,
        "ValueType": "string",
        "Code": "MarkerTVDUOM",
        "Source": "Workbook Published/MarkerPropertyType.1.0.0.xlsx; commit SHA 42cd3dfb.",
        "CommitDate": "2021-08-02T08:11:14+00:00"
      }
    },
    {
      "id": "{{NAMESPACE}}:reference-data--MarkerPropertyType:MarkerTVDOUOM",
      "kind": "osdu:wks:reference-data--MarkerPropertyType:1.0.0",
      "acl": {
        "owners": [
          "{{DATA_OWNERS_GROUP}}"
        ],
        "viewers": [
          "{{DATA_VIEWERS_GROUP}}"
        ]
      },
      "legal": {
        "legaltags": [
          "{{LEGAL_TAG}}"
        ],
        "otherRelevantDataCountries": [
          "{{ISO_3166_ALPHA_2_CODE}}"
        ]
      },
      "data": {
        "Name": "MarkerTVDOUOM",
        "Description": "The unit of measure in which MarkerTVD was originally measured when the data was first collected or created. (This may be the same or different from the current UOM. OUOM is captured because sometimes values get converted to different units making the OUOM differ from current UOM; OUOM can inform data users on possible causes of data quality issues, validating the source of data, and other data issues.)",
        "RelationshipTargetKind": "{{NAMESPACE}}:wks:reference-data--UnitOfMeasure:",
        "ValueCount": 1,
        "ValueType": "string",
        "Code": "MarkerTVDOUOM",
        "Source": "Workbook Published/MarkerPropertyType.1.0.0.xlsx; commit SHA 42cd3dfb.",
        "CommitDate": "2021-08-02T08:11:14+00:00"
      }
    },
    {
      "id": "{{NAMESPACE}}:reference-data--MarkerPropertyType:TrajectoryIDForMarker",
      "kind": "osdu:wks:reference-data--MarkerPropertyType:1.0.0",
      "acl": {
        "owners": [
          "{{DATA_OWNERS_GROUP}}"
        ],
        "viewers": [
          "{{DATA_VIEWERS_GROUP}}"
        ]
      },
      "legal": {
        "legaltags": [
          "{{LEGAL_TAG}}"
        ],
        "otherRelevantDataCountries": [
          "{{ISO_3166_ALPHA_2_CODE}}"
        ]
      },
      "data": {
        "Name": "TrajectoryIDForMarker",
        "Description": "Specifies which directional survey or wellpath was used to interpret the marker, including the MD and TVD values.",
        "RelationshipTargetKind": "{{NAMESPACE}}:wks:work-product-component--WellboreTrajectory:",
        "ValueCount": 1,
        "ValueType": "string",
        "Code": "TrajectoryIDForMarker",
        "Source": "Workbook Published/MarkerPropertyType.1.0.0.xlsx; commit SHA 42cd3dfb.",
        "CommitDate": "2021-08-02T08:11:14+00:00"
      }
    },
    {
      "id": "{{NAMESPACE}}:reference-data--MarkerPropertyType:Qualifier",
      "kind": "osdu:wks:reference-data--MarkerPropertyType:1.0.0",
      "acl": {
        "owners": [
          "{{DATA_OWNERS_GROUP}}"
        ],
        "viewers": [
          "{{DATA_VIEWERS_GROUP}}"
        ]
      },
      "legal": {
        "legaltags": [
          "{{LEGAL_TAG}}"
        ],
        "otherRelevantDataCountries": [
          "{{ISO_3166_ALPHA_2_CODE}}"
        ]
      },
      "data": {
        "Name": "Qualifier",
        "Description": "Describes a qualifier used to describe a formation pick. For example not logged, missing, estimated or uncertain depth. [Based on PPDM 3.9]",
        "ValueCount": 1,
        "ValueType": "string",
        "Code": "Qualifier",
        "Source": "Workbook Published/MarkerPropertyType.1.0.0.xlsx; commit SHA 42cd3dfb.",
        "CommitDate": "2021-08-02T08:11:14+00:00"
      }
    },
    {
      "id": "{{NAMESPACE}}:reference-data--MarkerPropertyType:QualifierReason",
      "kind": "osdu:wks:reference-data--MarkerPropertyType:1.0.0",
      "acl": {
        "owners": [
          "{{DATA_OWNERS_GROUP}}"
        ],
        "viewers": [
          "{{DATA_VIEWERS_GROUP}}"
        ]
      },
      "legal": {
        "legaltags": [
          "{{LEGAL_TAG}}"
        ],
        "otherRelevantDataCountries": [
          "{{ISO_3166_ALPHA_2_CODE}}"
        ]
      },
      "data": {
        "Name": "QualifierReason",
        "Description": "The reason that a qualifier was added for a pick, such as poor data, faulting, erosion. [PPDM 3.9]",
        "ValueCount": 1,
        "ValueType": "string",
        "Code": "QualifierReason",
        "Source": "Workbook Published/MarkerPropertyType.1.0.0.xlsx; commit SHA 42cd3dfb.",
        "CommitDate": "2021-08-02T08:11:14+00:00"
      }
    },
    {
      "id": "{{NAMESPACE}}:reference-data--MarkerPropertyType:Quality",
      "kind": "osdu:wks:reference-data--MarkerPropertyType:1.0.0",
      "acl": {
        "owners": [
          "{{DATA_OWNERS_GROUP}}"
        ],
        "viewers": [
          "{{DATA_VIEWERS_GROUP}}"
        ]
      },
      "legal": {
        "legaltags": [
          "{{LEGAL_TAG}}"
        ],
        "otherRelevantDataCountries": [
          "{{ISO_3166_ALPHA_2_CODE}}"
        ]
      },
      "data": {
        "Name": "Quality",
        "Description": "The quality of or degree of confidence in the pick that was made, such as poor, uncertain, good, excellent. [PPDM 3.9]",
        "ValueCount": 1,
        "ValueType": "string",
        "Code": "Quality",
        "Source": "Workbook Published/MarkerPropertyType.1.0.0.xlsx; commit SHA 42cd3dfb.",
        "CommitDate": "2021-08-02T08:11:14+00:00"
      }
    },
    {
      "id": "{{NAMESPACE}}:reference-data--MarkerPropertyType:MarkerPickRemark",
      "kind": "osdu:wks:reference-data--MarkerPropertyType:1.0.0",
      "acl": {
        "owners": [
          "{{DATA_OWNERS_GROUP}}"
        ],
        "viewers": [
          "{{DATA_VIEWERS_GROUP}}"
        ]
      },
      "legal": {
        "legaltags": [
          "{{LEGAL_TAG}}"
        ],
        "otherRelevantDataCountries": [
          "{{ISO_3166_ALPHA_2_CODE}}"
        ]
      },
      "data": {
        "Name": "MarkerPickRemark",
        "Description": "A remark about a specific marker pick (not about the stratigraphic unit in general).",
        "ValueCount": 1,
        "ValueType": "string",
        "Code": "MarkerPickRemark",
        "Source": "Workbook Published/MarkerPropertyType.1.0.0.xlsx; commit SHA 42cd3dfb.",
        "CommitDate": "2021-08-02T08:11:14+00:00"
      }
    },
    {
      "id": "{{NAMESPACE}}:reference-data--MarkerPropertyType:RepeatMarkerIndicator",
      "kind": "osdu:wks:reference-data--MarkerPropertyType:1.0.0",
      "acl": {
        "owners": [
          "{{DATA_OWNERS_GROUP}}"
        ],
        "viewers": [
          "{{DATA_VIEWERS_GROUP}}"
        ]
      },
      "legal": {
        "legaltags": [
          "{{LEGAL_TAG}}"
        ],
        "otherRelevantDataCountries": [
          "{{ISO_3166_ALPHA_2_CODE}}"
        ]
      },
      "data": {
        "Name": "RepeatMarkerIndicator",
        "Description": "A true / false flag indicating whether this marker is known to be intentionally repeated in this marker set due to circumstances such as folding, faulting or undulating horizontal drilling.",
        "ValueCount": 1,
        "ValueType": "boolean",
        "Code": "RepeatMarkerIndicator",
        "Source": "Workbook Published/MarkerPropertyType.1.0.0.xlsx; commit SHA 42cd3dfb.",
        "CommitDate": "2021-08-02T08:11:14+00:00"
      }
    },
    {
      "id": "{{NAMESPACE}}:reference-data--MarkerPropertyType:RepeatMarkerReason",
      "kind": "osdu:wks:reference-data--MarkerPropertyType:1.0.0",
      "acl": {
        "owners": [
          "{{DATA_OWNERS_GROUP}}"
        ],
        "viewers": [
          "{{DATA_VIEWERS_GROUP}}"
        ]
      },
      "legal": {
        "legaltags": [
          "{{LEGAL_TAG}}"
        ],
        "otherRelevantDataCountries": [
          "{{ISO_3166_ALPHA_2_CODE}}"
        ]
      },
      "data": {
        "Name": "RepeatMarkerReason",
        "Description": "The reason the marker was picked more than once in the same wellbore/marker set. For example:  folding, faulting, undulating horizontal drilling/geosteering, etc.",
        "ValueCount": 1,
        "ValueType": "string",
        "Code": "RepeatMarkerReason",
        "Source": "Workbook Published/MarkerPropertyType.1.0.0.xlsx; commit SHA 42cd3dfb.",
        "CommitDate": "2021-08-02T08:11:14+00:00"
      }
    },
    {
      "id": "{{NAMESPACE}}:reference-data--MarkerPropertyType:Source",
      "kind": "osdu:wks:reference-data--MarkerPropertyType:1.0.0",
      "acl": {
        "owners": [
          "{{DATA_OWNERS_GROUP}}"
        ],
        "viewers": [
          "{{DATA_VIEWERS_GROUP}}"
        ]
      },
      "legal": {
        "legaltags": [
          "{{LEGAL_TAG}}"
        ],
        "otherRelevantDataCountries": [
          "{{ISO_3166_ALPHA_2_CODE}}"
        ]
      },
      "data": {
        "Name": "Source",
        "Description": "The entity that produced the record, or from which it is received; could be an organization, agency, system, internal team, or individual. For informational purposes only, the list of sources is not governed.",
        "ValueCount": 1,
        "ValueType": "string",
        "Code": "Source",
        "Source": "Workbook Published/MarkerPropertyType.1.0.0.xlsx; commit SHA 42cd3dfb.",
        "CommitDate": "2021-08-02T08:11:14+00:00"
      }
    },
    {
      "id": "{{NAMESPACE}}:reference-data--MarkerPropertyType:MarkerInterpretationMethod",
      "kind": "osdu:wks:reference-data--MarkerPropertyType:1.0.0",
      "acl": {
        "owners": [
          "{{DATA_OWNERS_GROUP}}"
        ],
        "viewers": [
          "{{DATA_VIEWERS_GROUP}}"
        ]
      },
      "legal": {
        "legaltags": [
          "{{LEGAL_TAG}}"
        ],
        "otherRelevantDataCountries": [
          "{{ISO_3166_ALPHA_2_CODE}}"
        ]
      },
      "data": {
        "Name": "MarkerInterpretationMethod",
        "Description": "The method by which this marker was interpreted, such as surface sample, sub-surface, logs, seismic, etc. ",
        "ValueCount": 1,
        "ValueType": "string",
        "Code": "MarkerInterpretationMethod",
        "Source": "Workbook Published/MarkerPropertyType.1.0.0.xlsx; commit SHA 42cd3dfb.",
        "CommitDate": "2021-08-02T08:11:14+00:00"
      }
    },
    {
      "id": "{{NAMESPACE}}:reference-data--MarkerPropertyType:MarkersObservationNumber",
      "kind": "osdu:wks:reference-data--MarkerPropertyType:1.0.0",
      "acl": {
        "owners": [
          "{{DATA_OWNERS_GROUP}}"
        ],
        "viewers": [
          "{{DATA_VIEWERS_GROUP}}"
        ]
      },
      "legal": {
        "legaltags": [
          "{{LEGAL_TAG}}"
        ],
        "otherRelevantDataCountries": [
          "{{ISO_3166_ALPHA_2_CODE}}"
        ]
      },
      "data": {
        "Name": "MarkersObservationNumber",
        "Description": "Any observation number that distinguishes a Marker observation from others with same Marker name, date.",
        "ValueCount": 1,
        "ValueType": "integer",
        "Code": "MarkersObservationNumber",
        "Source": "Workbook Published/MarkerPropertyType.1.0.0.xlsx; commit SHA 42cd3dfb.",
        "CommitDate": "2021-08-02T08:11:14+00:00"
      }
    },
    {
      "id": "{{NAMESPACE}}:reference-data--MarkerPropertyType:ExistenceKind",
      "kind": "osdu:wks:reference-data--MarkerPropertyType:1.0.0",
      "acl": {
        "owners": [
          "{{DATA_OWNERS_GROUP}}"
        ],
        "viewers": [
          "{{DATA_VIEWERS_GROUP}}"
        ]
      },
      "legal": {
        "legaltags": [
          "{{LEGAL_TAG}}"
        ],
        "otherRelevantDataCountries": [
          "{{ISO_3166_ALPHA_2_CODE}}"
        ]
      },
      "data": {
        "Name": "ExistenceKind",
        "Description": "Where does this data resource sit in the cradle-to-grave span of its existence? For example, Prototype, Planned, Actual, etc.",
        "RelationshipTargetKind": "{{NAMESPACE}}:wks:reference-data--ExistenceKind:",
        "ValueCount": 1,
        "ValueType": "string",
        "Code": "ExistenceKind",
        "Source": "Workbook Published/MarkerPropertyType.1.0.0.xlsx; commit SHA 42cd3dfb.",
        "CommitDate": "2021-08-02T08:11:14+00:00"
      }
    },
    {
      "id": "{{NAMESPACE}}:reference-data--MarkerPropertyType:PositiveVerticalDelta",
      "kind": "osdu:wks:reference-data--MarkerPropertyType:1.0.0",
      "acl": {
        "owners": [
          "{{DATA_OWNERS_GROUP}}"
        ],
        "viewers": [
          "{{DATA_VIEWERS_GROUP}}"
        ]
      },
      "legal": {
        "legaltags": [
          "{{LEGAL_TAG}}"
        ],
        "otherRelevantDataCountries": [
          "{{ISO_3166_ALPHA_2_CODE}}"
        ]
      },
      "data": {
        "Name": "PositiveVerticalDelta",
        "Description": "The distance vertically above the Marker position that marks the limit of the high confidence range for the Marker pick.",
        "PropertyType": {
          "Name": "vertical depth offset",
          "PropertyTypeID": "{{NAMESPACE}}:reference-data--PropertyType:b04a0764-add3-4044-bd09-bd60029bf0fe:"
        },
        "UnitQuantityID": "{{NAMESPACE}}:reference-data--UnitQuantity:length:",
        "ValueCount": 1,
        "ValueType": "number",
        "Code": "PositiveVerticalDelta",
        "Source": "Workbook Published/MarkerPropertyType.1.0.0.xlsx; commit SHA 42cd3dfb.",
        "CommitDate": "2021-08-02T08:11:14+00:00"
      }
    },
    {
      "id": "{{NAMESPACE}}:reference-data--MarkerPropertyType:PositiveVerticalDeltaUOM",
      "kind": "osdu:wks:reference-data--MarkerPropertyType:1.0.0",
      "acl": {
        "owners": [
          "{{DATA_OWNERS_GROUP}}"
        ],
        "viewers": [
          "{{DATA_VIEWERS_GROUP}}"
        ]
      },
      "legal": {
        "legaltags": [
          "{{LEGAL_TAG}}"
        ],
        "otherRelevantDataCountries": [
          "{{ISO_3166_ALPHA_2_CODE}}"
        ]
      },
      "data": {
        "Name": "PositiveVerticalDeltaUOM",
        "Description": "The unit of measure describing the value in PositiveVerticalDelta.",
        "Code": "PositiveVerticalDeltaUOM",
        "Source": "Workbook Published/MarkerPropertyType.1.0.0.xlsx; commit SHA 42cd3dfb.",
        "CommitDate": "2021-08-02T08:11:14+00:00"
      }
    },
    {
      "id": "{{NAMESPACE}}:reference-data--MarkerPropertyType:PositiveVerticalDeltaOUOM",
      "kind": "osdu:wks:reference-data--MarkerPropertyType:1.0.0",
      "acl": {
        "owners": [
          "{{DATA_OWNERS_GROUP}}"
        ],
        "viewers": [
          "{{DATA_VIEWERS_GROUP}}"
        ]
      },
      "legal": {
        "legaltags": [
          "{{LEGAL_TAG}}"
        ],
        "otherRelevantDataCountries": [
          "{{ISO_3166_ALPHA_2_CODE}}"
        ]
      },
      "data": {
        "Name": "PositiveVerticalDeltaOUOM",
        "Description": "The unit of measure in which PositiveVerticalDelta was originally measured when the data was first collected or created. (This may be the same or different from the current UOM. OUOM is captured because sometimes values get converted to different units making the OUOM differ from current UOM; OUOM can inform data users on possible causes of data quality issues, validating the source of data, and other data issues.)",
        "RelationshipTargetKind": "{{NAMESPACE}}:wks:reference-data--UnitOfMeasure:",
        "ValueCount": 1,
        "ValueType": "string",
        "Code": "PositiveVerticalDeltaOUOM",
        "Source": "Workbook Published/MarkerPropertyType.1.0.0.xlsx; commit SHA 42cd3dfb.",
        "CommitDate": "2021-08-02T08:11:14+00:00"
      }
    },
    {
      "id": "{{NAMESPACE}}:reference-data--MarkerPropertyType:NegativeVerticalDelta",
      "kind": "osdu:wks:reference-data--MarkerPropertyType:1.0.0",
      "acl": {
        "owners": [
          "{{DATA_OWNERS_GROUP}}"
        ],
        "viewers": [
          "{{DATA_VIEWERS_GROUP}}"
        ]
      },
      "legal": {
        "legaltags": [
          "{{LEGAL_TAG}}"
        ],
        "otherRelevantDataCountries": [
          "{{ISO_3166_ALPHA_2_CODE}}"
        ]
      },
      "data": {
        "Name": "NegativeVerticalDelta",
        "Description": "The distance vertically below the Marker position that marks the limit of the high confidence range for the Marker pick.",
        "PropertyType": {
          "Name": "vertical depth offset",
          "PropertyTypeID": "{{NAMESPACE}}:reference-data--PropertyType:b04a0764-add3-4044-bd09-bd60029bf0fe:"
        },
        "UnitQuantityID": "{{NAMESPACE}}:reference-data--UnitQuantity:length:",
        "Code": "NegativeVerticalDelta",
        "Source": "Workbook Published/MarkerPropertyType.1.0.0.xlsx; commit SHA 42cd3dfb.",
        "CommitDate": "2021-08-02T08:11:14+00:00"
      }
    },
    {
      "id": "{{NAMESPACE}}:reference-data--MarkerPropertyType:NegativeVerticalDeltaUOM",
      "kind": "osdu:wks:reference-data--MarkerPropertyType:1.0.0",
      "acl": {
        "owners": [
          "{{DATA_OWNERS_GROUP}}"
        ],
        "viewers": [
          "{{DATA_VIEWERS_GROUP}}"
        ]
      },
      "legal": {
        "legaltags": [
          "{{LEGAL_TAG}}"
        ],
        "otherRelevantDataCountries": [
          "{{ISO_3166_ALPHA_2_CODE}}"
        ]
      },
      "data": {
        "Name": "NegativeVerticalDeltaUOM",
        "Description": "The unit of measure describing the value in NegativeVerticalDelta.",
        "RelationshipTargetKind": "{{NAMESPACE}}:wks:reference-data--UnitOfMeasure:",
        "ValueCount": 1,
        "ValueType": "string",
        "Code": "NegativeVerticalDeltaUOM",
        "Source": "Workbook Published/MarkerPropertyType.1.0.0.xlsx; commit SHA 42cd3dfb.",
        "CommitDate": "2021-08-02T08:11:14+00:00"
      }
    },
    {
      "id": "{{NAMESPACE}}:reference-data--MarkerPropertyType:NegativeVerticalDeltaOUOM",
      "kind": "osdu:wks:reference-data--MarkerPropertyType:1.0.0",
      "acl": {
        "owners": [
          "{{DATA_OWNERS_GROUP}}"
        ],
        "viewers": [
          "{{DATA_VIEWERS_GROUP}}"
        ]
      },
      "legal": {
        "legaltags": [
          "{{LEGAL_TAG}}"
        ],
        "otherRelevantDataCountries": [
          "{{ISO_3166_ALPHA_2_CODE}}"
        ]
      },
      "data": {
        "Name": "NegativeVerticalDeltaOUOM",
        "Description": "The unit of measure in which NegativeVerticalDelta was originally measured when the data was first collected or created. (This may be the same or different from the current UOM. OUOM is captured because sometimes values get converted to different units making the OUOM differ from current UOM; OUOM can inform data users on possible causes of data quality issues, validating the source of data, and other data issues.)",
        "RelationshipTargetKind": "{{NAMESPACE}}:wks:reference-data--UnitOfMeasure:",
        "ValueCount": 1,
        "ValueType": "string",
        "Code": "NegativeVerticalDeltaOUOM",
        "Source": "Workbook Published/MarkerPropertyType.1.0.0.xlsx; commit SHA 42cd3dfb.",
        "CommitDate": "2021-08-02T08:11:14+00:00"
      }
    },
    {
      "id": "{{NAMESPACE}}:reference-data--MarkerPropertyType:VerticalMeasurementPath",
      "kind": "osdu:wks:reference-data--MarkerPropertyType:1.0.0",
      "acl": {
        "owners": [
          "{{DATA_OWNERS_GROUP}}"
        ],
        "viewers": [
          "{{DATA_VIEWERS_GROUP}}"
        ]
      },
      "legal": {
        "legaltags": [
          "{{LEGAL_TAG}}"
        ],
        "otherRelevantDataCountries": [
          "{{ISO_3166_ALPHA_2_CODE}}"
        ]
      },
      "data": {
        "Name": "VerticalMeasurementPath",
        "Description": "Specifies Measured Depth, True Vertical Depth, or Elevation. For Markers, the VerticalMeasurementPath will almost always be \"Elevation\".",
        "RelationshipTargetKind": "{{NAMESPACE}}:wks:reference-data--VerticalReferencePath:",
        "ValueCount": 1,
        "ValueType": "string",
        "Code": "VerticalMeasurementPath",
        "Source": "Workbook Published/MarkerPropertyType.1.0.0.xlsx; commit SHA 42cd3dfb.",
        "CommitDate": "2021-08-02T08:11:14+00:00"
      }
    },
    {
      "id": "{{NAMESPACE}}:reference-data--MarkerPropertyType:VerticalMeasurementType",
      "kind": "osdu:wks:reference-data--MarkerPropertyType:1.0.0",
      "acl": {
        "owners": [
          "{{DATA_OWNERS_GROUP}}"
        ],
        "viewers": [
          "{{DATA_VIEWERS_GROUP}}"
        ]
      },
      "legal": {
        "legaltags": [
          "{{LEGAL_TAG}}"
        ],
        "otherRelevantDataCountries": [
          "{{ISO_3166_ALPHA_2_CODE}}"
        ]
      },
      "data": {
        "Name": "VerticalMeasurementType",
        "Description": "Usually, the Datum Elevation, in human readable form, from which the markers in this Marker set were measured, such as Ground Level, Drill Floor, or Kelly Bushing. (This should conceptually correspond to the the reference provided in VerticalMeasurementID.)",
        "RelationshipTargetKind": "{{NAMESPACE}}:wks:reference-data--VerticalMeasurementType:",
        "ValueCount": 1,
        "ValueType": "string",
        "Code": "VerticalMeasurementType",
        "Source": "Workbook Published/MarkerPropertyType.1.0.0.xlsx; commit SHA 42cd3dfb.",
        "CommitDate": "2021-08-02T08:11:14+00:00"
      }
    },
    {
      "id": "{{NAMESPACE}}:reference-data--MarkerPropertyType:VerticalCRS",
      "kind": "osdu:wks:reference-data--MarkerPropertyType:1.0.0",
      "acl": {
        "owners": [
          "{{DATA_OWNERS_GROUP}}"
        ],
        "viewers": [
          "{{DATA_VIEWERS_GROUP}}"
        ]
      },
      "legal": {
        "legaltags": [
          "{{LEGAL_TAG}}"
        ],
        "otherRelevantDataCountries": [
          "{{ISO_3166_ALPHA_2_CODE}}"
        ]
      },
      "data": {
        "Name": "VerticalCRS",
        "Description": "A vertical coordinate reference system from which the elevation for this marker set was measured, such as Mean Sea Level, Lowest Astronomical Tide, or NAVD88.",
        "RelationshipTargetKind": "{{NAMESPACE}}:wks:reference-data--CoordinateReferenceSystem:",
        "ValueCount": 1,
        "ValueType": "string",
        "Code": "VerticalCRS",
        "Source": "Workbook Published/MarkerPropertyType.1.0.0.xlsx; commit SHA 42cd3dfb.",
        "CommitDate": "2021-08-02T08:11:14+00:00"
      }
    },
    {
      "id": "{{NAMESPACE}}:reference-data--MarkerPropertyType:WellboreVerticalMeasurementID",
      "kind": "osdu:wks:reference-data--MarkerPropertyType:1.0.0",
      "acl": {
        "owners": [
          "{{DATA_OWNERS_GROUP}}"
        ],
        "viewers": [
          "{{DATA_VIEWERS_GROUP}}"
        ]
      },
      "legal": {
        "legaltags": [
          "{{LEGAL_TAG}}"
        ],
        "otherRelevantDataCountries": [
          "{{ISO_3166_ALPHA_2_CODE}}"
        ]
      },
      "data": {
        "Name": "WellboreVerticalMeasurementID",
        "Description": "References an entry in the Vertical Measurement array for the Wellbore identified by WellboreID, which defines the vertical reference datum for all marker measured depths of the wellbore marker Markers array.",
        "ValueCount": 1,
        "ValueType": "string",
        "Code": "WellboreVerticalMeasurementID",
        "Source": "Workbook Published/MarkerPropertyType.1.0.0.xlsx; commit SHA 42cd3dfb.",
        "CommitDate": "2021-08-02T08:11:14+00:00"
      }
    },
    {
      "id": "{{NAMESPACE}}:reference-data--MarkerPropertyType:MarkerX",
      "kind": "osdu:wks:reference-data--MarkerPropertyType:1.0.0",
      "acl": {
        "owners": [
          "{{DATA_OWNERS_GROUP}}"
        ],
        "viewers": [
          "{{DATA_VIEWERS_GROUP}}"
        ]
      },
      "legal": {
        "legaltags": [
          "{{LEGAL_TAG}}"
        ],
        "otherRelevantDataCountries": [
          "{{ISO_3166_ALPHA_2_CODE}}"
        ]
      },
      "data": {
        "Name": "MarkerX",
        "Description": "The geographic map \"X\" value (aka Easting) of this specific marker pick. The MarkerXYCRS metadata must by populated to interpret these X, Y values. To know how this property was computed, refer to TrajectoryIDforMarker.",
        "PropertyType": {
          "Name": "x coordinate",
          "PropertyTypeID": "{{NAMESPACE}}:reference-data--PropertyType:620cec71-5ce3-4ea5-9120-833756b427d7:"
        },
        "UnitQuantityID": "{{NAMESPACE}}:reference-data--UnitQuantity:length:",
        "ValueCount": 1,
        "ValueType": "number",
        "Code": "MarkerX",
        "Source": "Workbook Published/MarkerPropertyType.1.0.0.xlsx; commit SHA 42cd3dfb.",
        "CommitDate": "2021-08-02T08:11:14+00:00"
      }
    },
    {
      "id": "{{NAMESPACE}}:reference-data--MarkerPropertyType:MarkerY",
      "kind": "osdu:wks:reference-data--MarkerPropertyType:1.0.0",
      "acl": {
        "owners": [
          "{{DATA_OWNERS_GROUP}}"
        ],
        "viewers": [
          "{{DATA_VIEWERS_GROUP}}"
        ]
      },
      "legal": {
        "legaltags": [
          "{{LEGAL_TAG}}"
        ],
        "otherRelevantDataCountries": [
          "{{ISO_3166_ALPHA_2_CODE}}"
        ]
      },
      "data": {
        "Name": "MarkerY",
        "Description": "The geographic map \"Y\" value (aka Northing) of this specific marker pick. The MarkerXYCRS metadata must by populated to interpret these X, Y values. To know how this property was computed, refer to TrajectoryIDforMarker.",
        "PropertyType": {
          "Name": "y coordinate",
          "PropertyTypeID": "{{NAMESPACE}}:reference-data--PropertyType:cfcfdb04-02c1-4262-b66b-459b0aab3e8e:"
        },
        "UnitQuantityID": "{{NAMESPACE}}:reference-data--UnitQuantity:length:",
        "ValueCount": 1,
        "ValueType": "number",
        "Code": "MarkerY",
        "Source": "Workbook Published/MarkerPropertyType.1.0.0.xlsx; commit SHA 42cd3dfb.",
        "CommitDate": "2021-08-02T08:11:14+00:00"
      }
    },
    {
      "id": "{{NAMESPACE}}:reference-data--MarkerPropertyType:MarkerXYCRS",
      "kind": "osdu:wks:reference-data--MarkerPropertyType:1.0.0",
      "acl": {
        "owners": [
          "{{DATA_OWNERS_GROUP}}"
        ],
        "viewers": [
          "{{DATA_VIEWERS_GROUP}}"
        ]
      },
      "legal": {
        "legaltags": [
          "{{LEGAL_TAG}}"
        ],
        "otherRelevantDataCountries": [
          "{{ISO_3166_ALPHA_2_CODE}}"
        ]
      },
      "data": {
        "Name": "MarkerXYCRS",
        "Description": "The geographic or projected horizontal coordinate reference system that governs the values provided in MarkerX and MarkerY. ",
        "RelationshipTargetKind": "{{NAMESPACE}}:wks:reference-data--CoordinateReferenceSystem:",
        "ValueCount": 1,
        "ValueType": "string",
        "Code": "MarkerXYCRS",
        "Source": "Workbook Published/MarkerPropertyType.1.0.0.xlsx; commit SHA 42cd3dfb.",
        "CommitDate": "2021-08-02T08:11:14+00:00"
      }
    },
    {
      "id": "{{NAMESPACE}}:reference-data--MarkerPropertyType:WPCName",
      "kind": "osdu:wks:reference-data--MarkerPropertyType:1.0.0",
      "acl": {
        "owners": [
          "{{DATA_OWNERS_GROUP}}"
        ],
        "viewers": [
          "{{DATA_VIEWERS_GROUP}}"
        ]
      },
      "legal": {
        "legaltags": [
          "{{LEGAL_TAG}}"
        ],
        "otherRelevantDataCountries": [
          "{{ISO_3166_ALPHA_2_CODE}}"
        ]
      },
      "data": {
        "Name": "WPCName",
        "Description": "Name of the work product component, such as a short summary that identifies the contents of this work product component. ",
        "ValueCount": 1,
        "ValueType": "string",
        "Code": "WPCName",
        "Source": "Workbook Published/MarkerPropertyType.1.0.0.xlsx; commit SHA 42cd3dfb.",
        "CommitDate": "2021-08-02T08:11:14+00:00"
      }
    },
    {
      "id": "{{NAMESPACE}}:reference-data--MarkerPropertyType:WPCDescription",
      "kind": "osdu:wks:reference-data--MarkerPropertyType:1.0.0",
      "acl": {
        "owners": [
          "{{DATA_OWNERS_GROUP}}"
        ],
        "viewers": [
          "{{DATA_VIEWERS_GROUP}}"
        ]
      },
      "legal": {
        "legaltags": [
          "{{LEGAL_TAG}}"
        ],
        "otherRelevantDataCountries": [
          "{{ISO_3166_ALPHA_2_CODE}}"
        ]
      },
      "data": {
        "Name": "WPCDescription",
        "Description": "Description.  Summary of the work product component.  Not the same as Remark which captures thoughts of creator about the wpc.",
        "ValueCount": 1,
        "ValueType": "string",
        "Code": "WPCDescription",
        "Source": "Workbook Published/MarkerPropertyType.1.0.0.xlsx; commit SHA 42cd3dfb.",
        "CommitDate": "2021-08-02T08:11:14+00:00"
      }
    },
    {
      "id": "{{NAMESPACE}}:reference-data--MarkerPropertyType:WPCOriginalCreationDateTime",
      "kind": "osdu:wks:reference-data--MarkerPropertyType:1.0.0",
      "acl": {
        "owners": [
          "{{DATA_OWNERS_GROUP}}"
        ],
        "viewers": [
          "{{DATA_VIEWERS_GROUP}}"
        ]
      },
      "legal": {
        "legaltags": [
          "{{LEGAL_TAG}}"
        ],
        "otherRelevantDataCountries": [
          "{{ISO_3166_ALPHA_2_CODE}}"
        ]
      },
      "data": {
        "Name": "WPCOriginalCreationDateTime",
        "Description": "The date that this Marker set was formed outside of OSDU before loading into OSDU. OSDU internally expects ISO 8601 date-time format.",
        "ValueCount": 1,
        "ValueType": "string",
        "Code": "WPCOriginalCreationDateTime",
        "Source": "Workbook Published/MarkerPropertyType.1.0.0.xlsx; commit SHA 42cd3dfb.",
        "CommitDate": "2021-08-02T08:11:14+00:00"
      }
    },
    {
      "id": "{{NAMESPACE}}:reference-data--MarkerPropertyType:MarkerSubSeaVerticalDepth",
      "kind": "osdu:wks:reference-data--MarkerPropertyType:1.0.0",
      "acl": {
        "owners": [
          "{{DATA_OWNERS_GROUP}}"
        ],
        "viewers": [
          "{{DATA_VIEWERS_GROUP}}"
        ]
      },
      "legal": {
        "legaltags": [
          "{{LEGAL_TAG}}"
        ],
        "otherRelevantDataCountries": [
          "{{ISO_3166_ALPHA_2_CODE}}"
        ]
      },
      "data": {
        "Name": "MarkerSubSeaVerticalDepth",
        "NameAlias": [
          {
            "AliasName": "TVDSS"
          },
          {
            "AliasName": "TVDMSL"
          }
        ],
        "Description": "The marker's true vertical depth sub-sea, i.e., below Mean Sea Level. Note that TVD values above MSL are negative. This is the same as true vertical depth referenced to the vertical CRS \u201cMSL depth\u201d. ",
        "PropertyType": {
          "Name": "subsea vertical depth",
          "PropertyTypeID": "{{NAMESPACE}}:reference-data--PropertyType:8f4fbd79-87c9-4232-8934-f663e2fbf538:"
        },
        "UnitQuantityID": "{{NAMESPACE}}:reference-data--UnitQuantity:length:",
        "ValueCount": 1,
        "ValueType": "number",
        "Code": "MarkerSubSeaVerticalDepth",
        "Source": "Workbook Published/MarkerPropertyType.1.0.0.xlsx; commit SHA 42cd3dfb.",
        "CommitDate": "2021-08-02T08:11:14+00:00"
      }
    }
  ]
}