{
  "kind": "osdu:wks:Manifest:1.0.0",
  "ReferenceData": [
    {
      "id": "{{NAMESPACE}}:reference-data--PerforationGunChargeType:ResearchDepartmentCompositionX",
      "kind": "osdu:wks:reference-data--PerforationGunChargeType:1.0.0",
      "acl": {
        "owners": [
          "{{DATA_OWNERS_GROUP}}"
        ],
        "viewers": [
          "{{DATA_VIEWERS_GROUP}}"
        ]
      },
      "legal": {
        "legaltags": [
          "{{LEGAL_TAG}}"
        ],
        "otherRelevantDataCountries": [
          "{{ISO_3166_ALPHA_2_CODE}}"
        ]
      },
      "data": {
        "Name": "RDX",
        "NameAlias": [
          {
            "AliasName": "Cyclotrimethylene Trinitramine",
            "AliasNameTypeID": "{{NAMESPACE}}:reference-data--AliasNameType:IndustryCode:"
          },
          {
            "AliasName": "RDX",
            "AliasNameTypeID": "{{NAMESPACE}}:reference-data--AliasNameType:Acronym:"
          }
        ],
        "Description": "Research Department Composition X",
        "Code": "ResearchDepartmentCompositionX",
        "Source": "Workbook Published/PerforationGunChargeType.1.0.0.xlsx; commit SHA 65d9f2cb.",
        "CommitDate": "2022-08-04T09:24:50+02:00"
      }
    },
    {
      "id": "{{NAMESPACE}}:reference-data--PerforationGunChargeType:HigherMolecularWeightRDX",
      "kind": "osdu:wks:reference-data--PerforationGunChargeType:1.0.0",
      "acl": {
        "owners": [
          "{{DATA_OWNERS_GROUP}}"
        ],
        "viewers": [
          "{{DATA_VIEWERS_GROUP}}"
        ]
      },
      "legal": {
        "legaltags": [
          "{{LEGAL_TAG}}"
        ],
        "otherRelevantDataCountries": [
          "{{ISO_3166_ALPHA_2_CODE}}"
        ]
      },
      "data": {
        "Name": "HMX",
        "NameAlias": [
          {
            "AliasName": "Cyclotetramethylene Trinitramine",
            "AliasNameTypeID": "{{NAMESPACE}}:reference-data--AliasNameType:IndustryCode:"
          },
          {
            "AliasName": "HMX",
            "AliasNameTypeID": "{{NAMESPACE}}:reference-data--AliasNameType:Acronym:"
          }
        ],
        "Description": "Higher Molecular Weight RDX",
        "Code": "HigherMolecularWeightRDX",
        "Source": "Workbook Published/PerforationGunChargeType.1.0.0.xlsx; commit SHA 65d9f2cb.",
        "CommitDate": "2022-08-04T09:24:50+02:00"
      }
    },
    {
      "id": "{{NAMESPACE}}:reference-data--PerforationGunChargeType:Hexanitrosilbene",
      "kind": "osdu:wks:reference-data--PerforationGunChargeType:1.0.0",
      "acl": {
        "owners": [
          "{{DATA_OWNERS_GROUP}}"
        ],
        "viewers": [
          "{{DATA_VIEWERS_GROUP}}"
        ]
      },
      "legal": {
        "legaltags": [
          "{{LEGAL_TAG}}"
        ],
        "otherRelevantDataCountries": [
          "{{ISO_3166_ALPHA_2_CODE}}"
        ]
      },
      "data": {
        "Name": "HNS",
        "NameAlias": [
          {
            "AliasName": "Hexanitrosilbene",
            "AliasNameTypeID": "{{NAMESPACE}}:reference-data--AliasNameType:IndustryCode:"
          },
          {
            "AliasName": "HNS",
            "AliasNameTypeID": "{{NAMESPACE}}:reference-data--AliasNameType:Acronym:"
          }
        ],
        "Description": "Hexanitrosilbene",
        "Code": "Hexanitrosilbene",
        "Source": "Workbook Published/PerforationGunChargeType.1.0.0.xlsx; commit SHA 65d9f2cb.",
        "CommitDate": "2022-08-04T09:24:50+02:00"
      }
    },
    {
      "id": "{{NAMESPACE}}:reference-data--PerforationGunChargeType:BisDinotropyridine",
      "kind": "osdu:wks:reference-data--PerforationGunChargeType:1.0.0",
      "acl": {
        "owners": [
          "{{DATA_OWNERS_GROUP}}"
        ],
        "viewers": [
          "{{DATA_VIEWERS_GROUP}}"
        ]
      },
      "legal": {
        "legaltags": [
          "{{LEGAL_TAG}}"
        ],
        "otherRelevantDataCountries": [
          "{{ISO_3166_ALPHA_2_CODE}}"
        ]
      },
      "data": {
        "Name": "PYX",
        "NameAlias": [
          {
            "AliasName": "Bis Dinotropyridine",
            "AliasNameTypeID": "{{NAMESPACE}}:reference-data--AliasNameType:IndustryCode:"
          },
          {
            "AliasName": "PYX",
            "AliasNameTypeID": "{{NAMESPACE}}:reference-data--AliasNameType:Acronym:"
          }
        ],
        "Description": "Bis Dinotropyridine",
        "Code": "BisDinotropyridine",
        "Source": "Workbook Published/PerforationGunChargeType.1.0.0.xlsx; commit SHA 65d9f2cb.",
        "CommitDate": "2022-08-04T09:24:50+02:00"
      }
    }
  ]
}