{
  "kind": "osdu:wks:Manifest:1.0.0",
  "ReferenceData": [
    {
      "id": "{{NAMESPACE}}:reference-data--RiskConsequenceCategory:Environment",
      "kind": "osdu:wks:reference-data--RiskConsequenceCategory:1.0.0",
      "acl": {
        "owners": [
          "{{DATA_OWNERS_GROUP}}"
        ],
        "viewers": [
          "{{DATA_VIEWERS_GROUP}}"
        ]
      },
      "legal": {
        "legaltags": [
          "{{LEGAL_TAG}}"
        ],
        "otherRelevantDataCountries": [
          "{{ISO_3166_ALPHA_2_CODE}}"
        ]
      },
      "data": {
        "Name": "Environment",
        "Description": "Environmental consequences should the risk occur",
        "Code": "Environment",
        "AttributionAuthority": "Well Delivery Schema Group",
        "Source": "Workbook Published/RiskConsequenceCategory.1.0.0.xlsx; commit SHA 951f2a10.",
        "CommitDate": "2021-12-06T11:34:44+01:00"
      }
    },
    {
      "id": "{{NAMESPACE}}:reference-data--RiskConsequenceCategory:BusinessAndReputation",
      "kind": "osdu:wks:reference-data--RiskConsequenceCategory:1.0.0",
      "acl": {
        "owners": [
          "{{DATA_OWNERS_GROUP}}"
        ],
        "viewers": [
          "{{DATA_VIEWERS_GROUP}}"
        ]
      },
      "legal": {
        "legaltags": [
          "{{LEGAL_TAG}}"
        ],
        "otherRelevantDataCountries": [
          "{{ISO_3166_ALPHA_2_CODE}}"
        ]
      },
      "data": {
        "Name": "Business & Reputation",
        "Description": "Business consequences should the risk occur. for example: Financial consequences; consequences related to financial audit findings and/or incorrect financial reporting; media and reputational consequences; government, legal and or regulatory consequences; consequences related to damaged relationships with key stakeholders",
        "Code": "BusinessAndReputation",
        "AttributionAuthority": "Well Delivery Schema Group",
        "Source": "Workbook Published/RiskConsequenceCategory.1.0.0.xlsx; commit SHA 951f2a10.",
        "CommitDate": "2021-12-06T11:34:44+01:00"
      }
    },
    {
      "id": "{{NAMESPACE}}:reference-data--RiskConsequenceCategory:HealthAndSafety",
      "kind": "osdu:wks:reference-data--RiskConsequenceCategory:1.0.0",
      "acl": {
        "owners": [
          "{{DATA_OWNERS_GROUP}}"
        ],
        "viewers": [
          "{{DATA_VIEWERS_GROUP}}"
        ]
      },
      "legal": {
        "legaltags": [
          "{{LEGAL_TAG}}"
        ],
        "otherRelevantDataCountries": [
          "{{ISO_3166_ALPHA_2_CODE}}"
        ]
      },
      "data": {
        "Name": "Health & Safety",
        "Description": "Health and or safety consequences should the risk occur",
        "Code": "HealthAndSafety",
        "AttributionAuthority": "Well Delivery Schema Group",
        "Source": "Workbook Published/RiskConsequenceCategory.1.0.0.xlsx; commit SHA 951f2a10.",
        "CommitDate": "2021-12-06T11:34:44+01:00"
      }
    },
    {
      "id": "{{NAMESPACE}}:reference-data--RiskConsequenceCategory:Asset",
      "kind": "osdu:wks:reference-data--RiskConsequenceCategory:1.0.0",
      "acl": {
        "owners": [
          "{{DATA_OWNERS_GROUP}}"
        ],
        "viewers": [
          "{{DATA_VIEWERS_GROUP}}"
        ]
      },
      "legal": {
        "legaltags": [
          "{{LEGAL_TAG}}"
        ],
        "otherRelevantDataCountries": [
          "{{ISO_3166_ALPHA_2_CODE}}"
        ]
      },
      "data": {
        "Name": "Asset",
        "Description": "Consequences to physical assets such as equipment, products, computing infrastructure",
        "Code": "Asset",
        "AttributionAuthority": "Well Delivery Schema Group",
        "Source": "Workbook Published/RiskConsequenceCategory.1.0.0.xlsx; commit SHA 951f2a10.",
        "CommitDate": "2021-12-06T11:34:44+01:00"
      }
    },
    {
      "id": "{{NAMESPACE}}:reference-data--RiskConsequenceCategory:Information",
      "kind": "osdu:wks:reference-data--RiskConsequenceCategory:1.0.0",
      "acl": {
        "owners": [
          "{{DATA_OWNERS_GROUP}}"
        ],
        "viewers": [
          "{{DATA_VIEWERS_GROUP}}"
        ]
      },
      "legal": {
        "legaltags": [
          "{{LEGAL_TAG}}"
        ],
        "otherRelevantDataCountries": [
          "{{ISO_3166_ALPHA_2_CODE}}"
        ]
      },
      "data": {
        "Name": "Information",
        "Description": "Consequences related damage to or loss of data and information",
        "Code": "Information",
        "AttributionAuthority": "Well Delivery Schema Group",
        "Source": "Workbook Published/RiskConsequenceCategory.1.0.0.xlsx; commit SHA 951f2a10.",
        "CommitDate": "2021-12-06T11:34:44+01:00"
      }
    }
  ]
}