{
  "kind": "osdu:wks:Manifest:1.0.0",
  "ReferenceData": [
    {
      "id": "{{NAMESPACE}}:reference-data--SeismicGatherType:CommonShot",
      "kind": "osdu:wks:reference-data--SeismicGatherType:1.0.0",
      "acl": {
        "owners": [
          "{{DATA_OWNERS_GROUP}}"
        ],
        "viewers": [
          "{{DATA_VIEWERS_GROUP}}"
        ]
      },
      "legal": {
        "legaltags": [
          "{{LEGAL_TAG}}"
        ],
        "otherRelevantDataCountries": [
          "{{ISO_3166_ALPHA_2_CODE}}"
        ]
      },
      "data": {
        "Name": "Common Shot",
        "Description": "Collection of traces originating from a single source and recorded by several receivers, with multiple offsets. \n2D: A single shot into a single common receiver line\n3D: A single shot into multiple receiver lines",
        "Code": "CommonShot",
        "ID": "CommonShot",
        "Source": "Workbook Published/SeismicGatherType.1.0.0.xlsx; commit SHA 3b2195ed.",
        "CommitDate": "2021-12-08T19:13:29+01:00"
      }
    },
    {
      "id": "{{NAMESPACE}}:reference-data--SeismicGatherType:CommonReceiver",
      "kind": "osdu:wks:reference-data--SeismicGatherType:1.0.0",
      "acl": {
        "owners": [
          "{{DATA_OWNERS_GROUP}}"
        ],
        "viewers": [
          "{{DATA_VIEWERS_GROUP}}"
        ]
      },
      "legal": {
        "legaltags": [
          "{{LEGAL_TAG}}"
        ],
        "otherRelevantDataCountries": [
          "{{ISO_3166_ALPHA_2_CODE}}"
        ]
      },
      "data": {
        "Name": "Common Receiver",
        "Description": "Collection of traces recorded at a single receiver and originating from several sources, with multiple offsets",
        "Code": "CommonReceiver",
        "ID": "CommonReceiver",
        "Source": "Workbook Published/SeismicGatherType.1.0.0.xlsx; commit SHA 3b2195ed.",
        "CommitDate": "2021-12-08T19:13:29+01:00"
      }
    },
    {
      "id": "{{NAMESPACE}}:reference-data--SeismicGatherType:CommonMidPoint",
      "kind": "osdu:wks:reference-data--SeismicGatherType:1.0.0",
      "acl": {
        "owners": [
          "{{DATA_OWNERS_GROUP}}"
        ],
        "viewers": [
          "{{DATA_VIEWERS_GROUP}}"
        ]
      },
      "legal": {
        "legaltags": [
          "{{LEGAL_TAG}}"
        ],
        "otherRelevantDataCountries": [
          "{{ISO_3166_ALPHA_2_CODE}}"
        ]
      },
      "data": {
        "Name": "Common Mid Point",
        "NameAlias": [
          {
            "AliasName": "CMP"
          }
        ],
        "Description": "Collection of traces originating from a several source and recorded by several receivers, which have a common trace midpoint",
        "Code": "CommonMidPoint",
        "ID": "CommonMidPoint",
        "Source": "Workbook Published/SeismicGatherType.1.0.0.xlsx; commit SHA 3b2195ed.",
        "CommitDate": "2021-12-08T19:13:29+01:00"
      }
    },
    {
      "id": "{{NAMESPACE}}:reference-data--SeismicGatherType:CrossSpread",
      "kind": "osdu:wks:reference-data--SeismicGatherType:1.0.0",
      "acl": {
        "owners": [
          "{{DATA_OWNERS_GROUP}}"
        ],
        "viewers": [
          "{{DATA_VIEWERS_GROUP}}"
        ]
      },
      "legal": {
        "legaltags": [
          "{{LEGAL_TAG}}"
        ],
        "otherRelevantDataCountries": [
          "{{ISO_3166_ALPHA_2_CODE}}"
        ]
      },
      "data": {
        "Name": "Cross-Spread",
        "NameAlias": [
          {
            "AliasName": "X-spread"
          }
        ],
        "Description": "Collection of traces from a combination of a single common source line into a single common receiver line i.e. all shots along a common source line that are then recorded into a common receiver line. Note: associated with orthogonal source/receiver line acquisition geometries",
        "Code": "CrossSpread",
        "ID": "CrossSpread",
        "Source": "Workbook Published/SeismicGatherType.1.0.0.xlsx; commit SHA 3b2195ed.",
        "CommitDate": "2021-12-08T19:13:29+01:00"
      }
    },
    {
      "id": "{{NAMESPACE}}:reference-data--SeismicGatherType:OffsetVectorTilePlane",
      "kind": "osdu:wks:reference-data--SeismicGatherType:1.0.0",
      "acl": {
        "owners": [
          "{{DATA_OWNERS_GROUP}}"
        ],
        "viewers": [
          "{{DATA_VIEWERS_GROUP}}"
        ]
      },
      "legal": {
        "legaltags": [
          "{{LEGAL_TAG}}"
        ],
        "otherRelevantDataCountries": [
          "{{ISO_3166_ALPHA_2_CODE}}"
        ]
      },
      "data": {
        "Name": "Offset Vector Tile Plane",
        "NameAlias": [
          {
            "AliasName": "OVT"
          }
        ],
        "Description": "Offset Vector Tile - An offset vector tile is a collection of traces whose common mid-point locations fall within the surface area between a pair of adjacent source and adjacent receiver lines in an orthogonal source/receiver line geometry. The subsequent OVT plane is then constructed by taking the same relative OVT from every Xspread in the survey area to create notionally a single fold volume that represents a range of common offsets azimuths (depending on the tiles position relative to the Xspread).",
        "Code": "OffsetVectorTilePlane",
        "ID": "OffsetVectorTilePlane",
        "Source": "Workbook Published/SeismicGatherType.1.0.0.xlsx; commit SHA 3b2195ed.",
        "CommitDate": "2021-12-08T19:13:29+01:00"
      }
    },
    {
      "id": "{{NAMESPACE}}:reference-data--SeismicGatherType:CommonImagePoint",
      "kind": "osdu:wks:reference-data--SeismicGatherType:1.0.0",
      "acl": {
        "owners": [
          "{{DATA_OWNERS_GROUP}}"
        ],
        "viewers": [
          "{{DATA_VIEWERS_GROUP}}"
        ]
      },
      "legal": {
        "legaltags": [
          "{{LEGAL_TAG}}"
        ],
        "otherRelevantDataCountries": [
          "{{ISO_3166_ALPHA_2_CODE}}"
        ]
      },
      "data": {
        "Name": "Common Image Point",
        "NameAlias": [
          {
            "AliasName": "CIP"
          }
        ],
        "Description": "Collection of traces from migrated partial images at a single location. ",
        "Code": "CommonImagePoint",
        "ID": "CommonImagePoint",
        "Source": "Workbook Published/SeismicGatherType.1.0.0.xlsx; commit SHA 3b2195ed.",
        "CommitDate": "2021-12-08T19:13:29+01:00"
      }
    },
    {
      "id": "{{NAMESPACE}}:reference-data--SeismicGatherType:VectorImagePartition",
      "kind": "osdu:wks:reference-data--SeismicGatherType:1.0.0",
      "acl": {
        "owners": [
          "{{DATA_OWNERS_GROUP}}"
        ],
        "viewers": [
          "{{DATA_VIEWERS_GROUP}}"
        ]
      },
      "legal": {
        "legaltags": [
          "{{LEGAL_TAG}}"
        ],
        "otherRelevantDataCountries": [
          "{{ISO_3166_ALPHA_2_CODE}}"
        ]
      },
      "data": {
        "Name": "Vector Image Partition",
        "NameAlias": [
          {
            "AliasName": "VIP"
          }
        ],
        "Description": "Collection of traces representing migrated energy partitioned into defined tiles at a single location. Tiles can be rectangular or circular.",
        "Code": "VectorImagePartition",
        "ID": "VectorImagePartition",
        "Source": "Workbook Published/SeismicGatherType.1.0.0.xlsx; commit SHA 3b2195ed.",
        "CommitDate": "2021-12-08T19:13:29+01:00"
      }
    },
    {
      "id": "{{NAMESPACE}}:reference-data--SeismicGatherType:ContinuousAcquisitionCableGather",
      "kind": "osdu:wks:reference-data--SeismicGatherType:1.0.0",
      "acl": {
        "owners": [
          "{{DATA_OWNERS_GROUP}}"
        ],
        "viewers": [
          "{{DATA_VIEWERS_GROUP}}"
        ]
      },
      "legal": {
        "legaltags": [
          "{{LEGAL_TAG}}"
        ],
        "otherRelevantDataCountries": [
          "{{ISO_3166_ALPHA_2_CODE}}"
        ]
      },
      "data": {
        "Name": "Continuous Acquisition Cable Gather",
        "Description": "A collection of traces associated with a common cabled receiver line that all have a constant GPS acquisition time",
        "Code": "ContinuousAcquisitionCableGather",
        "ID": "ContinuousAcquisitionCableGather",
        "Source": "Workbook Published/SeismicGatherType.1.0.0.xlsx; commit SHA 3b2195ed.",
        "CommitDate": "2021-12-08T19:13:29+01:00"
      }
    },
    {
      "id": "{{NAMESPACE}}:reference-data--SeismicGatherType:ContinuousAcquisitionNodeGather",
      "kind": "osdu:wks:reference-data--SeismicGatherType:1.0.0",
      "acl": {
        "owners": [
          "{{DATA_OWNERS_GROUP}}"
        ],
        "viewers": [
          "{{DATA_VIEWERS_GROUP}}"
        ]
      },
      "legal": {
        "legaltags": [
          "{{LEGAL_TAG}}"
        ],
        "otherRelevantDataCountries": [
          "{{ISO_3166_ALPHA_2_CODE}}"
        ]
      },
      "data": {
        "Name": "Continuous Acquisition Node Gather",
        "Description": "A collection of traces associated with a common node that have increasing GPS acquisition time",
        "Code": "ContinuousAcquisitionNodeGather",
        "ID": "ContinuousAcquisitionNodeGather",
        "Source": "Workbook Published/SeismicGatherType.1.0.0.xlsx; commit SHA 3b2195ed.",
        "CommitDate": "2021-12-08T19:13:29+01:00"
      }
    },
    {
      "id": "{{NAMESPACE}}:reference-data--SeismicGatherType:CommonIncidenceAngleGather",
      "kind": "osdu:wks:reference-data--SeismicGatherType:1.0.0",
      "acl": {
        "owners": [
          "{{DATA_OWNERS_GROUP}}"
        ],
        "viewers": [
          "{{DATA_VIEWERS_GROUP}}"
        ]
      },
      "legal": {
        "legaltags": [
          "{{LEGAL_TAG}}"
        ],
        "otherRelevantDataCountries": [
          "{{ISO_3166_ALPHA_2_CODE}}"
        ]
      },
      "data": {
        "Name": "Common Incidence Angle Gather",
        "Description": "Migrated or moveout-corrected Common Image Point (CIP) or Common Merge Point (CMP) gathers decomposed into gathers of common incidence angle traces",
        "Code": "CommonIncidenceAngleGather",
        "ID": "CommonIncidenceAngleGather",
        "Source": "Workbook Published/SeismicGatherType.1.0.0.xlsx; commit SHA 3b2195ed.",
        "CommitDate": "2021-12-08T19:13:29+01:00"
      }
    }
  ]
}