{
  "kind": "osdu:wks:Manifest:1.0.0",
  "ReferenceData": [
    {
      "id": "{{NAMESPACE}}:reference-data--SeismicEnergySourceType:AirGun",
      "kind": "osdu:wks:reference-data--SeismicEnergySourceType:1.0.1",
      "acl": {
        "owners": [
          "{{DATA_OWNERS_GROUP}}"
        ],
        "viewers": [
          "{{DATA_VIEWERS_GROUP}}"
        ]
      },
      "legal": {
        "legaltags": [
          "{{LEGAL_TAG}}"
        ],
        "otherRelevantDataCountries": [
          "{{ISO_3166_ALPHA_2_CODE}}"
        ]
      },
      "data": {
        "Name": "Air gun",
        "Code": "AirGun",
        "Description": "Compressed air is released from a chamber towed by a ship. Originally developed by Bolt Technology.",
        "AttributionAuthority": "OSDU",
        "AttributionPublication": "https://wiki.seg.org/wiki/Air_Gun",
        "Source": "Workbook Published/SeismicEnergySourceType.1.0.1.xlsx; commit SHA 02e50c4f.",
        "CommitDate": "2022-10-07T13:54:57+02:00"
      }
    },
    {
      "id": "{{NAMESPACE}}:reference-data--SeismicEnergySourceType:AirGun.Cage",
      "kind": "osdu:wks:reference-data--SeismicEnergySourceType:1.0.1",
      "acl": {
        "owners": [
          "{{DATA_OWNERS_GROUP}}"
        ],
        "viewers": [
          "{{DATA_VIEWERS_GROUP}}"
        ]
      },
      "legal": {
        "legaltags": [
          "{{LEGAL_TAG}}"
        ],
        "otherRelevantDataCountries": [
          "{{ISO_3166_ALPHA_2_CODE}}"
        ]
      },
      "data": {
        "Name": "Air gun.Cage",
        "Code": "AirGun.Cage",
        "Description": "An air gun in a perforated steel cage to reduce the bubble effect.",
        "AttributionAuthority": "PPDM Members",
        "AttributionPublication": "https://wiki.seg.org/wiki/Dictionary:Cage",
        "Source": "Workbook Published/SeismicEnergySourceType.1.0.1.xlsx; commit SHA 02e50c4f.",
        "CommitDate": "2022-10-07T13:54:57+02:00"
      }
    },
    {
      "id": "{{NAMESPACE}}:reference-data--SeismicEnergySourceType:Explosion.Cord",
      "kind": "osdu:wks:reference-data--SeismicEnergySourceType:1.0.1",
      "acl": {
        "owners": [
          "{{DATA_OWNERS_GROUP}}"
        ],
        "viewers": [
          "{{DATA_VIEWERS_GROUP}}"
        ]
      },
      "legal": {
        "legaltags": [
          "{{LEGAL_TAG}}"
        ],
        "otherRelevantDataCountries": [
          "{{ISO_3166_ALPHA_2_CODE}}"
        ]
      },
      "data": {
        "Name": "Explosion.Cord",
        "NameAlias": [
          {
            "AliasName": "Detonating Cord",
            "AliasNameTypeID": "{{NAMESPACE}}:reference-data--AliasNameType:IndustryName:",
            "DefinitionOrganisationID": "{{NAMESPACE}}:reference-data--StandardsOrganisation:PPDM:"
          }
        ],
        "Code": "Explosion.Cord",
        "Description": "An explosive rope. A detonation at one end starts an explosion wave traveling down the cord, detonating other explosives that may be attached to the cord.",
        "AttributionAuthority": "PPDM Members",
        "AttributionPublication": "https://wiki.seg.org/wiki/Dictionary:Detonating_cord",
        "Source": "Workbook Published/SeismicEnergySourceType.1.0.1.xlsx; commit SHA 02e50c4f.",
        "CommitDate": "2022-10-07T13:54:57+02:00"
      }
    },
    {
      "id": "{{NAMESPACE}}:reference-data--SeismicEnergySourceType:Explosion.Dynamite",
      "kind": "osdu:wks:reference-data--SeismicEnergySourceType:1.0.1",
      "acl": {
        "owners": [
          "{{DATA_OWNERS_GROUP}}"
        ],
        "viewers": [
          "{{DATA_VIEWERS_GROUP}}"
        ]
      },
      "legal": {
        "legaltags": [
          "{{LEGAL_TAG}}"
        ],
        "otherRelevantDataCountries": [
          "{{ISO_3166_ALPHA_2_CODE}}"
        ]
      },
      "data": {
        "Name": "Explosion.Dynamite",
        "Code": "Explosion.Dynamite",
        "Description": "A high energy chemical explosive.",
        "AttributionAuthority": "PPDM Members",
        "Source": "Workbook Published/SeismicEnergySourceType.1.0.1.xlsx; commit SHA 02e50c4f.",
        "CommitDate": "2022-10-07T13:54:57+02:00"
      }
    },
    {
      "id": "{{NAMESPACE}}:reference-data--SeismicEnergySourceType:Vibrator.Electromagnetic",
      "kind": "osdu:wks:reference-data--SeismicEnergySourceType:1.0.1",
      "acl": {
        "owners": [
          "{{DATA_OWNERS_GROUP}}"
        ],
        "viewers": [
          "{{DATA_VIEWERS_GROUP}}"
        ]
      },
      "legal": {
        "legaltags": [
          "{{LEGAL_TAG}}"
        ],
        "otherRelevantDataCountries": [
          "{{ISO_3166_ALPHA_2_CODE}}"
        ]
      },
      "data": {
        "Name": "Vibrator.Electromagnetic",
        "Code": "Vibrator.Electromagnetic",
        "Description": "Vibrations are created by a electromagnetic linear motor.",
        "AttributionAuthority": "PPDM Members",
        "AttributionPublication": "https://seismic-mechatronics.com/seismic-sources/",
        "Source": "Workbook Published/SeismicEnergySourceType.1.0.1.xlsx; commit SHA 02e50c4f.",
        "CommitDate": "2022-10-07T13:54:57+02:00"
      }
    },
    {
      "id": "{{NAMESPACE}}:reference-data--SeismicEnergySourceType:Vibrator.Electromechanical",
      "kind": "osdu:wks:reference-data--SeismicEnergySourceType:1.0.1",
      "acl": {
        "owners": [
          "{{DATA_OWNERS_GROUP}}"
        ],
        "viewers": [
          "{{DATA_VIEWERS_GROUP}}"
        ]
      },
      "legal": {
        "legaltags": [
          "{{LEGAL_TAG}}"
        ],
        "otherRelevantDataCountries": [
          "{{ISO_3166_ALPHA_2_CODE}}"
        ]
      },
      "data": {
        "Name": "Vibrator.Electromechanical",
        "Code": "Vibrator.Electromechanical",
        "Description": "Vibrations are created by a electromechanical device.",
        "AttributionAuthority": "PPDM Members",
        "AttributionPublication": "https://seismic-mechatronics.com/seismic-sources/",
        "Source": "Workbook Published/SeismicEnergySourceType.1.0.1.xlsx; commit SHA 02e50c4f.",
        "CommitDate": "2022-10-07T13:54:57+02:00"
      }
    },
    {
      "id": "{{NAMESPACE}}:reference-data--SeismicEnergySourceType:Explosion",
      "kind": "osdu:wks:reference-data--SeismicEnergySourceType:1.0.1",
      "acl": {
        "owners": [
          "{{DATA_OWNERS_GROUP}}"
        ],
        "viewers": [
          "{{DATA_VIEWERS_GROUP}}"
        ]
      },
      "legal": {
        "legaltags": [
          "{{LEGAL_TAG}}"
        ],
        "otherRelevantDataCountries": [
          "{{ISO_3166_ALPHA_2_CODE}}"
        ]
      },
      "data": {
        "Name": "Explosion",
        "Code": "Explosion",
        "Source": "Workbook Published/SeismicEnergySourceType.1.0.1.xlsx; commit SHA 02e50c4f.",
        "CommitDate": "2022-10-07T13:54:57+02:00"
      }
    },
    {
      "id": "{{NAMESPACE}}:reference-data--SeismicEnergySourceType:AirGun.GasGun",
      "kind": "osdu:wks:reference-data--SeismicEnergySourceType:1.0.1",
      "acl": {
        "owners": [
          "{{DATA_OWNERS_GROUP}}"
        ],
        "viewers": [
          "{{DATA_VIEWERS_GROUP}}"
        ]
      },
      "legal": {
        "legaltags": [
          "{{LEGAL_TAG}}"
        ],
        "otherRelevantDataCountries": [
          "{{ISO_3166_ALPHA_2_CODE}}"
        ]
      },
      "data": {
        "Name": "Air gun.Gas gun",
        "NameAlias": [
          {
            "AliasName": "Gas Exploder",
            "AliasNameTypeID": "{{NAMESPACE}}:reference-data--AliasNameType:IndustryName:",
            "DefinitionOrganisationID": "{{NAMESPACE}}:reference-data--StandardsOrganisation:PPDM:"
          }
        ],
        "Code": "AirGun.GasGun",
        "Description": "A seismic energy source in which a mixture of propane or butane with oxygen or air is exploded under the water.",
        "AttributionAuthority": "PPDM Members",
        "AttributionPublication": "https://wiki.seg.org/wiki/Dictionary:Gas_exploder",
        "Source": "Workbook Published/SeismicEnergySourceType.1.0.1.xlsx; commit SHA 02e50c4f.",
        "CommitDate": "2022-10-07T13:54:57+02:00"
      }
    },
    {
      "id": "{{NAMESPACE}}:reference-data--SeismicEnergySourceType:Implosion",
      "kind": "osdu:wks:reference-data--SeismicEnergySourceType:1.0.1",
      "acl": {
        "owners": [
          "{{DATA_OWNERS_GROUP}}"
        ],
        "viewers": [
          "{{DATA_VIEWERS_GROUP}}"
        ]
      },
      "legal": {
        "legaltags": [
          "{{LEGAL_TAG}}"
        ],
        "otherRelevantDataCountries": [
          "{{ISO_3166_ALPHA_2_CODE}}"
        ]
      },
      "data": {
        "Name": "Implosion",
        "Code": "Implosion",
        "Source": "Workbook Published/SeismicEnergySourceType.1.0.1.xlsx; commit SHA 02e50c4f.",
        "CommitDate": "2022-10-07T13:54:57+02:00"
      }
    },
    {
      "id": "{{NAMESPACE}}:reference-data--SeismicEnergySourceType:WeightDrop.InclinedImpactor",
      "kind": "osdu:wks:reference-data--SeismicEnergySourceType:1.0.1",
      "acl": {
        "owners": [
          "{{DATA_OWNERS_GROUP}}"
        ],
        "viewers": [
          "{{DATA_VIEWERS_GROUP}}"
        ]
      },
      "legal": {
        "legaltags": [
          "{{LEGAL_TAG}}"
        ],
        "otherRelevantDataCountries": [
          "{{ISO_3166_ALPHA_2_CODE}}"
        ]
      },
      "data": {
        "Name": "Weight drop.Inclined impactor",
        "Code": "WeightDrop.InclinedImpactor",
        "Description": "A vehicle-transported surface seismic source wherein an impact mass is propelled along the shooting path to strike an earth-contacting base plate at a predetermined angle.",
        "AttributionAuthority": "PPDM Members",
        "AttributionPublication": "https://www.osti.gov/biblio/6264161-control-system-inclined-impact-type-surface-seismic-source",
        "Source": "Workbook Published/SeismicEnergySourceType.1.0.1.xlsx; commit SHA 02e50c4f.",
        "CommitDate": "2022-10-07T13:54:57+02:00"
      }
    },
    {
      "id": "{{NAMESPACE}}:reference-data--SeismicEnergySourceType:AirGun.MiniShallowAirGun",
      "kind": "osdu:wks:reference-data--SeismicEnergySourceType:1.0.1",
      "acl": {
        "owners": [
          "{{DATA_OWNERS_GROUP}}"
        ],
        "viewers": [
          "{{DATA_VIEWERS_GROUP}}"
        ]
      },
      "legal": {
        "legaltags": [
          "{{LEGAL_TAG}}"
        ],
        "otherRelevantDataCountries": [
          "{{ISO_3166_ALPHA_2_CODE}}"
        ]
      },
      "data": {
        "Name": "Air gun.Mini-shallow air gun",
        "Code": "AirGun.MiniShallowAirGun",
        "Description": "An air gun designed for shallow exploration.",
        "AttributionAuthority": "PPDM Members",
        "Source": "Workbook Published/SeismicEnergySourceType.1.0.1.xlsx; commit SHA 02e50c4f.",
        "CommitDate": "2022-10-07T13:54:57+02:00"
      }
    },
    {
      "id": "{{NAMESPACE}}:reference-data--SeismicEnergySourceType:WeightDrop.PShooter",
      "kind": "osdu:wks:reference-data--SeismicEnergySourceType:1.0.1",
      "acl": {
        "owners": [
          "{{DATA_OWNERS_GROUP}}"
        ],
        "viewers": [
          "{{DATA_VIEWERS_GROUP}}"
        ]
      },
      "legal": {
        "legaltags": [
          "{{LEGAL_TAG}}"
        ],
        "otherRelevantDataCountries": [
          "{{ISO_3166_ALPHA_2_CODE}}"
        ]
      },
      "data": {
        "Name": "Weight drop.P shooter",
        "NameAlias": [
          {
            "AliasName": "Shooter",
            "AliasNameTypeID": "{{NAMESPACE}}:reference-data--AliasNameType:IndustryName:",
            "DefinitionOrganisationID": "{{NAMESPACE}}:reference-data--StandardsOrganisation:PPDM:"
          }
        ],
        "Code": "WeightDrop.PShooter",
        "Description": "A weight-drop system with additional acceleration provided by a spring and designed to work at a very fast rate.",
        "AttributionAuthority": "PPDM Members",
        "Source": "Workbook Published/SeismicEnergySourceType.1.0.1.xlsx; commit SHA 02e50c4f.",
        "CommitDate": "2022-10-07T13:54:57+02:00"
      }
    },
    {
      "id": "{{NAMESPACE}}:reference-data--SeismicEnergySourceType:PlasmaSound",
      "kind": "osdu:wks:reference-data--SeismicEnergySourceType:1.0.1",
      "acl": {
        "owners": [
          "{{DATA_OWNERS_GROUP}}"
        ],
        "viewers": [
          "{{DATA_VIEWERS_GROUP}}"
        ]
      },
      "legal": {
        "legaltags": [
          "{{LEGAL_TAG}}"
        ],
        "otherRelevantDataCountries": [
          "{{ISO_3166_ALPHA_2_CODE}}"
        ]
      },
      "data": {
        "Name": "Plasma Sound",
        "Code": "PlasmaSound",
        "Source": "Workbook Published/SeismicEnergySourceType.1.0.1.xlsx; commit SHA 02e50c4f.",
        "CommitDate": "2022-10-07T13:54:57+02:00"
      }
    },
    {
      "id": "{{NAMESPACE}}:reference-data--SeismicEnergySourceType:PlasmaSound.Sparker",
      "kind": "osdu:wks:reference-data--SeismicEnergySourceType:1.0.1",
      "acl": {
        "owners": [
          "{{DATA_OWNERS_GROUP}}"
        ],
        "viewers": [
          "{{DATA_VIEWERS_GROUP}}"
        ]
      },
      "legal": {
        "legaltags": [
          "{{LEGAL_TAG}}"
        ],
        "otherRelevantDataCountries": [
          "{{ISO_3166_ALPHA_2_CODE}}"
        ]
      },
      "data": {
        "Name": "Plasma sound.Sparker",
        "Code": "PlasmaSound.Sparker",
        "Description": "The discharge between two electrodes in salt water generates heat to vaporize the water (to plasma) which then condenses to create an implosion.",
        "AttributionAuthority": "PPDM Members",
        "AttributionPublication": "https://wiki.seg.org/wiki/Dictionary:Sparker",
        "Source": "Workbook Published/SeismicEnergySourceType.1.0.1.xlsx; commit SHA 02e50c4f.",
        "CommitDate": "2022-10-07T13:54:57+02:00"
      }
    },
    {
      "id": "{{NAMESPACE}}:reference-data--SeismicEnergySourceType:Vibrator",
      "kind": "osdu:wks:reference-data--SeismicEnergySourceType:1.0.1",
      "acl": {
        "owners": [
          "{{DATA_OWNERS_GROUP}}"
        ],
        "viewers": [
          "{{DATA_VIEWERS_GROUP}}"
        ]
      },
      "legal": {
        "legaltags": [
          "{{LEGAL_TAG}}"
        ],
        "otherRelevantDataCountries": [
          "{{ISO_3166_ALPHA_2_CODE}}"
        ]
      },
      "data": {
        "Name": "Vibrator",
        "Code": "Vibrator",
        "Description": "A seismic method in which a vibrator is used as an energy source to generate a controlled wave train",
        "AttributionAuthority": "PPDM Members",
        "AttributionPublication": "https://wiki.seg.org/wiki/Dictionary:Vibroseis_or_vibroseis",
        "Source": "Workbook Published/SeismicEnergySourceType.1.0.1.xlsx; commit SHA 02e50c4f.",
        "CommitDate": "2022-10-07T13:54:57+02:00"
      }
    },
    {
      "id": "{{NAMESPACE}}:reference-data--SeismicEnergySourceType:Vibrator.Vibroseis",
      "kind": "osdu:wks:reference-data--SeismicEnergySourceType:1.0.1",
      "acl": {
        "owners": [
          "{{DATA_OWNERS_GROUP}}"
        ],
        "viewers": [
          "{{DATA_VIEWERS_GROUP}}"
        ]
      },
      "legal": {
        "legaltags": [
          "{{LEGAL_TAG}}"
        ],
        "otherRelevantDataCountries": [
          "{{ISO_3166_ALPHA_2_CODE}}"
        ]
      },
      "data": {
        "Name": "Vibrator.Vibroseis",
        "Code": "Vibrator.Vibroseis",
        "Description": "A seismic method in which a vibrator is used as an energy source to generate a controlled wave train. Developed by Conoco, but the term Vibroseis is no longer a trademark.",
        "AttributionAuthority": "PPDM Members",
        "AttributionPublication": "https://wiki.seg.org/wiki/Dictionary:Vibroseis_or_vibroseis",
        "Source": "Workbook Published/SeismicEnergySourceType.1.0.1.xlsx; commit SHA 02e50c4f.",
        "CommitDate": "2022-10-07T13:54:57+02:00"
      }
    },
    {
      "id": "{{NAMESPACE}}:reference-data--SeismicEnergySourceType:Implosion.WaterGun",
      "kind": "osdu:wks:reference-data--SeismicEnergySourceType:1.0.1",
      "acl": {
        "owners": [
          "{{DATA_OWNERS_GROUP}}"
        ],
        "viewers": [
          "{{DATA_VIEWERS_GROUP}}"
        ]
      },
      "legal": {
        "legaltags": [
          "{{LEGAL_TAG}}"
        ],
        "otherRelevantDataCountries": [
          "{{ISO_3166_ALPHA_2_CODE}}"
        ]
      },
      "data": {
        "Name": "Implosion.Water gun",
        "Code": "Implosion.WaterGun",
        "Description": "A seismic source that propels a slug of water into the water mass, producing an implosive effect.",
        "AttributionAuthority": "PPDM Members",
        "AttributionPublication": "https://wiki.seg.org/wiki/Dictionary:Watergun",
        "Source": "Workbook Published/SeismicEnergySourceType.1.0.1.xlsx; commit SHA 02e50c4f.",
        "CommitDate": "2022-10-07T13:54:57+02:00"
      }
    },
    {
      "id": "{{NAMESPACE}}:reference-data--SeismicEnergySourceType:WeightDrop",
      "kind": "osdu:wks:reference-data--SeismicEnergySourceType:1.0.1",
      "acl": {
        "owners": [
          "{{DATA_OWNERS_GROUP}}"
        ],
        "viewers": [
          "{{DATA_VIEWERS_GROUP}}"
        ]
      },
      "legal": {
        "legaltags": [
          "{{LEGAL_TAG}}"
        ],
        "otherRelevantDataCountries": [
          "{{ISO_3166_ALPHA_2_CODE}}"
        ]
      },
      "data": {
        "Name": "Weight drop",
        "Code": "WeightDrop",
        "Source": "Workbook Published/SeismicEnergySourceType.1.0.1.xlsx; commit SHA 02e50c4f.",
        "CommitDate": "2022-10-07T13:54:57+02:00"
      }
    },
    {
      "id": "{{NAMESPACE}}:reference-data--SeismicEnergySourceType:WeightDrop.Whacker",
      "kind": "osdu:wks:reference-data--SeismicEnergySourceType:1.0.1",
      "acl": {
        "owners": [
          "{{DATA_OWNERS_GROUP}}"
        ],
        "viewers": [
          "{{DATA_VIEWERS_GROUP}}"
        ]
      },
      "legal": {
        "legaltags": [
          "{{LEGAL_TAG}}"
        ],
        "otherRelevantDataCountries": [
          "{{ISO_3166_ALPHA_2_CODE}}"
        ]
      },
      "data": {
        "Name": "Weight drop.Whacker",
        "Code": "WeightDrop.Whacker",
        "Description": "An earth impactor used as a seismic source for shallow-penetration studies.",
        "AttributionAuthority": "PPDM Members",
        "AttributionPublication": "https://wiki.seg.org/wiki/Dictionary:Whacker",
        "Source": "Workbook Published/SeismicEnergySourceType.1.0.1.xlsx; commit SHA 02e50c4f.",
        "CommitDate": "2022-10-07T13:54:57+02:00"
      }
    },
    {
      "id": "{{NAMESPACE}}:reference-data--SeismicEnergySourceType:Airgun",
      "kind": "osdu:wks:reference-data--SeismicEnergySourceType:1.0.1",
      "acl": {
        "owners": [
          "{{DATA_OWNERS_GROUP}}"
        ],
        "viewers": [
          "{{DATA_VIEWERS_GROUP}}"
        ]
      },
      "legal": {
        "legaltags": [
          "{{LEGAL_TAG}}"
        ],
        "otherRelevantDataCountries": [
          "{{ISO_3166_ALPHA_2_CODE}}"
        ]
      },
      "data": {
        "Name": "Air gun",
        "Code": "Airgun",
        "InactiveIndicator": true,
        "Description": "DEPRECATED: Please use Code=\"AirGun\" with Name=\"AirGun\" instead. Compressed air is released from a chamber towed by a ship. Originally developed by Bolt Technology.",
        "AttributionAuthority": "OSDU",
        "Source": "Workbook Published/SeismicEnergySourceType.1.0.1.xlsx; commit SHA 02e50c4f.",
        "CommitDate": "2022-10-07T13:54:57+02:00"
      }
    },
    {
      "id": "{{NAMESPACE}}:reference-data--SeismicEnergySourceType:Dynamite",
      "kind": "osdu:wks:reference-data--SeismicEnergySourceType:1.0.1",
      "acl": {
        "owners": [
          "{{DATA_OWNERS_GROUP}}"
        ],
        "viewers": [
          "{{DATA_VIEWERS_GROUP}}"
        ]
      },
      "legal": {
        "legaltags": [
          "{{LEGAL_TAG}}"
        ],
        "otherRelevantDataCountries": [
          "{{ISO_3166_ALPHA_2_CODE}}"
        ]
      },
      "data": {
        "Name": "Dynamite",
        "Code": "Dynamite",
        "InactiveIndicator": true,
        "Description": "DEPRECATED: Please use Code=\"Explosion.Dynamite\" with Name=\"Explosion.Dynamite\" instead. A high energy chemical explosive.",
        "AttributionAuthority": "OSDU",
        "Source": "Workbook Published/SeismicEnergySourceType.1.0.1.xlsx; commit SHA 02e50c4f.",
        "CommitDate": "2022-10-07T13:54:57+02:00"
      }
    },
    {
      "id": "{{NAMESPACE}}:reference-data--SeismicEnergySourceType:Vibroseis",
      "kind": "osdu:wks:reference-data--SeismicEnergySourceType:1.0.1",
      "acl": {
        "owners": [
          "{{DATA_OWNERS_GROUP}}"
        ],
        "viewers": [
          "{{DATA_VIEWERS_GROUP}}"
        ]
      },
      "legal": {
        "legaltags": [
          "{{LEGAL_TAG}}"
        ],
        "otherRelevantDataCountries": [
          "{{ISO_3166_ALPHA_2_CODE}}"
        ]
      },
      "data": {
        "Name": "Vibroseis",
        "Code": "Vibroseis",
        "InactiveIndicator": true,
        "Description": "DEPRECATED: Please use Code=\"Vibrator.Vibroseis\" with Name=\"Vibrator.Vibroseis\" instead. Uses oscillating mass coupled to Earth's surface onshore.",
        "AttributionAuthority": "OSDU",
        "Source": "Workbook Published/SeismicEnergySourceType.1.0.1.xlsx; commit SHA 02e50c4f.",
        "CommitDate": "2022-10-07T13:54:57+02:00"
      }
    },
    {
      "id": "{{NAMESPACE}}:reference-data--SeismicEnergySourceType:Watergun",
      "kind": "osdu:wks:reference-data--SeismicEnergySourceType:1.0.1",
      "acl": {
        "owners": [
          "{{DATA_OWNERS_GROUP}}"
        ],
        "viewers": [
          "{{DATA_VIEWERS_GROUP}}"
        ]
      },
      "legal": {
        "legaltags": [
          "{{LEGAL_TAG}}"
        ],
        "otherRelevantDataCountries": [
          "{{ISO_3166_ALPHA_2_CODE}}"
        ]
      },
      "data": {
        "Name": "Water gun",
        "Code": "Watergun",
        "InactiveIndicator": true,
        "Description": "DEPRECATED: Please use Code=\"Implosion.WaterGun\" with Name=\"Implosion.WaterGun\" instead. A seismic source that propels a slug of water into the water mass, producing an implosive effect.",
        "AttributionAuthority": "OSDU",
        "Source": "Workbook Published/SeismicEnergySourceType.1.0.1.xlsx; commit SHA 02e50c4f.",
        "CommitDate": "2022-10-07T13:54:57+02:00"
      }
    }
  ]
}