{
  "kind": "osdu:wks:Manifest:1.0.0",
  "ReferenceData": [
    {
      "id": "{{NAMESPACE}}:reference-data--WellBusinessIntention:Appraise",
      "kind": "osdu:wks:reference-data--WellBusinessIntention:1.0.0",
      "acl": {
        "owners": [
          "{{DATA_OWNERS_GROUP}}"
        ],
        "viewers": [
          "{{DATA_VIEWERS_GROUP}}"
        ]
      },
      "legal": {
        "legaltags": [
          "{{LEGAL_TAG}}"
        ],
        "otherRelevantDataCountries": [
          "{{ISO_3166_ALPHA_2_CODE}}"
        ]
      },
      "data": {
        "Name": "Appraise",
        "Code": "Appraise",
        "Description": "A Business Intention of Appraise refers to a well drilled into a formation shown to be potentially productive by an earlier well and is used to obtain more information about the reservoir.",
        "AttributionAuthority": "PPDM WSC v3",
        "AttributionPublication": "https://ppdm.org/ppdm/PPDM/IPDS/Well_Status_Classification/Well_Status_Facets/PPDM/Member/WellStatus/Well_Status_Facets.aspx",
        "Source": "Workbook Published/WellBusinessIntention.1.0.0.xlsx; commit SHA f15fa6a4.",
        "CommitDate": "2022-04-27T12:05:47+02:00"
      }
    },
    {
      "id": "{{NAMESPACE}}:reference-data--WellBusinessIntention:Develop",
      "kind": "osdu:wks:reference-data--WellBusinessIntention:1.0.0",
      "acl": {
        "owners": [
          "{{DATA_OWNERS_GROUP}}"
        ],
        "viewers": [
          "{{DATA_VIEWERS_GROUP}}"
        ]
      },
      "legal": {
        "legaltags": [
          "{{LEGAL_TAG}}"
        ],
        "otherRelevantDataCountries": [
          "{{ISO_3166_ALPHA_2_CODE}}"
        ]
      },
      "data": {
        "Name": "Develop",
        "Code": "Develop",
        "Description": "A Business Intention of Develop refers to a well drilled into an area or zone already proven to be productive, in order to assist in the recovery of hydrocarbons. This includes service wells.",
        "AttributionAuthority": "PPDM WSC v3",
        "AttributionPublication": "https://ppdm.org/ppdm/PPDM/IPDS/Well_Status_Classification/Well_Status_Facets/PPDM/Member/WellStatus/Well_Status_Facets.aspx",
        "Source": "Workbook Published/WellBusinessIntention.1.0.0.xlsx; commit SHA f15fa6a4.",
        "CommitDate": "2022-04-27T12:05:47+02:00"
      }
    },
    {
      "id": "{{NAMESPACE}}:reference-data--WellBusinessIntention:Explore",
      "kind": "osdu:wks:reference-data--WellBusinessIntention:1.0.0",
      "acl": {
        "owners": [
          "{{DATA_OWNERS_GROUP}}"
        ],
        "viewers": [
          "{{DATA_VIEWERS_GROUP}}"
        ]
      },
      "legal": {
        "legaltags": [
          "{{LEGAL_TAG}}"
        ],
        "otherRelevantDataCountries": [
          "{{ISO_3166_ALPHA_2_CODE}}"
        ]
      },
      "data": {
        "Name": "Explore",
        "Code": "Explore",
        "Description": "A Business Intention of Explore refers to a well drilled to determine and evaluate the hydrocarbon potential of a previously undeveloped area or zone.",
        "AttributionAuthority": "PPDM WSC v3",
        "AttributionPublication": "https://ppdm.org/ppdm/PPDM/IPDS/Well_Status_Classification/Well_Status_Facets/PPDM/Member/WellStatus/Well_Status_Facets.aspx",
        "Source": "Workbook Published/WellBusinessIntention.1.0.0.xlsx; commit SHA f15fa6a4.",
        "CommitDate": "2022-04-27T12:05:47+02:00"
      }
    },
    {
      "id": "{{NAMESPACE}}:reference-data--WellBusinessIntention:Extend",
      "kind": "osdu:wks:reference-data--WellBusinessIntention:1.0.0",
      "acl": {
        "owners": [
          "{{DATA_OWNERS_GROUP}}"
        ],
        "viewers": [
          "{{DATA_VIEWERS_GROUP}}"
        ]
      },
      "legal": {
        "legaltags": [
          "{{LEGAL_TAG}}"
        ],
        "otherRelevantDataCountries": [
          "{{ISO_3166_ALPHA_2_CODE}}"
        ]
      },
      "data": {
        "Name": "Extend",
        "Code": "Extend",
        "Description": "A Business Intention of Extend refers to a well drilled to determine the continuation of a known pool or to find a nearby pool in the same formation.",
        "AttributionAuthority": "PPDM WSC v3",
        "AttributionPublication": "https://ppdm.org/ppdm/PPDM/IPDS/Well_Status_Classification/Well_Status_Facets/PPDM/Member/WellStatus/Well_Status_Facets.aspx",
        "Source": "Workbook Published/WellBusinessIntention.1.0.0.xlsx; commit SHA f15fa6a4.",
        "CommitDate": "2022-04-27T12:05:47+02:00"
      }
    },
    {
      "id": "{{NAMESPACE}}:reference-data--WellBusinessIntention:Reacquire",
      "kind": "osdu:wks:reference-data--WellBusinessIntention:1.0.0",
      "acl": {
        "owners": [
          "{{DATA_OWNERS_GROUP}}"
        ],
        "viewers": [
          "{{DATA_VIEWERS_GROUP}}"
        ]
      },
      "legal": {
        "legaltags": [
          "{{LEGAL_TAG}}"
        ],
        "otherRelevantDataCountries": [
          "{{ISO_3166_ALPHA_2_CODE}}"
        ]
      },
      "data": {
        "Name": "Re-acquire",
        "Code": "Reacquire",
        "Description": "A well drilled to intersect another well for the purpose of extending the utility of a well whose surface borehole has been lost or damaged.",
        "AttributionAuthority": "PPDM Members",
        "Source": "Workbook Published/WellBusinessIntention.1.0.0.xlsx; commit SHA 6b64290e.",
        "CommitDate": "2022-05-03T16:56:37+00:00"
      }
    }
  ]
}