{
  "id": "namespace:dataset--ConnectedSource.Generic:72e981d6-aa5f-51ea-a76b-f3f2f01eb53a",
  "kind": "osdu:wks:dataset--ConnectedSource.Generic:1.0.0",
  "version": 1562066009929332,
  "acl": {
    "owners": [
      "someone@company.com"
    ],
    "viewers": [
      "someone@company.com"
    ]
  },
  "legal": {
    "legaltags": [
      "Example legaltags"
    ],
    "otherRelevantDataCountries": [
      "US"
    ],
    "status": "compliant"
  },
  "tags": {
    "NameOfKey": "String value"
  },
  "createTime": "2020-12-16T11:46:20.163Z",
  "createUser": "some-user@some-company-cloud.com",
  "modifyTime": "2020-12-16T11:52:24.477Z",
  "modifyUser": "some-user@some-company-cloud.com",
  "ancestry": {
    "parents": []
  },
  "meta": [],
  "data": {
    "ResourceHomeRegionID": "namespace:reference-data--OSDURegion:AWSEastUSA:",
    "ResourceHostRegionIDs": [
      "namespace:reference-data--OSDURegion:AWSEastUSA:"
    ],
    "ResourceCurationStatus": "namespace:reference-data--ResourceCurationStatus:CREATED:",
    "ResourceLifecycleStatus": "namespace:reference-data--ResourceLifecycleStatus:LOADING:",
    "ResourceSecurityClassification": "namespace:reference-data--ResourceSecurityClassification:RESTRICTED:",
    "Source": "Example Data Source",
    "ExistenceKind": "namespace:reference-data--ExistenceKind:Prototype:",
    "Name": "Dataset X221/15",
    "Description": "As originally delivered by ACME.com.",
    "TotalSize": "13245217273",
    "EncodingFormatTypeID": "namespace:reference-data--EncodingFormatType:text%2Fcsv:",
    "SchemaFormatTypeID": "namespace:reference-data--SchemaFormatType:CWLS%20LAS3:",
    "Endian": "BIG",
    "DatasetProperties": {
      "ConnectedSourceRegistryEntryID": "namespace:master-data--ConnectedSourceRegistryEntry:SomeUniqueConnectedSourceRegistryEntryID:",
      "ConnectedSourceDataJobID": "namespace:master-data--ConnectedSourceDataJob:SomeUniqueConnectedSourceDataJobID:",
      "SourceDataPartitionID": "Example Connected Source Data Partition ID",
      "SourceRecordID": "Example Connected Source Record ID"
    },
    "ExtensionProperties": {}
  }
}