{
  "id": "namespace:dataset--File.WITSML:a04d3c5f-3234-5d0d-914a-231b8a69eb43",
  "kind": "osdu:wks:dataset--File.WITSML:1.0.0",
  "version": 1562066009929332,
  "acl": {
    "owners": [
      "someone@company.com"
    ],
    "viewers": [
      "someone@company.com"
    ]
  },
  "legal": {
    "legaltags": [
      "Example legaltags"
    ],
    "otherRelevantDataCountries": [
      "US"
    ],
    "status": "compliant"
  },
  "tags": {
    "NameOfKey": "String value"
  },
  "createTime": "2020-12-16T11:46:20.163Z",
  "createUser": "some-user@some-company-cloud.com",
  "modifyTime": "2020-12-16T11:52:24.477Z",
  "modifyUser": "some-user@some-company-cloud.com",
  "ancestry": {
    "parents": []
  },
  "meta": [],
  "data": {
    "ResourceHomeRegionID": "namespace:reference-data--OSDURegion:AWSEastUSA:",
    "ResourceHostRegionIDs": [
      "namespace:reference-data--OSDURegion:AWSEastUSA:"
    ],
    "ResourceCurationStatus": "namespace:reference-data--ResourceCurationStatus:CREATED:",
    "ResourceLifecycleStatus": "namespace:reference-data--ResourceLifecycleStatus:LOADING:",
    "ResourceSecurityClassification": "namespace:reference-data--ResourceSecurityClassification:RESTRICTED:",
    "Source": "Example Data Source",
    "ExistenceKind": "namespace:reference-data--ExistenceKind:Prototype:",
    "Name": "Dataset X221/15",
    "Description": "As originally delivered by ACME.com.",
    "TotalSize": "13245217273",
    "EncodingFormatTypeID": "namespace:reference-data--EncodingFormatType:text%2Fcsv:",
    "SchemaFormatTypeID": "namespace:reference-data--SchemaFormatType:CWLS%20LAS3:",
    "Endian": "BIG",
    "DatasetProperties": {
      "FileSourceInfo": {
        "FileSource": "s3://default_bucket/r1/data/provided/documents/1000.witsml",
        "PreloadFilePath": "s3://staging-area/r7/raw-data/provided/documents/1000.witsml",
        "PreloadFileCreateUser": "somebody@acme.org",
        "PreloadFileCreateDate": "2019-12-16T11:46:20.163Z",
        "PreloadFileModifyUser": "somebody.else@acme.org",
        "PreloadFileModifyDate": "2019-12-20T17:20:05.356Z",
        "Name": "1000.witsml",
        "FileSize": "95463",
        "EncodingFormatTypeID": "namespace:reference-data--EncodingFormatType:application%2Fgeo%2Bjson:",
        "Checksum": "d41d8cd98f00b204e9800998ecf8427e",
        "ChecksumAlgorithm": "SHA-256"
      }
    },
    "Checksum": "d41d8cd98f00b204e9800998ecf8427e",
    "WITSML_Version": "WITSML 1.1.4",
    "ExtensionProperties": {}
  }
}