@startuml
hide methods
skinparam groupInheritance 2
skinparam class {
    ArrowColor Black
    BorderColor Black
    BackgroundColor<<master-data>> LightSalmon
    BackgroundColor<<work-product-component>> Gold
    BackgroundColor<<abstract>> LightSteelBlue
    BackgroundColor<<dataset>> Ivory
    BackgroundColor<<reference-data>> Turquoise
    BackgroundColor<<Abstraction>> LightSkyBlue
    BackgroundColor<<error>> Red
    BackgroundColor<<Activity>> LightSkyBlue
    BackgroundColor<<ReferenceType>> LightSkyBlue
    BackgroundColor<<WorkProductComponent>> LightSkyBlue
    BackgroundColor<<Project>> LightSkyBlue
    BackgroundColor<<File>> LightSkyBlue
    BackgroundColor<<FileCollection>> LightSkyBlue
    BackgroundColor<<MasterData>> LightSkyBlue
    BackgroundColor<<nested array>> WhiteSmoke
    BackgroundColor<<nested>> WhiteSmoke
    packageStyle rectangle
}
package "ExistenceKind Referenced-by View" <<rectangle>>
{
class "<size:16>ExistenceKind</size>" as ExistenceKind <<reference-data>>
left to right direction
class "ExistenceKind" <<reference-data>>
package "abstract Entities" as Abstract <<frame>>
{
abstract "AbstractCommonResources" <<abstract>> {
GenericDataset  →  ExistenceKind
GenericMasterData  →  ExistenceKind
GenericReferenceData  →  ExistenceKind
GenericWorkProduct  →  ExistenceKind
GenericWorkProductComponent  →  ExistenceKind
Manifest  →  Datasets[].ExistenceKind
Manifest  →  MasterData[].ExistenceKind
Manifest  →  ReferenceData[].ExistenceKind
Manifest  →  WorkProduct.ExistenceKind
Manifest  →  WorkProductComponents[].ExistenceKind
}
}
"Abstract" -->  "ExistenceKind" 
abstract "AbstractReferenceType" <<Abstraction>>
"ExistenceKind" -right-|>  "AbstractReferenceType"
}
@enduml