@startuml
hide methods
skinparam groupInheritance 2
skinparam class {
    ArrowColor Black
    BorderColor Black
    BackgroundColor<<master-data>> LightSalmon
    BackgroundColor<<work-product-component>> Gold
    BackgroundColor<<abstract>> LightSteelBlue
    BackgroundColor<<dataset>> Ivory
    BackgroundColor<<reference-data>> Turquoise
    BackgroundColor<<Abstraction>> LightSkyBlue
    BackgroundColor<<error>> Red
    BackgroundColor<<Activity>> LightSkyBlue
    BackgroundColor<<ReferenceType>> LightSkyBlue
    BackgroundColor<<WorkProductComponent>> LightSkyBlue
    BackgroundColor<<Project>> LightSkyBlue
    BackgroundColor<<File>> LightSkyBlue
    BackgroundColor<<FileCollection>> LightSkyBlue
    BackgroundColor<<MasterData>> LightSkyBlue
    BackgroundColor<<nested array>> WhiteSmoke
    BackgroundColor<<nested>> WhiteSmoke
    packageStyle rectangle
}
package "FluidPhaseType Referenced-by View" <<rectangle>>
{
class "<size:16>FluidPhaseType</size>" as FluidPhaseType <<reference-data>>
left to right direction
class "FluidPhaseType" <<reference-data>>
package "work-product-component Entities" as WorkProductComponent <<frame>>
{
class "RockFluidUnitInterpretation" <<work-product-component>> {
FluidPhaseTypeID
}
}
"WorkProductComponent" -->  "FluidPhaseType" 
abstract "AbstractReferenceType" <<Abstraction>>
"FluidPhaseType" -right-|>  "AbstractReferenceType"
}
@enduml