@startuml
hide methods
skinparam groupInheritance 2
skinparam class {
    ArrowColor Black
    BorderColor Black
    BackgroundColor<<master-data>> LightSalmon
    BackgroundColor<<work-product-component>> Gold
    BackgroundColor<<abstract>> LightSteelBlue
    BackgroundColor<<dataset>> Ivory
    BackgroundColor<<reference-data>> Turquoise
    BackgroundColor<<Abstraction>> LightSkyBlue
    BackgroundColor<<error>> Red
    BackgroundColor<<Activity>> LightSkyBlue
    BackgroundColor<<ReferenceType>> LightSkyBlue
    BackgroundColor<<WorkProductComponent>> LightSkyBlue
    BackgroundColor<<Project>> LightSkyBlue
    BackgroundColor<<File>> LightSkyBlue
    BackgroundColor<<FileCollection>> LightSkyBlue
    BackgroundColor<<MasterData>> LightSkyBlue
    BackgroundColor<<nested array>> WhiteSmoke
    BackgroundColor<<nested>> WhiteSmoke
    packageStyle rectangle
}
package "GeoPoliticalEntityType Referenced-by View" <<rectangle>>
{
class "<size:16>GeoPoliticalEntityType</size>" as GeoPoliticalEntityType <<reference-data>>
left to right direction
class "GeoPoliticalEntityType" <<reference-data>>
package "abstract Entities" as Abstract <<frame>>
{
abstract "AbstractMaster" <<Abstraction>> {
ActivityPlan  →  GeoContexts[].GeoTypeID
ActivityTemplate  →  GeoContexts[].GeoTypeID
ActivityTemplateArc  →  GeoContexts[].GeoTypeID
Agreement  →  GeoContexts[].GeoTypeID
BHARun  →  GeoContexts[].GeoTypeID
Basin  →  GeoContexts[].GeoTypeID
BoundaryFeature  →  GeoContexts[].GeoTypeID
CasingDesign  →  GeoContexts[].GeoTypeID
ConnectedSourceDataJob  →  GeoContexts[].GeoTypeID
ConnectedSourceRegistryEntry  →  GeoContexts[].GeoTypeID
Coring  →  GeoContexts[].GeoTypeID
EvaluationPlan  →  GeoContexts[].GeoTypeID
Field  →  GeoContexts[].GeoTypeID
FluidsProgram  →  GeoContexts[].GeoTypeID
FluidsReport  →  GeoContexts[].GeoTypeID
GeoPoliticalEntity  →  GeoContexts[].GeoTypeID
GeometricTargetSet  →  GeoContexts[].GeoTypeID
HoleSection  →  GeoContexts[].GeoTypeID
IsolatedInterval  →  GeoContexts[].GeoTypeID
ModelFeature  →  GeoContexts[].GeoTypeID
OperationsReport  →  GeoContexts[].GeoTypeID
Organisation  →  GeoContexts[].GeoTypeID
PerforationInterval  →  GeoContexts[].GeoTypeID
PerforationJob  →  GeoContexts[].GeoTypeID
PlannedCementJob  →  GeoContexts[].GeoTypeID
Play  →  GeoContexts[].GeoTypeID
Prospect  →  GeoContexts[].GeoTypeID
ReferenceLevel  →  GeoContexts[].GeoTypeID
Reservoir  →  GeoContexts[].GeoTypeID
ReservoirSegment  →  GeoContexts[].GeoTypeID
Rig  →  GeoContexts[].GeoTypeID
RigUtilization  →  GeoContexts[].GeoTypeID
Risk  →  GeoContexts[].GeoTypeID
RockSample  →  GeoContexts[].GeoTypeID
RockVolumeFeature  →  GeoContexts[].GeoTypeID
Seismic2DInterpretationSet  →  GeoContexts[].GeoTypeID
Seismic3DInterpretationSet  →  GeoContexts[].GeoTypeID
SeismicAcquisitionSurvey  →  GeoContexts[].GeoTypeID
SeismicProcessingProject  →  GeoContexts[].GeoTypeID
StorageFacility  →  GeoContexts[].GeoTypeID
SurveyProgram  →  GeoContexts[].GeoTypeID
Well  →  GeoContexts[].GeoTypeID
WellActivity  →  GeoContexts[].GeoTypeID
WellActivityProgram  →  GeoContexts[].GeoTypeID
WellBarrierElementTest  →  GeoContexts[].GeoTypeID
Wellbore  →  GeoContexts[].GeoTypeID
WellboreArchitecture  →  GeoContexts[].GeoTypeID
WellboreOpening  →  GeoContexts[].GeoTypeID
}
abstract "AbstractWorkProductComponent" <<abstract>> {
Activity  →  GeoContexts[].GeoTypeID
AquiferInterpretation  →  GeoContexts[].GeoTypeID
ColumnBasedTable  →  GeoContexts[].GeoTypeID
DataQuality  →  GeoContexts[].GeoTypeID
Document  →  GeoContexts[].GeoTypeID
EarthModelInterpretation  →  GeoContexts[].GeoTypeID
FaultInterpretation  →  GeoContexts[].GeoTypeID
FaultSystem  →  GeoContexts[].GeoTypeID
FluidBoundaryInterpretation  →  GeoContexts[].GeoTypeID
FormationIntegrityTest  →  GeoContexts[].GeoTypeID
GenericImage  →  GeoContexts[].GeoTypeID
GenericProperty  →  GeoContexts[].GeoTypeID
GenericRepresentation  →  GeoContexts[].GeoTypeID
GeoReferencedImage  →  GeoContexts[].GeoTypeID
GeobodyBoundaryInterpretation  →  GeoContexts[].GeoTypeID
GeobodyInterpretation  →  GeoContexts[].GeoTypeID
GeologicUnitOccurrenceInterpretation  →  GeoContexts[].GeoTypeID
GpGridRepresentation  →  GeoContexts[].GeoTypeID
GridConnectionSetRepresentation  →  GeoContexts[].GeoTypeID
HorizonInterpretation  →  GeoContexts[].GeoTypeID
IjkGridNumericalAquiferRepresentation  →  GeoContexts[].GeoTypeID
IjkGridRepresentation  →  GeoContexts[].GeoTypeID
LocalBoundaryFeature  →  GeoContexts[].GeoTypeID
LocalModelCompoundCrs  →  GeoContexts[].GeoTypeID
LocalModelFeature  →  GeoContexts[].GeoTypeID
LocalRockVolumeFeature  →  GeoContexts[].GeoTypeID
NotionalSeismicLine  →  GeoContexts[].GeoTypeID
PPFGDataset  →  GeoContexts[].GeoTypeID
PersistedCollection  →  GeoContexts[].GeoTypeID
PlannedLithology  →  GeoContexts[].GeoTypeID
ProcessedInSAR  →  GeoContexts[].GeoTypeID
ReservoirCompartmentInterpretation  →  GeoContexts[].GeoTypeID
RockFluidOrganizationInterpretation  →  GeoContexts[].GeoTypeID
RockFluidUnitInterpretation  →  GeoContexts[].GeoTypeID
RockImage  →  GeoContexts[].GeoTypeID
RockSampleAnalysis  →  GeoContexts[].GeoTypeID
SealedSurfaceFramework  →  GeoContexts[].GeoTypeID
SealedVolumeFramework  →  GeoContexts[].GeoTypeID
SeismicBinGrid  →  GeoContexts[].GeoTypeID
SeismicFault  →  GeoContexts[].GeoTypeID
SeismicHorizon  →  GeoContexts[].GeoTypeID
SeismicLineGeometry  →  GeoContexts[].GeoTypeID
SeismicTraceData  →  GeoContexts[].GeoTypeID
StratigraphicColumn  →  GeoContexts[].GeoTypeID
StratigraphicColumnRankInterpretation  →  GeoContexts[].GeoTypeID
StratigraphicUnitInterpretation  →  GeoContexts[].GeoTypeID
StructuralOrganizationInterpretation  →  GeoContexts[].GeoTypeID
SubRepresentation  →  GeoContexts[].GeoTypeID
TimeSeries  →  GeoContexts[].GeoTypeID
TubularAssembly  →  GeoContexts[].GeoTypeID
TubularComponent  →  GeoContexts[].GeoTypeID
TubularUmbilical  →  GeoContexts[].GeoTypeID
UnsealedSurfaceFramework  →  GeoContexts[].GeoTypeID
UnstructuredColumnLayerGridRepresentation  →  GeoContexts[].GeoTypeID
UnstructuredGridRepresentation  →  GeoContexts[].GeoTypeID
VelocityModeling  →  GeoContexts[].GeoTypeID
VoidageGroupInterpretation  →  GeoContexts[].GeoTypeID
WellLog  →  GeoContexts[].GeoTypeID
WellboreIntervalSet  →  GeoContexts[].GeoTypeID
WellboreMarkerSet  →  GeoContexts[].GeoTypeID
WellboreTrajectory  →  GeoContexts[].GeoTypeID
}
}
package "master-data Entities" as MasterData <<frame>>
{
class "GeoPoliticalEntity" <<master-data>> {
GeoPoliticalEntityTypeID
}
}
"Abstract" -->  "GeoPoliticalEntityType"
"MasterData" -->  "GeoPoliticalEntityType"
abstract "AbstractReferenceType" <<Abstraction>>
"GeoPoliticalEntityType" -right-|>  "AbstractReferenceType"
}
@enduml