@startuml
hide methods
skinparam groupInheritance 2
skinparam class {
    ArrowColor Black
    BorderColor Black
    BackgroundColor<<master-data>> LightSalmon
    BackgroundColor<<work-product-component>> Gold
    BackgroundColor<<abstract>> LightSteelBlue
    BackgroundColor<<dataset>> Ivory
    BackgroundColor<<reference-data>> Turquoise
    BackgroundColor<<Abstraction>> LightSkyBlue
    BackgroundColor<<error>> Red
    BackgroundColor<<Activity>> LightSkyBlue
    BackgroundColor<<ReferenceType>> LightSkyBlue
    BackgroundColor<<WorkProductComponent>> LightSkyBlue
    BackgroundColor<<Project>> LightSkyBlue
    BackgroundColor<<File>> LightSkyBlue
    BackgroundColor<<FileCollection>> LightSkyBlue
    BackgroundColor<<MasterData>> LightSkyBlue
    BackgroundColor<<nested array>> WhiteSmoke
    BackgroundColor<<nested>> WhiteSmoke
    packageStyle rectangle
}
package "LinerType Referenced-by View" <<rectangle>>
{
class "<size:16>LinerType</size>" as LinerType <<reference-data>>
left to right direction
class "LinerType" <<reference-data>>
package "work-product-component Entities" as WorkProductComponent <<frame>>
{
class "TubularAssembly" <<work-product-component>> {
LinerTypeID
}
}
"WorkProductComponent" -->  "LinerType" 
abstract "AbstractReferenceType" <<Abstraction>>
"LinerType" -right-|>  "AbstractReferenceType"
}
@enduml