@startuml
hide methods
skinparam groupInheritance 2
skinparam class {
    ArrowColor Black
    BorderColor Black
    BackgroundColor<<master-data>> LightSalmon
    BackgroundColor<<work-product-component>> Gold
    BackgroundColor<<abstract>> LightSteelBlue
    BackgroundColor<<dataset>> Ivory
    BackgroundColor<<reference-data>> Turquoise
    BackgroundColor<<Abstraction>> LightSkyBlue
    BackgroundColor<<error>> Red
    BackgroundColor<<Activity>> LightSkyBlue
    BackgroundColor<<ReferenceType>> LightSkyBlue
    BackgroundColor<<WorkProductComponent>> LightSkyBlue
    BackgroundColor<<Project>> LightSkyBlue
    BackgroundColor<<File>> LightSkyBlue
    BackgroundColor<<FileCollection>> LightSkyBlue
    BackgroundColor<<MasterData>> LightSkyBlue
    BackgroundColor<<nested array>> WhiteSmoke
    BackgroundColor<<nested>> WhiteSmoke
    packageStyle rectangle
}
package "OperatingEnvironment Referenced-by View" <<rectangle>>
{
class "<size:16>OperatingEnvironment</size>" as OperatingEnvironment <<reference-data>>
left to right direction
class "OperatingEnvironment" <<reference-data>>
package "abstract Entities" as Abstract <<frame>>
{
abstract "AbstractFacility" <<abstract>> {
IsolatedInterval  →  OperatingEnvironmentID
Rig  →  OperatingEnvironmentID
StorageFacility  →  OperatingEnvironmentID
Well  →  OperatingEnvironmentID
Wellbore  →  OperatingEnvironmentID
}
}
package "master-data Entities" as MasterData <<frame>>
{
class "SeismicAcquisitionSurvey" <<master-data>> {
OperatingEnvironmentID
}
}
"Abstract" -->  "OperatingEnvironment" 
"MasterData" -->  "OperatingEnvironment" 
abstract "AbstractReferenceType" <<Abstraction>>
"OperatingEnvironment" -right-|>  "AbstractReferenceType"
}
@enduml