@startuml
hide methods
skinparam groupInheritance 2
skinparam class {
    ArrowColor Black
    BorderColor Black
    BackgroundColor<<master-data>> LightSalmon
    BackgroundColor<<work-product-component>> Gold
    BackgroundColor<<abstract>> LightSteelBlue
    BackgroundColor<<dataset>> Ivory
    BackgroundColor<<reference-data>> Turquoise
    BackgroundColor<<Abstraction>> LightSkyBlue
    BackgroundColor<<error>> Red
    BackgroundColor<<Activity>> LightSkyBlue
    BackgroundColor<<ReferenceType>> LightSkyBlue
    BackgroundColor<<WorkProductComponent>> LightSkyBlue
    BackgroundColor<<Project>> LightSkyBlue
    BackgroundColor<<File>> LightSkyBlue
    BackgroundColor<<FileCollection>> LightSkyBlue
    BackgroundColor<<MasterData>> LightSkyBlue
    BackgroundColor<<nested array>> WhiteSmoke
    BackgroundColor<<nested>> WhiteSmoke
    packageStyle rectangle
}
package "PerforationIntervalType Referenced-by View" <<rectangle>>
{
class "<size:16>PerforationIntervalType</size>" as PerforationIntervalType <<reference-data>>
left to right direction
class "PerforationIntervalType" <<reference-data>>
package "master-data Entities" as MasterData <<frame>>
{
class "PerforationInterval" <<master-data>> {
IntervalTypeID
}
class "PerforationJob" <<master-data>> {
MethodID
}
}
"MasterData" -->  "PerforationIntervalType" 
abstract "AbstractReferenceType" <<Abstraction>>
"PerforationIntervalType" -right-|>  "AbstractReferenceType"
}
@enduml