@startuml
hide methods
skinparam groupInheritance 2
skinparam class {
    ArrowColor Black
    BorderColor Black
    BackgroundColor<<master-data>> LightSalmon
    BackgroundColor<<work-product-component>> Gold
    BackgroundColor<<abstract>> LightSteelBlue
    BackgroundColor<<dataset>> Ivory
    BackgroundColor<<reference-data>> Turquoise
    BackgroundColor<<Abstraction>> LightSkyBlue
    BackgroundColor<<error>> Red
    BackgroundColor<<Activity>> LightSkyBlue
    BackgroundColor<<ReferenceType>> LightSkyBlue
    BackgroundColor<<WorkProductComponent>> LightSkyBlue
    BackgroundColor<<Project>> LightSkyBlue
    BackgroundColor<<File>> LightSkyBlue
    BackgroundColor<<FileCollection>> LightSkyBlue
    BackgroundColor<<MasterData>> LightSkyBlue
    BackgroundColor<<nested array>> WhiteSmoke
    BackgroundColor<<nested>> WhiteSmoke
    packageStyle rectangle
}
package "UnitOfMeasureConfiguration Referenced-by View" <<rectangle>>
{
class "<size:16>UnitOfMeasureConfiguration</size>" as UnitOfMeasureConfiguration <<reference-data>>
left to right direction
class "UnitOfMeasureConfiguration" <<reference-data>>
package "reference-data Entities" as ReferenceData <<frame>>
{
class "UnitOfMeasureConfiguration" <<reference-data>> {
ParentConfigurationID
}
}
"ReferenceData" -->  "UnitOfMeasureConfiguration" 
abstract "AbstractReferenceType" <<Abstraction>>
"UnitOfMeasureConfiguration" -right-|>  "AbstractReferenceType"
}
@enduml