@startuml
hide methods
skinparam groupInheritance 2
skinparam class {
    ArrowColor Black
    BorderColor Black
    BackgroundColor<<master-data>> LightSalmon
    BackgroundColor<<work-product-component>> Gold
    BackgroundColor<<abstract>> LightSteelBlue
    BackgroundColor<<dataset>> Ivory
    BackgroundColor<<reference-data>> Turquoise
    BackgroundColor<<Abstraction>> LightSkyBlue
    BackgroundColor<<error>> Red
    BackgroundColor<<Activity>> LightSkyBlue
    BackgroundColor<<ReferenceType>> LightSkyBlue
    BackgroundColor<<WorkProductComponent>> LightSkyBlue
    BackgroundColor<<Project>> LightSkyBlue
    BackgroundColor<<File>> LightSkyBlue
    BackgroundColor<<FileCollection>> LightSkyBlue
    BackgroundColor<<MasterData>> LightSkyBlue
    BackgroundColor<<nested array>> WhiteSmoke
    BackgroundColor<<nested>> WhiteSmoke
    packageStyle rectangle
}
package "VerticalMeasurementType Referenced-by View" <<rectangle>>
{
class "<size:24>VerticalMeasurementType</size>" as VerticalMeasurementType <<reference-data>>
left to right direction
class "VerticalMeasurementType" <<reference-data>>
package "abstract Entities" as Abstract <<frame>>
{
abstract "AbstractFacilityVerticalMeasurement" <<abstract>> {
Coring  →  VerticalMeasurement.VerticalMeasurementTypeID
FormationIntegrityTest  →  VerticalMeasurement.VerticalMeasurementTypeID
HoleSection  →  VerticalMeasurement.VerticalMeasurementTypeID
IsolatedInterval  →  VerticalMeasurement.VerticalMeasurementTypeID
PPFGDataset  →  VerticalMeasurement.VerticalMeasurementTypeID
PerforationInterval  →  VerticalMeasurement.VerticalMeasurementTypeID
PerforationJob  →  VerticalMeasurement.VerticalMeasurementTypeID
RockSample  →  VerticalMeasurement.VerticalMeasurementTypeID
RockSampleAnalysis  →  VerticalMeasurement.VerticalMeasurementTypeID
SeismicAcquisitionSurvey  →  VerticalMeasurement.VerticalMeasurementTypeID
Well  →  VerticalMeasurements[].VerticalMeasurementTypeID
WellLog  →  SeismicReferenceElevation.VerticalMeasurementTypeID
WellLog  →  VerticalMeasurement.VerticalMeasurementTypeID
WellPlanningWellbore  →  VerticalMeasurement.VerticalMeasurementTypeID
Wellbore  →  VerticalMeasurements[].VerticalMeasurementTypeID
WellboreIntervalSet  →  VerticalMeasurement.VerticalMeasurementTypeID
WellboreMarkerSet  →  VerticalMeasurement.VerticalMeasurementTypeID
WellboreOpening  →  VerticalMeasurement.VerticalMeasurementTypeID
WellboreTrajectory  →  VerticalMeasurement.VerticalMeasurementTypeID
}
abstract "AbstractReferenceLevel" <<abstract>> {
GeoReferencedImage  →  EmbeddedReferenceLevel.VerticalMeasurementTypeID
ReferenceLevel  →  VerticalMeasurementTypeID
}
}
package "work-product-component Entities" as WorkProductComponent <<frame>>
{
class "FaultSystem" <<work-product-component>> {
VerticalMeasurementTypeID
}
class "SeismicFault" <<work-product-component>> {
VerticalMeasurementTypeID
}
class "SeismicHorizon" <<work-product-component>> {
VerticalMeasurementTypeID
}
class "SeismicTraceData" <<work-product-component>> {
VerticalMeasurementTypeID
}
class "VelocityModeling" <<work-product-component>> {
VerticalMeasurementTypeID
}
}
"Abstract" -->  "VerticalMeasurementType"
"WorkProductComponent" -->  "VerticalMeasurementType"
abstract "AbstractReferenceType" <<Abstraction>>
"VerticalMeasurementType" -right-|>  "AbstractReferenceType"
}
@enduml