@startuml
hide methods
skinparam groupInheritance 2
skinparam class {
    ArrowColor Black
    BorderColor Black
    BackgroundColor<<master-data>> LightSalmon
    BackgroundColor<<work-product-component>> Gold
    BackgroundColor<<abstract>> LightSteelBlue
    BackgroundColor<<dataset>> Ivory
    BackgroundColor<<reference-data>> Turquoise
    BackgroundColor<<Abstraction>> LightSkyBlue
    BackgroundColor<<error>> Red
    BackgroundColor<<Activity>> LightSkyBlue
    BackgroundColor<<ReferenceType>> LightSkyBlue
    BackgroundColor<<WorkProductComponent>> LightSkyBlue
    BackgroundColor<<Project>> LightSkyBlue
    BackgroundColor<<File>> LightSkyBlue
    BackgroundColor<<FileCollection>> LightSkyBlue
    BackgroundColor<<MasterData>> LightSkyBlue
    BackgroundColor<<nested array>> WhiteSmoke
    BackgroundColor<<nested>> WhiteSmoke
    packageStyle rectangle
}
package "WellBusinessIntention Referenced-by View" <<rectangle>>
{
class "<size:16>WellBusinessIntention</size>" as WellBusinessIntention <<reference-data>>
left to right direction
class "WellBusinessIntention" <<reference-data>>
package "master-data Entities" as MasterData <<frame>>
{
class "Well" <<master-data>> {
BusinessIntentionID
}
class "Wellbore" <<master-data>> {
BusinessIntentionID
}
}
package "reference-data Entities" as ReferenceData <<frame>>
{
class "WellStatusSummary" <<reference-data>> {
BusinessIntentionID
}
}
"MasterData" -->  "WellBusinessIntention" 
"ReferenceData" -->  "WellBusinessIntention" 
abstract "AbstractReferenceType" <<Abstraction>>
"WellBusinessIntention" -right-|>  "AbstractReferenceType"
}
@enduml