{
  "id": "partition-id:master-data--GeoPoliticalEntity:EU",
  "kind": "osdu:wks:master-data--GeoPoliticalEntity:1.0.0",
  "version": 1562066009929332,
  "acl": {
    "owners": [
      "someone@company.com"
    ],
    "viewers": [
      "someone@company.com"
    ]
  },
  "legal": {
    "legaltags": [
      "Example legaltags"
    ],
    "otherRelevantDataCountries": [
      "US"
    ],
    "status": "compliant"
  },
  "tags": {
    "NameOfKey": "String value"
  },
  "createTime": "2020-12-16T11:46:20.163Z",
  "createUser": "some-user@some-company-cloud.com",
  "modifyTime": "2020-12-16T11:52:24.477Z",
  "modifyUser": "some-user@some-company-cloud.com",
  "ancestry": {
    "parents": []
  },
  "meta": [],
  "data": {
    "NameAliases": [
      {
        "AliasName": "EU",
        "AliasNameTypeID": "partition-id:reference-data--AliasNameType:Acronym:"
      }
    ],
    "GeoPoliticalEntityID": "1",
    "GeoPoliticalEntityTypeID": "partition-id:reference-data--GeoPoliticalEntityType:Region:",
    "GeoPoliticalEntityName": "Europe",
    "ExtensionProperties": {}
  }
}