[
  {
    "kind": "{{schema-authority}}:wks:AbstractAccessControlList:1.0.0",
    "relativePath": "shared-schemas/osdu/abstract/AbstractAccessControlList.1.0.0.json"
  },
  {
    "kind": "{{schema-authority}}:wks:AbstractActivityParameter:1.0.0",
    "relativePath": "shared-schemas/osdu/abstract/AbstractActivityParameter.1.0.0.json"
  },
  {
    "kind": "{{schema-authority}}:wks:AbstractActivityState:1.0.0",
    "relativePath": "shared-schemas/osdu/abstract/AbstractActivityState.1.0.0.json"
  },
  {
    "kind": "{{schema-authority}}:wks:AbstractAliasNames:1.0.0",
    "relativePath": "shared-schemas/osdu/abstract/AbstractAliasNames.1.0.0.json"
  },
  {
    "kind": "{{schema-authority}}:wks:AbstractAnyCrsFeatureCollection:1.1.0",
    "relativePath": "shared-schemas/osdu/abstract/AbstractAnyCrsFeatureCollection.1.1.0.json"
  },
  {
    "kind": "{{schema-authority}}:wks:AbstractAnyCrsFeatureCollection:1.0.0",
    "relativePath": "shared-schemas/osdu/abstract/AbstractAnyCrsFeatureCollection.1.0.0.json"
  },
  {
    "kind": "{{schema-authority}}:wks:AbstractCoordinates:1.0.0",
    "relativePath": "shared-schemas/osdu/abstract/AbstractCoordinates.1.0.0.json"
  },
  {
    "kind": "{{schema-authority}}:wks:AbstractFeatureCollection:1.0.0",
    "relativePath": "shared-schemas/osdu/abstract/AbstractFeatureCollection.1.0.0.json"
  },
  {
    "kind": "{{schema-authority}}:wks:AbstractSpatialLocation:1.1.0",
    "relativePath": "shared-schemas/osdu/abstract/AbstractSpatialLocation.1.1.0.json"
  },
  {
    "kind": "{{schema-authority}}:wks:AbstractSpatialLocation:1.0.0",
    "relativePath": "shared-schemas/osdu/abstract/AbstractSpatialLocation.1.0.0.json"
  },
  {
    "kind": "{{schema-authority}}:wks:AbstractBinGrid:1.1.0",
    "relativePath": "shared-schemas/osdu/abstract/AbstractBinGrid.1.1.0.json"
  },
  {
    "kind": "{{schema-authority}}:wks:AbstractBinGrid:1.0.0",
    "relativePath": "shared-schemas/osdu/abstract/AbstractBinGrid.1.0.0.json"
  },
  {
    "kind": "{{schema-authority}}:wks:AbstractBusinessRule:1.0.0",
    "relativePath": "shared-schemas/osdu/abstract/AbstractBusinessRule.1.0.0.json"
  },
  {
    "kind": "{{schema-authority}}:wks:AbstractPropertyType:1.0.0",
    "relativePath": "shared-schemas/osdu/abstract/AbstractPropertyType.1.0.0.json"
  },
  {
    "kind": "{{schema-authority}}:wks:AbstractFacet:1.0.0",
    "relativePath": "shared-schemas/osdu/abstract/AbstractFacet.1.0.0.json"
  },
  {
    "kind": "{{schema-authority}}:wks:AbstractReferencePropertyType:1.1.0",
    "relativePath": "shared-schemas/osdu/abstract/AbstractReferencePropertyType.1.1.0.json"
  },
  {
    "kind": "{{schema-authority}}:wks:AbstractReferencePropertyType:1.0.0",
    "relativePath": "shared-schemas/osdu/abstract/AbstractReferencePropertyType.1.0.0.json"
  },
  {
    "kind": "{{schema-authority}}:wks:AbstractColumnBasedTable:1.0.0",
    "relativePath": "shared-schemas/osdu/abstract/AbstractColumnBasedTable.1.0.0.json"
  },
  {
    "kind": "{{schema-authority}}:wks:AbstractColumnLayerGridPatch:1.0.0",
    "relativePath": "shared-schemas/osdu/abstract/AbstractColumnLayerGridPatch.1.0.0.json"
  },
  {
    "kind": "{{schema-authority}}:wks:AbstractCommonResources:1.0.0",
    "relativePath": "shared-schemas/osdu/abstract/AbstractCommonResources.1.0.0.json"
  },
  {
    "kind": "{{schema-authority}}:wks:AbstractCompressionInfo:1.0.0",
    "relativePath": "shared-schemas/osdu/abstract/AbstractCompressionInfo.1.0.0.json"
  },
  {
    "kind": "{{schema-authority}}:wks:AbstractContact:1.0.0",
    "relativePath": "shared-schemas/osdu/abstract/AbstractContact.1.0.0.json"
  },
  {
    "kind": "{{schema-authority}}:wks:AbstractDataset:1.0.0",
    "relativePath": "shared-schemas/osdu/abstract/AbstractDataset.1.0.0.json"
  },
  {
    "kind": "{{schema-authority}}:wks:AbstractFacilityOperator:1.1.0",
    "relativePath": "shared-schemas/osdu/abstract/AbstractFacilityOperator.1.1.0.json"
  },
  {
    "kind": "{{schema-authority}}:wks:AbstractFacilityOperator:1.0.0",
    "relativePath": "shared-schemas/osdu/abstract/AbstractFacilityOperator.1.0.0.json"
  },
  {
    "kind": "{{schema-authority}}:wks:AbstractFacilityState:1.1.0",
    "relativePath": "shared-schemas/osdu/abstract/AbstractFacilityState.1.1.0.json"
  },
  {
    "kind": "{{schema-authority}}:wks:AbstractFacilityState:1.0.0",
    "relativePath": "shared-schemas/osdu/abstract/AbstractFacilityState.1.0.0.json"
  },
  {
    "kind": "{{schema-authority}}:wks:AbstractFacilityEvent:1.1.0",
    "relativePath": "shared-schemas/osdu/abstract/AbstractFacilityEvent.1.1.0.json"
  },
  {
    "kind": "{{schema-authority}}:wks:AbstractFacilityEvent:1.0.0",
    "relativePath": "shared-schemas/osdu/abstract/AbstractFacilityEvent.1.0.0.json"
  },
  {
    "kind": "{{schema-authority}}:wks:AbstractFacilitySpecification:1.0.0",
    "relativePath": "shared-schemas/osdu/abstract/AbstractFacilitySpecification.1.0.0.json"
  },
  {
    "kind": "{{schema-authority}}:wks:AbstractFacility:1.1.0",
    "relativePath": "shared-schemas/osdu/abstract/AbstractFacility.1.1.0.json"
  },
  {
    "kind": "{{schema-authority}}:wks:AbstractFacility:1.0.0",
    "relativePath": "shared-schemas/osdu/abstract/AbstractFacility.1.0.0.json"
  },
  {
    "kind": "{{schema-authority}}:wks:AbstractFacilityVerticalMeasurement:1.0.0",
    "relativePath": "shared-schemas/osdu/abstract/AbstractFacilityVerticalMeasurement.1.0.0.json"
  },
  {
    "kind": "{{schema-authority}}:wks:AbstractFileSourceInfo:1.0.0",
    "relativePath": "shared-schemas/osdu/abstract/AbstractFileSourceInfo.1.0.0.json"
  },
  {
    "kind": "{{schema-authority}}:wks:AbstractFile:1.0.0",
    "relativePath": "shared-schemas/osdu/abstract/AbstractFile.1.0.0.json"
  },
  {
    "kind": "{{schema-authority}}:wks:AbstractFileCollection:1.0.0",
    "relativePath": "shared-schemas/osdu/abstract/AbstractFileCollection.1.0.0.json"
  },
  {
    "kind": "{{schema-authority}}:wks:AbstractGeoBasinContext:1.0.0",
    "relativePath": "shared-schemas/osdu/abstract/AbstractGeoBasinContext.1.0.0.json"
  },
  {
    "kind": "{{schema-authority}}:wks:AbstractGeoPoliticalContext:1.0.0",
    "relativePath": "shared-schemas/osdu/abstract/AbstractGeoPoliticalContext.1.0.0.json"
  },
  {
    "kind": "{{schema-authority}}:wks:AbstractGeoFieldContext:1.0.0",
    "relativePath": "shared-schemas/osdu/abstract/AbstractGeoFieldContext.1.0.0.json"
  },
  {
    "kind": "{{schema-authority}}:wks:AbstractGeoPlayContext:1.0.0",
    "relativePath": "shared-schemas/osdu/abstract/AbstractGeoPlayContext.1.0.0.json"
  },
  {
    "kind": "{{schema-authority}}:wks:AbstractGeoProspectContext:1.0.0",
    "relativePath": "shared-schemas/osdu/abstract/AbstractGeoProspectContext.1.0.0.json"
  },
  {
    "kind": "{{schema-authority}}:wks:AbstractGeoContext:1.0.0",
    "relativePath": "shared-schemas/osdu/abstract/AbstractGeoContext.1.0.0.json"
  },
  {
    "kind": "{{schema-authority}}:wks:AbstractGeoJson.PropertiesBinGridCorners:1.0.0",
    "relativePath": "shared-schemas/osdu/abstract/AbstractGeoJson.PropertiesBinGridCorners.1.0.0.json"
  },
  {
    "kind": "{{schema-authority}}:wks:AbstractGeologicUnitInterpretation:1.0.0",
    "relativePath": "shared-schemas/osdu/abstract/AbstractGeologicUnitInterpretation.1.0.0.json"
  },
  {
    "kind": "{{schema-authority}}:wks:AbstractRepresentation:1.0.0",
    "relativePath": "shared-schemas/osdu/abstract/AbstractRepresentation.1.0.0.json"
  },
  {
    "kind": "{{schema-authority}}:wks:AbstractGridRepresentation:1.0.0",
    "relativePath": "shared-schemas/osdu/abstract/AbstractGridRepresentation.1.0.0.json"
  },
  {
    "kind": "{{schema-authority}}:wks:AbstractIjkGridFlowSimulationBoundaryConnection:1.0.0",
    "relativePath": "shared-schemas/osdu/abstract/AbstractIjkGridFlowSimulationBoundaryConnection.1.0.0.json"
  },
  {
    "kind": "{{schema-authority}}:wks:AbstractIjkGridPatch:1.0.0",
    "relativePath": "shared-schemas/osdu/abstract/AbstractIjkGridPatch.1.0.0.json"
  },
  {
    "kind": "{{schema-authority}}:wks:AbstractInterpretation:1.0.0",
    "relativePath": "shared-schemas/osdu/abstract/AbstractInterpretation.1.0.0.json"
  },
  {
    "kind": "{{schema-authority}}:wks:AbstractLegalParentList:1.0.0",
    "relativePath": "shared-schemas/osdu/abstract/AbstractLegalParentList.1.0.0.json"
  },
  {
    "kind": "{{schema-authority}}:wks:AbstractLegalTags:1.0.0",
    "relativePath": "shared-schemas/osdu/abstract/AbstractLegalTags.1.0.0.json"
  },
  {
    "kind": "{{schema-authority}}:wks:AbstractMaster:1.1.0",
    "relativePath": "shared-schemas/osdu/abstract/AbstractMaster.1.1.0.json"
  },
  {
    "kind": "{{schema-authority}}:wks:AbstractMaster:1.0.0",
    "relativePath": "shared-schemas/osdu/abstract/AbstractMaster.1.0.0.json"
  },
  {
    "kind": "{{schema-authority}}:wks:AbstractMetaItem:1.0.0",
    "relativePath": "shared-schemas/osdu/abstract/AbstractMetaItem.1.0.0.json"
  },
  {
    "kind": "{{schema-authority}}:wks:AbstractPersistableReference:1.0.0",
    "relativePath": "shared-schemas/osdu/abstract/AbstractPersistableReference.1.0.0.json"
  },
  {
    "kind": "{{schema-authority}}:wks:AbstractProject:1.0.0",
    "relativePath": "shared-schemas/osdu/abstract/AbstractProject.1.0.0.json"
  },
  {
    "kind": "{{schema-authority}}:wks:AbstractProjectActivity:1.1.0",
    "relativePath": "shared-schemas/osdu/abstract/AbstractProjectActivity.1.1.0.json"
  },
  {
    "kind": "{{schema-authority}}:wks:AbstractProjectActivity:1.0.0",
    "relativePath": "shared-schemas/osdu/abstract/AbstractProjectActivity.1.0.0.json"
  },
  {
    "kind": "{{schema-authority}}:wks:AbstractQualityMetric:1.1.0",
    "relativePath": "shared-schemas/osdu/abstract/AbstractQualityMetric.1.1.0.json"
  },
  {
    "kind": "{{schema-authority}}:wks:AbstractQualityMetric:1.0.0",
    "relativePath": "shared-schemas/osdu/abstract/AbstractQualityMetric.1.0.0.json"
  },
  {
    "kind": "{{schema-authority}}:wks:AbstractReferenceLevel:1.0.0",
    "relativePath": "shared-schemas/osdu/abstract/AbstractReferenceLevel.1.0.0.json"
  },
  {
    "kind": "{{schema-authority}}:wks:AbstractReferenceType:1.0.0",
    "relativePath": "shared-schemas/osdu/abstract/AbstractReferenceType.1.0.0.json"
  },
  {
    "kind": "{{schema-authority}}:wks:AbstractReferenceValueUpgrade:1.0.0",
    "relativePath": "shared-schemas/osdu/abstract/AbstractReferenceValueUpgrade.1.0.0.json"
  },
  {
    "kind": "{{schema-authority}}:wks:AbstractSpatialReference:1.0.0",
    "relativePath": "shared-schemas/osdu/abstract/AbstractSpatialReference.1.0.0.json"
  },
  {
    "kind": "{{schema-authority}}:wks:AbstractStorageLocation:1.0.0",
    "relativePath": "shared-schemas/osdu/abstract/AbstractStorageLocation.1.0.0.json"
  },
  {
    "kind": "{{schema-authority}}:wks:AbstractTechnicalAssurance:1.0.0",
    "relativePath": "shared-schemas/osdu/abstract/AbstractTechnicalAssurance.1.0.0.json"
  },
  {
    "kind": "{{schema-authority}}:wks:AbstractUnstructuredColumnLayerGridPatch:1.0.0",
    "relativePath": "shared-schemas/osdu/abstract/AbstractUnstructuredColumnLayerGridPatch.1.0.0.json"
  },
  {
    "kind": "{{schema-authority}}:wks:AbstractUnstructuredGridPatch:1.0.0",
    "relativePath": "shared-schemas/osdu/abstract/AbstractUnstructuredGridPatch.1.0.0.json"
  },
  {
    "kind": "{{schema-authority}}:wks:AbstractVectorHeaderMapping:1.0.0",
    "relativePath": "shared-schemas/osdu/abstract/AbstractVectorHeaderMapping.1.0.0.json"
  },
  {
    "kind": "{{schema-authority}}:wks:AbstractWPCActivity:1.1.0",
    "relativePath": "shared-schemas/osdu/abstract/AbstractWPCActivity.1.1.0.json"
  },
  {
    "kind": "{{schema-authority}}:wks:AbstractWPCActivity:1.0.0",
    "relativePath": "shared-schemas/osdu/abstract/AbstractWPCActivity.1.0.0.json"
  },
  {
    "kind": "{{schema-authority}}:wks:AbstractWPCGroupType:1.0.0",
    "relativePath": "shared-schemas/osdu/abstract/AbstractWPCGroupType.1.0.0.json"
  },
  {
    "kind": "{{schema-authority}}:wks:AbstractWellboreDrillingReason:1.1.0",
    "relativePath": "shared-schemas/osdu/abstract/AbstractWellboreDrillingReason.1.1.0.json"
  },
  {
    "kind": "{{schema-authority}}:wks:AbstractWellboreDrillingReason:1.0.0",
    "relativePath": "shared-schemas/osdu/abstract/AbstractWellboreDrillingReason.1.0.0.json"
  },
  {
    "kind": "{{schema-authority}}:wks:AbstractWorkProductComponent:1.1.0",
    "relativePath": "shared-schemas/osdu/abstract/AbstractWorkProductComponent.1.1.0.json"
  },
  {
    "kind": "{{schema-authority}}:wks:AbstractWorkProductComponent:1.0.0",
    "relativePath": "shared-schemas/osdu/abstract/AbstractWorkProductComponent.1.0.0.json"
  },
  {
    "kind": "{{schema-authority}}:wks:work-product-component--Activity:1.1.0",
    "relativePath": "shared-schemas/osdu/work-product-component/Activity.1.1.0.json"
  },
  {
    "kind": "{{schema-authority}}:wks:work-product-component--Activity:1.0.0",
    "relativePath": "shared-schemas/osdu/work-product-component/Activity.1.0.0.json"
  },
  {
    "kind": "{{schema-authority}}:wks:reference-data--ActivityCode:1.0.0",
    "relativePath": "shared-schemas/osdu/reference-data/ActivityCode.1.0.0.json"
  },
  {
    "kind": "{{schema-authority}}:wks:reference-data--ActivityLevel:1.0.0",
    "relativePath": "shared-schemas/osdu/reference-data/ActivityLevel.1.0.0.json"
  },
  {
    "kind": "{{schema-authority}}:wks:reference-data--ActivityOutcome:1.0.0",
    "relativePath": "shared-schemas/osdu/reference-data/ActivityOutcome.1.0.0.json"
  },
  {
    "kind": "{{schema-authority}}:wks:reference-data--ActivityOutcomeDetail:1.0.0",
    "relativePath": "shared-schemas/osdu/reference-data/ActivityOutcomeDetail.1.0.0.json"
  },
  {
    "kind": "{{schema-authority}}:wks:master-data--ActivityPlan:1.1.0",
    "relativePath": "shared-schemas/osdu/master-data/ActivityPlan.1.1.0.json"
  },
  {
    "kind": "{{schema-authority}}:wks:master-data--ActivityPlan:1.0.0",
    "relativePath": "shared-schemas/osdu/master-data/ActivityPlan.1.0.0.json"
  },
  {
    "kind": "{{schema-authority}}:wks:reference-data--ActivityStatus:1.0.0",
    "relativePath": "shared-schemas/osdu/reference-data/ActivityStatus.1.0.0.json"
  },
  {
    "kind": "{{schema-authority}}:wks:master-data--ActivityTemplate:1.0.0",
    "relativePath": "shared-schemas/osdu/master-data/ActivityTemplate.1.0.0.json"
  },
  {
    "kind": "{{schema-authority}}:wks:master-data--ActivityTemplateArc:1.0.0",
    "relativePath": "shared-schemas/osdu/master-data/ActivityTemplateArc.1.0.0.json"
  },
  {
    "kind": "{{schema-authority}}:wks:reference-data--ActivityType:1.0.0",
    "relativePath": "shared-schemas/osdu/reference-data/ActivityType.1.0.0.json"
  },
  {
    "kind": "{{schema-authority}}:wks:reference-data--ActualIndicatorType:1.0.0",
    "relativePath": "shared-schemas/osdu/reference-data/ActualIndicatorType.1.0.0.json"
  },
  {
    "kind": "{{schema-authority}}:wks:reference-data--AdditiveRole:1.0.0",
    "relativePath": "shared-schemas/osdu/reference-data/AdditiveRole.1.0.0.json"
  },
  {
    "kind": "{{schema-authority}}:wks:reference-data--AdditiveType:1.0.1",
    "relativePath": "shared-schemas/osdu/reference-data/AdditiveType.1.0.1.json"
  },
  {
    "kind": "{{schema-authority}}:wks:reference-data--AdditiveType:1.0.0",
    "relativePath": "shared-schemas/osdu/reference-data/AdditiveType.1.0.0.json"
  },
  {
    "kind": "{{schema-authority}}:wks:master-data--Agreement:1.0.0",
    "relativePath": "shared-schemas/osdu/master-data/Agreement.1.0.0.json"
  },
  {
    "kind": "{{schema-authority}}:wks:reference-data--AgreementType:1.0.0",
    "relativePath": "shared-schemas/osdu/reference-data/AgreementType.1.0.0.json"
  },
  {
    "kind": "{{schema-authority}}:wks:reference-data--AliasNameType:1.0.0",
    "relativePath": "shared-schemas/osdu/reference-data/AliasNameType.1.0.0.json"
  },
  {
    "kind": "{{schema-authority}}:wks:reference-data--AliasNameTypeClass:1.0.0",
    "relativePath": "shared-schemas/osdu/reference-data/AliasNameTypeClass.1.0.0.json"
  },
  {
    "kind": "{{schema-authority}}:wks:reference-data--AnisotropyType:1.0.0",
    "relativePath": "shared-schemas/osdu/reference-data/AnisotropyType.1.0.0.json"
  },
  {
    "kind": "{{schema-authority}}:wks:reference-data--AnnularFluidType:1.0.0",
    "relativePath": "shared-schemas/osdu/reference-data/AnnularFluidType.1.0.0.json"
  },
  {
    "kind": "{{schema-authority}}:wks:work-product-component--AquiferInterpretation:1.0.0",
    "relativePath": "shared-schemas/osdu/work-product-component/AquiferInterpretation.1.0.0.json"
  },
  {
    "kind": "{{schema-authority}}:wks:reference-data--ArtefactRole:1.0.0",
    "relativePath": "shared-schemas/osdu/reference-data/ArtefactRole.1.0.0.json"
  },
  {
    "kind": "{{schema-authority}}:wks:reference-data--ArtificialLiftType:1.0.0",
    "relativePath": "shared-schemas/osdu/reference-data/ArtificialLiftType.1.0.0.json"
  },
  {
    "kind": "{{schema-authority}}:wks:reference-data--AzimuthReferenceType:1.0.0",
    "relativePath": "shared-schemas/osdu/reference-data/AzimuthReferenceType.1.0.0.json"
  },
  {
    "kind": "{{schema-authority}}:wks:master-data--BHARun:1.0.0",
    "relativePath": "shared-schemas/osdu/master-data/BHARun.1.0.0.json"
  },
  {
    "kind": "{{schema-authority}}:wks:master-data--Basin:1.0.0",
    "relativePath": "shared-schemas/osdu/master-data/Basin.1.0.0.json"
  },
  {
    "kind": "{{schema-authority}}:wks:reference-data--BasinType:1.0.0",
    "relativePath": "shared-schemas/osdu/reference-data/BasinType.1.0.0.json"
  },
  {
    "kind": "{{schema-authority}}:wks:reference-data--BhaStatus:1.0.0",
    "relativePath": "shared-schemas/osdu/reference-data/BhaStatus.1.0.0.json"
  },
  {
    "kind": "{{schema-authority}}:wks:reference-data--BinGridDefinitionMethodType:1.0.0",
    "relativePath": "shared-schemas/osdu/reference-data/BinGridDefinitionMethodType.1.0.0.json"
  },
  {
    "kind": "{{schema-authority}}:wks:reference-data--BitDullCode:1.0.0",
    "relativePath": "shared-schemas/osdu/reference-data/BitDullCode.1.0.0.json"
  },
  {
    "kind": "{{schema-authority}}:wks:reference-data--BitReasonPulled:1.0.0",
    "relativePath": "shared-schemas/osdu/reference-data/BitReasonPulled.1.0.0.json"
  },
  {
    "kind": "{{schema-authority}}:wks:reference-data--BitType:1.0.1",
    "relativePath": "shared-schemas/osdu/reference-data/BitType.1.0.1.json"
  },
  {
    "kind": "{{schema-authority}}:wks:reference-data--BitType:1.0.0",
    "relativePath": "shared-schemas/osdu/reference-data/BitType.1.0.0.json"
  },
  {
    "kind": "{{schema-authority}}:wks:reference-data--BottomHolePressureType:1.0.0",
    "relativePath": "shared-schemas/osdu/reference-data/BottomHolePressureType.1.0.0.json"
  },
  {
    "kind": "{{schema-authority}}:wks:master-data--BoundaryFeature:1.0.0",
    "relativePath": "shared-schemas/osdu/master-data/BoundaryFeature.1.0.0.json"
  },
  {
    "kind": "{{schema-authority}}:wks:reference-data--BoundaryRelationType:1.0.0",
    "relativePath": "shared-schemas/osdu/reference-data/BoundaryRelationType.1.0.0.json"
  },
  {
    "kind": "{{schema-authority}}:wks:reference-data--CalculationMethodType:1.0.0",
    "relativePath": "shared-schemas/osdu/reference-data/CalculationMethodType.1.0.0.json"
  },
  {
    "kind": "{{schema-authority}}:wks:master-data--CasingDesign:1.0.0",
    "relativePath": "shared-schemas/osdu/master-data/CasingDesign.1.0.0.json"
  },
  {
    "kind": "{{schema-authority}}:wks:reference-data--CatalogMapStateType:1.0.0",
    "relativePath": "shared-schemas/osdu/reference-data/CatalogMapStateType.1.0.0.json"
  },
  {
    "kind": "{{schema-authority}}:wks:reference-data--CellShapeType:1.0.0",
    "relativePath": "shared-schemas/osdu/reference-data/CellShapeType.1.0.0.json"
  },
  {
    "kind": "{{schema-authority}}:wks:reference-data--CementJobType:1.0.0",
    "relativePath": "shared-schemas/osdu/reference-data/CementJobType.1.0.0.json"
  },
  {
    "kind": "{{schema-authority}}:wks:reference-data--ChronoStratigraphy:1.0.0",
    "relativePath": "shared-schemas/osdu/reference-data/ChronoStratigraphy.1.0.0.json"
  },
  {
    "kind": "{{schema-authority}}:wks:reference-data--CollectionPurpose:1.0.0",
    "relativePath": "shared-schemas/osdu/reference-data/CollectionPurpose.1.0.0.json"
  },
  {
    "kind": "{{schema-authority}}:wks:work-product-component--ColumnBasedTable:1.0.0",
    "relativePath": "shared-schemas/osdu/work-product-component/ColumnBasedTable.1.0.0.json"
  },
  {
    "kind": "{{schema-authority}}:wks:reference-data--ColumnBasedTableType:1.0.0",
    "relativePath": "shared-schemas/osdu/reference-data/ColumnBasedTableType.1.0.0.json"
  },
  {
    "kind": "{{schema-authority}}:wks:reference-data--ColumnShapeType:1.0.0",
    "relativePath": "shared-schemas/osdu/reference-data/ColumnShapeType.1.0.0.json"
  },
  {
    "kind": "{{schema-authority}}:wks:reference-data--CompressionMethodType:1.0.0",
    "relativePath": "shared-schemas/osdu/reference-data/CompressionMethodType.1.0.0.json"
  },
  {
    "kind": "{{schema-authority}}:wks:dataset--ConnectedSource.Generic:1.0.0",
    "relativePath": "shared-schemas/osdu/dataset/ConnectedSource.Generic.1.0.0.json"
  },
  {
    "kind": "{{schema-authority}}:wks:master-data--ConnectedSourceDataJob:1.3.0",
    "relativePath": "shared-schemas/osdu/master-data/ConnectedSourceDataJob.1.3.0.json"
  },
  {
    "kind": "{{schema-authority}}:wks:master-data--ConnectedSourceDataJob:1.2.0",
    "relativePath": "shared-schemas/osdu/master-data/ConnectedSourceDataJob.1.2.0.json"
  },
  {
    "kind": "{{schema-authority}}:wks:master-data--ConnectedSourceDataJob:1.1.0",
    "relativePath": "shared-schemas/osdu/master-data/ConnectedSourceDataJob.1.1.0.json"
  },
  {
    "kind": "{{schema-authority}}:wks:master-data--ConnectedSourceDataJob:1.0.0",
    "relativePath": "shared-schemas/osdu/master-data/ConnectedSourceDataJob.1.0.0.json"
  },
  {
    "kind": "{{schema-authority}}:wks:master-data--ConnectedSourceRegistryEntry:1.2.0",
    "relativePath": "shared-schemas/osdu/master-data/ConnectedSourceRegistryEntry.1.2.0.json"
  },
  {
    "kind": "{{schema-authority}}:wks:master-data--ConnectedSourceRegistryEntry:1.1.0",
    "relativePath": "shared-schemas/osdu/master-data/ConnectedSourceRegistryEntry.1.1.0.json"
  },
  {
    "kind": "{{schema-authority}}:wks:master-data--ConnectedSourceRegistryEntry:1.0.0",
    "relativePath": "shared-schemas/osdu/master-data/ConnectedSourceRegistryEntry.1.0.0.json"
  },
  {
    "kind": "{{schema-authority}}:wks:reference-data--ContactRoleType:1.0.0",
    "relativePath": "shared-schemas/osdu/reference-data/ContactRoleType.1.0.0.json"
  },
  {
    "kind": "{{schema-authority}}:wks:reference-data--ContractorType:1.0.0",
    "relativePath": "shared-schemas/osdu/reference-data/ContractorType.1.0.0.json"
  },
  {
    "kind": "{{schema-authority}}:wks:reference-data--ConventionalCoreType:1.0.1",
    "relativePath": "shared-schemas/osdu/reference-data/ConventionalCoreType.1.0.1.json"
  },
  {
    "kind": "{{schema-authority}}:wks:reference-data--ConventionalCoreType:1.0.0",
    "relativePath": "shared-schemas/osdu/reference-data/ConventionalCoreType.1.0.0.json"
  },
  {
    "kind": "{{schema-authority}}:wks:reference-data--CoordinateReferenceSystem:1.1.0",
    "relativePath": "shared-schemas/osdu/reference-data/CoordinateReferenceSystem.1.1.0.json"
  },
  {
    "kind": "{{schema-authority}}:wks:reference-data--CoordinateReferenceSystem:1.0.0",
    "relativePath": "shared-schemas/osdu/reference-data/CoordinateReferenceSystem.1.0.0.json"
  },
  {
    "kind": "{{schema-authority}}:wks:reference-data--CoordinateTransformation:1.1.0",
    "relativePath": "shared-schemas/osdu/reference-data/CoordinateTransformation.1.1.0.json"
  },
  {
    "kind": "{{schema-authority}}:wks:reference-data--CoordinateTransformation:1.0.0",
    "relativePath": "shared-schemas/osdu/reference-data/CoordinateTransformation.1.0.0.json"
  },
  {
    "kind": "{{schema-authority}}:wks:reference-data--CorePreservationType:1.0.0",
    "relativePath": "shared-schemas/osdu/reference-data/CorePreservationType.1.0.0.json"
  },
  {
    "kind": "{{schema-authority}}:wks:master-data--Coring:1.0.0",
    "relativePath": "shared-schemas/osdu/master-data/Coring.1.0.0.json"
  },
  {
    "kind": "{{schema-authority}}:wks:reference-data--Currency:1.0.0",
    "relativePath": "shared-schemas/osdu/reference-data/Currency.1.0.0.json"
  },
  {
    "kind": "{{schema-authority}}:wks:reference-data--CurveIndexDimensionType:1.0.0",
    "relativePath": "shared-schemas/osdu/reference-data/CurveIndexDimensionType.1.0.0.json"
  },
  {
    "kind": "{{schema-authority}}:wks:reference-data--CurveSampleType:1.0.0",
    "relativePath": "shared-schemas/osdu/reference-data/CurveSampleType.1.0.0.json"
  },
  {
    "kind": "{{schema-authority}}:wks:DataCollection:1.0.0",
    "relativePath": "shared-schemas/osdu/data-collection/DataCollection.1.0.0.json"
  },
  {
    "kind": "{{schema-authority}}:wks:work-product-component--DataQuality:1.1.0",
    "relativePath": "shared-schemas/osdu/work-product-component/DataQuality.1.1.0.json"
  },
  {
    "kind": "{{schema-authority}}:wks:work-product-component--DataQuality:1.0.0",
    "relativePath": "shared-schemas/osdu/work-product-component/DataQuality.1.0.0.json"
  },
  {
    "kind": "{{schema-authority}}:wks:reference-data--DataRuleDimensionType:1.0.0",
    "relativePath": "shared-schemas/osdu/reference-data/DataRuleDimensionType.1.0.0.json"
  },
  {
    "kind": "{{schema-authority}}:wks:reference-data--DataRulePurposeType:1.0.0",
    "relativePath": "shared-schemas/osdu/reference-data/DataRulePurposeType.1.0.0.json"
  },
  {
    "kind": "{{schema-authority}}:wks:reference-data--DepositionGeometryType:1.0.0",
    "relativePath": "shared-schemas/osdu/reference-data/DepositionGeometryType.1.0.0.json"
  },
  {
    "kind": "{{schema-authority}}:wks:reference-data--DimensionType:1.0.0",
    "relativePath": "shared-schemas/osdu/reference-data/DimensionType.1.0.0.json"
  },
  {
    "kind": "{{schema-authority}}:wks:reference-data--DiscoverabilityBySearch:1.0.0",
    "relativePath": "shared-schemas/osdu/reference-data/DiscoverabilityBySearch.1.0.0.json"
  },
  {
    "kind": "{{schema-authority}}:wks:reference-data--DiscretisationSchemeType:1.0.0",
    "relativePath": "shared-schemas/osdu/reference-data/DiscretisationSchemeType.1.0.0.json"
  },
  {
    "kind": "{{schema-authority}}:wks:work-product-component--Document:1.0.0",
    "relativePath": "shared-schemas/osdu/work-product-component/Document.1.0.0.json"
  },
  {
    "kind": "{{schema-authority}}:wks:reference-data--DocumentType:1.0.0",
    "relativePath": "shared-schemas/osdu/reference-data/DocumentType.1.0.0.json"
  },
  {
    "kind": "{{schema-authority}}:wks:reference-data--DomainType:1.0.0",
    "relativePath": "shared-schemas/osdu/reference-data/DomainType.1.0.0.json"
  },
  {
    "kind": "{{schema-authority}}:wks:reference-data--DrillingActivityClassType:1.0.0",
    "relativePath": "shared-schemas/osdu/reference-data/DrillingActivityClassType.1.0.0.json"
  },
  {
    "kind": "{{schema-authority}}:wks:reference-data--DrillingReasonType:1.0.0",
    "relativePath": "shared-schemas/osdu/reference-data/DrillingReasonType.1.0.0.json"
  },
  {
    "kind": "{{schema-authority}}:wks:dataset--ETPDataspace:1.0.0",
    "relativePath": "shared-schemas/osdu/dataset/ETPDataspace.1.0.0.json"
  },
  {
    "kind": "{{schema-authority}}:wks:work-product-component--EarthModelInterpretation:1.0.0",
    "relativePath": "shared-schemas/osdu/work-product-component/EarthModelInterpretation.1.0.0.json"
  },
  {
    "kind": "{{schema-authority}}:wks:reference-data--EncodingFormatType:1.0.0",
    "relativePath": "shared-schemas/osdu/reference-data/EncodingFormatType.1.0.0.json"
  },
  {
    "kind": "{{schema-authority}}:wks:master-data--EvaluationPlan:1.0.0",
    "relativePath": "shared-schemas/osdu/master-data/EvaluationPlan.1.0.0.json"
  },
  {
    "kind": "{{schema-authority}}:wks:reference-data--ExistenceKind:1.0.0",
    "relativePath": "shared-schemas/osdu/reference-data/ExistenceKind.1.0.0.json"
  },
  {
    "kind": "{{schema-authority}}:wks:reference-data--ExternalCatalogNamespace:1.0.0",
    "relativePath": "shared-schemas/osdu/reference-data/ExternalCatalogNamespace.1.0.0.json"
  },
  {
    "kind": "{{schema-authority}}:wks:reference-data--ExternalReferenceValueMapping:1.0.0",
    "relativePath": "shared-schemas/osdu/reference-data/ExternalReferenceValueMapping.1.0.0.json"
  },
  {
    "kind": "{{schema-authority}}:wks:reference-data--ExternalUnitOfMeasure:1.0.0",
    "relativePath": "shared-schemas/osdu/reference-data/ExternalUnitOfMeasure.1.0.0.json"
  },
  {
    "kind": "{{schema-authority}}:wks:reference-data--ExternalUnitQuantity:1.0.0",
    "relativePath": "shared-schemas/osdu/reference-data/ExternalUnitQuantity.1.0.0.json"
  },
  {
    "kind": "{{schema-authority}}:wks:reference-data--FacetRole:1.0.0",
    "relativePath": "shared-schemas/osdu/reference-data/FacetRole.1.0.0.json"
  },
  {
    "kind": "{{schema-authority}}:wks:reference-data--FacetType:1.0.0",
    "relativePath": "shared-schemas/osdu/reference-data/FacetType.1.0.0.json"
  },
  {
    "kind": "{{schema-authority}}:wks:reference-data--FacilityEventType:1.0.0",
    "relativePath": "shared-schemas/osdu/reference-data/FacilityEventType.1.0.0.json"
  },
  {
    "kind": "{{schema-authority}}:wks:reference-data--FacilityStateType:1.0.0",
    "relativePath": "shared-schemas/osdu/reference-data/FacilityStateType.1.0.0.json"
  },
  {
    "kind": "{{schema-authority}}:wks:reference-data--FacilityType:1.0.0",
    "relativePath": "shared-schemas/osdu/reference-data/FacilityType.1.0.0.json"
  },
  {
    "kind": "{{schema-authority}}:wks:work-product-component--FaultInterpretation:1.0.0",
    "relativePath": "shared-schemas/osdu/work-product-component/FaultInterpretation.1.0.0.json"
  },
  {
    "kind": "{{schema-authority}}:wks:work-product-component--FaultSystem:1.2.0",
    "relativePath": "shared-schemas/osdu/work-product-component/FaultSystem.1.2.0.json"
  },
  {
    "kind": "{{schema-authority}}:wks:work-product-component--FaultSystem:1.1.0",
    "relativePath": "shared-schemas/osdu/work-product-component/FaultSystem.1.1.0.json"
  },
  {
    "kind": "{{schema-authority}}:wks:work-product-component--FaultSystem:1.0.0",
    "relativePath": "shared-schemas/osdu/work-product-component/FaultSystem.1.0.0.json"
  },
  {
    "kind": "{{schema-authority}}:wks:reference-data--FaultThrowType:1.0.0",
    "relativePath": "shared-schemas/osdu/reference-data/FaultThrowType.1.0.0.json"
  },
  {
    "kind": "{{schema-authority}}:wks:reference-data--FeatureType:1.0.0",
    "relativePath": "shared-schemas/osdu/reference-data/FeatureType.1.0.0.json"
  },
  {
    "kind": "{{schema-authority}}:wks:master-data--Field:1.0.0",
    "relativePath": "shared-schemas/osdu/master-data/Field.1.0.0.json"
  },
  {
    "kind": "{{schema-authority}}:wks:dataset--File.CompressedVectorHeaders:1.0.0",
    "relativePath": "shared-schemas/osdu/dataset/File.CompressedVectorHeaders.1.0.0.json"
  },
  {
    "kind": "{{schema-authority}}:wks:dataset--File.Generic:1.0.0",
    "relativePath": "shared-schemas/osdu/dataset/File.Generic.1.0.0.json"
  },
  {
    "kind": "{{schema-authority}}:wks:dataset--File.GeoJSON:1.0.0",
    "relativePath": "shared-schemas/osdu/dataset/File.GeoJSON.1.0.0.json"
  },
  {
    "kind": "{{schema-authority}}:wks:dataset--File.Image.JPEG:1.0.0",
    "relativePath": "shared-schemas/osdu/dataset/File.Image.JPEG.1.0.0.json"
  },
  {
    "kind": "{{schema-authority}}:wks:dataset--File.Image.PNG:1.0.0",
    "relativePath": "shared-schemas/osdu/dataset/File.Image.PNG.1.0.0.json"
  },
  {
    "kind": "{{schema-authority}}:wks:dataset--File.Image.TIFF:1.0.0",
    "relativePath": "shared-schemas/osdu/dataset/File.Image.TIFF.1.0.0.json"
  },
  {
    "kind": "{{schema-authority}}:wks:dataset--File.Image.WorldFile:1.0.0",
    "relativePath": "shared-schemas/osdu/dataset/File.Image.WorldFile.1.0.0.json"
  },
  {
    "kind": "{{schema-authority}}:wks:dataset--File.OGC.GeoTIFF:1.0.0",
    "relativePath": "shared-schemas/osdu/dataset/File.OGC.GeoTIFF.1.0.0.json"
  },
  {
    "kind": "{{schema-authority}}:wks:dataset--File.WITSML:1.0.0",
    "relativePath": "shared-schemas/osdu/dataset/File.WITSML.1.0.0.json"
  },
  {
    "kind": "{{schema-authority}}:wks:dataset--FileCollection.Bluware.OpenVDS:1.0.0",
    "relativePath": "shared-schemas/osdu/dataset/FileCollection.Bluware.OpenVDS.1.0.0.json"
  },
  {
    "kind": "{{schema-authority}}:wks:dataset--FileCollection.Esri.Shape:1.0.0",
    "relativePath": "shared-schemas/osdu/dataset/FileCollection.Esri.Shape.1.0.0.json"
  },
  {
    "kind": "{{schema-authority}}:wks:dataset--FileCollection.Generic:1.0.0",
    "relativePath": "shared-schemas/osdu/dataset/FileCollection.Generic.1.0.0.json"
  },
  {
    "kind": "{{schema-authority}}:wks:dataset--FileCollection.SEGY:1.0.0",
    "relativePath": "shared-schemas/osdu/dataset/FileCollection.SEGY.1.0.0.json"
  },
  {
    "kind": "{{schema-authority}}:wks:dataset--FileCollection.Slb.OpenZGY:1.0.0",
    "relativePath": "shared-schemas/osdu/dataset/FileCollection.Slb.OpenZGY.1.0.0.json"
  },
  {
    "kind": "{{schema-authority}}:wks:work-product-component--FluidBoundaryInterpretation:1.0.0",
    "relativePath": "shared-schemas/osdu/work-product-component/FluidBoundaryInterpretation.1.0.0.json"
  },
  {
    "kind": "{{schema-authority}}:wks:reference-data--FluidContactType:1.0.0",
    "relativePath": "shared-schemas/osdu/reference-data/FluidContactType.1.0.0.json"
  },
  {
    "kind": "{{schema-authority}}:wks:reference-data--FluidPhaseType:1.0.0",
    "relativePath": "shared-schemas/osdu/reference-data/FluidPhaseType.1.0.0.json"
  },
  {
    "kind": "{{schema-authority}}:wks:reference-data--FluidPropertyFacetName:1.0.0",
    "relativePath": "shared-schemas/osdu/reference-data/FluidPropertyFacetName.1.0.0.json"
  },
  {
    "kind": "{{schema-authority}}:wks:reference-data--FluidPropertyName:1.0.0",
    "relativePath": "shared-schemas/osdu/reference-data/FluidPropertyName.1.0.0.json"
  },
  {
    "kind": "{{schema-authority}}:wks:reference-data--FluidRheologicalModelType:1.0.0",
    "relativePath": "shared-schemas/osdu/reference-data/FluidRheologicalModelType.1.0.0.json"
  },
  {
    "kind": "{{schema-authority}}:wks:reference-data--FluidRole:1.0.0",
    "relativePath": "shared-schemas/osdu/reference-data/FluidRole.1.0.0.json"
  },
  {
    "kind": "{{schema-authority}}:wks:reference-data--FluidType:1.0.0",
    "relativePath": "shared-schemas/osdu/reference-data/FluidType.1.0.0.json"
  },
  {
    "kind": "{{schema-authority}}:wks:master-data--FluidsProgram:1.0.0",
    "relativePath": "shared-schemas/osdu/master-data/FluidsProgram.1.0.0.json"
  },
  {
    "kind": "{{schema-authority}}:wks:master-data--FluidsReport:1.1.0",
    "relativePath": "shared-schemas/osdu/master-data/FluidsReport.1.1.0.json"
  },
  {
    "kind": "{{schema-authority}}:wks:master-data--FluidsReport:1.0.0",
    "relativePath": "shared-schemas/osdu/master-data/FluidsReport.1.0.0.json"
  },
  {
    "kind": "{{schema-authority}}:wks:reference-data--FormationIntegrityPressureDataSource:1.0.0",
    "relativePath": "shared-schemas/osdu/reference-data/FormationIntegrityPressureDataSource.1.0.0.json"
  },
  {
    "kind": "{{schema-authority}}:wks:reference-data--FormationIntegritySurfacePressureDataSource:1.0.0",
    "relativePath": "shared-schemas/osdu/reference-data/FormationIntegritySurfacePressureDataSource.1.0.0.json"
  },
  {
    "kind": "{{schema-authority}}:wks:work-product-component--FormationIntegrityTest:1.0.0",
    "relativePath": "shared-schemas/osdu/work-product-component/FormationIntegrityTest.1.0.0.json"
  },
  {
    "kind": "{{schema-authority}}:wks:reference-data--FormationIntegrityTestResult:1.0.0",
    "relativePath": "shared-schemas/osdu/reference-data/FormationIntegrityTestResult.1.0.0.json"
  },
  {
    "kind": "{{schema-authority}}:wks:reference-data--FormationIntegrityTestType:1.0.0",
    "relativePath": "shared-schemas/osdu/reference-data/FormationIntegrityTestType.1.0.0.json"
  },
  {
    "kind": "{{schema-authority}}:wks:reference-data--FormationPressureTestType:1.0.0",
    "relativePath": "shared-schemas/osdu/reference-data/FormationPressureTestType.1.0.0.json"
  },
  {
    "kind": "{{schema-authority}}:wks:reference-data--GasReadingType:1.0.0",
    "relativePath": "shared-schemas/osdu/reference-data/GasReadingType.1.0.0.json"
  },
  {
    "kind": "{{schema-authority}}:wks:dataset--GenericDataset:1.0.0",
    "relativePath": "shared-schemas/osdu/manifest/GenericDataset.1.0.0.json"
  },
  {
    "kind": "{{schema-authority}}:wks:work-product-component--GenericImage:1.0.0",
    "relativePath": "shared-schemas/osdu/work-product-component/GenericImage.1.0.0.json"
  },
  {
    "kind": "{{schema-authority}}:wks:master-data--GenericMasterData:1.0.0",
    "relativePath": "shared-schemas/osdu/manifest/GenericMasterData.1.0.0.json"
  },
  {
    "kind": "{{schema-authority}}:wks:work-product-component--GenericProperty:1.0.0",
    "relativePath": "shared-schemas/osdu/work-product-component/GenericProperty.1.0.0.json"
  },
  {
    "kind": "{{schema-authority}}:wks:reference-data--GenericReferenceData:1.0.0",
    "relativePath": "shared-schemas/osdu/manifest/GenericReferenceData.1.0.0.json"
  },
  {
    "kind": "{{schema-authority}}:wks:work-product-component--GenericRepresentation:1.0.0",
    "relativePath": "shared-schemas/osdu/work-product-component/GenericRepresentation.1.0.0.json"
  },
  {
    "kind": "{{schema-authority}}:wks:work-product--GenericWorkProduct:1.0.0",
    "relativePath": "shared-schemas/osdu/manifest/GenericWorkProduct.1.0.0.json"
  },
  {
    "kind": "{{schema-authority}}:wks:work-product-component--GenericWorkProductComponent:1.0.0",
    "relativePath": "shared-schemas/osdu/manifest/GenericWorkProductComponent.1.0.0.json"
  },
  {
    "kind": "{{schema-authority}}:wks:master-data--GeoPoliticalEntity:1.0.0",
    "relativePath": "shared-schemas/osdu/master-data/GeoPoliticalEntity.1.0.0.json"
  },
  {
    "kind": "{{schema-authority}}:wks:reference-data--GeoPoliticalEntityType:1.0.0",
    "relativePath": "shared-schemas/osdu/reference-data/GeoPoliticalEntityType.1.0.0.json"
  },
  {
    "kind": "{{schema-authority}}:wks:work-product-component--GeoReferencedImage:1.1.0",
    "relativePath": "shared-schemas/osdu/work-product-component/GeoReferencedImage.1.1.0.json"
  },
  {
    "kind": "{{schema-authority}}:wks:work-product-component--GeoReferencedImage:1.0.0",
    "relativePath": "shared-schemas/osdu/work-product-component/GeoReferencedImage.1.0.0.json"
  },
  {
    "kind": "{{schema-authority}}:wks:reference-data--GeoReferencedImageType:1.0.0",
    "relativePath": "shared-schemas/osdu/reference-data/GeoReferencedImageType.1.0.0.json"
  },
  {
    "kind": "{{schema-authority}}:wks:work-product-component--GeobodyBoundaryInterpretation:1.0.0",
    "relativePath": "shared-schemas/osdu/work-product-component/GeobodyBoundaryInterpretation.1.0.0.json"
  },
  {
    "kind": "{{schema-authority}}:wks:work-product-component--GeobodyInterpretation:1.0.0",
    "relativePath": "shared-schemas/osdu/work-product-component/GeobodyInterpretation.1.0.0.json"
  },
  {
    "kind": "{{schema-authority}}:wks:work-product-component--GeologicUnitOccurrenceInterpretation:1.0.0",
    "relativePath": "shared-schemas/osdu/work-product-component/GeologicUnitOccurrenceInterpretation.1.0.0.json"
  },
  {
    "kind": "{{schema-authority}}:wks:reference-data--GeologicUnitShapeType:1.0.0",
    "relativePath": "shared-schemas/osdu/reference-data/GeologicUnitShapeType.1.0.0.json"
  },
  {
    "kind": "{{schema-authority}}:wks:reference-data--GeologicalFormation:1.0.0",
    "relativePath": "shared-schemas/osdu/reference-data/GeologicalFormation.1.0.0.json"
  },
  {
    "kind": "{{schema-authority}}:wks:master-data--GeometricTargetSet:1.0.0",
    "relativePath": "shared-schemas/osdu/master-data/GeometricTargetSet.1.0.0.json"
  },
  {
    "kind": "{{schema-authority}}:wks:work-product-component--GpGridRepresentation:1.0.0",
    "relativePath": "shared-schemas/osdu/work-product-component/GpGridRepresentation.1.0.0.json"
  },
  {
    "kind": "{{schema-authority}}:wks:reference-data--GrainDensityMeasurementType:1.0.0",
    "relativePath": "shared-schemas/osdu/reference-data/GrainDensityMeasurementType.1.0.0.json"
  },
  {
    "kind": "{{schema-authority}}:wks:reference-data--GrainSizeAnalysisMethod:1.0.0",
    "relativePath": "shared-schemas/osdu/reference-data/GrainSizeAnalysisMethod.1.0.0.json"
  },
  {
    "kind": "{{schema-authority}}:wks:reference-data--GrainSizeClassification:1.0.0",
    "relativePath": "shared-schemas/osdu/reference-data/GrainSizeClassification.1.0.0.json"
  },
  {
    "kind": "{{schema-authority}}:wks:reference-data--GrainSizeClassificationScheme:1.0.0",
    "relativePath": "shared-schemas/osdu/reference-data/GrainSizeClassificationScheme.1.0.0.json"
  },
  {
    "kind": "{{schema-authority}}:wks:work-product-component--GridConnectionSetRepresentation:1.0.0",
    "relativePath": "shared-schemas/osdu/work-product-component/GridConnectionSetRepresentation.1.0.0.json"
  },
  {
    "kind": "{{schema-authority}}:wks:reference-data--HeaderKeyName:1.0.0",
    "relativePath": "shared-schemas/osdu/reference-data/HeaderKeyName.1.0.0.json"
  },
  {
    "kind": "{{schema-authority}}:wks:master-data--HoleSection:1.1.0",
    "relativePath": "shared-schemas/osdu/master-data/HoleSection.1.1.0.json"
  },
  {
    "kind": "{{schema-authority}}:wks:master-data--HoleSection:1.0.0",
    "relativePath": "shared-schemas/osdu/master-data/HoleSection.1.0.0.json"
  },
  {
    "kind": "{{schema-authority}}:wks:work-product-component--HorizonInterpretation:1.0.0",
    "relativePath": "shared-schemas/osdu/work-product-component/HorizonInterpretation.1.0.0.json"
  },
  {
    "kind": "{{schema-authority}}:wks:reference-data--IjkCellFace:1.0.0",
    "relativePath": "shared-schemas/osdu/reference-data/IjkCellFace.1.0.0.json"
  },
  {
    "kind": "{{schema-authority}}:wks:work-product-component--IjkGridNumericalAquiferRepresentation:1.0.0",
    "relativePath": "shared-schemas/osdu/work-product-component/IjkGridNumericalAquiferRepresentation.1.0.0.json"
  },
  {
    "kind": "{{schema-authority}}:wks:work-product-component--IjkGridRepresentation:1.0.0",
    "relativePath": "shared-schemas/osdu/work-product-component/IjkGridRepresentation.1.0.0.json"
  },
  {
    "kind": "{{schema-authority}}:wks:reference-data--ImageLightingCondition:1.0.0",
    "relativePath": "shared-schemas/osdu/reference-data/ImageLightingCondition.1.0.0.json"
  },
  {
    "kind": "{{schema-authority}}:wks:reference-data--InSARApplication:1.0.0",
    "relativePath": "shared-schemas/osdu/reference-data/InSARApplication.1.0.0.json"
  },
  {
    "kind": "{{schema-authority}}:wks:reference-data--InSARFrequencyBand:1.0.0",
    "relativePath": "shared-schemas/osdu/reference-data/InSARFrequencyBand.1.0.0.json"
  },
  {
    "kind": "{{schema-authority}}:wks:reference-data--InSARImageMode:1.0.0",
    "relativePath": "shared-schemas/osdu/reference-data/InSARImageMode.1.0.0.json"
  },
  {
    "kind": "{{schema-authority}}:wks:reference-data--InSARPolarisation:1.0.0",
    "relativePath": "shared-schemas/osdu/reference-data/InSARPolarisation.1.0.0.json"
  },
  {
    "kind": "{{schema-authority}}:wks:reference-data--InSARProcessingType:1.0.0",
    "relativePath": "shared-schemas/osdu/reference-data/InSARProcessingType.1.0.0.json"
  },
  {
    "kind": "{{schema-authority}}:wks:reference-data--IndexableElement:1.0.0",
    "relativePath": "shared-schemas/osdu/reference-data/IndexableElement.1.0.0.json"
  },
  {
    "kind": "{{schema-authority}}:wks:reference-data--InterpolationMethod:1.0.0",
    "relativePath": "shared-schemas/osdu/reference-data/InterpolationMethod.1.0.0.json"
  },
  {
    "kind": "{{schema-authority}}:wks:master-data--IsolatedInterval:1.0.0",
    "relativePath": "shared-schemas/osdu/master-data/IsolatedInterval.1.0.0.json"
  },
  {
    "kind": "{{schema-authority}}:wks:reference-data--IsolatedIntervalType:1.0.0",
    "relativePath": "shared-schemas/osdu/reference-data/IsolatedIntervalType.1.0.0.json"
  },
  {
    "kind": "{{schema-authority}}:wks:reference-data--KDirectionType:1.0.0",
    "relativePath": "shared-schemas/osdu/reference-data/KDirectionType.1.0.0.json"
  },
  {
    "kind": "{{schema-authority}}:wks:reference-data--LaheeClass:1.0.0",
    "relativePath": "shared-schemas/osdu/reference-data/LaheeClass.1.0.0.json"
  },
  {
    "kind": "{{schema-authority}}:wks:reference-data--LegalStatus:1.0.0",
    "relativePath": "shared-schemas/osdu/reference-data/LegalStatus.1.0.0.json"
  },
  {
    "kind": "{{schema-authority}}:wks:reference-data--LicenseState:1.0.0",
    "relativePath": "shared-schemas/osdu/reference-data/LicenseState.1.0.0.json"
  },
  {
    "kind": "{{schema-authority}}:wks:reference-data--LineageRelationshipType:1.0.0",
    "relativePath": "shared-schemas/osdu/reference-data/LineageRelationshipType.1.0.0.json"
  },
  {
    "kind": "{{schema-authority}}:wks:reference-data--LinerType:1.0.0",
    "relativePath": "shared-schemas/osdu/reference-data/LinerType.1.0.0.json"
  },
  {
    "kind": "{{schema-authority}}:wks:reference-data--LithoStratigraphy:1.0.0",
    "relativePath": "shared-schemas/osdu/reference-data/LithoStratigraphy.1.0.0.json"
  },
  {
    "kind": "{{schema-authority}}:wks:reference-data--LithologyType:1.0.0",
    "relativePath": "shared-schemas/osdu/reference-data/LithologyType.1.0.0.json"
  },
  {
    "kind": "{{schema-authority}}:wks:work-product-component--LocalBoundaryFeature:1.0.0",
    "relativePath": "shared-schemas/osdu/work-product-component/LocalBoundaryFeature.1.0.0.json"
  },
  {
    "kind": "{{schema-authority}}:wks:work-product-component--LocalModelCompoundCrs:1.0.0",
    "relativePath": "shared-schemas/osdu/work-product-component/LocalModelCompoundCrs.1.0.0.json"
  },
  {
    "kind": "{{schema-authority}}:wks:work-product-component--LocalModelFeature:1.0.0",
    "relativePath": "shared-schemas/osdu/work-product-component/LocalModelFeature.1.0.0.json"
  },
  {
    "kind": "{{schema-authority}}:wks:work-product-component--LocalRockVolumeFeature:1.0.0",
    "relativePath": "shared-schemas/osdu/work-product-component/LocalRockVolumeFeature.1.0.0.json"
  },
  {
    "kind": "{{schema-authority}}:wks:reference-data--LogCurveBusinessValue:1.0.0",
    "relativePath": "shared-schemas/osdu/reference-data/LogCurveBusinessValue.1.0.0.json"
  },
  {
    "kind": "{{schema-authority}}:wks:reference-data--LogCurveFamily:1.1.0",
    "relativePath": "shared-schemas/osdu/reference-data/LogCurveFamily.1.1.0.json"
  },
  {
    "kind": "{{schema-authority}}:wks:reference-data--LogCurveFamily:1.0.0",
    "relativePath": "shared-schemas/osdu/reference-data/LogCurveFamily.1.0.0.json"
  },
  {
    "kind": "{{schema-authority}}:wks:reference-data--LogCurveMainFamily:1.0.0",
    "relativePath": "shared-schemas/osdu/reference-data/LogCurveMainFamily.1.0.0.json"
  },
  {
    "kind": "{{schema-authority}}:wks:reference-data--LogCurveType:1.1.0",
    "relativePath": "shared-schemas/osdu/reference-data/LogCurveType.1.1.0.json"
  },
  {
    "kind": "{{schema-authority}}:wks:reference-data--LogCurveType:1.0.0",
    "relativePath": "shared-schemas/osdu/reference-data/LogCurveType.1.0.0.json"
  },
  {
    "kind": "{{schema-authority}}:wks:reference-data--LogType:1.0.0",
    "relativePath": "shared-schemas/osdu/reference-data/LogType.1.0.0.json"
  },
  {
    "kind": "{{schema-authority}}:wks:Manifest:1.0.0",
    "relativePath": "shared-schemas/osdu/manifest/Manifest.1.0.0.json"
  },
  {
    "kind": "{{schema-authority}}:wks:reference-data--MarkerPropertyType:1.0.0",
    "relativePath": "shared-schemas/osdu/reference-data/MarkerPropertyType.1.0.0.json"
  },
  {
    "kind": "{{schema-authority}}:wks:reference-data--MarkerType:1.0.1",
    "relativePath": "shared-schemas/osdu/reference-data/MarkerType.1.0.1.json"
  },
  {
    "kind": "{{schema-authority}}:wks:reference-data--MarkerType:1.0.0",
    "relativePath": "shared-schemas/osdu/reference-data/MarkerType.1.0.0.json"
  },
  {
    "kind": "{{schema-authority}}:wks:reference-data--MaterialType:1.0.0",
    "relativePath": "shared-schemas/osdu/reference-data/MaterialType.1.0.0.json"
  },
  {
    "kind": "{{schema-authority}}:wks:master-data--ModelFeature:1.0.0",
    "relativePath": "shared-schemas/osdu/master-data/ModelFeature.1.0.0.json"
  },
  {
    "kind": "{{schema-authority}}:wks:reference-data--MudBaseType:1.0.0",
    "relativePath": "shared-schemas/osdu/reference-data/MudBaseType.1.0.0.json"
  },
  {
    "kind": "{{schema-authority}}:wks:reference-data--MudClass:1.0.0",
    "relativePath": "shared-schemas/osdu/reference-data/MudClass.1.0.0.json"
  },
  {
    "kind": "{{schema-authority}}:wks:work-product-component--NotionalSeismicLine:1.0.0",
    "relativePath": "shared-schemas/osdu/work-product-component/NotionalSeismicLine.1.0.0.json"
  },
  {
    "kind": "{{schema-authority}}:wks:reference-data--OAuth2FlowType:1.0.0",
    "relativePath": "shared-schemas/osdu/reference-data/OAuth2FlowType.1.0.0.json"
  },
  {
    "kind": "{{schema-authority}}:wks:reference-data--OSDUJsonExtensions:1.0.0",
    "relativePath": "shared-schemas/osdu/reference-data/OSDUJsonExtensions.1.0.0.json"
  },
  {
    "kind": "{{schema-authority}}:wks:reference-data--OSDURegion:1.0.0",
    "relativePath": "shared-schemas/osdu/reference-data/OSDURegion.1.0.0.json"
  },
  {
    "kind": "{{schema-authority}}:wks:reference-data--ObjectiveType:1.0.0",
    "relativePath": "shared-schemas/osdu/reference-data/ObjectiveType.1.0.0.json"
  },
  {
    "kind": "{{schema-authority}}:wks:reference-data--ObligationType:1.0.0",
    "relativePath": "shared-schemas/osdu/reference-data/ObligationType.1.0.0.json"
  },
  {
    "kind": "{{schema-authority}}:wks:reference-data--OperatingEnvironment:1.0.0",
    "relativePath": "shared-schemas/osdu/reference-data/OperatingEnvironment.1.0.0.json"
  },
  {
    "kind": "{{schema-authority}}:wks:master-data--OperationsReport:1.2.0",
    "relativePath": "shared-schemas/osdu/master-data/OperationsReport.1.2.0.json"
  },
  {
    "kind": "{{schema-authority}}:wks:master-data--OperationsReport:1.1.0",
    "relativePath": "shared-schemas/osdu/master-data/OperationsReport.1.1.0.json"
  },
  {
    "kind": "{{schema-authority}}:wks:master-data--OperationsReport:1.0.0",
    "relativePath": "shared-schemas/osdu/master-data/OperationsReport.1.0.0.json"
  },
  {
    "kind": "{{schema-authority}}:wks:reference-data--OrderingCriteriaType:1.0.0",
    "relativePath": "shared-schemas/osdu/reference-data/OrderingCriteriaType.1.0.0.json"
  },
  {
    "kind": "{{schema-authority}}:wks:master-data--Organisation:1.1.0",
    "relativePath": "shared-schemas/osdu/master-data/Organisation.1.1.0.json"
  },
  {
    "kind": "{{schema-authority}}:wks:master-data--Organisation:1.0.0",
    "relativePath": "shared-schemas/osdu/master-data/Organisation.1.0.0.json"
  },
  {
    "kind": "{{schema-authority}}:wks:reference-data--OrganisationType:1.0.0",
    "relativePath": "shared-schemas/osdu/reference-data/OrganisationType.1.0.0.json"
  },
  {
    "kind": "{{schema-authority}}:wks:reference-data--PPFGContextType:1.0.0",
    "relativePath": "shared-schemas/osdu/reference-data/PPFGContextType.1.0.0.json"
  },
  {
    "kind": "{{schema-authority}}:wks:reference-data--PPFGCurveFamily:1.0.0",
    "relativePath": "shared-schemas/osdu/reference-data/PPFGCurveFamily.1.0.0.json"
  },
  {
    "kind": "{{schema-authority}}:wks:reference-data--PPFGCurveLithoType:1.0.0",
    "relativePath": "shared-schemas/osdu/reference-data/PPFGCurveLithoType.1.0.0.json"
  },
  {
    "kind": "{{schema-authority}}:wks:reference-data--PPFGCurveMainFamily:1.0.0",
    "relativePath": "shared-schemas/osdu/reference-data/PPFGCurveMainFamily.1.0.0.json"
  },
  {
    "kind": "{{schema-authority}}:wks:reference-data--PPFGCurveMnemonic:1.0.0",
    "relativePath": "shared-schemas/osdu/reference-data/PPFGCurveMnemonic.1.0.0.json"
  },
  {
    "kind": "{{schema-authority}}:wks:reference-data--PPFGCurveProbability:1.0.0",
    "relativePath": "shared-schemas/osdu/reference-data/PPFGCurveProbability.1.0.0.json"
  },
  {
    "kind": "{{schema-authority}}:wks:reference-data--PPFGCurveProcessingType:1.0.0",
    "relativePath": "shared-schemas/osdu/reference-data/PPFGCurveProcessingType.1.0.0.json"
  },
  {
    "kind": "{{schema-authority}}:wks:reference-data--PPFGCurveTransformModelType:1.0.0",
    "relativePath": "shared-schemas/osdu/reference-data/PPFGCurveTransformModelType.1.0.0.json"
  },
  {
    "kind": "{{schema-authority}}:wks:work-product-component--PPFGDataset:1.0.0",
    "relativePath": "shared-schemas/osdu/work-product-component/PPFGDataset.1.0.0.json"
  },
  {
    "kind": "{{schema-authority}}:wks:reference-data--ParameterKind:1.0.0",
    "relativePath": "shared-schemas/osdu/reference-data/ParameterKind.1.0.0.json"
  },
  {
    "kind": "{{schema-authority}}:wks:reference-data--ParameterRole:1.0.0",
    "relativePath": "shared-schemas/osdu/reference-data/ParameterRole.1.0.0.json"
  },
  {
    "kind": "{{schema-authority}}:wks:reference-data--ParameterType:1.0.0",
    "relativePath": "shared-schemas/osdu/reference-data/ParameterType.1.0.0.json"
  },
  {
    "kind": "{{schema-authority}}:wks:reference-data--PerforationCentralizationMethodType:1.0.0",
    "relativePath": "shared-schemas/osdu/reference-data/PerforationCentralizationMethodType.1.0.0.json"
  },
  {
    "kind": "{{schema-authority}}:wks:reference-data--PerforationConveyedMethod:1.0.0",
    "relativePath": "shared-schemas/osdu/reference-data/PerforationConveyedMethod.1.0.0.json"
  },
  {
    "kind": "{{schema-authority}}:wks:reference-data--PerforationGunCarrierCategory:1.0.0",
    "relativePath": "shared-schemas/osdu/reference-data/PerforationGunCarrierCategory.1.0.0.json"
  },
  {
    "kind": "{{schema-authority}}:wks:reference-data--PerforationGunCarrierModel:1.0.0",
    "relativePath": "shared-schemas/osdu/reference-data/PerforationGunCarrierModel.1.0.0.json"
  },
  {
    "kind": "{{schema-authority}}:wks:reference-data--PerforationGunCarrierType:1.0.0",
    "relativePath": "shared-schemas/osdu/reference-data/PerforationGunCarrierType.1.0.0.json"
  },
  {
    "kind": "{{schema-authority}}:wks:reference-data--PerforationGunChargeShape:1.0.0",
    "relativePath": "shared-schemas/osdu/reference-data/PerforationGunChargeShape.1.0.0.json"
  },
  {
    "kind": "{{schema-authority}}:wks:reference-data--PerforationGunChargeSize:1.0.0",
    "relativePath": "shared-schemas/osdu/reference-data/PerforationGunChargeSize.1.0.0.json"
  },
  {
    "kind": "{{schema-authority}}:wks:reference-data--PerforationGunChargeType:1.0.0",
    "relativePath": "shared-schemas/osdu/reference-data/PerforationGunChargeType.1.0.0.json"
  },
  {
    "kind": "{{schema-authority}}:wks:reference-data--PerforationGunFiringHeadType:1.0.0",
    "relativePath": "shared-schemas/osdu/reference-data/PerforationGunFiringHeadType.1.0.0.json"
  },
  {
    "kind": "{{schema-authority}}:wks:reference-data--PerforationGunMetallurgyType:1.0.0",
    "relativePath": "shared-schemas/osdu/reference-data/PerforationGunMetallurgyType.1.0.0.json"
  },
  {
    "kind": "{{schema-authority}}:wks:reference-data--PerforationGunPhasingType:1.0.0",
    "relativePath": "shared-schemas/osdu/reference-data/PerforationGunPhasingType.1.0.0.json"
  },
  {
    "kind": "{{schema-authority}}:wks:master-data--PerforationInterval:1.0.0",
    "relativePath": "shared-schemas/osdu/master-data/PerforationInterval.1.0.0.json"
  },
  {
    "kind": "{{schema-authority}}:wks:reference-data--PerforationIntervalReason:1.0.0",
    "relativePath": "shared-schemas/osdu/reference-data/PerforationIntervalReason.1.0.0.json"
  },
  {
    "kind": "{{schema-authority}}:wks:reference-data--PerforationIntervalType:1.0.0",
    "relativePath": "shared-schemas/osdu/reference-data/PerforationIntervalType.1.0.0.json"
  },
  {
    "kind": "{{schema-authority}}:wks:reference-data--PerforationIntervalWLSize:1.0.0",
    "relativePath": "shared-schemas/osdu/reference-data/PerforationIntervalWLSize.1.0.0.json"
  },
  {
    "kind": "{{schema-authority}}:wks:master-data--PerforationJob:1.0.0",
    "relativePath": "shared-schemas/osdu/master-data/PerforationJob.1.0.0.json"
  },
  {
    "kind": "{{schema-authority}}:wks:reference-data--PerforationPillType:1.0.0",
    "relativePath": "shared-schemas/osdu/reference-data/PerforationPillType.1.0.0.json"
  },
  {
    "kind": "{{schema-authority}}:wks:reference-data--PermeabilityMeasurementType:1.0.0",
    "relativePath": "shared-schemas/osdu/reference-data/PermeabilityMeasurementType.1.0.0.json"
  },
  {
    "kind": "{{schema-authority}}:wks:work-product-component--PersistedCollection:1.0.0",
    "relativePath": "shared-schemas/osdu/work-product-component/PersistedCollection.1.0.0.json"
  },
  {
    "kind": "{{schema-authority}}:wks:reference-data--PersonnelOrganisationRole:1.0.0",
    "relativePath": "shared-schemas/osdu/reference-data/PersonnelOrganisationRole.1.0.0.json"
  },
  {
    "kind": "{{schema-authority}}:wks:reference-data--PersonnelServiceType:1.0.0",
    "relativePath": "shared-schemas/osdu/reference-data/PersonnelServiceType.1.0.0.json"
  },
  {
    "kind": "{{schema-authority}}:wks:reference-data--PetroleumSystemElementType:1.0.0",
    "relativePath": "shared-schemas/osdu/reference-data/PetroleumSystemElementType.1.0.0.json"
  },
  {
    "kind": "{{schema-authority}}:wks:reference-data--PillarShapeType:1.0.0",
    "relativePath": "shared-schemas/osdu/reference-data/PillarShapeType.1.0.0.json"
  },
  {
    "kind": "{{schema-authority}}:wks:master-data--PlannedCementJob:1.1.0",
    "relativePath": "shared-schemas/osdu/master-data/PlannedCementJob.1.1.0.json"
  },
  {
    "kind": "{{schema-authority}}:wks:master-data--PlannedCementJob:1.0.0",
    "relativePath": "shared-schemas/osdu/master-data/PlannedCementJob.1.0.0.json"
  },
  {
    "kind": "{{schema-authority}}:wks:work-product-component--PlannedLithology:1.0.0",
    "relativePath": "shared-schemas/osdu/work-product-component/PlannedLithology.1.0.0.json"
  },
  {
    "kind": "{{schema-authority}}:wks:master-data--Play:1.0.0",
    "relativePath": "shared-schemas/osdu/master-data/Play.1.0.0.json"
  },
  {
    "kind": "{{schema-authority}}:wks:reference-data--PlayType:1.0.0",
    "relativePath": "shared-schemas/osdu/reference-data/PlayType.1.0.0.json"
  },
  {
    "kind": "{{schema-authority}}:wks:reference-data--PlugType:1.0.0",
    "relativePath": "shared-schemas/osdu/reference-data/PlugType.1.0.0.json"
  },
  {
    "kind": "{{schema-authority}}:wks:reference-data--PorosityMeasurementType:1.0.0",
    "relativePath": "shared-schemas/osdu/reference-data/PorosityMeasurementType.1.0.0.json"
  },
  {
    "kind": "{{schema-authority}}:wks:reference-data--PressureMeasurementType:1.0.0",
    "relativePath": "shared-schemas/osdu/reference-data/PressureMeasurementType.1.0.0.json"
  },
  {
    "kind": "{{schema-authority}}:wks:work-product-component--ProcessedInSAR:1.0.0",
    "relativePath": "shared-schemas/osdu/work-product-component/ProcessedInSAR.1.0.0.json"
  },
  {
    "kind": "{{schema-authority}}:wks:reference-data--ProcessingParameterType:1.0.0",
    "relativePath": "shared-schemas/osdu/reference-data/ProcessingParameterType.1.0.0.json"
  },
  {
    "kind": "{{schema-authority}}:wks:reference-data--ProjectRole:1.0.0",
    "relativePath": "shared-schemas/osdu/reference-data/ProjectRole.1.0.0.json"
  },
  {
    "kind": "{{schema-authority}}:wks:reference-data--ProjectStateType:1.0.0",
    "relativePath": "shared-schemas/osdu/reference-data/ProjectStateType.1.0.0.json"
  },
  {
    "kind": "{{schema-authority}}:wks:reference-data--PropertyFieldRepresentationType:1.0.0",
    "relativePath": "shared-schemas/osdu/reference-data/PropertyFieldRepresentationType.1.0.0.json"
  },
  {
    "kind": "{{schema-authority}}:wks:reference-data--PropertyNameType:1.0.0",
    "relativePath": "shared-schemas/osdu/reference-data/PropertyNameType.1.0.0.json"
  },
  {
    "kind": "{{schema-authority}}:wks:reference-data--PropertyType:1.0.0",
    "relativePath": "shared-schemas/osdu/reference-data/PropertyType.1.0.0.json"
  },
  {
    "kind": "{{schema-authority}}:wks:master-data--Prospect:1.0.0",
    "relativePath": "shared-schemas/osdu/master-data/Prospect.1.0.0.json"
  },
  {
    "kind": "{{schema-authority}}:wks:reference-data--ProspectType:1.0.0",
    "relativePath": "shared-schemas/osdu/reference-data/ProspectType.1.0.0.json"
  },
  {
    "kind": "{{schema-authority}}:wks:reference-data--PumpOpType:1.0.0",
    "relativePath": "shared-schemas/osdu/reference-data/PumpOpType.1.0.0.json"
  },
  {
    "kind": "{{schema-authority}}:wks:reference-data--QualitativeSpatialAccuracyType:1.0.0",
    "relativePath": "shared-schemas/osdu/reference-data/QualitativeSpatialAccuracyType.1.0.0.json"
  },
  {
    "kind": "{{schema-authority}}:wks:reference-data--QualityDataRule:1.1.0",
    "relativePath": "shared-schemas/osdu/reference-data/QualityDataRule.1.1.0.json"
  },
  {
    "kind": "{{schema-authority}}:wks:reference-data--QualityDataRule:1.0.0",
    "relativePath": "shared-schemas/osdu/reference-data/QualityDataRule.1.0.0.json"
  },
  {
    "kind": "{{schema-authority}}:wks:reference-data--QualityDataRuleSet:1.0.0",
    "relativePath": "shared-schemas/osdu/reference-data/QualityDataRuleSet.1.0.0.json"
  },
  {
    "kind": "{{schema-authority}}:wks:reference-data--QualityDataRuleSet:2.0.0",
    "relativePath": "shared-schemas/osdu/reference-data/QualityDataRuleSet.2.0.0.json"
  },
  {
    "kind": "{{schema-authority}}:wks:reference-data--QuantitativeAccuracyBand:1.0.0",
    "relativePath": "shared-schemas/osdu/reference-data/QuantitativeAccuracyBand.1.0.0.json"
  },
  {
    "kind": "{{schema-authority}}:wks:reference-data--ReasonTripType:1.0.0",
    "relativePath": "shared-schemas/osdu/reference-data/ReasonTripType.1.0.0.json"
  },
  {
    "kind": "{{schema-authority}}:wks:master-data--ReferenceLevel:1.0.0",
    "relativePath": "shared-schemas/osdu/master-data/ReferenceLevel.1.0.0.json"
  },
  {
    "kind": "{{schema-authority}}:wks:reference-data--ReferenceValueUpgradeLookUp:1.0.0",
    "relativePath": "shared-schemas/osdu/reference-data/ReferenceValueUpgradeLookUp.1.0.0.json"
  },
  {
    "kind": "{{schema-authority}}:wks:reference-data--RepresentationRole:1.0.0",
    "relativePath": "shared-schemas/osdu/reference-data/RepresentationRole.1.0.0.json"
  },
  {
    "kind": "{{schema-authority}}:wks:reference-data--RepresentationType:1.0.0",
    "relativePath": "shared-schemas/osdu/reference-data/RepresentationType.1.0.0.json"
  },
  {
    "kind": "{{schema-authority}}:wks:master-data--Reservoir:0.0.0",
    "relativePath": "shared-schemas/osdu/master-data/Reservoir.0.0.0.json"
  },
  {
    "kind": "{{schema-authority}}:wks:work-product-component--ReservoirCompartmentInterpretation:1.0.0",
    "relativePath": "shared-schemas/osdu/work-product-component/ReservoirCompartmentInterpretation.1.0.0.json"
  },
  {
    "kind": "{{schema-authority}}:wks:master-data--ReservoirSegment:0.0.0",
    "relativePath": "shared-schemas/osdu/master-data/ReservoirSegment.0.0.0.json"
  },
  {
    "kind": "{{schema-authority}}:wks:reference-data--ResourceCurationStatus:1.0.0",
    "relativePath": "shared-schemas/osdu/reference-data/ResourceCurationStatus.1.0.0.json"
  },
  {
    "kind": "{{schema-authority}}:wks:reference-data--ResourceLifecycleStatus:1.0.0",
    "relativePath": "shared-schemas/osdu/reference-data/ResourceLifecycleStatus.1.0.0.json"
  },
  {
    "kind": "{{schema-authority}}:wks:reference-data--ResourceSecurityClassification:1.0.0",
    "relativePath": "shared-schemas/osdu/reference-data/ResourceSecurityClassification.1.0.0.json"
  },
  {
    "kind": "{{schema-authority}}:wks:master-data--Rig:1.1.0",
    "relativePath": "shared-schemas/osdu/master-data/Rig.1.1.0.json"
  },
  {
    "kind": "{{schema-authority}}:wks:master-data--Rig:1.0.0",
    "relativePath": "shared-schemas/osdu/master-data/Rig.1.0.0.json"
  },
  {
    "kind": "{{schema-authority}}:wks:reference-data--RigType:1.0.0",
    "relativePath": "shared-schemas/osdu/reference-data/RigType.1.0.0.json"
  },
  {
    "kind": "{{schema-authority}}:wks:master-data--RigUtilization:1.0.0",
    "relativePath": "shared-schemas/osdu/master-data/RigUtilization.1.0.0.json"
  },
  {
    "kind": "{{schema-authority}}:wks:master-data--Risk:1.0.0",
    "relativePath": "shared-schemas/osdu/master-data/Risk.1.0.0.json"
  },
  {
    "kind": "{{schema-authority}}:wks:reference-data--RiskCategory:1.0.0",
    "relativePath": "shared-schemas/osdu/reference-data/RiskCategory.1.0.0.json"
  },
  {
    "kind": "{{schema-authority}}:wks:reference-data--RiskConsequenceCategory:1.0.0",
    "relativePath": "shared-schemas/osdu/reference-data/RiskConsequenceCategory.1.0.0.json"
  },
  {
    "kind": "{{schema-authority}}:wks:reference-data--RiskConsequenceSubCategory:1.0.0",
    "relativePath": "shared-schemas/osdu/reference-data/RiskConsequenceSubCategory.1.0.0.json"
  },
  {
    "kind": "{{schema-authority}}:wks:reference-data--RiskDiscipline:1.0.0",
    "relativePath": "shared-schemas/osdu/reference-data/RiskDiscipline.1.0.0.json"
  },
  {
    "kind": "{{schema-authority}}:wks:reference-data--RiskHierarchyLevel:1.0.0",
    "relativePath": "shared-schemas/osdu/reference-data/RiskHierarchyLevel.1.0.0.json"
  },
  {
    "kind": "{{schema-authority}}:wks:reference-data--RiskResponseStatus:1.0.0",
    "relativePath": "shared-schemas/osdu/reference-data/RiskResponseStatus.1.0.0.json"
  },
  {
    "kind": "{{schema-authority}}:wks:reference-data--RiskSubCategory:1.0.0",
    "relativePath": "shared-schemas/osdu/reference-data/RiskSubCategory.1.0.0.json"
  },
  {
    "kind": "{{schema-authority}}:wks:reference-data--RiskType:1.0.0",
    "relativePath": "shared-schemas/osdu/reference-data/RiskType.1.0.0.json"
  },
  {
    "kind": "{{schema-authority}}:wks:work-product-component--RockFluidOrganizationInterpretation:1.0.0",
    "relativePath": "shared-schemas/osdu/work-product-component/RockFluidOrganizationInterpretation.1.0.0.json"
  },
  {
    "kind": "{{schema-authority}}:wks:work-product-component--RockFluidUnitInterpretation:1.0.0",
    "relativePath": "shared-schemas/osdu/work-product-component/RockFluidUnitInterpretation.1.0.0.json"
  },
  {
    "kind": "{{schema-authority}}:wks:work-product-component--RockImage:1.0.0",
    "relativePath": "shared-schemas/osdu/work-product-component/RockImage.1.0.0.json"
  },
  {
    "kind": "{{schema-authority}}:wks:reference-data--RockImageType:1.0.0",
    "relativePath": "shared-schemas/osdu/reference-data/RockImageType.1.0.0.json"
  },
  {
    "kind": "{{schema-authority}}:wks:master-data--RockSample:1.0.0",
    "relativePath": "shared-schemas/osdu/master-data/RockSample.1.0.0.json"
  },
  {
    "kind": "{{schema-authority}}:wks:work-product-component--RockSampleAnalysis:1.1.0",
    "relativePath": "shared-schemas/osdu/work-product-component/RockSampleAnalysis.1.1.0.json"
  },
  {
    "kind": "{{schema-authority}}:wks:work-product-component--RockSampleAnalysis:1.0.0",
    "relativePath": "shared-schemas/osdu/work-product-component/RockSampleAnalysis.1.0.0.json"
  },
  {
    "kind": "{{schema-authority}}:wks:reference-data--RockSampleAnalysisType:1.0.0",
    "relativePath": "shared-schemas/osdu/reference-data/RockSampleAnalysisType.1.0.0.json"
  },
  {
    "kind": "{{schema-authority}}:wks:reference-data--RockSampleType:1.0.0",
    "relativePath": "shared-schemas/osdu/reference-data/RockSampleType.1.0.0.json"
  },
  {
    "kind": "{{schema-authority}}:wks:master-data--RockVolumeFeature:1.0.0",
    "relativePath": "shared-schemas/osdu/master-data/RockVolumeFeature.1.0.0.json"
  },
  {
    "kind": "{{schema-authority}}:wks:reference-data--SEGY-HeaderMappingTemplate:1.0.0",
    "relativePath": "shared-schemas/osdu/reference-data/SEGY-HeaderMappingTemplate.1.0.0.json"
  },
  {
    "kind": "{{schema-authority}}:wks:reference-data--SampleOrientationType:1.0.0",
    "relativePath": "shared-schemas/osdu/reference-data/SampleOrientationType.1.0.0.json"
  },
  {
    "kind": "{{schema-authority}}:wks:reference-data--SatelliteGeometry:1.0.0",
    "relativePath": "shared-schemas/osdu/reference-data/SatelliteGeometry.1.0.0.json"
  },
  {
    "kind": "{{schema-authority}}:wks:reference-data--SatelliteMission:1.0.0",
    "relativePath": "shared-schemas/osdu/reference-data/SatelliteMission.1.0.0.json"
  },
  {
    "kind": "{{schema-authority}}:wks:reference-data--SaturationMethodType:1.0.0",
    "relativePath": "shared-schemas/osdu/reference-data/SaturationMethodType.1.0.0.json"
  },
  {
    "kind": "{{schema-authority}}:wks:reference-data--SchemaFormatType:1.0.0",
    "relativePath": "shared-schemas/osdu/reference-data/SchemaFormatType.1.0.0.json"
  },
  {
    "kind": "{{schema-authority}}:wks:reference-data--SchemaUpgradeChain:1.0.0",
    "relativePath": "shared-schemas/osdu/reference-data/SchemaUpgradeChain.1.0.0.json"
  },
  {
    "kind": "{{schema-authority}}:wks:reference-data--SchemaUpgradeSpecification:1.0.0",
    "relativePath": "shared-schemas/osdu/reference-data/SchemaUpgradeSpecification.1.0.0.json"
  },
  {
    "kind": "{{schema-authority}}:wks:work-product-component--SealedSurfaceFramework:1.0.0",
    "relativePath": "shared-schemas/osdu/work-product-component/SealedSurfaceFramework.1.0.0.json"
  },
  {
    "kind": "{{schema-authority}}:wks:work-product-component--SealedVolumeFramework:1.0.0",
    "relativePath": "shared-schemas/osdu/work-product-component/SealedVolumeFramework.1.0.0.json"
  },
  {
    "kind": "{{schema-authority}}:wks:reference-data--SectionType:1.0.0",
    "relativePath": "shared-schemas/osdu/reference-data/SectionType.1.0.0.json"
  },
  {
    "kind": "{{schema-authority}}:wks:reference-data--SecuritySchemeType:1.0.0",
    "relativePath": "shared-schemas/osdu/reference-data/SecuritySchemeType.1.0.0.json"
  },
  {
    "kind": "{{schema-authority}}:wks:master-data--Seismic2DInterpretationSet:1.1.0",
    "relativePath": "shared-schemas/osdu/master-data/Seismic2DInterpretationSet.1.1.0.json"
  },
  {
    "kind": "{{schema-authority}}:wks:master-data--Seismic2DInterpretationSet:1.0.0",
    "relativePath": "shared-schemas/osdu/master-data/Seismic2DInterpretationSet.1.0.0.json"
  },
  {
    "kind": "{{schema-authority}}:wks:master-data--Seismic3DInterpretationSet:1.1.0",
    "relativePath": "shared-schemas/osdu/master-data/Seismic3DInterpretationSet.1.1.0.json"
  },
  {
    "kind": "{{schema-authority}}:wks:master-data--Seismic3DInterpretationSet:1.0.0",
    "relativePath": "shared-schemas/osdu/master-data/Seismic3DInterpretationSet.1.0.0.json"
  },
  {
    "kind": "{{schema-authority}}:wks:master-data--SeismicAcquisitionSurvey:1.2.0",
    "relativePath": "shared-schemas/osdu/master-data/SeismicAcquisitionSurvey.1.2.0.json"
  },
  {
    "kind": "{{schema-authority}}:wks:master-data--SeismicAcquisitionSurvey:1.1.0",
    "relativePath": "shared-schemas/osdu/master-data/SeismicAcquisitionSurvey.1.1.0.json"
  },
  {
    "kind": "{{schema-authority}}:wks:master-data--SeismicAcquisitionSurvey:1.0.0",
    "relativePath": "shared-schemas/osdu/master-data/SeismicAcquisitionSurvey.1.0.0.json"
  },
  {
    "kind": "{{schema-authority}}:wks:reference-data--SeismicAcquisitionType:1.0.0",
    "relativePath": "shared-schemas/osdu/reference-data/SeismicAcquisitionType.1.0.0.json"
  },
  {
    "kind": "{{schema-authority}}:wks:reference-data--SeismicAttributeType:1.0.0",
    "relativePath": "shared-schemas/osdu/reference-data/SeismicAttributeType.1.0.0.json"
  },
  {
    "kind": "{{schema-authority}}:wks:work-product-component--SeismicBinGrid:1.1.0",
    "relativePath": "shared-schemas/osdu/work-product-component/SeismicBinGrid.1.1.0.json"
  },
  {
    "kind": "{{schema-authority}}:wks:work-product-component--SeismicBinGrid:1.0.0",
    "relativePath": "shared-schemas/osdu/work-product-component/SeismicBinGrid.1.0.0.json"
  },
  {
    "kind": "{{schema-authority}}:wks:reference-data--SeismicBinGridType:1.0.0",
    "relativePath": "shared-schemas/osdu/reference-data/SeismicBinGridType.1.0.0.json"
  },
  {
    "kind": "{{schema-authority}}:wks:reference-data--SeismicDomainType:1.0.0",
    "relativePath": "shared-schemas/osdu/reference-data/SeismicDomainType.1.0.0.json"
  },
  {
    "kind": "{{schema-authority}}:wks:reference-data--SeismicEnergySourceType:1.0.1",
    "relativePath": "shared-schemas/osdu/reference-data/SeismicEnergySourceType.1.0.1.json"
  },
  {
    "kind": "{{schema-authority}}:wks:reference-data--SeismicEnergySourceType:1.0.0",
    "relativePath": "shared-schemas/osdu/reference-data/SeismicEnergySourceType.1.0.0.json"
  },
  {
    "kind": "{{schema-authority}}:wks:work-product-component--SeismicFault:1.0.0",
    "relativePath": "shared-schemas/osdu/work-product-component/SeismicFault.1.0.0.json"
  },
  {
    "kind": "{{schema-authority}}:wks:reference-data--SeismicFaultType:1.0.0",
    "relativePath": "shared-schemas/osdu/reference-data/SeismicFaultType.1.0.0.json"
  },
  {
    "kind": "{{schema-authority}}:wks:reference-data--SeismicFilteringType:1.0.0",
    "relativePath": "shared-schemas/osdu/reference-data/SeismicFilteringType.1.0.0.json"
  },
  {
    "kind": "{{schema-authority}}:wks:reference-data--SeismicGatherType:1.0.0",
    "relativePath": "shared-schemas/osdu/reference-data/SeismicGatherType.1.0.0.json"
  },
  {
    "kind": "{{schema-authority}}:wks:reference-data--SeismicGeometryType:1.0.0",
    "relativePath": "shared-schemas/osdu/reference-data/SeismicGeometryType.1.0.0.json"
  },
  {
    "kind": "{{schema-authority}}:wks:work-product-component--SeismicHorizon:1.1.0",
    "relativePath": "shared-schemas/osdu/work-product-component/SeismicHorizon.1.1.0.json"
  },
  {
    "kind": "{{schema-authority}}:wks:work-product-component--SeismicHorizon:1.0.0",
    "relativePath": "shared-schemas/osdu/work-product-component/SeismicHorizon.1.0.0.json"
  },
  {
    "kind": "{{schema-authority}}:wks:reference-data--SeismicHorizonType:1.0.0",
    "relativePath": "shared-schemas/osdu/reference-data/SeismicHorizonType.1.0.0.json"
  },
  {
    "kind": "{{schema-authority}}:wks:work-product-component--SeismicLineGeometry:1.0.0",
    "relativePath": "shared-schemas/osdu/work-product-component/SeismicLineGeometry.1.0.0.json"
  },
  {
    "kind": "{{schema-authority}}:wks:reference-data--SeismicMigrationType:1.0.1",
    "relativePath": "shared-schemas/osdu/reference-data/SeismicMigrationType.1.0.1.json"
  },
  {
    "kind": "{{schema-authority}}:wks:reference-data--SeismicMigrationType:1.0.0",
    "relativePath": "shared-schemas/osdu/reference-data/SeismicMigrationType.1.0.0.json"
  },
  {
    "kind": "{{schema-authority}}:wks:reference-data--SeismicPhase:1.0.0",
    "relativePath": "shared-schemas/osdu/reference-data/SeismicPhase.1.0.0.json"
  },
  {
    "kind": "{{schema-authority}}:wks:reference-data--SeismicPickingType:1.0.1",
    "relativePath": "shared-schemas/osdu/reference-data/SeismicPickingType.1.0.1.json"
  },
  {
    "kind": "{{schema-authority}}:wks:reference-data--SeismicPickingType:1.0.0",
    "relativePath": "shared-schemas/osdu/reference-data/SeismicPickingType.1.0.0.json"
  },
  {
    "kind": "{{schema-authority}}:wks:reference-data--SeismicPolarity:1.0.0",
    "relativePath": "shared-schemas/osdu/reference-data/SeismicPolarity.1.0.0.json"
  },
  {
    "kind": "{{schema-authority}}:wks:master-data--SeismicProcessingProject:1.2.0",
    "relativePath": "shared-schemas/osdu/master-data/SeismicProcessingProject.1.2.0.json"
  },
  {
    "kind": "{{schema-authority}}:wks:master-data--SeismicProcessingProject:1.1.0",
    "relativePath": "shared-schemas/osdu/master-data/SeismicProcessingProject.1.1.0.json"
  },
  {
    "kind": "{{schema-authority}}:wks:master-data--SeismicProcessingProject:1.0.0",
    "relativePath": "shared-schemas/osdu/master-data/SeismicProcessingProject.1.0.0.json"
  },
  {
    "kind": "{{schema-authority}}:wks:reference-data--SeismicProcessingStageType:1.0.1",
    "relativePath": "shared-schemas/osdu/reference-data/SeismicProcessingStageType.1.0.1.json"
  },
  {
    "kind": "{{schema-authority}}:wks:reference-data--SeismicProcessingStageType:1.0.0",
    "relativePath": "shared-schemas/osdu/reference-data/SeismicProcessingStageType.1.0.0.json"
  },
  {
    "kind": "{{schema-authority}}:wks:reference-data--SeismicReceiverType:1.0.0",
    "relativePath": "shared-schemas/osdu/reference-data/SeismicReceiverType.1.0.0.json"
  },
  {
    "kind": "{{schema-authority}}:wks:reference-data--SeismicStackingType:1.0.0",
    "relativePath": "shared-schemas/osdu/reference-data/SeismicStackingType.1.0.0.json"
  },
  {
    "kind": "{{schema-authority}}:wks:work-product-component--SeismicTraceData:1.3.0",
    "relativePath": "shared-schemas/osdu/work-product-component/SeismicTraceData.1.3.0.json"
  },
  {
    "kind": "{{schema-authority}}:wks:work-product-component--SeismicTraceData:1.2.0",
    "relativePath": "shared-schemas/osdu/work-product-component/SeismicTraceData.1.2.0.json"
  },
  {
    "kind": "{{schema-authority}}:wks:work-product-component--SeismicTraceData:1.1.0",
    "relativePath": "shared-schemas/osdu/work-product-component/SeismicTraceData.1.1.0.json"
  },
  {
    "kind": "{{schema-authority}}:wks:work-product-component--SeismicTraceData:1.0.0",
    "relativePath": "shared-schemas/osdu/work-product-component/SeismicTraceData.1.0.0.json"
  },
  {
    "kind": "{{schema-authority}}:wks:reference-data--SeismicTraceDataDimensionalityType:1.0.0",
    "relativePath": "shared-schemas/osdu/reference-data/SeismicTraceDataDimensionalityType.1.0.0.json"
  },
  {
    "kind": "{{schema-authority}}:wks:reference-data--SeismicTraceSortOrder:1.0.0",
    "relativePath": "shared-schemas/osdu/reference-data/SeismicTraceSortOrder.1.0.0.json"
  },
  {
    "kind": "{{schema-authority}}:wks:reference-data--SeismicWaveType:1.0.1",
    "relativePath": "shared-schemas/osdu/reference-data/SeismicWaveType.1.0.1.json"
  },
  {
    "kind": "{{schema-authority}}:wks:reference-data--SeismicWaveType:1.0.0",
    "relativePath": "shared-schemas/osdu/reference-data/SeismicWaveType.1.0.0.json"
  },
  {
    "kind": "{{schema-authority}}:wks:reference-data--SequenceStratigraphicSchemaType:1.0.0",
    "relativePath": "shared-schemas/osdu/reference-data/SequenceStratigraphicSchemaType.1.0.0.json"
  },
  {
    "kind": "{{schema-authority}}:wks:reference-data--SequenceStratigraphySurfaceType:1.0.0",
    "relativePath": "shared-schemas/osdu/reference-data/SequenceStratigraphySurfaceType.1.0.0.json"
  },
  {
    "kind": "{{schema-authority}}:wks:reference-data--SidewallCoreType:1.0.0",
    "relativePath": "shared-schemas/osdu/reference-data/SidewallCoreType.1.0.0.json"
  },
  {
    "kind": "{{schema-authority}}:wks:reference-data--SpatialGeometryType:1.0.0",
    "relativePath": "shared-schemas/osdu/reference-data/SpatialGeometryType.1.0.0.json"
  },
  {
    "kind": "{{schema-authority}}:wks:reference-data--SpatialParameterType:1.0.0",
    "relativePath": "shared-schemas/osdu/reference-data/SpatialParameterType.1.0.0.json"
  },
  {
    "kind": "{{schema-authority}}:wks:reference-data--StandardsOrganisation:1.0.0",
    "relativePath": "shared-schemas/osdu/reference-data/StandardsOrganisation.1.0.0.json"
  },
  {
    "kind": "{{schema-authority}}:wks:master-data--StorageFacility:1.1.0",
    "relativePath": "shared-schemas/osdu/master-data/StorageFacility.1.1.0.json"
  },
  {
    "kind": "{{schema-authority}}:wks:master-data--StorageFacility:1.0.0",
    "relativePath": "shared-schemas/osdu/master-data/StorageFacility.1.0.0.json"
  },
  {
    "kind": "{{schema-authority}}:wks:work-product-component--StratigraphicColumn:1.0.0",
    "relativePath": "shared-schemas/osdu/work-product-component/StratigraphicColumn.1.0.0.json"
  },
  {
    "kind": "{{schema-authority}}:wks:work-product-component--StratigraphicColumnRankInterpretation:1.1.0",
    "relativePath": "shared-schemas/osdu/work-product-component/StratigraphicColumnRankInterpretation.1.1.0.json"
  },
  {
    "kind": "{{schema-authority}}:wks:work-product-component--StratigraphicColumnRankInterpretation:1.0.0",
    "relativePath": "shared-schemas/osdu/work-product-component/StratigraphicColumnRankInterpretation.1.0.0.json"
  },
  {
    "kind": "{{schema-authority}}:wks:reference-data--StratigraphicColumnRankUnitType:1.0.0",
    "relativePath": "shared-schemas/osdu/reference-data/StratigraphicColumnRankUnitType.1.0.0.json"
  },
  {
    "kind": "{{schema-authority}}:wks:reference-data--StratigraphicColumnValidityAreaType:1.0.0",
    "relativePath": "shared-schemas/osdu/reference-data/StratigraphicColumnValidityAreaType.1.0.0.json"
  },
  {
    "kind": "{{schema-authority}}:wks:reference-data--StratigraphicRoleType:1.0.0",
    "relativePath": "shared-schemas/osdu/reference-data/StratigraphicRoleType.1.0.0.json"
  },
  {
    "kind": "{{schema-authority}}:wks:work-product-component--StratigraphicUnitInterpretation:1.0.0",
    "relativePath": "shared-schemas/osdu/work-product-component/StratigraphicUnitInterpretation.1.0.0.json"
  },
  {
    "kind": "{{schema-authority}}:wks:reference-data--StringClass:1.0.0",
    "relativePath": "shared-schemas/osdu/reference-data/StringClass.1.0.0.json"
  },
  {
    "kind": "{{schema-authority}}:wks:work-product-component--StructuralOrganizationInterpretation:1.0.0",
    "relativePath": "shared-schemas/osdu/work-product-component/StructuralOrganizationInterpretation.1.0.0.json"
  },
  {
    "kind": "{{schema-authority}}:wks:work-product-component--SubRepresentation:1.0.0",
    "relativePath": "shared-schemas/osdu/work-product-component/SubRepresentation.1.0.0.json"
  },
  {
    "kind": "{{schema-authority}}:wks:master-data--SurveyProgram:1.0.0",
    "relativePath": "shared-schemas/osdu/master-data/SurveyProgram.1.0.0.json"
  },
  {
    "kind": "{{schema-authority}}:wks:reference-data--SurveyToolType:1.0.0",
    "relativePath": "shared-schemas/osdu/reference-data/SurveyToolType.1.0.0.json"
  },
  {
    "kind": "{{schema-authority}}:wks:reference-data--TargetShape:1.0.0",
    "relativePath": "shared-schemas/osdu/reference-data/TargetShape.1.0.0.json"
  },
  {
    "kind": "{{schema-authority}}:wks:reference-data--TargetType:1.0.0",
    "relativePath": "shared-schemas/osdu/reference-data/TargetType.1.0.0.json"
  },
  {
    "kind": "{{schema-authority}}:wks:reference-data--TechnicalAssuranceType:1.0.0",
    "relativePath": "shared-schemas/osdu/reference-data/TechnicalAssuranceType.1.0.0.json"
  },
  {
    "kind": "{{schema-authority}}:wks:reference-data--TectonicSettingType:1.0.0",
    "relativePath": "shared-schemas/osdu/reference-data/TectonicSettingType.1.0.0.json"
  },
  {
    "kind": "{{schema-authority}}:wks:reference-data--TestSubType:1.0.0",
    "relativePath": "shared-schemas/osdu/reference-data/TestSubType.1.0.0.json"
  },
  {
    "kind": "{{schema-authority}}:wks:reference-data--TestType:1.0.0",
    "relativePath": "shared-schemas/osdu/reference-data/TestType.1.0.0.json"
  },
  {
    "kind": "{{schema-authority}}:wks:work-product-component--TimeSeries:1.0.0",
    "relativePath": "shared-schemas/osdu/work-product-component/TimeSeries.1.0.0.json"
  },
  {
    "kind": "{{schema-authority}}:wks:reference-data--TrajectoryStationPropertyType:1.0.0",
    "relativePath": "shared-schemas/osdu/reference-data/TrajectoryStationPropertyType.1.0.0.json"
  },
  {
    "kind": "{{schema-authority}}:wks:work-product-component--TubularAssembly:1.0.0",
    "relativePath": "shared-schemas/osdu/work-product-component/TubularAssembly.1.0.0.json"
  },
  {
    "kind": "{{schema-authority}}:wks:reference-data--TubularAssemblyStatusType:1.0.0",
    "relativePath": "shared-schemas/osdu/reference-data/TubularAssemblyStatusType.1.0.0.json"
  },
  {
    "kind": "{{schema-authority}}:wks:reference-data--TubularAssemblyType:1.0.0",
    "relativePath": "shared-schemas/osdu/reference-data/TubularAssemblyType.1.0.0.json"
  },
  {
    "kind": "{{schema-authority}}:wks:work-product-component--TubularComponent:1.1.0",
    "relativePath": "shared-schemas/osdu/work-product-component/TubularComponent.1.1.0.json"
  },
  {
    "kind": "{{schema-authority}}:wks:work-product-component--TubularComponent:1.0.0",
    "relativePath": "shared-schemas/osdu/work-product-component/TubularComponent.1.0.0.json"
  },
  {
    "kind": "{{schema-authority}}:wks:reference-data--TubularComponentConnectionType:1.0.0",
    "relativePath": "shared-schemas/osdu/reference-data/TubularComponentConnectionType.1.0.0.json"
  },
  {
    "kind": "{{schema-authority}}:wks:reference-data--TubularComponentGrade:1.0.0",
    "relativePath": "shared-schemas/osdu/reference-data/TubularComponentGrade.1.0.0.json"
  },
  {
    "kind": "{{schema-authority}}:wks:reference-data--TubularComponentPinBoxType:1.0.0",
    "relativePath": "shared-schemas/osdu/reference-data/TubularComponentPinBoxType.1.0.0.json"
  },
  {
    "kind": "{{schema-authority}}:wks:reference-data--TubularComponentType:1.0.0",
    "relativePath": "shared-schemas/osdu/reference-data/TubularComponentType.1.0.0.json"
  },
  {
    "kind": "{{schema-authority}}:wks:reference-data--TubularMaterialType:1.0.0",
    "relativePath": "shared-schemas/osdu/reference-data/TubularMaterialType.1.0.0.json"
  },
  {
    "kind": "{{schema-authority}}:wks:work-product-component--TubularUmbilical:1.0.0",
    "relativePath": "shared-schemas/osdu/work-product-component/TubularUmbilical.1.0.0.json"
  },
  {
    "kind": "{{schema-authority}}:wks:reference-data--TubularUmbilicalServiceType:1.0.0",
    "relativePath": "shared-schemas/osdu/reference-data/TubularUmbilicalServiceType.1.0.0.json"
  },
  {
    "kind": "{{schema-authority}}:wks:reference-data--TubularUmbilicalType:1.0.0",
    "relativePath": "shared-schemas/osdu/reference-data/TubularUmbilicalType.1.0.0.json"
  },
  {
    "kind": "{{schema-authority}}:wks:type--Type:1.0.0",
    "relativePath": "shared-schemas/osdu/type/Type.1.0.0.json"
  },
  {
    "kind": "{{schema-authority}}:wks:reference-data--UnitOfMeasure:1.0.0",
    "relativePath": "shared-schemas/osdu/reference-data/UnitOfMeasure.1.0.0.json"
  },
  {
    "kind": "{{schema-authority}}:wks:reference-data--UnitOfMeasureConfiguration:1.0.0",
    "relativePath": "shared-schemas/osdu/reference-data/UnitOfMeasureConfiguration.1.0.0.json"
  },
  {
    "kind": "{{schema-authority}}:wks:reference-data--UnitQuantity:1.0.0",
    "relativePath": "shared-schemas/osdu/reference-data/UnitQuantity.1.0.0.json"
  },
  {
    "kind": "{{schema-authority}}:wks:work-product-component--UnsealedSurfaceFramework:1.1.0",
    "relativePath": "shared-schemas/osdu/work-product-component/UnsealedSurfaceFramework.1.1.0.json"
  },
  {
    "kind": "{{schema-authority}}:wks:work-product-component--UnsealedSurfaceFramework:1.0.0",
    "relativePath": "shared-schemas/osdu/work-product-component/UnsealedSurfaceFramework.1.0.0.json"
  },
  {
    "kind": "{{schema-authority}}:wks:work-product-component--UnstructuredColumnLayerGridRepresentation:1.0.0",
    "relativePath": "shared-schemas/osdu/work-product-component/UnstructuredColumnLayerGridRepresentation.1.0.0.json"
  },
  {
    "kind": "{{schema-authority}}:wks:work-product-component--UnstructuredGridRepresentation:1.0.0",
    "relativePath": "shared-schemas/osdu/work-product-component/UnstructuredGridRepresentation.1.0.0.json"
  },
  {
    "kind": "{{schema-authority}}:wks:reference-data--ValueChainStatusType:1.0.0",
    "relativePath": "shared-schemas/osdu/reference-data/ValueChainStatusType.1.0.0.json"
  },
  {
    "kind": "{{schema-authority}}:wks:reference-data--VelocityAnalysisMethod:1.0.1",
    "relativePath": "shared-schemas/osdu/reference-data/VelocityAnalysisMethod.1.0.1.json"
  },
  {
    "kind": "{{schema-authority}}:wks:reference-data--VelocityAnalysisMethod:1.0.0",
    "relativePath": "shared-schemas/osdu/reference-data/VelocityAnalysisMethod.1.0.0.json"
  },
  {
    "kind": "{{schema-authority}}:wks:reference-data--VelocityDirectionType:1.0.0",
    "relativePath": "shared-schemas/osdu/reference-data/VelocityDirectionType.1.0.0.json"
  },
  {
    "kind": "{{schema-authority}}:wks:work-product-component--VelocityModeling:1.1.0",
    "relativePath": "shared-schemas/osdu/work-product-component/VelocityModeling.1.1.0.json"
  },
  {
    "kind": "{{schema-authority}}:wks:work-product-component--VelocityModeling:1.0.0",
    "relativePath": "shared-schemas/osdu/work-product-component/VelocityModeling.1.0.0.json"
  },
  {
    "kind": "{{schema-authority}}:wks:reference-data--VelocityType:1.0.0",
    "relativePath": "shared-schemas/osdu/reference-data/VelocityType.1.0.0.json"
  },
  {
    "kind": "{{schema-authority}}:wks:reference-data--VerticalMeasurementPath:1.0.1",
    "relativePath": "shared-schemas/osdu/reference-data/VerticalMeasurementPath.1.0.1.json"
  },
  {
    "kind": "{{schema-authority}}:wks:reference-data--VerticalMeasurementPath:1.0.0",
    "relativePath": "shared-schemas/osdu/reference-data/VerticalMeasurementPath.1.0.0.json"
  },
  {
    "kind": "{{schema-authority}}:wks:reference-data--VerticalMeasurementSource:1.0.0",
    "relativePath": "shared-schemas/osdu/reference-data/VerticalMeasurementSource.1.0.0.json"
  },
  {
    "kind": "{{schema-authority}}:wks:reference-data--VerticalMeasurementType:1.0.2",
    "relativePath": "shared-schemas/osdu/reference-data/VerticalMeasurementType.1.0.2.json"
  },
  {
    "kind": "{{schema-authority}}:wks:reference-data--VerticalMeasurementType:1.0.1",
    "relativePath": "shared-schemas/osdu/reference-data/VerticalMeasurementType.1.0.1.json"
  },
  {
    "kind": "{{schema-authority}}:wks:reference-data--VerticalMeasurementType:1.0.0",
    "relativePath": "shared-schemas/osdu/reference-data/VerticalMeasurementType.1.0.0.json"
  },
  {
    "kind": "{{schema-authority}}:wks:work-product-component--VoidageGroupInterpretation:1.0.0",
    "relativePath": "shared-schemas/osdu/work-product-component/VoidageGroupInterpretation.1.0.0.json"
  },
  {
    "kind": "{{schema-authority}}:wks:reference-data--WeatherType:1.0.0",
    "relativePath": "shared-schemas/osdu/reference-data/WeatherType.1.0.0.json"
  },
  {
    "kind": "{{schema-authority}}:wks:master-data--Well:1.2.0",
    "relativePath": "shared-schemas/osdu/master-data/Well.1.2.0.json"
  },
  {
    "kind": "{{schema-authority}}:wks:master-data--Well:1.1.0",
    "relativePath": "shared-schemas/osdu/master-data/Well.1.1.0.json"
  },
  {
    "kind": "{{schema-authority}}:wks:master-data--Well:1.0.0",
    "relativePath": "shared-schemas/osdu/master-data/Well.1.0.0.json"
  },
  {
    "kind": "{{schema-authority}}:wks:master-data--WellActivity:1.1.0",
    "relativePath": "shared-schemas/osdu/master-data/WellActivity.1.1.0.json"
  },
  {
    "kind": "{{schema-authority}}:wks:master-data--WellActivity:1.0.0",
    "relativePath": "shared-schemas/osdu/master-data/WellActivity.1.0.0.json"
  },
  {
    "kind": "{{schema-authority}}:wks:reference-data--WellActivityPhaseType:1.0.0",
    "relativePath": "shared-schemas/osdu/reference-data/WellActivityPhaseType.1.0.0.json"
  },
  {
    "kind": "{{schema-authority}}:wks:master-data--WellActivityProgram:1.0.0",
    "relativePath": "shared-schemas/osdu/master-data/WellActivityProgram.1.0.0.json"
  },
  {
    "kind": "{{schema-authority}}:wks:reference-data--WellActivityProgramType:1.0.0",
    "relativePath": "shared-schemas/osdu/reference-data/WellActivityProgramType.1.0.0.json"
  },
  {
    "kind": "{{schema-authority}}:wks:reference-data--WellActivityType:1.0.0",
    "relativePath": "shared-schemas/osdu/reference-data/WellActivityType.1.0.0.json"
  },
  {
    "kind": "{{schema-authority}}:wks:master-data--WellBarrierElementTest:1.0.0",
    "relativePath": "shared-schemas/osdu/master-data/WellBarrierElementTest.1.0.0.json"
  },
  {
    "kind": "{{schema-authority}}:wks:reference-data--WellBusinessIntention:1.0.0",
    "relativePath": "shared-schemas/osdu/reference-data/WellBusinessIntention.1.0.0.json"
  },
  {
    "kind": "{{schema-authority}}:wks:reference-data--WellBusinessIntentionOutcome:1.0.0",
    "relativePath": "shared-schemas/osdu/reference-data/WellBusinessIntentionOutcome.1.0.0.json"
  },
  {
    "kind": "{{schema-authority}}:wks:reference-data--WellCondition:1.0.0",
    "relativePath": "shared-schemas/osdu/reference-data/WellCondition.1.0.0.json"
  },
  {
    "kind": "{{schema-authority}}:wks:reference-data--WellFluidDirection:1.0.0",
    "relativePath": "shared-schemas/osdu/reference-data/WellFluidDirection.1.0.0.json"
  },
  {
    "kind": "{{schema-authority}}:wks:reference-data--WellInterestType:1.0.0",
    "relativePath": "shared-schemas/osdu/reference-data/WellInterestType.1.0.0.json"
  },
  {
    "kind": "{{schema-authority}}:wks:work-product-component--WellLog:1.2.0",
    "relativePath": "shared-schemas/osdu/work-product-component/WellLog.1.2.0.json"
  },
  {
    "kind": "{{schema-authority}}:wks:work-product-component--WellLog:1.1.0",
    "relativePath": "shared-schemas/osdu/work-product-component/WellLog.1.1.0.json"
  },
  {
    "kind": "{{schema-authority}}:wks:work-product-component--WellLog:1.0.0",
    "relativePath": "shared-schemas/osdu/work-product-component/WellLog.1.0.0.json"
  },
  {
    "kind": "{{schema-authority}}:wks:reference-data--WellLogSamplingDomainType:1.0.0",
    "relativePath": "shared-schemas/osdu/reference-data/WellLogSamplingDomainType.1.0.0.json"
  },
  {
    "kind": "{{schema-authority}}:wks:master-data--WellPlanningWell:1.0.0",
    "relativePath": "shared-schemas/osdu/master-data/WellPlanningWell.1.0.0.json"
  },
  {
    "kind": "{{schema-authority}}:wks:master-data--WellPlanningWellbore:1.0.0",
    "relativePath": "shared-schemas/osdu/master-data/WellPlanningWellbore.1.0.0.json"
  },
  {
    "kind": "{{schema-authority}}:wks:reference-data--WellProductType:1.0.0",
    "relativePath": "shared-schemas/osdu/reference-data/WellProductType.1.0.0.json"
  },
  {
    "kind": "{{schema-authority}}:wks:reference-data--WellRole:1.0.0",
    "relativePath": "shared-schemas/osdu/reference-data/WellRole.1.0.0.json"
  },
  {
    "kind": "{{schema-authority}}:wks:reference-data--WellSiteProductType:1.0.0",
    "relativePath": "shared-schemas/osdu/reference-data/WellSiteProductType.1.0.0.json"
  },
  {
    "kind": "{{schema-authority}}:wks:reference-data--WellStatusSummary:1.0.0",
    "relativePath": "shared-schemas/osdu/reference-data/WellStatusSummary.1.0.0.json"
  },
  {
    "kind": "{{schema-authority}}:wks:reference-data--WellTechnologyApplied:1.0.0",
    "relativePath": "shared-schemas/osdu/reference-data/WellTechnologyApplied.1.0.0.json"
  },
  {
    "kind": "{{schema-authority}}:wks:master-data--Wellbore:1.3.0",
    "relativePath": "shared-schemas/osdu/master-data/Wellbore.1.3.0.json"
  },
  {
    "kind": "{{schema-authority}}:wks:master-data--Wellbore:1.2.0",
    "relativePath": "shared-schemas/osdu/master-data/Wellbore.1.2.0.json"
  },
  {
    "kind": "{{schema-authority}}:wks:master-data--Wellbore:1.1.1",
    "relativePath": "shared-schemas/osdu/master-data/Wellbore.1.1.1.json"
  },
  {
    "kind": "{{schema-authority}}:wks:master-data--Wellbore:1.1.0",
    "relativePath": "shared-schemas/osdu/master-data/Wellbore.1.1.0.json"
  },
  {
    "kind": "{{schema-authority}}:wks:master-data--Wellbore:1.0.0",
    "relativePath": "shared-schemas/osdu/master-data/Wellbore.1.0.0.json"
  },
  {
    "kind": "{{schema-authority}}:wks:master-data--WellboreArchitecture:1.0.0",
    "relativePath": "shared-schemas/osdu/master-data/WellboreArchitecture.1.0.0.json"
  },
  {
    "kind": "{{schema-authority}}:wks:work-product-component--WellboreIntervalSet:1.0.0",
    "relativePath": "shared-schemas/osdu/work-product-component/WellboreIntervalSet.1.0.0.json"
  },
  {
    "kind": "{{schema-authority}}:wks:work-product-component--WellboreMarkerSet:1.2.1",
    "relativePath": "shared-schemas/osdu/work-product-component/WellboreMarkerSet.1.2.1.json"
  },
  {
    "kind": "{{schema-authority}}:wks:work-product-component--WellboreMarkerSet:1.2.0",
    "relativePath": "shared-schemas/osdu/work-product-component/WellboreMarkerSet.1.2.0.json"
  },
  {
    "kind": "{{schema-authority}}:wks:work-product-component--WellboreMarkerSet:1.1.0",
    "relativePath": "shared-schemas/osdu/work-product-component/WellboreMarkerSet.1.1.0.json"
  },
  {
    "kind": "{{schema-authority}}:wks:work-product-component--WellboreMarkerSet:1.0.0",
    "relativePath": "shared-schemas/osdu/work-product-component/WellboreMarkerSet.1.0.0.json"
  },
  {
    "kind": "{{schema-authority}}:wks:master-data--WellboreOpening:1.0.0",
    "relativePath": "shared-schemas/osdu/master-data/WellboreOpening.1.0.0.json"
  },
  {
    "kind": "{{schema-authority}}:wks:reference-data--WellboreOpeningStateType:1.0.0",
    "relativePath": "shared-schemas/osdu/reference-data/WellboreOpeningStateType.1.0.0.json"
  },
  {
    "kind": "{{schema-authority}}:wks:reference-data--WellboreReason:1.0.0",
    "relativePath": "shared-schemas/osdu/reference-data/WellboreReason.1.0.0.json"
  },
  {
    "kind": "{{schema-authority}}:wks:work-product-component--WellboreTrajectory:1.1.0",
    "relativePath": "shared-schemas/osdu/work-product-component/WellboreTrajectory.1.1.0.json"
  },
  {
    "kind": "{{schema-authority}}:wks:work-product-component--WellboreTrajectory:1.0.0",
    "relativePath": "shared-schemas/osdu/work-product-component/WellboreTrajectory.1.0.0.json"
  },
  {
    "kind": "{{schema-authority}}:wks:reference-data--WellboreTrajectoryType:1.0.0",
    "relativePath": "shared-schemas/osdu/reference-data/WellboreTrajectoryType.1.0.0.json"
  },
  {
    "kind": "{{schema-authority}}:wks:reference-data--WellheadConnection:1.0.0",
    "relativePath": "shared-schemas/osdu/reference-data/WellheadConnection.1.0.0.json"
  },
  {
    "kind": "{{schema-authority}}:wks:reference-data--WordFormatType:1.0.0",
    "relativePath": "shared-schemas/osdu/reference-data/WordFormatType.1.0.0.json"
  },
  {
    "kind": "{{schema-authority}}:wks:work-product--WorkProduct:1.0.0",
    "relativePath": "shared-schemas/osdu/work-product/WorkProduct.1.0.0.json"
  },
  {
    "kind": "{{schema-authority}}:wks:reference-data--WorkflowPersonaType:1.0.0",
    "relativePath": "shared-schemas/osdu/reference-data/WorkflowPersonaType.1.0.0.json"
  },
  {
    "kind": "{{schema-authority}}:wks:reference-data--WorkflowUsageType:1.0.0",
    "relativePath": "shared-schemas/osdu/reference-data/WorkflowUsageType.1.0.0.json"
  }
]