{
  "id": "namespace:reference-data--QualityDataRule:ValidityRule2",
  "kind": "osdu:wks:reference-data--QualityDataRule:1.1.0",
  "version": 1562066009929332,
  "acl": {
    "owners": [
      "someone@company.com"
    ],
    "viewers": [
      "someone@company.com"
    ]
  },
  "legal": {
    "legaltags": [
      "Example legaltags"
    ],
    "otherRelevantDataCountries": [
      "US"
    ],
    "status": "compliant"
  },
  "tags": {
    "NameOfKey": "String value"
  },
  "createTime": "2020-12-16T11:46:20.163Z",
  "createUser": "some-user@some-company-cloud.com",
  "modifyTime": "2020-12-16T11:52:24.477Z",
  "modifyUser": "some-user@some-company-cloud.com",
  "ancestry": {
    "parents": []
  },
  "meta": [],
  "data": {
    "Name": "Validity rule for VerticalMeasurement",
    "ExternalRuleID": "Example ExternalRuleID",
    "DataRuleStatement": "VerticalMeasurements.VerticalMeasurement should be less than 2000m when VerticalMeasurements.VerticalMeasurementTypeID is namespace:reference-data--VerticalMeasurementType:KellyBushing",
    "DataRuleRevision": "Example DataRuleRevision",
    "DataRuleStatus": "Example DataRuleStatus",
    "DataRuleCreatedOn": "2020-02-13T09:13:15.55Z",
    "DataRuleCreatedBy": "Example DataRuleCreatedBy",
    "DataRulePublishedOn": "2020-02-13T09:13:15.55Z",
    "DataRuleUpdatedOn": "2020-02-13T09:13:15.55Z",
    "DataRuleDimensionTypeID": "partition_id:reference-data--DataRuleDimensionType:Validity:",
    "ExtensionProperties": {}
  }
}
