{
  "id": "namespace:dataset--File.Generic:7c6c0a0d-9e6d-5087-bed9-106233ba57ea",
  "kind": "osdu:wks:dataset--File.Generic:1.0.0",
  "version": 1562066009929332,
  "acl": {
    "owners": [
      "someone@company.com"
    ],
    "viewers": [
      "someone@company.com"
    ]
  },
  "legal": {
    "legaltags": [
      "Example legaltags"
    ],
    "otherRelevantDataCountries": [
      "US"
    ],
    "status": "compliant"
  },
  "tags": {
    "NameOfKey": "String value"
  },
  "createTime": "2020-12-16T11:46:20.163Z",
  "createUser": "some-user@some-company-cloud.com",
  "modifyTime": "2020-12-16T11:52:24.477Z",
  "modifyUser": "some-user@some-company-cloud.com",
  "ancestry": {
    "parents": []
  },
  "meta": [],
  "data": {
    "ResourceSecurityClassification": "namespace:reference-data--ResourceSecurityClassification:RESTRICTED:",
    "Source": "Equinor",
    "Name": "Dataset no_15!9-f-11_b_LWD85section_LAS2",
    "Description": "Equinor Volve Field Data Village LAS 2.0 example truncated",
    "TotalSize": "17408",
    "SchemaFormatTypeID": "namespace:reference-data--SchemaFormatType:CWLS%20LAS2:",
    "DatasetProperties": {
      "FileSourceInfo": {
        "FileSource": "s3://default_bucket/r1/data/provided/documents/welllogs/no_15!9-f-11_b_LWD85section_LAS2_truncated.las",
        "PreloadFilePath": "s3://staging-area/r7/raw-data/provided/documents/no_15!9-f-11_b_LWD85section_LAS2_truncated.las",
        "PreloadFileCreateUser": "somebody@acme.org",
        "PreloadFileCreateDate": "2022-02-23T11:46:20.163Z",
        "PreloadFileModifyUser": "somebody.else@acme.org",
        "PreloadFileModifyDate": "2022-02-23T17:20:05.356Z",
        "Name": "no_15!9-f-11_b_LWD85section_LAS2_truncated.las",
        "FileSize": "17408"
      }
    },
    "Checksum": "d41d8cd98f00b204e9800998ecf8427e",
    "ExtensionProperties": {}
  }
}