{
  "x-osdu-license": "Copyright 2022, The Open Group \\nLicensed under the Apache License, Version 2.0 (the \"License\"); you may not use this file except in compliance with the License. You may obtain a copy of the License at http://www.apache.org/licenses/LICENSE-2.0 . Unless required by applicable law or agreed to in writing, software distributed under the License is distributed on an \"AS IS\" BASIS, WITHOUT WARRANTIES OR CONDITIONS OF ANY KIND, either express or implied. See the License for the specific language governing permissions and limitations under the License.",
  "$id": "https://schema.osdu.opengroup.org/json/master-data/ConnectedSourceDataJob.1.2.0.json",
  "$schema": "http://json-schema.org/draft-07/schema#",
  "x-osdu-schema-source": "osdu:wks:master-data--ConnectedSourceDataJob:1.2.0",
  "title": "ConnectedSourceDataJob",
  "description": "Scheduling, data fetch, and ingestion configuration for automated jobs against a registered connected data source.",
  "type": "object",
  "properties": {
    "id": {
      "description": "Previously called ResourceID or SRN which identifies this OSDU resource object without version.",
      "title": "Entity ID",
      "type": "string",
      "pattern": "^[\\w\\-\\.]+:master-data\\-\\-ConnectedSourceDataJob:[\\w\\-\\.\\:\\%]+$",
      "example": "namespace:master-data--ConnectedSourceDataJob:77f02eed-9c3a-5795-8eda-84d91cbb2614"
    },
    "kind": {
      "description": "The schema identification for the OSDU resource object following the pattern {Namespace}:{Source}:{Type}:{VersionMajor}.{VersionMinor}.{VersionPatch}. The versioning scheme follows the semantic versioning, https://semver.org/.",
      "title": "Entity Kind",
      "type": "string",
      "pattern": "^[\\w\\-\\.]+:[\\w\\-\\.]+:[\\w\\-\\.]+:[0-9]+.[0-9]+.[0-9]+$",
      "example": "osdu:wks:master-data--ConnectedSourceDataJob:1.2.0"
    },
    "version": {
      "description": "The version number of this OSDU resource; set by the framework.",
      "title": "Version Number",
      "type": "integer",
      "format": "int64",
      "example": 1562066009929332
    },
    "acl": {
      "description": "The access control tags associated with this entity.",
      "title": "Access Control List",
      "$ref": "../abstract/AbstractAccessControlList.1.0.0.json"
    },
    "legal": {
      "description": "The entity's legal tags and compliance status. The actual contents associated with the legal tags is managed by the Compliance Service.",
      "title": "Legal Tags",
      "$ref": "../abstract/AbstractLegalTags.1.0.0.json"
    },
    "tags": {
      "title": "Tag Dictionary",
      "description": "A generic dictionary of string keys mapping to string value. Only strings are permitted as keys and values.",
      "type": "object",
      "additionalProperties": {
        "type": "string"
      },
      "example": {
        "NameOfKey": "String value"
      }
    },
    "createTime": {
      "description": "Timestamp of the time at which initial version of this OSDU resource object was created. Set by the System. The value is a combined date-time string in ISO-8601 given in UTC.",
      "title": "Resource Object Creation DateTime",
      "type": "string",
      "format": "date-time",
      "example": "2020-12-16T11:46:20.163Z"
    },
    "createUser": {
      "title": "Resource Object Creation User Reference",
      "description": "The user reference, which created the first version of this resource object. Set by the System.",
      "type": "string",
      "example": "some-user@some-company-cloud.com"
    },
    "modifyTime": {
      "description": "Timestamp of the time at which this version of the OSDU resource object was created. Set by the System. The value is a combined date-time string in ISO-8601 given in UTC.",
      "title": "Resource Object Version Creation DateTime",
      "type": "string",
      "format": "date-time",
      "example": "2020-12-16T11:52:24.477Z"
    },
    "modifyUser": {
      "title": "Resource Object Version Creation User Reference",
      "description": "The user reference, which created this version of this resource object. Set by the System.",
      "type": "string",
      "example": "some-user@some-company-cloud.com"
    },
    "ancestry": {
      "description": "The links to data, which constitute the inputs, from which this record instance is derived.",
      "title": "Ancestry",
      "$ref": "../abstract/AbstractLegalParentList.1.0.0.json"
    },
    "meta": {
      "description": "The Frame of Reference meta data section linking the named properties to self-contained definitions.",
      "title": "Frame of Reference Meta Data",
      "type": "array",
      "items": {
        "$ref": "../abstract/AbstractMetaItem.1.0.0.json"
      }
    },
    "data": {
      "allOf": [
        {
          "$ref": "../abstract/AbstractCommonResources.1.0.0.json"
        },
        {
          "$ref": "../abstract/AbstractMaster.1.1.0.json"
        },
        {
          "type": "object",
          "properties": {
            "Name": {
              "type": "string",
              "title": "Name",
              "description": "Descriptive label given to a scheduled job.",
              "example": "TGS Gulf of Mexico Well Logs",
              "x-osdu-attribution-authority": "The Open Group",
              "x-osdu-attribution-publication": "The OSDU Data Platform",
              "x-osdu-attribution-revision": "Evergreen"
            },
            "ConnectedSourceRegistryEntryID": {
              "type": "string",
              "title": "Registry Data Source ID",
              "description": "ID reference of the parent Connected Source Registry Entry",
              "format": "regex",
              "example": "namespace:master-data--ConnectedSourceRegistryEntry:UniqueEntry237342:",
              "x-osdu-attribution-authority": "The Open Group",
              "x-osdu-attribution-publication": "The OSDU Data Platform",
              "x-osdu-attribution-revision": "Evergreen",
              "pattern": "^[\\w\\-\\.]+:master-data\\-\\-ConnectedSourceRegistryEntry:[\\w\\-\\.\\:\\%]+:[0-9]*$",
              "x-osdu-relationship": [
                {
                  "GroupType": "master-data",
                  "EntityType": "ConnectedSourceRegistryEntry"
                }
              ]
            },
            "ActiveIndicator": {
              "type": "boolean",
              "title": "Job Active?",
              "description": "Indicates if a scheduled job is active (will be executed) or not (won't be executed)",
              "example": true,
              "x-osdu-attribution-authority": "The Open Group",
              "x-osdu-attribution-publication": "The OSDU Data Platform",
              "x-osdu-attribution-revision": "Evergreen"
            },
            "FetchKind": {
              "type": "string",
              "title": "External Source schema",
              "description": "The data type/schema/kind of data being retrieved form the external source. The returned value should validate against the corresponding registered schema in the OSDU schema service.",
              "example": "osdu:wks:master--Wellbore:1.0.0",
              "x-osdu-attribution-authority": "The Open Group",
              "x-osdu-attribution-publication": "The OSDU Data Platform",
              "x-osdu-attribution-revision": "Evergreen"
            },
            "Filter": {
              "type": "string",
              "title": "Data filter",
              "description": "Filter applied to the data fetch request, using data members in the FetchKind schema.",
              "example": "Curves.CurveType='GR'",
              "x-osdu-attribution-authority": "The Open Group",
              "x-osdu-attribution-publication": "The OSDU Data Platform",
              "x-osdu-attribution-revision": "Evergreen"
            },
            "ConnectedSourceDataPartitionID": {
              "type": "string",
              "title": "Connected Source Data Partition ID",
              "description": "ID of the external partition containing the desired data",
              "example": "osdu",
              "x-osdu-attribution-authority": "The Open Group",
              "x-osdu-attribution-publication": "The OSDU Data Platform",
              "x-osdu-attribution-revision": "Evergreen"
            },
            "ScheduleUTC": {
              "type": "string",
              "title": "Job schedule (CRON)",
              "description": "Schedule this job should run on, in CRON format",
              "example": "0 13 * * 1",
              "x-osdu-attribution-authority": "The Open Group",
              "x-osdu-attribution-publication": "The OSDU Data Platform",
              "x-osdu-attribution-revision": "Evergreen"
            },
            "OnIngestionDataPartitionID": {
              "type": "string",
              "title": "Partition ID",
              "description": "Consumer partition the incoming data will be placed in.",
              "example": "osdu",
              "x-osdu-attribution-authority": "The Open Group",
              "x-osdu-attribution-publication": "The OSDU Data Platform",
              "x-osdu-attribution-revision": "Evergreen"
            },
            "Workflows": {
              "type": "array",
              "title": "List of workflows",
              "description": "List of workflows and their configuration used in this scheduled job",
              "example": [
                {
                  "Tag": "FETCH",
                  "Handler": "EDS_DAG_fetch_comprehensive",
                  "Parameters": [
                    {
                      "Name": "someparametername",
                      "Value": "valueofparameter"
                    },
                    {
                      "Name": "someparametername2",
                      "Value": "valueofparameter2"
                    }
                  ],
                  "Url": "https://www.tgs.com/osdu/indexSearch",
                  "SecuritySchemeName": "TGS account"
                },
                {
                  "Tag": "INGEST",
                  "Handler": "EDS_DAG_ingest_preprocessing",
                  "Parameters": [
                    {
                      "Name": "someparametername",
                      "Value": "valueofparameter"
                    },
                    {
                      "Name": "someparametername2",
                      "Value": "valueofparameter2"
                    }
                  ],
                  "Url": "null",
                  "SecuritySchemeName": "TGS account"
                }
              ],
              "x-osdu-attribution-authority": "The Open Group",
              "x-osdu-attribution-publication": "The OSDU Data Platform",
              "x-osdu-attribution-revision": "Evergreen",
              "items": {
                "type": "object",
                "title": "Workflow",
                "description": "A workflow configuration in the context of a scheduled job.",
                "properties": {
                  "Tag": {
                    "type": "string",
                    "title": "Tag",
                    "description": "Tag given to a workflow category, such as Fetch, Ingest, Delivery",
                    "x-osdu-attribution-authority": "The Open Group",
                    "x-osdu-attribution-publication": "The OSDU Data Platform",
                    "x-osdu-attribution-revision": "Evergreen"
                  },
                  "Handler": {
                    "type": "string",
                    "title": "Handler",
                    "description": "Allows creation of a specific handler DAG for the source type",
                    "x-osdu-attribution-authority": "The Open Group",
                    "x-osdu-attribution-publication": "The OSDU Data Platform",
                    "x-osdu-attribution-revision": "Evergreen"
                  },
                  "Parameters": {
                    "type": "array",
                    "title": "Parameters",
                    "description": "Name value or object Id",
                    "x-osdu-attribution-authority": "The Open Group",
                    "x-osdu-attribution-publication": "The OSDU Data Platform",
                    "x-osdu-attribution-revision": "Evergreen",
                    "items": {
                      "type": "object",
                      "title": "Workflow Parameter",
                      "description": "Parameter name value pair.",
                      "properties": {
                        "Name": {
                          "type": "string",
                          "title": "Parameter name",
                          "description": "Name of the parameter the handler expects",
                          "x-osdu-attribution-authority": "The Open Group",
                          "x-osdu-attribution-publication": "The OSDU Data Platform",
                          "x-osdu-attribution-revision": "Evergreen"
                        },
                        "Value": {
                          "type": "string",
                          "title": "Parameter value",
                          "description": "Value of the parameter the handler expects",
                          "x-osdu-attribution-authority": "The Open Group",
                          "x-osdu-attribution-publication": "The OSDU Data Platform",
                          "x-osdu-attribution-revision": "Evergreen"
                        }
                      }
                    }
                  },
                  "Url": {
                    "type": "string",
                    "title": "Endpoint",
                    "description": "Data source endpoint used in workflow",
                    "x-osdu-attribution-authority": "The Open Group",
                    "x-osdu-attribution-publication": "The OSDU Data Platform",
                    "x-osdu-attribution-revision": "Evergreen"
                  },
                  "SecuritySchemeName": {
                    "type": "string",
                    "title": "Security Scheme Name",
                    "description": "Reference name for the security scheme in the ConnectedSourceRegistryEntry document this scheduled job belongs to.",
                    "x-osdu-attribution-authority": "The Open Group",
                    "x-osdu-attribution-publication": "The OSDU Data Platform",
                    "x-osdu-attribution-revision": "Evergreen"
                  }
                },
                "required": [
                  "SecuritySchemeName"
                ]
              }
            },
            "OnIngestionLegalTags": {
              "$ref": "../abstract/AbstractLegalTags.1.0.0.json",
              "title": "List of legal tags used in ingestion",
              "description": "List of legal tags to be injected into the manifests of external data before ingestion",
              "x-osdu-attribution-authority": "The Open Group",
              "x-osdu-attribution-publication": "The OSDU Data Platform",
              "x-osdu-attribution-revision": "Evergreen"
            },
            "OnIngestionAcl": {
              "$ref": "../abstract/AbstractAccessControlList.1.0.0.json",
              "title": "List of access control lists used in ingestion",
              "description": "List of access control lists (ACLs) to be injected into the manifests of external data before ingestion",
              "example": {
                "owners": [
                  "osdudatamanagers@mycompany.com",
                  "osduadmins@mycompany.com"
                ],
                "viewers": [
                  "osdupublic@mmycompany.com"
                ]
              },
              "x-osdu-attribution-authority": "The Open Group",
              "x-osdu-attribution-publication": "The OSDU Data Platform",
              "x-osdu-attribution-revision": "Evergreen"
            },
            "LastSuccessfulRunDateUTC": {
              "type": "string",
              "title": "Last successful run (UTC)",
              "description": "The last successful run date of the job (UTC)",
              "format": "date-time",
              "example": "2020-02-01T09:28:56.321-10:00",
              "x-osdu-attribution-authority": "The Open Group",
              "x-osdu-attribution-publication": "The OSDU Data Platform",
              "x-osdu-attribution-revision": "Evergreen"
            },
            "LimitRecords": {
              "type": "integer",
              "title": "Limit Records",
              "description": "The maximum number of records to be processed in this job.",
              "example": 10000
            },
            "FailedRecords": {
              "type": "array",
              "title": "Failed Record List",
              "description": "A temporary solution before these references are stored in a related, external record for scalability: The data type/schema/kind of data being retrieved form the external source. The failed records list which is retrieved from the external source.",
              "example": [
                "master-data--Well:AutoTest_999627606747",
                "master-data--Well:AutoTest_999759740759"
              ],
              "x-osdu-attribution-authority": "The Open Group",
              "x-osdu-attribution-publication": "The OSDU Data Platform",
              "x-osdu-attribution-revision": "Evergreen",
              "items": {
                "type": "string"
              }
            },
            "OnIngestionSchemaAuthority": {
              "type": "string",
              "title": "Target system schema authority",
              "description": "Consumer schema authority for the incoming data will be placed in.",
              "example": "osdu",
              "x-osdu-attribution-authority": "The Open Group",
              "x-osdu-attribution-publication": "The OSDU Data Platform",
              "x-osdu-attribution-revision": "Evergreen"
            },
            "CreateTimeMax": {
              "type": "string",
              "title": "Max Create/Update Time for Data Records",
              "description": "The maximum create/update time for data records (UTC).",
              "format": "date-time",
              "example": "2020-02-01T09:28:56.321-10:00",
              "x-osdu-frame-of-reference": "DateTime",
              "x-osdu-attribution-authority": "The Open Group",
              "x-osdu-attribution-publication": "The OSDU Data Platform",
              "x-osdu-attribution-revision": "Evergreen"
            }
          },
          "required": [
            "Name",
            "ConnectedSourceRegistryEntryID",
            "ActiveIndicator",
            "FetchKind",
            "Filter",
            "ConnectedSourceDataPartitionID",
            "ScheduleUTC",
            "OnIngestionDataPartitionID"
          ],
          "title": "IndividualProperties"
        },
        {
          "type": "object",
          "properties": {
            "ExtensionProperties": {
              "type": "object"
            }
          },
          "title": "ExtensionProperties"
        }
      ]
    }
  },
  "required": [
    "kind",
    "acl",
    "legal"
  ],
  "additionalProperties": false,
  "x-osdu-review-status": "Accepted",
  "x-osdu-virtual-properties": {
    "data.VirtualProperties.DefaultLocation": {
      "type": "object",
      "priority": [
        {
          "path": "data.SpatialLocation"
        }
      ]
    },
    "data.VirtualProperties.DefaultName": {
      "type": "string",
      "priority": [
        {
          "path": "data.Name"
        }
      ]
    }
  },
  "x-osdu-inheriting-from-kind": []
}