{
  "x-osdu-license": "Copyright 2022, The Open Group \\nLicensed under the Apache License, Version 2.0 (the \"License\"); you may not use this file except in compliance with the License. You may obtain a copy of the License at http://www.apache.org/licenses/LICENSE-2.0 . Unless required by applicable law or agreed to in writing, software distributed under the License is distributed on an \"AS IS\" BASIS, WITHOUT WARRANTIES OR CONDITIONS OF ANY KIND, either express or implied. See the License for the specific language governing permissions and limitations under the License.",
  "$id": "https://schema.osdu.opengroup.org/json/work-product-component/RockImage.1.0.0.json",
  "$schema": "http://json-schema.org/draft-07/schema#",
  "x-osdu-schema-source": "osdu:wks:work-product-component--RockImage:1.0.0",
  "title": "RockImage",
  "description": "An image taken of a rock sample such as a core, sidewall core or thin section slide. An image could be a photograph, scan, etc representing a visual representation of the rock sample.",
  "type": "object",
  "properties": {
    "id": {
      "description": "Previously called ResourceID or SRN which identifies this OSDU resource object without version.",
      "title": "Entity ID",
      "type": "string",
      "pattern": "^[\\w\\-\\.]+:work-product-component\\-\\-RockImage:[\\w\\-\\.\\:\\%]+$",
      "example": "namespace:work-product-component--RockImage:b92f5747-63a5-54e7-b994-313e0b01caf1"
    },
    "kind": {
      "description": "The schema identification for the OSDU resource object following the pattern {Namespace}:{Source}:{Type}:{VersionMajor}.{VersionMinor}.{VersionPatch}. The versioning scheme follows the semantic versioning, https://semver.org/.",
      "title": "Entity Kind",
      "type": "string",
      "pattern": "^[\\w\\-\\.]+:[\\w\\-\\.]+:[\\w\\-\\.]+:[0-9]+.[0-9]+.[0-9]+$",
      "example": "osdu:wks:work-product-component--RockImage:1.0.0"
    },
    "version": {
      "description": "The version number of this OSDU resource; set by the framework.",
      "title": "Version Number",
      "type": "integer",
      "format": "int64",
      "example": 1562066009929332
    },
    "acl": {
      "description": "The access control tags associated with this entity.",
      "title": "Access Control List",
      "$ref": "../abstract/AbstractAccessControlList.1.0.0.json"
    },
    "legal": {
      "description": "The entity's legal tags and compliance status. The actual contents associated with the legal tags is managed by the Compliance Service.",
      "title": "Legal Tags",
      "$ref": "../abstract/AbstractLegalTags.1.0.0.json"
    },
    "tags": {
      "title": "Tag Dictionary",
      "description": "A generic dictionary of string keys mapping to string value. Only strings are permitted as keys and values.",
      "type": "object",
      "additionalProperties": {
        "type": "string"
      },
      "example": {
        "NameOfKey": "String value"
      }
    },
    "createTime": {
      "description": "Timestamp of the time at which initial version of this OSDU resource object was created. Set by the System. The value is a combined date-time string in ISO-8601 given in UTC.",
      "title": "Resource Object Creation DateTime",
      "type": "string",
      "format": "date-time",
      "example": "2020-12-16T11:46:20.163Z"
    },
    "createUser": {
      "title": "Resource Object Creation User Reference",
      "description": "The user reference, which created the first version of this resource object. Set by the System.",
      "type": "string",
      "example": "some-user@some-company-cloud.com"
    },
    "modifyTime": {
      "description": "Timestamp of the time at which this version of the OSDU resource object was created. Set by the System. The value is a combined date-time string in ISO-8601 given in UTC.",
      "title": "Resource Object Version Creation DateTime",
      "type": "string",
      "format": "date-time",
      "example": "2020-12-16T11:52:24.477Z"
    },
    "modifyUser": {
      "title": "Resource Object Version Creation User Reference",
      "description": "The user reference, which created this version of this resource object. Set by the System.",
      "type": "string",
      "example": "some-user@some-company-cloud.com"
    },
    "ancestry": {
      "description": "The links to data, which constitute the inputs, from which this record instance is derived.",
      "title": "Ancestry",
      "$ref": "../abstract/AbstractLegalParentList.1.0.0.json"
    },
    "meta": {
      "description": "The Frame of Reference meta data section linking the named properties to self-contained definitions.",
      "title": "Frame of Reference Meta Data",
      "type": "array",
      "items": {
        "$ref": "../abstract/AbstractMetaItem.1.0.0.json"
      }
    },
    "data": {
      "allOf": [
        {
          "$ref": "../abstract/AbstractCommonResources.1.0.0.json"
        },
        {
          "$ref": "../abstract/AbstractWPCGroupType.1.0.0.json"
        },
        {
          "$ref": "../abstract/AbstractWorkProductComponent.1.1.0.json"
        },
        {
          "type": "object",
          "properties": {
            "RockSampleIDs": {
              "type": "array",
              "title": "RockSampleID",
              "description": "The rock sample that this image relates to. One or many RockSample are permitted. Preferred relationship",
              "items": {
                "type": "string",
                "pattern": "^[\\w\\-\\.]+:master-data\\-\\-RockSample:[\\w\\-\\.\\:\\%]+:[0-9]*$",
                "x-osdu-relationship": [
                  {
                    "GroupType": "master-data",
                    "EntityType": "RockSample"
                  }
                ]
              }
            },
            "WellboreID": {
              "type": "string",
              "title": "WellboreID",
              "description": "The associated wellbore. Optional relationship if RockSampleID is populated and WellboreID is populated",
              "pattern": "^[\\w\\-\\.]+:master-data\\-\\-Wellbore:[\\w\\-\\.\\:\\%]+:[0-9]*$",
              "x-osdu-relationship": [
                {
                  "GroupType": "master-data",
                  "EntityType": "Wellbore"
                }
              ]
            },
            "CoringID": {
              "type": "string",
              "title": "CoringID",
              "description": "The associated coring activity. Optional relationship if RockSampleID is populated and CoringID is populated",
              "pattern": "^[\\w\\-\\.]+:master-data\\-\\-Coring:[\\w\\-\\.\\:\\%]+:[0-9]*$",
              "x-osdu-relationship": [
                {
                  "GroupType": "master-data",
                  "EntityType": "Coring"
                }
              ]
            },
            "RockImageTypeID": {
              "type": "string",
              "title": "Rock Image Type ID",
              "description": "The type of rock image. Examples include Photograph, Computed Tomography (CT), Thin Section, etc",
              "pattern": "^[\\w\\-\\.]+:reference-data\\-\\-RockImageType:[\\w\\-\\.\\:\\%]+:[0-9]*$",
              "x-osdu-relationship": [
                {
                  "GroupType": "reference-data",
                  "EntityType": "RockImageType"
                }
              ]
            },
            "TopDepthMeasuredDepth": {
              "type": "number",
              "title": "Top Depth Measured Depth",
              "description": "The measured top depth in a wellbore relevant to the image. For a singular point depth the top and base depth should be the same",
              "example": 3000,
              "x-osdu-frame-of-reference": "UOM:length"
            },
            "BaseDepthMeasuredDepth": {
              "type": "number",
              "title": "Base Depth Measured Depth",
              "description": "The measured base depth in a wellbore relevant to the image. For a singular point depth the top and base depth should be the same",
              "example": 3000,
              "x-osdu-frame-of-reference": "UOM:length"
            },
            "DepthShiftID": {
              "type": "string",
              "title": "Depth Shift ID",
              "description": "The WellLog representation carrying the preferred sample-depth to logging-depth correction or mapping",
              "pattern": "^[\\w\\-\\.]+:work-product-component\\-\\-WellLog:[\\w\\-\\.\\:\\%]+:[0-9]*$",
              "x-osdu-relationship": [
                {
                  "GroupType": "work-product-component",
                  "EntityType": "WellLog"
                }
              ]
            },
            "AcquisitionDate": {
              "type": "string",
              "title": "Acquisition Date",
              "description": "The date the image was originally taken or acquired",
              "format": "date",
              "example": "2022-09-09",
              "x-osdu-frame-of-reference": "DateTime"
            },
            "ServiceCompanyID": {
              "type": "string",
              "title": "Service CompanyID",
              "description": "The organisation or contractor that originally took or acquired the image",
              "pattern": "^[\\w\\-\\.]+:master-data\\-\\-Organisation:[\\w\\-\\.\\:\\%]+:[0-9]*$",
              "x-osdu-relationship": [
                {
                  "GroupType": "master-data",
                  "EntityType": "Organisation"
                }
              ]
            },
            "ReferenceIdentifier": {
              "type": "string",
              "title": "Image Reference Identifier",
              "description": "Unique or Distinctive Image Reference Number, Job Number, File Number, Identifier, Label, Name, etc. Typically given by the original image acquisition supplier and as indicated in the report or file. Use this attribute to allow correlation back to the original source document, file, etc.",
              "example": "X12A"
            },
            "Remark": {
              "type": "string",
              "title": "Remark",
              "description": "Remarks regarding the image acquisition and or processing environment or parameters",
              "example": "Natural light. Taken in the field."
            },
            "FormatInterval": {
              "type": "number",
              "title": "Format Interval",
              "description": "The interval included in the image. Typically used for conventional core. For example 1m or 4m",
              "example": 4,
              "x-osdu-frame-of-reference": "UOM:length"
            },
            "TextualHeader": {
              "type": "array",
              "title": "Textual Header",
              "description": "A free text array to capture the image file header or image parameters for knowledge capture, index and search purposes. Header values can be extracted from, e.g., Exchangeable Image File Format (EXIF) properties, Digital Imaging and Communications in Medicine (DICOM) header properties (such as x-ray intensity) and etc.",
              "example": [
                "File Size: 322 kB\nFile Type: JPEG\nMIME Type: image/jpeg\nImage Width: 1231\nImage Height: 927\nEncoding Process: Baseline DCT, Huffman coding\nBits Per Sample: 8\nColor Components: 3\nX Resolution: 1\nY Resolution: 1\nSoftware: Google\nYCbCr Sub Sampling: YCbCr4:2:0 (2 2)"
              ],
              "items": {
                "type": "string"
              }
            },
            "LightingConditionID": {
              "type": "string",
              "title": "Lighting Condition ID",
              "description": "The type of lighting conditions captured in the image. Examples include Ultraviolet, White, Natural, etc",
              "pattern": "^[\\w\\-\\.]+:reference-data\\-\\-ImageLightingCondition:[\\w\\-\\.\\:\\%]+:[0-9]*$",
              "x-osdu-relationship": [
                {
                  "GroupType": "reference-data",
                  "EntityType": "ImageLightingCondition"
                }
              ]
            },
            "Magnification": {
              "type": "number",
              "title": "Magnification",
              "description": "Magnification of the image",
              "example": 5
            }
          },
          "title": "IndividualProperties"
        },
        {
          "type": "object",
          "properties": {
            "ExtensionProperties": {
              "type": "object"
            }
          },
          "title": "ExtensionProperties"
        }
      ]
    }
  },
  "required": [
    "kind",
    "acl",
    "legal"
  ],
  "additionalProperties": false,
  "x-osdu-review-status": "Accepted",
  "x-osdu-supported-file-formats": [
    "JPEG",
    "PNG",
    "TIFF",
    "DICOM"
  ],
  "x-osdu-virtual-properties": {
    "data.VirtualProperties.DefaultName": {
      "type": "string",
      "priority": [
        {
          "path": "data.Name"
        }
      ]
    },
    "data.VirtualProperties.DefaultLocation": {
      "type": "object",
      "priority": [
        {
          "path": "data.SpatialArea"
        },
        {
          "path": "data.SpatialPoint"
        }
      ]
    }
  },
  "x-osdu-inheriting-from-kind": [
    {
      "name": "WorkProductComponent",
      "kind": "osdu:wks:AbstractWPCGroupType:1.0.0"
    }
  ]
}