{
  "id": "partition-id:work-product-component--HorizonInterpretation:Top-Skagerrak-",
  "kind": "osdu:wks:work-product-component--HorizonInterpretation:1.0.0",
  "version": 1608119544929332,
  "acl": {
    "owners": [
      "someone@company.com"
    ],
    "viewers": [
      "someone@company.com"
    ]
  },
  "legal": {
    "legaltags": [
      "Example legaltags"
    ],
    "otherRelevantDataCountries": [
      "US"
    ],
    "status": "compliant"
  },
  "createTime": "2020-12-16T11:46:20.163Z",
  "createUser": "some-user@some-company-cloud.com",
  "modifyTime": "2020-12-16T11:52:24.477Z",
  "modifyUser": "some-user@some-company-cloud.com",
  "ancestry": {
    "parents": []
  },
  "meta": [],
  "data": {
    "IsDiscoverable": true,
    "Name": "Top Skagerrak",
    "Description": "Top Skagerrak boundary surface interpretation.",
    "CreationDateTime": "2020-02-13T09:13:15.55Z",
    "GeoContexts": [
      {
        "FieldID": "partition-id:master-data--Field:Gudrun:",
        "GeoTypeID": "Field"
      }
    ],
    "OlderPossibleAge": 201.3,
    "YoungerPossibleAge": 201.3,
    "FeatureID": "partition-id:work-product-component--LocalBoundaryFeature:Top-Skagerrak-:",
    "FeatureName": "Top Skagerrak",
    "isConformableAbove": true,
    "isConformableBelow": true,
    "StratigraphicRoleTypeID": "partition-id:reference-data--StratigraphicRoleType:Lithostratigraphic:",
    "SequenceStratigraphySurfaceTypeID": "partition-id:reference-data--SequenceStratigraphySurfaceType:MaximumFlooding:",
    "ExtensionProperties": {}
  }
}