{
  "id": "partition-id:work-product-component--RockSampleAnalysis:KKS1-DrySieve-KK-37",
  "kind": "osdu:wks:work-product-component--RockSampleAnalysis:1.1.0",
  "meta": [
    {
      "kind": "Unit",
      "name": "m",
      "persistableReference": "{\"abcd\":{\"a\":0.0,\"b\":1.0,\"c\":1.0,\"d\":0.0},\"symbol\":\"m\",\"baseMeasurement\":{\"ancestry\":\"L\",\"type\":\"UM\"},\"type\":\"UAD\"}",
      "unitOfMeasureID": "partition-id:reference-data--UnitOfMeasure:m:",
      "propertyNames": [
        "TopDepth",
        "BottomDepth"
      ]
    },
    {
      "kind": "Unit",
      "name": "mm",
        "persistableReference": "{\"abcd\":{\"a\":0.0,\"b\":0.001,\"c\":1.0,\"d\":0.0},\"symbol\":\"mm\",\"baseMeasurement\":{\"ancestry\":\"L\",\"type\":\"UM\"},\"type\":\"UAD\"}",
      "unitOfMeasureID": "partition-id:reference-data--UnitOfMeasure:mm:",
      "propertyNames": [
        "MedianGrainSize"
      ]
    }
  ],
  "data": {
    "Datasets": [
      "partition-id:dataset--File.Generic:WellCompletionReport-KentishKnockSouth1-Terratek-DrySieve-904833:"
    ],
    "Artefacts": [],
    "IsExtendedLoad": true,
    "IsDiscoverable": true,
    "Description": "Any additional description for sample KK-37",
    "CreationDateTime": "2020-02-13T09:13:15.55Z",
    "Tags": [
      "Example Tags"
    ],
    "SpatialPoint": {
      "AsIngestedCoordinates": {
        "type": "AnyCrsFeatureCollection",
        "CoordinateReferenceSystemID": "partition-id:reference-data--CoordinateReferenceSystem:BoundProjected:EPSG::28349_EPSG::1150:",
        "persistableReferenceCrs": "{\"authCode\":{\"auth\":\"OSDU\",\"code\":\"28349001\"},\"lateBoundCRS\":{\"authCode\":{\"auth\":\"EPSG\",\"code\":\"28349\"},\"name\":\"GDA_1994_MGA_Zone_49\",\"type\":\"LBC\",\"ver\":\"PE_10_9_1\",\"wkt\":\"PROJCS[\\\"GDA_1994_MGA_Zone_49\\\",GEOGCS[\\\"GCS_GDA_1994\\\",DATUM[\\\"D_GDA_1994\\\",SPHEROID[\\\"GRS_1980\\\",6378137.0,298.257222101]],PRIMEM[\\\"Greenwich\\\",0.0],UNIT[\\\"Degree\\\",0.0174532925199433]],PROJECTION[\\\"Transverse_Mercator\\\"],PARAMETER[\\\"False_Easting\\\",500000.0],PARAMETER[\\\"False_Northing\\\",10000000.0],PARAMETER[\\\"Central_Meridian\\\",111.0],PARAMETER[\\\"Scale_Factor\\\",0.9996],PARAMETER[\\\"Latitude_Of_Origin\\\",0.0],UNIT[\\\"Meter\\\",1.0],AUTHORITY[\\\"EPSG\\\",28349]]\"},\"name\":\"GDA94 * EPSG-Aus / Map Grid of Australia zone 49 [28349,1150]\",\"singleCT\":{\"authCode\":{\"auth\":\"EPSG\",\"code\":\"1150\"},\"name\":\"GDA_1994_To_WGS_1984\",\"type\":\"ST\",\"ver\":\"PE_10_9_1\",\"wkt\":\"GEOGTRAN[\\\"GDA_1994_To_WGS_1984\\\",GEOGCS[\\\"GCS_GDA_1994\\\",DATUM[\\\"D_GDA_1994\\\",SPHEROID[\\\"GRS_1980\\\",6378137.0,298.257222101]],PRIMEM[\\\"Greenwich\\\",0.0],UNIT[\\\"Degree\\\",0.0174532925199433]],GEOGCS[\\\"GCS_WGS_1984\\\",DATUM[\\\"D_WGS_1984\\\",SPHEROID[\\\"WGS_1984\\\",6378137.0,298.257223563]],PRIMEM[\\\"Greenwich\\\",0.0],UNIT[\\\"Degree\\\",0.0174532925199433]],METHOD[\\\"Position_Vector\\\"],PARAMETER[\\\"X_Axis_Translation\\\",0.0],PARAMETER[\\\"Y_Axis_Translation\\\",0.0],PARAMETER[\\\"Z_Axis_Translation\\\",0.0],PARAMETER[\\\"X_Axis_Rotation\\\",0.0],PARAMETER[\\\"Y_Axis_Rotation\\\",0.0],PARAMETER[\\\"Z_Axis_Rotation\\\",0.0],PARAMETER[\\\"Scale_Difference\\\",0.0],OPERATIONACCURACY[3.2],AUTHORITY[\\\"EPSG\\\",1150]]\"},\"type\":\"EBC\",\"ver\":\"PE_10_9_1\"}",
        "features": [
          {
            "type": "AnyCrsFeature",
            "geometry": {
              "type": "AnyCrsPoint",
              "coordinates": [
                689960.85,
                7811747.53
              ]
            },
            "properties": {}
          }
        ]
      },
      "Wgs84Coordinates": {
        "type": "FeatureCollection",
        "features": [
          {
            "type": "Feature",
            "geometry": {
              "type": "Point",
              "coordinates": [
                112.81324757107716,
                -19.7808907610266
              ]
            },
            "properties": {}
          }
        ]
      },
      "AppliedOperations": [
        "conversion from GDA_1994_MGA_Zone_49 to GCS_GDA_1994; 1 points converted",
        "transformation GCS_GDA_1994 to GCS_WGS_1984 using GDA_1994_To_WGS_1984; 1 points successfully transformed"
      ]
    },
    "GeoContexts": [
      {
        "GeoPoliticalEntityID": "partition-id:master-data--GeoPoliticalEntity:3298:",
        "GeoTypeID": "partition-id:reference-data--GeoPoliticalEntityType:BlockID:"
      },
      {
        "BasinID": "partition-id:master-data--Basin:Carnarvon:",
        "GeoTypeID": "partition-id:reference-data--BasinType:PassiveMargin:"
      },
      {
        "FieldID": "partition-id:master-data--Field:Gorgon:",
        "GeoTypeID": "Field"
      }
    ],
    "SubmitterName": "Terratek Australia",
    "BusinessActivities": [
      "Rock Sample Analysis"
    ],
    "AuthorIDs": [],
    "LineageAssertions": [
      {
        "ID": "partition-id:dataset--File.Generic:WellCompletionReport-KentishKnockSouth1-Terratek-DrySieve-904833:",
        "LineageRelationshipType": "partition-id:reference-data--LineageRelationshipType:Direct:"
      }
    ],
    "WellboreID": "partition-id:master-data--Wellbore:KKS1:",
    "CoringID": "partition-id:master-data--Coring:KKS1-Core-2:",
    "Name": "KK-37",
    "LabSampleIdentifier": "KK-37",
    "VerticalMeasurement": {
      "VerticalReferenceID": "ZDP",
      "VerticalMeasurement": 0.0,
      "VerticalMeasurementPathID": "partition-id:reference-data--VerticalMeasurementPath:MeasuredDepth:",
      "VerticalMeasurementSourceID": "partition-id:reference-data--VerticalMeasurementSource:DRL:",
      "VerticalMeasurementDescription": "Same vertical reference as wellbore ZDP, Measured Depth, Drillers Depth."
    },
    "AnalysisDate": "2013-04-29",
    "TopDepth": 2435.15,
    "BottomDepth": 2435.15,
    "DepthShiftsID": "partition-id:work-product-component--WellLog:WellLog-911bb71f-06ab-4deb-8e68-b8c9229dc76b:",
    "AnalysisTypeIDs":["partition-id:reference-data--RockSampleAnalysisType:GrainSizeAnalysis:"],
    "GrainSizeAnalysis": {
      "GrainSizeMethodTypeID": "namespace:reference-data--GrainSizeAnalysisMethod:SieveAnalysis:",
      "GrainSizeClassificationSchemeID": "namespace:reference-data--GrainSizeClassificationScheme:WesternAustraliaOffshore-6-Classes:",
      "MeanGrainSizeClassificationID": "namespace:reference-data--GrainSizeClassification:ISO.Sand.FineSand:",
      "MedianGrainSize": 0.306
    },
    "Parameters": [],
    "Remarks": [
      {
        "RemarkID": "Remark1",
        "Remark": "The associated dataset contains many analyses. Use the LabSampleIdentifier KK-37 to associate the correct analysis sheet.",
        "RemarkSource": "Terratek"
      }
    ],
    "ExtensionProperties": {}
  },
  "version": 1562066009929332,
  "acl": {
    "owners": [
      "someone@company.com"
    ],
    "viewers": [
      "someone@company.com"
    ]
  },
  "legal": {
    "legaltags": [
      "Example legaltags"
    ],
    "otherRelevantDataCountries": [
      "US"
    ],
    "status": "compliant"
  },
  "tags": {
    "NameOfKey": "String value"
  },
  "createTime": "2020-12-16T11:46:20.163Z",
  "createUser": "some-user@some-company-cloud.com",
  "modifyTime": "2020-12-16T11:52:24.477Z",
  "modifyUser": "some-user@some-company-cloud.com",
  "ancestry": {
    "parents": []
  }
}